<?xml version="1.0" encoding="utf-8"?>
<!-- Generator: Adobe Illustrator 21.0.0, SVG Export Plug-In . SVG Version: 6.00 Build 0)  -->
<svg version="1.1" id="Layer_1" xmlns="http://www.w3.org/2000/svg" xmlns:xlink="http://www.w3.org/1999/xlink" x="0px" y="0px"
	 viewBox="0 0 157 57.8" style="enable-background:new 0 0 157 57.8;" xml:space="preserve">
<style type="text/css">
	.st0{fill:#FCBB6D;stroke:#754D25;stroke-width:2;stroke-miterlimit:10;}
	.st1{fill:#754D25;}
</style>
<g>
	<path class="st0" d="M156,8.9v40c0,4.4-3.5,7.9-7.9,7.9H8.9c-4.4,0-7.9-3.5-7.9-7.9v-40C1,4.5,4.6,1,8.9,1h139.2
		C152.5,1,156,4.6,156,8.9z"/>
	<g>
		<g>
			<path class="st1" d="M29.9,42h-1.2l-0.8-0.1l-0.8-0.3l-0.3-0.5v-0.5V40v-1.1v-0.5v-0.6v-3.6v-0.5l0.1-1.1l-0.1-0.7v-0.5l-0.1-0.6
				l0.1-0.6l-0.1-0.5l0.1-1.2v-3l-0.1-0.9l0.1-0.5v-0.8v-0.6v-0.5v-1.9l-0.1-0.5v-0.7v-0.4v-0.6v-0.6l0.3-0.7l0.5-0.2h0.6l0.6-0.1
				h1.9l0.5-0.1h0.7l0.6,0.1l0.5-0.1l0.6,0.1l1.2-0.1h0.5h1.3l0.5,0.1l0.6,0.3l0.4,0.4v0.5l-0.3,0.6l-0.6,0.2h-0.7h-0.5l-0.5,0.1
				l-0.5-0.1l-2.4,0.2l-1.2-0.2h-0.7l-0.5,0.1l-0.6,0.2l-0.4,0.6V20v0.6l0.1,1.2l-0.1,0.6l0.1,0.7l-0.1,0.7v1.8l0.3,0.5l0.9,0.3h2.3
				l1.7,0.3l0.5,0.1l0.5,0.3l0.5,0.2l0.4,0.4l0.4,0.3l0.5,0.5l0.7,0.9l0.7,1.6l0.1,0.6l0.3,1l0.1,0.6v1.7l-0.1,0.7v0.5l-0.3,1.1
				l-0.2,0.5l-0.2,0.5L38,38.7l-0.3,0.4l-0.4,0.5l-0.4,0.5l-1.3,1.2l-0.5,0.2l-1.2,0.4h-0.5L32.9,42H32l-0.8-0.1L30.5,42H29.9z
				 M30.7,39.9h1.9l0.6-0.2h0.5l0.6-0.3l0.9-0.6l0.6-0.9l0.1-0.6l0.3-0.5l0.1-0.6v-0.7l0.1-0.6l-0.1-0.8v-0.9v-0.6l0-0.6l-0.1-0.5
				L36.1,31l-0.3-0.5L35.5,30l-0.4-0.4l-0.4-0.4L34.2,29l-0.4-0.3l-0.7-0.2h-0.8l-0.5-0.1L31,28.3l-1.1,0.1l-0.5,0.2l-0.3,0.8v0.5
				v0.9v1.5v0.6l0.1,0.8l-0.1,0.7l0.1,0.6l-0.1,0.5V36L29,36.8l0.1,0.7V39l0.3,0.6l0.5,0.3L30.7,39.9z"/>
			<path class="st1" d="M41.6,41.6L41.5,41l0.7-2.8l0.2-0.5l0.1-0.6l0.2-0.5l0.7-3.5l0.5-1.6L44,31l0.5-2.4l0.1-0.5L45,27l0.1-0.5
				l0.8-2.9v-0.5l0.3-0.6l0.2-1.2l0.3-1.2l0.2-0.4l0.1-0.6l0.1-0.6l0.4-1.2l0.4-0.5l0.7-0.3l0.6-0.1l0.5,0.1l0.6,0.3l0.4,0.5
				l0.2,0.6l0.1,0.7l0.5,1.7l0.2,1.1l0.7,2.1l0.3,1.8l0.2,0.5l0.1,0.7l0.6,2.2l0.1,0.6l0.6,2.3l0.1,0.7l0.2,0.5v0.6l0.5,1.7l0.1,1.1
				l0.2,0.7v0.4l0.7,2.3l0.4,1.8L56.3,42h-0.7h-0.7l-0.7-0.4l-0.5-0.5L53.6,40l-0.1-0.6l-0.2-0.5l-0.2-1.3L52.8,37l-0.1-0.6
				l-0.3-1.1L52,34.6l-0.6-0.3h-1.7l-0.9-0.1H48l-0.4,0.2h-1.2l-0.7,0.3l-0.4,0.7l-1.2,5.3l-0.2,0.5l-0.4,0.5L42.9,42h-0.7
				L41.6,41.6z M49.8,32.3h1.1l0.5-0.2l0.1-0.6l-0.3-1.2l-0.1-0.6L51,29.1l-0.1-0.4l-0.2-0.5l-0.1-0.6L50.5,27l-0.3-0.5l-0.1-1.2
				l-0.3-1l-0.1-0.8l-0.4-1.6l-0.1-1.2l-0.3-1.2l-0.1-0.1l-0.3,1.2l-0.4,2.5l-0.2,0.4l-0.3,1.9v0.5l-0.2,0.6L47.3,27L47,28.1v0.7
				l-0.1,0.5l-0.4,1V31l-0.1,0.5l0.1,0.7l0.5,0.2h0.6h0.5l1.2,0.1L49.8,32.3z"/>
			<path class="st1" d="M65.9,42H65h-0.6h-0.5h-0.6h-1.2h-1.2l-0.5-0.3l-0.2-0.6l-0.1-0.6v-1.3v-0.5L60,33.4l0.1-1.1L60,31.7v-2.4
				v-0.6l0.1-0.5l0-2.2l0.1-0.6L60.1,23l0.1-0.9v-1.4l-0.1-0.6l0.1-0.6V19l-0.1-1.7l0.3-0.5l0.5-0.3l0.6-0.1l0.7,0.3l0.4,0.5
				l0.1,0.5v0.6l-0.1,0.5l0.1,0.6L62.6,20v0.5l0.1,0.5v5.3v0.5v0.6v1.2l-0.1,1.8l0.1,0.5l-0.1,0.5l0.1,1.2l-0.1,0.5v1.3l-0.1,1.7
				l0.1,0.8l-0.1,1.4V39l0.3,0.5l0.5,0.3l4.8,0.1l0.6-0.2l0.4-0.7l0-7l0.1-0.5l-0.1-1.1l0.1-0.6v-2.9v-0.6v-1.8l0.1-0.5l-0.1-2.1
				l0.1-1.5l-0.1-0.6v-0.5v-0.7l0.1-0.5v-0.7l0.4-0.6l0.9-0.3l0.8,0.4l0.3,0.5l0.1,2.3l-0.1,0.6V21v0.5v0.6l0.1,0.7l-0.1,0.9v0.4
				l0.1,1.6v0.5v2.9l0.1,0.6l-0.1,1.2V32l0.1,0.7v0.9l0.1,0.9l-0.1,1.1l0.1,0.7l-0.1,1.2l0.1,1.1l-0.1,0.5l0.3,0.6l0.6,0.3h0.9
				l1.5-0.1L76,40h1.6l0.6-0.3l0.3-0.7v-2.4v-0.4V35l-0.1-0.7l0.1-1.7L78.1,32l0.1-0.4l-0.1-3.1l0.1-1l-0.1-4.2l0.1-0.6v-0.5v-1.1
				v-0.6v-0.7v-0.5v-0.6l-0.1-1.1l0.4-0.6l0.6-0.3l0.6-0.1l0.5,0.4l0.4,0.6v0.5l-0.1,0.7l0.1,5.2l-0.2,1l0.1,0.6v0.5v0.6l-0.1,1.2
				l0.2,1.1l-0.1,4l0.1,0.5l-0.1,0.7l0.1,2.4l-0.1,2.5V40v0.9l-0.3,0.8l-0.6,0.2h-0.5L78.5,42h-0.6h-1.2h-0.6l-0.6-0.1L73.9,42h-0.7
				h-0.6h-0.5h-1.2h-0.6h-0.6h-0.6h-0.5h-1.3l-0.6,0.1L65.9,42z"/>
			<path class="st1" d="M90.6,41.9l-0.7-0.1l-0.3-0.4l-0.1-1v-0.7l-0.1-0.5l0.1-1.2v-1.5l0.1-2L89.5,34l0.1-0.5v-0.6v-0.6v-0.5v-0.7
				l-0.1-0.6v-1l0.1-0.7v-0.5l-0.1-0.6v-8l-0.3-0.6l-0.5-0.3h-1.2L87,18.7l-0.7,0.1l-1.1-0.1l-0.6-0.3l-0.3-0.7l0.3-0.5l0.6-0.4H86
				l0.8-0.1l0.6,0.1l1.3-0.1l0.5,0.1h0.5h0.6l0.6-0.1l0.6,0.1l0.6-0.1l0.5,0.1h1.2l1.2-0.1l1.1,0.2l0.6,0.2l0.2,0.8l-0.3,0.7
				l-0.8,0.3l-1.5-0.1h-0.5l-0.5-0.1l-0.7-0.1l-0.5,0.3l-0.3,0.6V20l0.1,0.6l-0.1,0.7l0.1,1.2l-0.1,0.4v1.3l-0.1,0.5l0.1,1.1
				l-0.1,0.5v0.6l0.1,0.6v0.7v0.6l0.1,0.7L91.8,30v0.8v2l0.1,0.6L91.8,34v0.5v1.1l0.1,0.9v0.8V38v0.5V39v0.5L91.8,40l0.1,0.7v0.5
				l-0.2,0.5L91.1,42L90.6,41.9z"/>
			<path class="st1" d="M104.6,42.3l-0.6-0.2l-0.5-0.1l-0.4-0.2l-0.9-0.7l-0.7-0.7l-0.3-0.5l-0.3-0.4l-0.4-1.1l-0.3-0.5l-0.3-1.1
				l-0.5-4.2l0.1-0.7l-0.1-0.6v-0.5l0.1-0.5v-3.6l0.1-0.5v-0.6V25v-0.5l0.1-0.6l0.2-1.8l0.5-1.7l0.3-0.4l0.2-0.6l0.3-0.4l0.2-0.6
				l0.4-0.5l0.5-0.3l0.4-0.3l0.5-0.3l0.5-0.3l0.5-0.2l0.5-0.1l0.5-0.1l0.9-0.1l0.8,0.1l0.7,0.1l0.5,0.1l0.5,0.1l0.5,0.3l0.9,0.5
				l0.4,0.3l0.8,0.9l0.5,1l0.3,1l0.2,0.5l0.1,0.6l0.6,4.2v0.6l-0.1,0.6l0.1,3.5l-0.1,1.1V33l-0.1,0.6l-0.1,1.8l-0.2,1.1l-0.3,1.2
				l-0.7,1.7l-0.6,0.9l-0.4,0.5l-0.4,0.4l-0.9,0.6l-0.4,0.2h-0.5l-0.5,0.2l-0.6,0.1h-0.9h-0.8H104.6z M107.2,40.1l0.5-0.1l0.4-0.4
				l0.4-0.3l0.6-0.8l0.4-1.1l0.3-0.5l0.1-0.6l0.1-0.7l0.2-1.2l0.1-1.7V32l0.1-0.5v-3.2l0.1-0.5l-0.1-1.2v-0.7l-0.1-2.2l-0.2-1.1
				v-0.7l-0.3-0.5l-0.2-0.5l-0.1-0.7l-0.3-0.5l-0.3-0.5l-0.8-0.8l-0.5-0.2L107,18h-0.8l-0.8-0.1l-0.5,0.2l-0.5,0.1l-0.4,0.3
				l-0.7,0.8l-0.5,0.9l-0.5,1.9l-0.3,1.7l-0.1,1.3v0.5l-0.1,1.7l0.1,1.6l-0.1,0.9v0.5l0.1,0.6v2.4l0.1,0.4v1.1l0.4,1.9l0.3,1
				l0.2,0.5l0.8,0.8l0.5,0.3l0.4,0.3l0.5,0.2h1.6L107.2,40.1z"/>
			<path class="st1" d="M122.1,42.3l-0.6-0.2L121,42l-0.4-0.2l-0.9-0.7l-0.7-0.7l-0.4-0.4l-0.3-0.4l-0.4-1.1l-0.3-0.5l-0.3-1.1
				l-0.5-4.2l0.1-0.7l-0.1-0.6v-0.5l0.1-0.5v-3.6l0.1-0.5v-0.6v-0.6v-0.5l0.1-0.6l0.2-1.8l0.5-1.7l0.3-0.4l0.2-0.6l0.3-0.4l0.2-0.6
				l0.4-0.5l0.5-0.3l0.4-0.3l0.5-0.3l0.5-0.3l0.5-0.2l0.5-0.1l0.5-0.1l0.9-0.1l0.8,0.1l0.7,0.1l0.5,0.1l0.5,0.1l0.5,0.3l0.9,0.5
				l0.4,0.3l0.8,0.9l0.5,1l0.3,1l0.2,0.5l0.1,0.6l0.6,4.2v0.6l-0.1,0.6l0.1,3.5l-0.1,1.1V33l-0.1,0.6l-0.1,1.8l-0.2,1.1l-0.3,1.2
				l-0.7,1.7l-0.6,0.9l-0.4,0.5l-0.4,0.4l-0.9,0.6l-0.4,0.2h-0.5l-0.5,0.2l-0.6,0.1h-0.9h-0.8H122.1z M124.8,40.1l0.5-0.1l0.4-0.4
				l0.4-0.3l0.6-0.8l0.4-1.1l0.3-0.5l0.1-0.6l0.1-0.7l0.2-1.2l0.1-1.7V32l0.1-0.5v-3.2l0.1-0.5l-0.1-1.2v-0.7l-0.1-2.2l-0.2-1.1
				v-0.7l-0.3-0.5l-0.2-0.5l-0.1-0.7l-0.3-0.5l-0.3-0.5l-0.8-0.8l-0.5-0.2l-0.6-0.2h-0.8l-0.8-0.1l-0.5,0.2l-0.5,0.1l-0.4,0.3
				l-0.7,0.8l-0.5,0.9l-0.5,1.9l-0.3,1.7l-0.1,1.3v0.5l-0.1,1.7l0.1,1.6l-0.1,0.9v0.5l0.1,0.6v2.4l0.1,0.4v1.1l0.4,1.9l0.3,1
				l0.2,0.5l0.8,0.8l0.5,0.3l0.4,0.3l0.5,0.2h1.6L124.8,40.1z"/>
		</g>
	</g>
</g>
</svg>
