<?xml version="1.0" encoding="utf-8"?>
<!-- Generator: Adobe Illustrator 21.0.0, SVG Export Plug-In . SVG Version: 6.00 Build 0)  -->
<svg version="1.1" id="Layer_1" xmlns="http://www.w3.org/2000/svg" xmlns:xlink="http://www.w3.org/1999/xlink" x="0px" y="0px"
	 viewBox="0 0 240.9 453.5" style="enable-background:new 0 0 240.9 453.5;" xml:space="preserve">
<style type="text/css">
	.st0{fill:#794552;}
	.st1{fill:#C7B89E;}
	.st2{fill:#F9A960;}
	.st3{fill:#D17C32;}
	.st4{fill:#956070;}
	.st5{fill:#FDDCC0;}
	.st6{fill:#501338;}
	.st7{fill:#FFFFFF;}
	.st8{fill:#B38091;}
	.st9{fill:#D1D5DB;}
	.st10{fill:#989A9C;}
	.st11{fill:#937B70;}
	.st12{fill:#E6DEC9;}
	.st13{fill:#F0B39C;}
	.st14{fill:#8E183F;}
	.st15{fill:#F5F5F5;}
	.st16{fill:none;stroke:#462062;stroke-width:0.7554;stroke-linecap:round;stroke-miterlimit:10;}
	.st17{fill:#B5BAC0;}
	.st18{fill:#C71F41;}
	.st19{fill:#EF5784;}
	.st20{fill:#A91D41;}
	.st21{opacity:0.5;fill:#C1C1C1;}
	.st22{opacity:0.27;fill:#E78B6F;}
	.st23{fill:#CB8A43;}
	.st24{fill:#754D24;}
	.st25{fill:#FBBA6C;}
	.st26{fill:#837070;}
	.st27{fill:#866A58;}
	.st28{fill:#9A7E67;}
	.st29{fill:#B39885;}
	.st30{fill:#5B4580;}
	.st31{fill:#E1DFDF;}
	.st32{fill:#C0BEBD;}
	.st33{fill:#D53231;}
	.st34{fill:#E94647;}
	.st35{fill:#797083;}
	.st36{fill:#A9A4B4;}
	.st37{fill:#5B5567;}
	.st38{fill:#CE202B;}
	.st39{fill:#EE3734;}
	.st40{fill:#F49294;}
	.st41{fill:#B89AA6;}
	.st42{fill:#D4907B;}
	.st43{fill:#FAB276;}
	.st44{opacity:0.5;fill:#794552;}
	.st45{fill:#B57D90;}
	.st46{opacity:0.7;fill:#794552;}
	.st47{opacity:0.15;fill:#F2E8A5;}
	.st48{fill:#D67E3A;}
	.st49{fill:#735A99;}
	.st50{fill:#644C88;}
	.st51{fill:#9480B4;}
	.st52{fill:#E4D2A4;}
	.st53{fill:#FAEDD0;}
	.st54{fill:#C4B18B;}
	.st55{fill:#735A99;stroke:#501338;stroke-width:1.571;stroke-miterlimit:10;}
	.st56{fill:#C8BFBF;}
	.st57{fill:#B2ABAB;}
	.st58{fill:#FFE098;}
	.st59{fill:#ECC77E;}
	.st60{fill:#FFEBC7;}
	.st61{fill:#A1675E;}
	.st62{fill:#90564F;}
	.st63{fill:#C07F78;}
	.st64{fill:#68485A;}
	.st65{fill:#FFDD81;}
	.st66{fill:#814945;}
	.st67{fill:#945B58;}
	.st68{fill:#B17977;}
	.st69{fill:#884C4A;}
	.st70{fill-rule:evenodd;clip-rule:evenodd;fill:#989A9C;}
	.st71{fill:#D89E98;}
	.st72{fill:#64445C;}
	.st73{fill:#816474;}
	.st74{fill:#A48390;}
	.st75{fill:#DDAD41;}
	.st76{fill:#F48657;}
	.st77{fill:#D77151;}
	.st78{fill:#F8AB89;}
	.st79{fill:#E9C05B;}
	.st80{fill:#9A8691;}
	.st81{fill:#A28F99;}
	.st82{fill:#8780BC;}
	.st83{fill:#6966AD;}
	.st84{fill:#B2ADD5;}
	.st85{fill:#F48C8C;}
	.st86{fill:#E86363;}
	.st87{fill:#F4876E;}
	.st88{fill:#E56A51;}
	.st89{fill:#80655C;}
	.st90{fill:#C3AC6F;}
	.st91{fill:#9F874A;}
	.st92{fill:#DBC68E;}
	.st93{opacity:0.11;fill:#FFFFFF;}
	.st94{fill:#F7A799;}
	.st95{fill:#FCE5A5;}
	.st96{fill:#DEBB6C;}
	.st97{fill:#B67C76;}
	.st98{fill:none;stroke:#462062;stroke-width:0.843;stroke-linecap:round;stroke-miterlimit:10;}
	.st99{fill:#9D9B86;}
	.st100{fill:#8780BC;stroke:#501338;stroke-width:1.6795;stroke-miterlimit:10;}
	.st101{fill:#C5C4B4;}
	.st102{fill:#E9E9D9;}
	.st103{fill:#E9C15D;}
	.st104{opacity:0.3;}
	.st105{fill:#A27388;}
	.st106{opacity:0.5;fill:#FFFFFF;}
	.st107{fill:#91667A;}
	.st108{opacity:0.4;}
	.st109{opacity:0.5;}
	.st110{opacity:0.5;fill:#A7A7A6;}
	.st111{fill:#C16D34;}
	.st112{opacity:0.4;fill:#FFFFFF;}
	.st113{fill:none;stroke:#501338;stroke-width:1.5687;stroke-linecap:round;stroke-linejoin:round;stroke-miterlimit:10;}
	.st114{opacity:0.27;}
	.st115{fill:#E78B6F;}
	.st116{opacity:0.2;fill:#F48E8E;}
	.st117{fill:#99744B;}
	.st118{fill:#825D38;}
	.st119{fill:#C9CAA6;}
	.st120{fill:#BCBC96;}
	.st121{fill:none;stroke:#462062;stroke-width:0.7845;stroke-linecap:round;stroke-miterlimit:10;}
	.st122{fill:#66402A;}
	.st123{fill:#935C35;}
	.st124{opacity:0.6;fill:#7A4928;}
	.st125{opacity:0.4;fill:#F48E8E;}
	.st126{fill:#E1E1E1;}
	.st127{fill:#C1C1C1;}
	.st128{fill:#52363A;}
	.st129{fill:#C6C5C4;}
	.st130{opacity:0.6;}
	.st131{fill:#888888;}
	.st132{fill:#515252;}
	.st133{opacity:0.6;fill:#888888;}
	.st134{fill:#616160;}
	.st135{fill:#515150;}
	.st136{fill:#957B66;}
	.st137{fill:#B89984;}
	.st138{fill:#787878;}
	.st139{fill:#775F4F;}
	.st140{fill:#D7B9A8;}
	.st141{fill:#99999A;}
	.st142{opacity:0.4;fill:#E6DEC9;}
	.st143{fill:none;stroke:#462062;stroke-width:0.7586;stroke-linecap:round;stroke-miterlimit:10;}
	.st144{fill:#3F4242;}
	.st145{opacity:0.5;fill:#F0B39C;}
	.st146{opacity:0.57;fill:#B89AA6;}
	.st147{fill:#619F7F;}
	.st148{fill:#548E6E;}
	.st149{fill:#C16A2F;}
	.st150{fill:#CE413A;}
	.st151{fill:#B23330;}
	.st152{opacity:0.62;fill:#E48C7D;}
	.st153{fill:#5E3827;}
	.st154{fill:#F48E8E;}
	.st155{fill:#444445;}
	.st156{fill:#353435;}
	.st157{opacity:0.5;fill:#B89AA6;}
	.st158{fill:#4D4C4D;}
	.st159{fill:#444344;}
	.st160{opacity:0.6;fill:#A1A1A1;}
	.st161{fill:#282827;}
	.st162{fill:#636464;}
	.st163{fill:#575959;}
	.st164{fill:#3A3A3A;}
	.st165{opacity:0.5;fill:#787878;}
	.st166{fill:none;stroke:#462062;stroke-width:0.8198;stroke-linecap:round;stroke-miterlimit:10;}
	.st167{fill:#5B5B5C;}
	.st168{fill:#E4E4E4;}
	.st169{fill:#FFF1EA;}
	.st170{fill:#E1CDC5;}
	.st171{opacity:0.4;fill:#F0B39C;}
	.st172{opacity:0.5;fill:#ADADAD;}
	.st173{fill:#B58F5B;}
	.st174{fill:#606060;}
	.st175{fill:#4F5150;}
	.st176{opacity:0.6;fill:#989A9C;}
	.st177{fill:#5D7A6D;}
	.st178{fill:#4C685B;}
	.st179{fill:none;stroke:#462062;stroke-width:0.8057;stroke-linecap:round;stroke-miterlimit:10;}
	.st180{fill:#F7B975;}
	.st181{fill:#8D7449;}
	.st182{opacity:0.35;fill:#F7B975;}
	.st183{fill:#686868;}
	.st184{fill:#959595;}
	.st185{opacity:0.3;fill:#FFFFFF;}
	.st186{fill:#4C4B4C;}
	.st187{fill:#A27F67;}
	.st188{fill:#C6A691;}
	.st189{opacity:0.2;fill:#684D39;}
	.st190{fill:#926E56;}
	.st191{opacity:0.8;fill:#3A3A3A;}
	.st192{fill:#ED3E2B;}
	.st193{fill:#DB2C1F;}
	.st194{opacity:0.7;fill:#989A9C;}
	.st195{fill:#6B4845;}
	.st196{fill:#846363;}
	.st197{fill:#5E3E3C;}
	.st198{fill:none;stroke:#501338;stroke-width:1.6206;stroke-miterlimit:10;}
	.st199{opacity:0.5;fill:#E29780;}
	.st200{opacity:0.6;fill:#FFFFFF;}
	.st201{fill:#ECD8BB;}
	.st202{opacity:0.3;fill:#937B70;}
	.st203{fill:#FCF9F4;}
	.st204{opacity:0.6;fill:#F0B39C;}
	.st205{fill:none;stroke:#462062;stroke-width:0.7828;stroke-linecap:round;stroke-miterlimit:10;}
	.st206{fill:#CDCDCD;}
	.st207{opacity:0.5;fill:#A8A7A7;}
	.st208{fill:#868686;}
	.st209{opacity:0.3;fill:#F0B39C;}
	.st210{opacity:0.7;fill:#F0B39C;}
	.st211{fill:#735A99;stroke:#501338;stroke-width:1.5656;stroke-miterlimit:10;}
	.st212{opacity:0.5;fill:#FCF9F4;}
	.st213{opacity:0.5;fill:#FDDCC0;}
	.st214{fill:#6B3A37;}
	.st215{fill:#92A3D3;}
	.st216{fill:#B0C2E4;}
	.st217{fill:#7790BC;}
	.st218{fill:#7F95C6;}
	.st219{fill:#D0A7C2;}
	.st220{fill:#B7BE79;}
	.st221{fill:#725F82;}
	.st222{fill:#635175;}
	.st223{fill:none;stroke:#501338;stroke-width:1.5843;stroke-miterlimit:10;}
	.st224{fill:#C5B8DA;}
	.st225{fill:#A999C9;}
	.st226{fill:#8B6445;}
	.st227{fill:#7A5439;}
	.st228{fill:none;stroke:#501338;stroke-width:1.5751;stroke-linecap:round;stroke-linejoin:round;stroke-miterlimit:10;}
	.st229{fill:#D9CEB7;}
	.st230{fill:#CCBDA2;}
	.st231{opacity:0.2;fill:#FFFFFF;}
	.st232{fill:#B61F30;}
	.st233{fill:#595B5B;}
</style>
<g>
	<g>
		<g>
			<path class="st23" d="M193.2,453.5H47.8c-4,0-7.3-3.3-7.3-7.3v0c0-4,3.3-7.3,7.3-7.3h145.4c4,0,7.3,3.3,7.3,7.3v0
				C200.5,450.3,197.2,453.5,193.2,453.5z"/>
			<g>
				<g>
					<path class="st24" d="M190.7,409.2H50.2c-4.1,0-7.5,3.4-7.5,7.5v27.6c0,4.1,3.4,7.5,7.5,7.5h140.5c4.1,0,7.5-3.4,7.5-7.5v-27.6
						C198.2,412.5,194.9,409.2,190.7,409.2z M196.2,444.2c0,3-2.4,5.5-5.5,5.5H50.2c-3,0-5.5-2.5-5.5-5.5v-27.6c0-3,2.5-5.5,5.5-5.5
						h140.5c3,0,5.5,2.5,5.5,5.5V444.2z"/>
					<path class="st25" d="M196.2,416.6v27.6c0,3-2.4,5.5-5.5,5.5H50.2c-3,0-5.5-2.5-5.5-5.5v-27.6c0-3,2.5-5.5,5.5-5.5h140.5
						C193.8,411.2,196.2,413.6,196.2,416.6z"/>
				</g>
			</g>
		</g>
		<g>
			<path class="st24" d="M82.6,430.2h-0.8v7.1h-1.6V422h1.6v7.2l0.8-0.3l4-6.9h1.9l-4,6.6l-0.8,0.7l0.9,0.9l4.5,7.2h-2.1L82.6,430.2
				z"/>
			<path class="st24" d="M90.8,427c0.4-0.3,0.9-0.5,1.6-0.6c0.6-0.1,1.3-0.2,1.9-0.2c0.6,0,1.1,0.1,1.5,0.3c0.4,0.2,0.7,0.4,0.9,0.7
				c0.2,0.3,0.4,0.7,0.4,1.1c0.1,0.4,0.1,0.8,0.1,1.3c0,0.9,0,1.7-0.1,2.6s-0.1,1.6-0.1,2.4c0,0.6,0,1.1,0.1,1.6
				c0,0.5,0.1,0.9,0.2,1.4H96l-0.4-1.3h-0.1c-0.2,0.4-0.5,0.7-1,1c-0.4,0.3-1,0.4-1.7,0.4c-0.8,0-1.4-0.3-1.9-0.8
				c-0.5-0.6-0.8-1.3-0.8-2.3c0-0.6,0.1-1.2,0.3-1.6c0.2-0.4,0.5-0.8,0.9-1c0.4-0.3,0.8-0.5,1.4-0.6s1.1-0.2,1.8-0.2
				c0.1,0,0.3,0,0.4,0s0.3,0,0.5,0c0-0.5,0.1-0.9,0.1-1.2c0-0.8-0.1-1.4-0.4-1.8c-0.2-0.3-0.7-0.5-1.4-0.5c-0.4,0-0.9,0.1-1.3,0.2
				c-0.5,0.1-0.9,0.3-1.2,0.5L90.8,427z M95.5,432.3c-0.1,0-0.3,0-0.4,0c-0.1,0-0.3,0-0.4,0c-0.3,0-0.7,0-1,0.1
				c-0.3,0.1-0.6,0.2-0.9,0.3c-0.3,0.1-0.5,0.3-0.6,0.6c-0.2,0.2-0.2,0.6-0.2,0.9c0,0.6,0.1,1,0.4,1.4s0.6,0.5,1.1,0.5
				c0.6,0,1.1-0.1,1.4-0.4c0.3-0.3,0.6-0.6,0.7-1V432.3z"/>
			<path class="st24" d="M99.7,426.4h1.1l0.2,1.2h0.1c0.5-1,1.4-1.5,2.6-1.5s2,0.4,2.6,1.3c0.6,0.9,0.9,2.3,0.9,4.2
				c0,0.9-0.1,1.8-0.3,2.5c-0.2,0.7-0.5,1.4-0.8,1.9c-0.4,0.5-0.8,0.9-1.3,1.2c-0.5,0.3-1.1,0.4-1.7,0.4c-0.4,0-0.8,0-1-0.1
				c-0.3-0.1-0.5-0.2-0.8-0.3v4.5h-1.6V426.4z M101.3,435.6c0.2,0.2,0.4,0.3,0.7,0.4c0.3,0.1,0.6,0.2,1,0.2c0.8,0,1.4-0.4,1.8-1.2
				c0.5-0.8,0.7-1.9,0.7-3.4c0-0.6,0-1.2-0.1-1.7s-0.2-0.9-0.4-1.3c-0.2-0.4-0.4-0.6-0.7-0.8s-0.6-0.3-1-0.3c-1.1,0-1.8,0.7-2.1,2
				V435.6z"/>
			<path class="st24" d="M110.8,430.6c0.3-0.1,0.6-0.1,0.8-0.1c0.3,0,0.5,0,0.7,0c0.6,0,1.1,0.1,1.5,0.3c0.4,0.2,0.7,0.4,1,0.7
				s0.4,0.6,0.5,1c0.1,0.4,0.2,0.8,0.2,1.3c0,1.3-0.3,2.3-0.9,2.9c-0.6,0.6-1.6,0.9-3,0.9c-0.9,0-1.7,0-2.5-0.1v-11h1.6V430.6z
				 M110.8,435.9c0.4,0.1,0.8,0.1,1.2,0.1c0.7,0,1.2-0.2,1.5-0.6c0.3-0.4,0.4-0.9,0.4-1.6c0-0.7-0.1-1.2-0.4-1.6
				c-0.3-0.4-0.8-0.6-1.4-0.6c-0.2,0-0.4,0-0.6,0c-0.2,0-0.4,0.1-0.6,0.1V435.9z M116.9,426.4h1.6v11h-1.6V426.4z"/>
			<path class="st24" d="M126.5,432.5h-3.8v4.9h-1.6v-11h1.6v4.7h3.8v-4.7h1.6v11h-1.6V432.5z"/>
			<path class="st24" d="M138.6,440.2h-1.1l-0.3-2.8h-6.5l-0.3,2.8h-1.1v-4.2h1c0.1-0.2,0.2-0.5,0.4-0.9c0.2-0.4,0.3-1,0.5-1.8
				s0.3-1.7,0.4-2.8c0.1-1.1,0.2-2.5,0.2-4h5.5v9.6h1.3V440.2z M135.7,435.9v-8.1h-2.5c0,0.6-0.1,1.3-0.1,2.1
				c-0.1,0.7-0.1,1.5-0.2,2.2s-0.2,1.4-0.4,2.1c-0.1,0.7-0.3,1.2-0.5,1.7H135.7z"/>
			<path class="st24" d="M140.2,427c0.4-0.3,0.9-0.5,1.6-0.6c0.6-0.1,1.3-0.2,1.9-0.2c0.6,0,1.1,0.1,1.5,0.3
				c0.4,0.2,0.7,0.4,0.9,0.7c0.2,0.3,0.4,0.7,0.4,1.1c0.1,0.4,0.1,0.8,0.1,1.3c0,0.9,0,1.7-0.1,2.6s-0.1,1.6-0.1,2.4
				c0,0.6,0,1.1,0.1,1.6c0,0.5,0.1,0.9,0.2,1.4h-1.2l-0.4-1.3H145c-0.2,0.4-0.5,0.7-1,1c-0.4,0.3-1,0.4-1.7,0.4
				c-0.8,0-1.4-0.3-1.9-0.8c-0.5-0.6-0.8-1.3-0.8-2.3c0-0.6,0.1-1.2,0.3-1.6c0.2-0.4,0.5-0.8,0.9-1c0.4-0.3,0.8-0.5,1.4-0.6
				s1.1-0.2,1.8-0.2c0.1,0,0.3,0,0.4,0s0.3,0,0.5,0c0-0.5,0.1-0.9,0.1-1.2c0-0.8-0.1-1.4-0.4-1.8c-0.2-0.3-0.7-0.5-1.4-0.5
				c-0.4,0-0.9,0.1-1.3,0.2c-0.5,0.1-0.9,0.3-1.2,0.5L140.2,427z M144.9,432.3c-0.1,0-0.3,0-0.4,0c-0.1,0-0.3,0-0.4,0
				c-0.3,0-0.7,0-1,0.1c-0.3,0.1-0.6,0.2-0.9,0.3c-0.3,0.1-0.5,0.3-0.6,0.6c-0.2,0.2-0.2,0.6-0.2,0.9c0,0.6,0.1,1,0.4,1.4
				s0.6,0.5,1.1,0.5c0.6,0,1.1-0.1,1.4-0.4c0.3-0.3,0.6-0.6,0.7-1V432.3z"/>
			<path class="st24" d="M149.1,437.4v-11h1.6v9.6h2.9v-9.6h1.6v9.6h2.9v-9.6h1.6v11H149.1z"/>
		</g>
	</g>
	<g>
		<g>
			<rect x="100" y="166.5" class="st5" width="40.9" height="50.8"/>
			<path class="st13" d="M140.9,174.3v16.5c-21.3,9.1-38.3-0.8-40.9-7.1v-9.5H140.9z"/>
			<path class="st6" d="M141.8,216.2H99.2v-50.6h42.6V216.2z M100.9,214.5h39.2v-47.2h-39.2V214.5z"/>
		</g>
		<path class="st18" d="M183.8,368.2c-0.1,0.3-0.2,0.7-0.2,1c0,0.1,0,0.1-0.1,0.2c-0.1,0.3-0.2,0.7-0.3,1c-0.3,0.9-0.6,1.7-1,2.5
			c-0.1,0.2-0.2,0.4-0.3,0.6c-0.1,0.2-0.2,0.4-0.3,0.6c-0.1,0.2-0.2,0.4-0.3,0.5c-0.1,0.2-0.2,0.4-0.3,0.5c-0.2,0.3-0.5,0.7-0.7,1
			c-0.3,0.3-0.5,0.6-0.8,1c-0.6,0.6-1.2,1.2-1.8,1.7c-0.8,0.7-1.7,1.3-2.6,1.8c0,0,0,0,0,0c-0.4,0.2-0.8,0.4-1.2,0.6
			c-1,0.5-2.1,1-3.3,1.4c-0.2,0.1-0.5,0.2-0.7,0.3c-0.8,0.3-1.6,0.5-2.5,0.8c-0.3,0.1-0.6,0.2-0.9,0.2c-0.1,0-0.3,0.1-0.4,0.1
			c-0.3,0.1-0.7,0.2-1,0.2c-0.5,0.1-1,0.2-1.4,0.3c-0.5,0.1-0.9,0.2-1.4,0.3c-0.7,0.1-1.4,0.2-2.1,0.3c-0.9,0.1-1.7,0.2-2.7,0.3
			c-0.1,0-0.1,0-0.2,0c-1,0.1-2,0.2-3,0.3c-2,0.2-4.1,0.3-6.4,0.4c-0.4,0-0.7,0-1.1,0.1c-0.7,0-1.5,0.1-2.3,0.1
			c-1.9,0.1-3.9,0.1-6,0.1c-4.9,0.1-7.8-0.6-15-2.6c-2-0.6-4.2-0.6-6.2,0c-7.2,2.1-10.1,2.7-15,2.6c-2.1,0-4.1-0.1-6-0.1
			c-0.8,0-1.5-0.1-2.3-0.1c-0.4,0-0.7,0-1.1-0.1c-2.2-0.1-4.3-0.2-6.4-0.4c-1-0.1-2-0.2-3-0.3c-0.1,0-0.1,0-0.2,0
			c-0.9-0.1-1.8-0.2-2.7-0.3c-0.7-0.1-1.4-0.2-2.1-0.3c-0.5-0.1-0.9-0.2-1.4-0.3c-0.5-0.1-1-0.2-1.4-0.3c-0.3-0.1-0.7-0.2-1-0.2
			c-0.1,0-0.3-0.1-0.4-0.1c-0.3-0.1-0.6-0.2-0.9-0.2c-0.8-0.2-1.7-0.5-2.5-0.8c-0.2-0.1-0.5-0.2-0.7-0.3c-1.2-0.4-2.3-0.9-3.3-1.4
			c-0.4-0.2-0.8-0.4-1.2-0.6c0,0,0,0,0,0c-0.9-0.6-1.8-1.2-2.6-1.8c-0.7-0.5-1.3-1.1-1.8-1.7c-0.3-0.3-0.5-0.6-0.8-1
			c-0.3-0.3-0.5-0.7-0.7-1c-0.1-0.2-0.2-0.3-0.3-0.5c-0.1-0.2-0.2-0.4-0.3-0.5c-0.1-0.2-0.2-0.4-0.3-0.6c-0.1-0.2-0.2-0.4-0.3-0.6
			c-0.4-0.8-0.7-1.6-1-2.5c-0.1-0.3-0.2-0.7-0.3-1c0-0.1,0-0.1-0.1-0.2c-0.1-0.3-0.2-0.7-0.2-1c-0.4-1.7-0.5-3.6-0.4-5.7
			c0.3-11.8,6.9-27.5,12.5-38.8c1.3-2.7,2.6-5.1,3.7-7.1c0.3-0.5,0.5-0.9,0.8-1.3c2.5-3.3,6.6-5,10.8-4.3l34.1,5.8
			c1.2,0.2,2.5,0.2,3.7,0l34.1-5.8c4.3-0.7,8.6,1.1,11,4.7c0.2,0.3,0.4,0.6,0.6,1c5.6,10.4,15.4,30.4,16.2,44.9c0,0.3,0,0.7,0,1
			C184.3,364.6,184.2,366.5,183.8,368.2z"/>
		<g>
			<path class="st20" d="M117.9,337.8c-29.1-1.4-52.1-21.3-50.9-23.6c0.3-0.5,0.6-1,0.9-1.5h4.3l21.1,5c0,0,28.4,3.8,29.7,10.4
				C124.4,334.7,121.4,337.8,117.9,337.8z"/>
			<path class="st20" d="M123.1,337.8c29.1-1.4,52.1-21.3,50.9-23.6c-0.3-0.5-0.6-1-0.9-1.5h-4.3l-21.1,5c0,0-28.4,3.8-29.7,10.4
				C116.6,334.7,119.5,337.8,123.1,337.8z"/>
		</g>
		<path class="st20" d="M183.6,369.3c-1.8,0.8-11.7-5.3-13.2-5.9c2.7-25.7-4.2-38.7-5.8-39.7c-0.1-0.1-0.2-0.1-0.2-0.1l0.4-6.4
			l2.6-1.4c0.2,0.3,0.4,0.6,0.6,1C173.7,327.1,191.2,341.3,183.6,369.3z"/>
		<path class="st20" d="M57.4,369.3c1.8,0.8,11.7-5.4,13.2-6c-2.7-25.7,4.2-38.6,5.8-39.7c0.1-0.1,0.2-0.1,0.2-0.1l-0.4-6.4
			l-2.6-1.4c-0.2,0.3-0.4,0.6-0.6,1C67.3,327.1,49.7,341.3,57.4,369.3z"/>
		<path class="st20" d="M184.2,362.6c-4.1-3.1-12.5-6.1-14.2,2c-3.7,17.6-24.4,20.3-47.8,10.3c-1.1-0.5-2.4-0.5-3.5,0
			c-23.4,10-44.1,7.4-47.8-10.3c-1.7-8.1-10-5.1-14.2-2c-0.1,2,0.1,3.9,0.4,5.7c0.1,0.3,0.2,0.7,0.2,1c0,0.1,0,0.1,0.1,0.2
			c0.1,0.3,0.2,0.7,0.3,1c0.3,0.9,0.6,1.7,1,2.5c0.1,0.2,0.2,0.4,0.3,0.6l0.3,0.6c0.1,0.1,0.2,0.3,0.2,0.4c0.1,0.2,0.3,0.5,0.4,0.7
			c0.2,0.3,0.5,0.7,0.7,1c0.3,0.3,0.5,0.6,0.8,1c0.6,0.6,1.2,1.2,1.8,1.7c0.8,0.7,1.7,1.3,2.6,1.8c0,0,0,0,0,0
			c0.4,0.2,0.8,0.4,1.2,0.6c1,0.5,2.1,1,3.3,1.4c0.2,0.1,0.5,0.2,0.7,0.3c0.8,0.3,1.6,0.5,2.5,0.8c0.3,0.1,0.6,0.2,0.9,0.2
			c0.1,0,0.3,0.1,0.4,0.1c0.3,0.1,0.7,0.2,1,0.2c0.5,0.1,1,0.2,1.4,0.3c0.5,0.1,0.9,0.2,1.4,0.3c0.7,0.1,1.4,0.2,2.1,0.3
			c0.9,0.1,1.7,0.2,2.7,0.3c0.1,0,0.1,0,0.2,0c1,0.1,2,0.2,3,0.3c2,0.2,4.1,0.3,6.4,0.4c0.4,0,0.7,0,1.1,0.1c0.7,0,1.5,0.1,2.3,0.1
			c1.9,0.1,3.9,0.1,6,0.1c4.9,0.1,7.8-0.6,15-2.6c1-0.3,2-0.4,3.1-0.4s2.1,0.1,3.1,0.4c7.2,2.1,10.1,2.7,15,2.6c2.1,0,4.1-0.1,6-0.1
			c0.8,0,1.5-0.1,2.3-0.1c0.4,0,0.7,0,1.1-0.1c2.2-0.1,4.3-0.2,6.4-0.4c1-0.1,2-0.2,3-0.3c0.1,0,0.1,0,0.2,0
			c0.9-0.1,1.8-0.2,2.7-0.3c0.7-0.1,1.4-0.2,2.1-0.3c0.5-0.1,0.9-0.2,1.4-0.3c0.5-0.1,1-0.2,1.4-0.3c0.3-0.1,0.7-0.2,1-0.2
			c0.1,0,0.3-0.1,0.4-0.1c0.3-0.1,0.6-0.2,0.9-0.2c0.8-0.2,1.7-0.5,2.5-0.8c0.2-0.1,0.5-0.2,0.7-0.3c1.2-0.4,2.3-0.9,3.3-1.4
			c0.4-0.2,0.8-0.4,1.2-0.6c0,0,0,0,0,0c0.9-0.6,1.8-1.2,2.6-1.8c0.7-0.5,1.3-1.1,1.8-1.7c0.3-0.3,0.5-0.6,0.8-1
			c0.3-0.3,0.5-0.7,0.7-1c0.2-0.2,0.3-0.5,0.4-0.7c0.1-0.1,0.2-0.3,0.2-0.4l0.3-0.6c0.1-0.2,0.2-0.4,0.3-0.6c0.4-0.8,0.7-1.6,1-2.5
			c0.1-0.3,0.2-0.7,0.3-1c0-0.1,0-0.1,0.1-0.2c0.1-0.3,0.2-0.7,0.2-1C184.2,366.5,184.3,364.6,184.2,362.6z"/>
		<path class="st19" d="M67.6,325.3l0.2,0.4c0,0-13.5,22.8-9.6,43.4c-2.6-8.3-4.2-14.7-1.5-23.3c2.6-8.6,9-18.3,9-18.3l1.5-2
			L67.6,325.3z"/>
		<path class="st20" d="M112,377.5c1.5-0.9,2.9-1.8,4.2-2.8c1.3-1,2.4-2.2,3.5-3.4c1.1-1.2,2-2.6,2.9-3.9c0.9-1.4,1.7-2.8,2.6-4.2
			c0.1-0.1,0.2-0.1,0.4,0c0.1,0.1,0.2,0.2,0.1,0.3c-0.4,1.7-1,3.3-1.8,4.8c-0.8,1.5-1.7,2.9-2.8,4.2c-1.1,1.3-2.4,2.4-3.9,3.4
			c-1.5,0.9-3.2,1.6-5,2c-0.1,0-0.1,0-0.2-0.1C111.9,377.6,111.9,377.6,112,377.5z"/>
		<path class="st20" d="M106.5,344c2.6,0,5.1-0.1,7.5-0.5c2.4-0.4,4.8-1,7.1-1.7c2.3-0.8,4.5-1.8,6.7-2.9c2.2-1.1,4.4-2.3,6.6-3.5
			c0.2-0.1,0.4,0,0.5,0.2c0.1,0.2,0.1,0.4,0,0.5c-1.8,1.8-3.8,3.4-6,4.8c-2.1,1.4-4.4,2.5-6.8,3.3c-2.4,0.8-5,1.3-7.6,1.4
			c-2.6,0.1-5.3-0.3-8-1.3c-0.1,0-0.2-0.2-0.2-0.3C106.3,344,106.4,344,106.5,344z"/>
		<path class="st20" d="M132.7,378.6c-1.3-0.3-2.6-0.7-3.7-1.2c-1.1-0.5-2.2-1.1-3.1-1.9c-0.9-0.7-1.8-1.6-2.6-2.5
			c-0.8-0.9-1.6-1.9-2.3-2.8c-0.1-0.1-0.2,0-0.3,0.1c-0.1,0.1-0.1,0.2-0.1,0.3c0.4,1.3,1,2.4,1.7,3.5c0.7,1,1.5,2,2.5,2.7
			c1,0.8,2.1,1.4,3.5,1.7c1.3,0.4,2.8,0.5,4.4,0.3c0.1,0,0.1-0.1,0.2-0.1C132.7,378.6,132.7,378.6,132.7,378.6z"/>
		<path class="st20" d="M158.6,364c-2,1.2-5.3,2.9-11.2,3.6c-5.5,0.8-10.7-0.4-13.7-1.8c-0.1,0.2-0.1,0.4-0.1,0.5
			c0.1,2.9,5.9,9.3,13.5,8.2c11-1.5,11.6-9,11.4-10.2C158.7,364.2,158.7,364.1,158.6,364z"/>
		<path class="st20" d="M82.3,364c2,1.2,5.3,2.9,11.2,3.6c5.5,0.8,10.7-0.4,13.7-1.8c0.1,0.2,0.1,0.4,0.1,0.5
			c-0.1,2.9-5.9,9.3-13.5,8.2c-11-1.5-11.6-9-11.4-10.2C82.2,364.2,82.3,364.1,82.3,364z"/>
		<path class="st6" d="M137.7,387.4c-4.4,0-7.4-0.7-14.4-2.7c-1.9-0.5-3.8-0.5-5.7,0c-7.4,2.2-10.3,2.8-15.2,2.7
			c-2.1,0-4.1-0.1-6-0.1c-0.8,0-1.5-0.1-2.3-0.1l-1.1-0.1c-2.4-0.1-4.5-0.3-6.4-0.4c-1-0.1-2-0.2-3-0.3c-0.1,0-0.2,0-0.2,0
			c-0.9-0.1-1.8-0.2-2.6-0.3c-0.7-0.1-1.5-0.2-2.2-0.3c-0.5-0.1-1-0.2-1.4-0.3c-0.5-0.1-1-0.2-1.4-0.3c-0.4-0.1-0.7-0.2-1.1-0.2
			l-0.4-0.1c-0.3-0.1-0.6-0.2-0.9-0.2c-0.8-0.2-1.7-0.5-2.5-0.8l-0.7-0.3c-1.2-0.4-2.4-0.9-3.4-1.5c-0.4-0.2-0.7-0.4-1-0.6h0
			l-0.2-0.1c-1-0.6-1.9-1.2-2.7-1.9c-0.7-0.5-1.3-1.2-1.9-1.8c-0.3-0.3-0.6-0.7-0.8-1c-0.2-0.3-0.5-0.6-0.8-1.1
			c-0.1-0.2-0.2-0.4-0.3-0.5c-0.1-0.2-0.2-0.4-0.3-0.6l-0.3-0.6c-0.1-0.2-0.2-0.4-0.3-0.6c-0.4-0.8-0.7-1.6-1-2.6
			c-0.1-0.3-0.2-0.6-0.3-0.9l0,0l-0.1-0.4c-6.2-22.6,3.7-36.3,10.9-46.2c1.9-2.6,3.5-4.9,4.7-7c0.1-0.1,0.1-0.2,0.2-0.3l0.1-0.1
			c0.1-0.1,0.2-0.3,0.3-0.4c0.1-0.1,0.1-0.1,0.1-0.2l0.4-0.6l0,0c2.7-3.5,7-5.2,11.4-4.4l34.1,5.8c1.1,0.2,2.3,0.2,3.4,0l34.1-5.8
			c4.6-0.8,9.2,1.2,11.9,5c0.2,0.3,0.4,0.6,0.6,1l0,0c1.1,2.1,2.8,4.4,4.7,7c7.2,10,17.1,23.7,10.9,46.2c0,0.1,0,0.1-0.1,0.2
			c-0.1,0.4-0.2,0.7-0.3,1c-0.3,0.9-0.6,1.8-1,2.6c-0.1,0.2-0.2,0.4-0.3,0.6l-0.3,0.6c-0.1,0.2-0.2,0.4-0.4,0.6
			c-0.1,0.2-0.2,0.4-0.4,0.6c-0.3,0.4-0.5,0.8-0.8,1.1c-0.3,0.3-0.5,0.7-0.8,1c-0.6,0.6-1.2,1.3-1.9,1.8c-0.8,0.7-1.7,1.3-2.7,1.9
			l-0.2,0.1c-0.3,0.2-0.7,0.4-1,0.6c-1,0.5-2.2,1-3.4,1.5l-0.7,0.3c-0.8,0.3-1.7,0.5-2.5,0.8c-0.3,0.1-0.6,0.2-0.9,0.2l-0.4,0.1
			c-0.3,0.1-0.7,0.2-1,0.2c-0.5,0.1-1,0.2-1.5,0.3c-0.4,0.1-0.9,0.2-1.4,0.3c-0.7,0.1-1.4,0.2-2.2,0.3c-0.9,0.1-1.8,0.2-2.7,0.3
			c-0.1,0-0.1,0-0.2,0c-1,0.1-1.9,0.2-2.9,0.3c-1.9,0.2-4,0.3-6.4,0.4l-1.1,0.1c-0.7,0-1.5,0.1-2.3,0.1c-1.9,0.1-3.9,0.1-6,0.1
			C138.3,387.4,138,387.4,137.7,387.4z M120.5,382.6c1.1,0,2.2,0.2,3.3,0.5c7.2,2.1,10,2.7,14.7,2.6c2.1,0,4-0.1,6-0.1
			c0.8,0,1.5,0,2.3-0.1l1.1-0.1c2.4-0.1,4.4-0.3,6.3-0.4c1-0.1,2-0.2,2.9-0.3l0.1,0c1-0.1,1.8-0.2,2.7-0.4c0.7-0.1,1.4-0.2,2.1-0.3
			c0.5-0.1,0.9-0.2,1.4-0.3c0.5-0.1,1-0.2,1.4-0.3c0.3-0.1,0.7-0.2,1-0.2l0.4-0.1c0.3-0.1,0.6-0.1,0.9-0.2c0.8-0.2,1.6-0.5,2.4-0.7
			l0.7-0.2c1.1-0.4,2.2-0.9,3.2-1.4c0.3-0.2,0.7-0.4,1-0.6l0.3-0.2c0.9-0.5,1.6-1.1,2.3-1.6c0.6-0.5,1.2-1.1,1.7-1.6
			c0.3-0.3,0.5-0.6,0.8-0.9c0.2-0.3,0.4-0.6,0.7-0.9c0.1-0.2,0.2-0.3,0.3-0.5c0.1-0.2,0.2-0.3,0.3-0.5l0.3-0.6
			c0.1-0.2,0.2-0.3,0.3-0.5c0.4-0.7,0.7-1.5,0.9-2.4c0.1-0.3,0.2-0.6,0.3-1l0-0.1c0,0,0-0.1,0-0.1c6-21.8-3.6-35.1-10.7-44.8
			c-1.8-2.5-3.6-5-4.8-7.2c-0.2-0.3-0.4-0.6-0.5-0.9c-2.2-3.3-6.2-5-10.2-4.3l-34.1,5.8c-1.3,0.2-2.7,0.2-4,0l-34.1-5.8
			c-3.8-0.6-7.6,0.9-10,4c-0.1,0.1-0.1,0.2-0.2,0.2l-0.2,0.3c-0.1,0.1-0.1,0.2-0.2,0.3l-0.1,0.2c0,0.1-0.1,0.1-0.1,0.2
			c-1.2,2.2-2.9,4.6-4.8,7.2c-7,9.7-16.5,22.9-10.8,44.5l0.1,0.4c0,0,0,0.1,0,0.1l0,0.1c0.1,0.3,0.2,0.6,0.3,1
			c0.3,0.9,0.6,1.6,0.9,2.4c0.1,0.2,0.2,0.4,0.3,0.6l0.3,0.5c0.1,0.2,0.2,0.3,0.3,0.5c0.1,0.2,0.2,0.3,0.3,0.5
			c0.3,0.4,0.5,0.7,0.7,1c0.3,0.3,0.5,0.6,0.8,0.9c0.5,0.6,1.1,1.1,1.7,1.6c0.7,0.6,1.5,1.1,2.3,1.6l0.3,0.2c0.3,0.2,0.7,0.4,1,0.6
			c1,0.5,2,1,3.2,1.4l0.7,0.3c0.8,0.3,1.6,0.5,2.4,0.7c0.3,0.1,0.6,0.2,0.9,0.2l0.4,0.1c0.3,0.1,0.7,0.2,1,0.2
			c0.5,0.1,0.9,0.2,1.4,0.3c0.5,0.1,0.9,0.2,1.4,0.3c0.7,0.1,1.4,0.2,2.1,0.3c0.9,0.1,1.7,0.2,2.6,0.3l0.2,0c1,0.1,1.9,0.2,2.9,0.3
			c1.9,0.2,4,0.3,6.3,0.4l1.1,0.1c0.8,0,1.5,0.1,2.3,0.1c1.9,0.1,3.9,0.1,6,0.1c4.7,0.1,7.5-0.5,14.7-2.6
			C118.2,382.8,119.4,382.6,120.5,382.6z"/>
		<path class="st20" d="M137,333.8c-8.1,0.5-9.6,0.2-16.2-0.7c-0.1,0-0.2,0-0.3,0c0,0,0,0,0,0c0,0,0,0,0,0c-0.1,0-0.2,0-0.3,0
			c-6.6,0.9-8.1,1.1-16.2,0.7c-0.4,0-0.7,0.1-0.5,0.3c6.2,5.2,12.3,8.2,14.6,9.2c0.6,0.3,1.4,0.4,2.3,0.4l0,0c0.1,0,0.2,0,0.3,0l0,0
			c0.9,0,1.7-0.1,2.3-0.4c2.3-1,8.4-4,14.6-9.2C137.7,333.9,137.4,333.8,137,333.8z"/>
		<path class="st20" d="M114.3,379.5c3-0.3,3.6-0.2,6,0.5c0,0,0.1,0,0.1,0c0,0,0,0,0,0c0,0,0,0,0,0c0,0,0.1,0,0.1,0
			c2.5-0.7,3-0.9,6-0.5c0.1,0,0.3-0.1,0.2-0.2c-2.3-3.9-4.6-6.1-5.5-6.9c-0.2-0.2-0.5-0.3-0.9-0.3l0,0c0,0-0.1,0-0.1,0l0,0
			c-0.3,0-0.6,0.1-0.9,0.3c-0.9,0.8-3.1,3-5.5,6.9C114,379.4,114.2,379.5,114.3,379.5z"/>
		<path class="st6" d="M182.7,370.5c0.3,0.3-3.1,3-7.9,5.1c-0.1,0.1,0,0.3,0.1,0.3c5.4-1.3,8.4-3.1,8.2-3.3L182.7,370.5z"/>
		<path class="st19" d="M62.1,338c-0.4,0.1,0.4,3.3,2.6,6.6c0.1,0.1-0.1,0.3-0.2,0.2c-3.3-2.9-4.4-5.4-4.1-5.4L62.1,338z"/>
		<path class="st6" d="M59.9,373.8c-0.3,0.3,4,2.8,9.7,4.3c0.1,0,0.1,0.3-0.1,0.3c-6.2-0.5-9.8-2-9.6-2.3L59.9,373.8z"/>
		<polygon class="st18" points="120.5,285.8 83.9,285.8 84.5,305.4 120.5,315.2 156.4,305.4 157,285.8 		"/>
		<path class="st20" d="M120.5,291.6c-27.1,0-34.3-6.1-34.3-6.1l6.7,14.5l27.6,7.3l27.6-7.3l6.7-14.5c0,0-5.3,4-21.1,5.5
			C129.9,291.4,125.5,291.6,120.5,291.6z"/>
		<g>
			<path class="st18" d="M100.4,300.1c0.7,0.3,2.2,1,2.2,1c-4.8,7.1-6.5,16.3-6.9,26.5c-1.7-0.4-3.3-0.8-4.9-1.3
				c-65.7-18.5-65.4-86.9-27.5-118.2c8.3-6.9,18.5-12,30.2-14.3c1.9-0.4,3.9-0.7,5.9-0.9c0,0,2,6.5,8,11.1c3.1,2.4,7.4,4.1,13,4.1
				v79.4H84l-2.4-58.1C59.5,240.6,49.4,279.7,100.4,300.1z"/>
			<polygon class="st20" points="83.4,254.3 85.1,296.5 91.5,299.4 88.2,272.4 93.2,271.8 88,269.7 85.6,259.1 			"/>
			<path class="st19" d="M66.6,297.3c-11,6.5-9.9,8.3-9.9,8.3l1.9,0.7C58.6,306.3,59.2,304.3,66.6,297.3
				C66.6,297.4,66.6,297.3,66.6,297.3z"/>
			<path class="st20" d="M52.8,274.6c12.6-2.2,12.2-4.2,12.2-4.2l-1.5-1.4C63.5,269,62.2,270.7,52.8,274.6
				C52.8,274.5,52.8,274.6,52.8,274.6z"/>
			<path class="st20" d="M94.9,304.1c-3.9,13.2-4,22.2-4,22.2c2.8,0.9,1.9,0.6,4.9,1.4l6.9-26.5c-0.7-0.1-1.6-0.7-2.2-1
				c-51-20.4-40.9-59.5-18.8-70.7v0l0.8-1.4C68,231,33.7,274.4,94.9,304.1z"/>
			<path class="st19" d="M91.2,322.1l-0.3,4.2l0,0.1c-65.7-18.5-65.4-86.9-27.5-118.2C40.5,233.4,17.3,296.5,91.2,322.1z"/>
			<path class="st20" d="M104.8,260.3c0,0-15,9.6-21.6-5.6C81.6,261.4,92.3,270.1,104.8,260.3"/>
			<path class="st20" d="M108.5,235c-3.2,6.4-4.7,13.5-4.3,20.5l0.2,2.8c0,0.5-0.2,0.9-0.7,1.1c-0.1,0.1-0.3,0.1-0.4,0.1
				c-0.3,0-0.6-0.1-0.8-0.3c-15.7-15.8-8-27.4-4-31.7c0.7-0.8,0.7-2,0-2.7c-13.2-14.8-8-26.4-5-30.9c1.9-0.4,3.9-0.7,5.9-0.9
				c0,0,2,6.5,8,11.1c-1.2,1.7-2.7,3.4-4.4,5c-0.1,0.1-0.1,0.2-0.1,0.3c0,0.1,0.1,0.2,0.1,0.2C107,212.4,115.5,220.8,108.5,235z"/>
			<path class="st6" d="M120.5,207.3c-15.6,0-20.1-14-20.2-14.6L100,192l-0.7,0.1c-38.8,4.6-60.8,37.1-62.5,66.8
				c-1.5,26.7,13.2,59,58.7,69.6l1,0.2l0-1c0.4-11.5,2.5-19.8,6.7-26.1l0.5-0.8l-0.9-0.4c-0.1,0-1.6-0.8-2.3-1.1h0
				c-30.7-12.3-35.9-29.8-36.3-39.2c-0.5-11.9,6-23.5,16.4-29.3l2.4,57.6l0.1,1.8l1.7,1.4l-0.2-4.9l-2.4-58.6l-1.2,0.6
				c-11.6,5.9-19.1,18.5-18.5,31.5c0.4,9.8,5.8,28.1,37.4,40.7c0.3,0.1,0.9,0.4,1.3,0.6c-3.9,6.2-6,14.3-6.4,25.1
				c-43.8-10.6-57.9-41.8-56.4-67.7c1.6-28.9,22.8-60.4,60.3-65.1c1.1,3,6.6,14.7,20.8,15.1v21.7h1.7v-23.4H120.5z"/>
			<g>
				<g>
					<path class="st5" d="M100.7,300.2c1,0.3,1.6,0.5,1.9,0.6c2.7,1,7.8-2.5,9.9-3.5c1.6-0.7,3.5,3.1,4.3,5.1c0.3,0.7,1,1.2,1.7,1.4
						l6.2,1.1c1,0.2,1.8,1,1.9,2.1c0,0,0.3,26.4-9.3,25.1c-8-1.1-15.3-2.7-22-4.6C96.9,314.8,99.2,305.3,100.7,300.2z"/>
					<path class="st13" d="M120.3,303.6c0,0,6.9,0.1,6.8,4.4c-0.1,4.3-1.1,13.3-2.2,17.1c-1.1,3.8-3.4,6.5-4,6.9c-0.6,0.5-4,0.6-7,0
						c-3-0.6-18.2-3.9-18.2-3.9s-1,0.2-0.8-1.1c0.2-1.3,3.2-20.4,4.4-23.9c1-3.1,1.3-3.4,1.3-3.4l2.9,0.9c0,0-4.7,14-3.5,18.5
						c6.2,1.3,15.5,3.6,15.5,3.6S120.8,315.3,120.3,303.6z"/>
					<path class="st7" d="M116.6,321c0,0,2.8-7.5,2.8-17.4l1.9,0.3C121.3,303.9,121.5,312.3,116.6,321z"/>
					<path class="st6" d="M117.3,319.6C117.3,319.6,117.3,319.6,117.3,319.6c3.2-5.1,4.5-15.9,4.5-15.9l-1.5-0.1
						C120.7,304.8,119.7,313.8,117.3,319.6z"/>
					<path class="st6" d="M126.7,312.1c-1.4,0.5-2.9,0.8-4.3,0.9c1.4,0.5,2.8,0.6,4.1,0.5L126.7,312.1z"/>
					<path class="st6" d="M125.7,319.8c-1.5,0.7-2.9,1-4.3,0.9c1.4,0.5,2.7,0.6,4.1,0.5L125.7,319.8z"/>
					<path class="st6" d="M124,326.1c-0.7,0.4-1.5,0.5-2.5,0.5c0.9,0.3,1.7,0.5,2.3,0.3L124,326.1z"/>
					<path class="st7" d="M111.6,301.2c-0.6,0-1.1,0.1-1.6,0.2c-0.5,0.1-1,0.3-1.4,0.6c-0.4,0.2-0.9,0.5-1.3,0.8
						c-0.4,0.3-0.8,0.6-1.1,1.1l0,0c0.5,0,1-0.2,1.5-0.3c0.5-0.1,0.9-0.3,1.4-0.6c0.4-0.2,0.9-0.5,1.3-0.8
						C110.8,301.9,111.2,301.6,111.6,301.2z"/>
				</g>
				<path class="st6" d="M117.3,333c-7.8-1-15.2-2.6-22.1-4.6l-0.7-0.2l0.1-0.7c1.5-12.4,3.7-21.8,5.3-27.5l0.2-0.8l1.9,0.6
					c0.4,0.1,0.7,0.2,0.9,0.3c1.8,0.6,5.2-1.2,7.4-2.5c0.7-0.4,1.4-0.8,1.9-1c0.5-0.2,1-0.2,1.5,0c1.3,0.5,2.6,2.4,4,5.6
					c0.2,0.5,0.6,0.8,1.1,0.9l6.2,1.1c1.4,0.3,2.5,1.4,2.6,2.9c0,0.8,0.2,19.3-5.8,24.6c-1.1,1-2.3,1.4-3.6,1.4
					C117.8,333.1,117.6,333.1,117.3,333z M112.9,298.2c-0.5,0.2-1.1,0.5-1.8,0.9c-2.7,1.5-6.3,3.5-8.8,2.6c-0.2-0.1-0.4-0.1-0.8-0.3
					l-0.2-0.1c-1.3,4.8-3.5,13.8-4.9,25.7c6.7,1.9,13.8,3.4,21.2,4.4c1.2,0.2,2.2-0.2,3.1-1c5.4-4.7,5.2-23.1,5.2-23.3
					c-0.1-0.7-0.6-1.2-1.2-1.3l-6.2-1.1c-1-0.2-1.9-0.9-2.3-1.9c-1.3-3.1-2.4-4.4-3-4.7C113,298.1,113,298.1,112.9,298.2
					C112.9,298.1,112.9,298.1,112.9,298.2z"/>
			</g>
			<path class="st19" d="M43.9,236.7c0,0,6.9,1.7,9.4,5c0.2,0.2-0.1,0.5-0.3,0.4c-5-2.8-10.1-3.3-10-3.4L43.9,236.7z"/>
			<path class="st6" d="M89.6,325.7c0.6-6,1.5-10.5,4.6-18.9c-2,8.5-2.5,13.4-2.8,19.3L89.6,325.7z"/>
		</g>
		<g>
			<path class="st18" d="M150.1,326.4c-1.6,0.5-3.3,0.9-4.9,1.3c-0.3-10.2-2.1-19.4-6.9-26.5c0,0,1.6-0.7,2.2-1
				c47.1-18.9,42-53.8,23.6-67.7c-1.5-1.1-3.1-2.1-4.8-3l0,0.5l-1.2,29.1l-0.9,21.8l-0.3,6.8h-36.5v-79.4c1.8,0,3.5-0.2,5-0.5
				c7.8-1.7,12.2-7.1,14.3-10.9c1.2-2.2,1.7-3.8,1.7-3.8c0.8,0.1,1.6,0.2,2.4,0.3c7.7,1.2,14.8,3.5,21.2,6.8
				c2.2,1.1,4.3,2.4,6.3,3.7c0.3,0.2,0.7,0.4,1,0.7c1.8,1.2,3.4,2.5,5.1,3.8C215.5,239.5,215.8,307.9,150.1,326.4z"/>
			<path class="st20" d="M166.3,200.6c-6.5,15.6-33.6,12.7-40.8,7c12.4-2.6,16-14.7,16-14.7C153.3,194.3,157.5,194.6,166.3,200.6z"
				/>
			<path class="st20" d="M136.2,260.3c0,0,15,9.6,21.6-5.6C159.4,261.4,148.7,270.1,136.2,260.3"/>
			<path class="st20" d="M158.6,228.1l-2.7,68.6h-6.4l2.6-17.6l-10.9-0.9l11.1-2.9l1.9-14.6c1.2-1.8,3.3-4.2,3.8-7.5
				C159.2,246.5,158.1,237,158.6,228.1z"/>
			<path class="st19" d="M189.2,252.6c11.4-5.7,12.3-3.9,12.3-3.9l-0.4,2C201.2,250.7,199.1,250.1,189.2,252.6
				C189.3,252.7,189.2,252.6,189.2,252.6z"/>
			<path class="st20" d="M166.7,303.5c-10.1-7.8-8.8-9.4-8.8-9.4l1.9-0.5C159.8,293.6,160.2,295.7,166.7,303.5
				C166.7,303.5,166.7,303.5,166.7,303.5z"/>
			<path class="st20" d="M146.1,304.1c3.9,13.2,4,22.2,4,22.2c-2.8,0.9-1.9,0.6-4.9,1.4l-6.9-26.5c0.7-0.1,1.6-0.7,2.2-1
				c51-20.4,40.9-59.5,18.8-70.7v0l-0.8-1.4C172.9,231,207.2,274.4,146.1,304.1z"/>
			<path class="st19" d="M149.8,322.1l0.3,4.2l0,0.1c65.7-18.5,65.4-86.9,27.5-118.2C200.5,233.4,223.7,296.5,149.8,322.1z"/>
			<path class="st20" d="M156.3,226.4c-0.1,0.1-0.1,0.2-0.1,0.3c0,0.1,0.1,0.2,0.1,0.3c0.9,0.7,2,1.8,3.1,3.1
				c3.8,4.6,7.5,12.8,1.1,24c-1,1.7-1.7,3.4-2.3,5.1c-1.6,4.7-1.7,9.4-1.7,14.8v3c0,0.5-0.3,0.9-0.7,1.1c-0.1,0.1-0.3,0.1-0.4,0.1
				c-0.3,0-0.6-0.1-0.9-0.4c-15.5-17.5-8.4-27.9-3.9-32.1c0.8-0.7,0.9-2,0.2-2.8c-13.1-16.6-6.6-28.4-3.2-32.8
				c0.7-0.8,0.6-2-0.2-2.8c-3.4-3.1-5.8-6.7-7.4-10.3c1.2-2.2,1.7-3.8,1.7-3.8c8.7,1,16.6,3.5,23.7,7.1c1,2.5,1.6,5.3,1.5,8.4
				C166.3,214.8,162.9,220.8,156.3,226.4z"/>
			<path class="st20" d="M173.3,213c-0.3,6.3-3.8,12.3-10.4,17.9c-0.1,0.1-0.1,0.2-0.1,0.3c0,0.1,0.1,0.2,0.1,0.3
				c0.3,0.3,0.7,0.6,1.1,1c-1.5-1.1-3.1-2.1-4.8-3l0,0.5l-1.2,29.1l-0.9,21.8c-12.5-16.1-4.3-26.8-0.1-30.8c0.8-0.7,0.9-2,0.2-2.8
				c-13.1-16.6-6.6-28.5-3.2-32.8c0.7-0.8,0.6-2-0.2-2.8c-5.9-5.4-8.8-12.2-10-18.3c7.7,1.2,14.8,3.5,21.2,6.8
				c2.2,1.1,4.3,2.4,6.3,3.7C172.7,206.4,173.5,209.5,173.3,213z"/>
			<path class="st6" d="M204.1,258.9c-1.7-29.7-23.7-62.2-62.5-66.8l-0.7-0.1l-0.2,0.7c-0.2,0.6-4.6,14.6-20.2,14.6h-0.8v96.4h1.7
				v-94.7c14.2-0.4,19.6-12.2,20.8-15.1c37.5,4.7,58.7,36.3,60.3,65.1c1.4,25.8-12.7,57.1-56.4,67.7c-0.5-10.9-2.5-18.9-6.4-25.1
				c0.5-0.2,1-0.5,1.3-0.6c31.6-12.7,37-30.9,37.4-40.7c0.6-13-6.9-25.6-18.5-31.5l-1.2-0.6l-2.4,58.6l-0.2,4.6
				c0.6-0.3,1.2-0.7,1.7-1.2l0.1-1.7l2.4-57.6c10.4,5.8,16.9,17.4,16.4,29.3c-0.3,8.1-4.3,22.2-25,33.8c-0.4,0.2-0.7,0.4-1.1,0.6
				c-3.1,1.7-6.4,3.3-10.2,4.8h0c-0.7,0.3-2.2,1-2.3,1.1l-0.9,0.4l0.5,0.8c4.2,6.3,6.4,14.5,6.7,26.1l0,1l1-0.2
				C190.9,317.9,205.6,285.6,204.1,258.9z"/>
			<g>
				<g>
					<path class="st5" d="M140.3,300.2c-1,0.3-1.6,0.5-1.9,0.6c-2.7,1-7.8-2.5-9.9-3.5c-1.6-0.7-3.5,3.1-4.3,5.1
						c-0.3,0.7-1,1.2-1.7,1.4l-6.2,1.1c-1,0.2-1.8,1-1.9,2.1c0,0-0.3,26.4,9.3,25.1c8-1.1,15.3-2.7,22-4.6
						C144,314.8,141.7,305.3,140.3,300.2z"/>
					<path class="st13" d="M120.6,303.6c0,0-6.9,0.1-6.8,4.4c0.1,4.3,1.1,13.3,2.2,17.1c1.1,3.8,3.4,6.5,4,6.9c0.6,0.5,4,0.6,7,0
						c3-0.6,18.2-3.9,18.2-3.9s1,0.2,0.8-1.1c-0.2-1.3-3.2-20.4-4.4-23.9c-1-3.1-1.3-3.4-1.3-3.4l-2.9,0.9c0,0,4.7,14,3.5,18.5
						c-6.2,1.3-15.5,3.6-15.5,3.6S120.2,315.3,120.6,303.6z"/>
					<path class="st7" d="M124.4,321c0,0-2.8-7.5-2.8-17.4l-1.9,0.3C119.6,303.9,119.4,312.3,124.4,321z"/>
					<path class="st6" d="M123.6,319.6C123.6,319.6,123.6,319.6,123.6,319.6c-3.2-5.1-4.5-15.9-4.5-15.9l1.5-0.1
						C120.3,304.8,121.2,313.8,123.6,319.6z"/>
					<path class="st6" d="M114.3,312.1c1.4,0.5,2.9,0.8,4.3,0.9c-1.4,0.5-2.8,0.6-4.1,0.5L114.3,312.1z"/>
					<path class="st6" d="M115.2,319.8c1.5,0.7,2.9,1,4.3,0.9c-1.4,0.5-2.7,0.6-4.1,0.5L115.2,319.8z"/>
					<path class="st6" d="M116.9,326.1c0.7,0.4,1.5,0.5,2.5,0.5c-0.9,0.3-1.7,0.5-2.3,0.3L116.9,326.1z"/>
					<path class="st7" d="M129.4,301.2c0.6,0,1.1,0.1,1.6,0.2c0.5,0.1,1,0.3,1.4,0.6c0.4,0.2,0.9,0.5,1.3,0.8
						c0.4,0.3,0.8,0.6,1.1,1.1l0,0c-0.5,0-1-0.2-1.5-0.3c-0.5-0.1-0.9-0.3-1.4-0.6c-0.4-0.2-0.9-0.5-1.3-0.8
						C130.1,301.9,129.7,301.6,129.4,301.2z"/>
				</g>
				<path class="st6" d="M122.9,333.1c-1.3,0-2.6-0.5-3.6-1.4c-5.9-5.3-5.8-23.8-5.8-24.6c0.1-1.5,1.2-2.6,2.6-2.9l6.2-1.1
					c0.5-0.1,0.9-0.4,1.1-0.9c1.4-3.2,2.7-5.1,4-5.6c0.5-0.2,1-0.2,1.5,0c0.5,0.2,1.2,0.6,1.9,1c2.2,1.2,5.6,3.1,7.4,2.5
					c0.2-0.1,0.5-0.2,0.9-0.3l1.9-0.6l0.2,0.8c1.6,5.7,3.8,15,5.3,27.5l0.1,0.7l-0.7,0.2c-6.9,2-14.4,3.6-22.1,4.6
					C123.4,333.1,123.1,333.1,122.9,333.1z M128,298.1c0,0-0.1,0-0.1,0c-0.6,0.2-1.7,1.6-3,4.7c-0.4,1-1.3,1.7-2.3,1.9l-6.2,1.1
					c-0.7,0.1-1.2,0.7-1.2,1.3c0,0.1-0.1,18.5,5.2,23.3c0.9,0.8,1.9,1.1,3.1,1c7.4-1,14.5-2.5,21.2-4.4c-1.5-11.9-3.6-20.9-4.9-25.7
					l-0.2,0.1c-0.4,0.1-0.7,0.2-0.8,0.3c-2.5,0.9-6.1-1.1-8.8-2.6C129.1,298.7,128.5,298.4,128,298.1
					C128.1,298.1,128,298.1,128,298.1z"/>
			</g>
			<path class="st6" d="M176.7,267.3c1,0.2,7,1.7,9.5,4.3c0.1,0.1,0,0.4-0.2,0.3c-4.6-2.1-9-2.8-9.9-3c-0.1,0-0.2-0.1-0.1-0.2
				l0.5-1.3C176.5,267.4,176.6,267.3,176.7,267.3z"/>
			<path class="st6" d="M151.4,325.7c-0.6-6-1.5-10.5-4.6-18.9c2,8.5,2.5,13.4,2.8,19.3L151.4,325.7z"/>
		</g>
		<g>
			<path class="st6" d="M158.3,243.7c1.2,3.2,1.3,6.8,0.3,10.1c-1,3.3-3.1,6.4-6.2,8.2c-1.5,0.9-3.3,1.5-5,1.7
				c-1.8,0.2-3.6,0-5.3-0.4c-3.4-0.9-6.4-2.7-8.9-4.9l0.2-0.2c1.5,0.8,2.9,1.6,4.4,2.2c1.5,0.6,3.1,1.2,4.6,1.4
				c1.6,0.3,3.2,0.4,4.7,0.2c1.6-0.2,3.1-0.7,4.4-1.5c1.4-0.8,2.6-1.8,3.6-3c1-1.2,2.5-3.8,2.6-6.6C158.8,248,158.9,247,158.3,243.7
				z"/>
		</g>
		<path class="st20" d="M134.9,257c-0.2,0-0.3,0.2-0.1,0.3c3.2,1.4,13.3,5.4,19.2-1.7c2.8-3.4,2.8-8.8,2.8-11.5
			c0-0.2-0.6-0.1-0.7,0.1C152.2,257.4,141.8,257.8,134.9,257z"/>
		<path class="st20" d="M103.9,257.2c-6.8,0.4-15.6-1.1-19.1-13c-0.1-0.2-0.7-0.3-0.7-0.1c0,2.7,0,8.1,2.8,11.5
			c4.9,5.9,12.7,4.1,17.1,2.5C103.9,257.9,103.9,257.5,103.9,257.2z"/>
		<g>
			<path class="st6" d="M82.7,243.7c-1.2,3.2-1.3,6.8-0.3,10.1c1,3.3,3.1,6.4,6.2,8.2c1.5,0.9,3.3,1.5,5,1.7c1.8,0.2,3.6,0,5.3-0.4
				c3.4-0.9,6.4-2.7,8.9-4.9l-0.2-0.2c-1.5,0.8-2.9,1.6-4.4,2.2c-1.5,0.6-3.1,1.2-4.6,1.4c-1.6,0.3-3.2,0.4-4.7,0.2
				c-1.6-0.2-3.1-0.7-4.4-1.5c-1.4-0.8-2.6-1.8-3.6-3c-1-1.2-2.5-3.8-2.6-6.6C82.1,248,82,247,82.7,243.7z"/>
		</g>
		<g>
			<path class="st73" d="M162.7,158.6c-0.5-0.4-0.6-1.2-0.3-1.7c20.7-39.8,1.5-50,1.5-50c0-0.1-3.8-16.3-7.2-18.8
				C176.2,66,156,53.8,156,53.8v17.6c0,0-20.2,12.2-0.7,34.4c-3.5,2.5-17.6,14.6,0.7,34.7c0,0.2,0,0.3,0,0.5
				c0,0-34.9,11.3-15.5,33.4c-1.6,2-3.3,20.5,9.4,32.1c1.1,1,1.3,2.7,0.3,3.9c-3.5,4.4-9.4,15.8,3.2,31.7c1,1.2,0.8,2.9-0.3,4
				c-4.8,4.5-12.5,15.6,2.3,32.3c0.2,0.2,0.6,0.1,0.6-0.2l0-3c0-7.6,2.1-15,5.8-21.6c7.9-13.8-0.1-22.7-4-26c-0.6-0.5-0.6-1.3,0-1.8
				c18.5-15.7,6.5-30.3,3-33.9c-0.5-0.5-0.4-1.2,0.1-1.7C176.5,175.3,167.2,162.7,162.7,158.6z"/>
			<path class="st64" d="M139.4,181.2c0,1.4,0.2,16.6,10.1,24.5c0.3,0.2,0.7-0.1,0.6-0.4c-2.7-7.6-3.1-15.1-3.2-17.1
				c0-0.3,0.2-0.4,0.5-0.3c1.2,0.4,4.3,1.4,7.1-0.1c0.2-0.1,0.3-0.5,0-0.6c-3.3-2-4.3-5.7-3.3-9.2c0.1-0.2,0.4-0.3,0.6-0.2
				c1.3,1.1,5.9,0.9,8.8-0.6c0.3-0.1,0.2-0.6,0-0.7c-9.5-3.2,14.7-13.1-0.5-19.9c-0.3-0.1-5,3.4-5.3,3.7L139.5,181
				C139.4,181.1,139.4,181.2,139.4,181.2z"/>
			<path class="st80" d="M150.2,210.3c0,0-8.2,12,4.3,31.8c-4.4-4-8-9.6-8.5-15.6C145.4,220.5,146.6,212.9,150.2,210.3z"/>
			<path class="st80" d="M154.5,245.3c-2.2,2.8-8.3,12-3.8,25.2c-2.7-6.1-4.5-10.7-3.3-15.5s3.9-7.1,3.9-7.1L154.5,245.3z"/>
			<path class="st6" d="M151.4,272.7c0,0-1.8-7.7-0.9-13c0.1-0.4,0.6-0.3,0.6,0c0.3,7,2.5,14.7,4.5,17.7c-1.7-1.3-3.9-4.1-3.9-4.1
				L151.4,272.7z"/>
			<path class="st64" d="M156,278.4c0,0-4.4-13.1,2.4-22.5c6.9-9.5,6.1-17.2,3.8-22c3.3,3.6,3.1,11.2,2.3,13.7s-3.5,8.5-3.5,8.5
				s-2.5,4.6-3.4,8.6C156.7,268.7,156,278.4,156,278.4z"/>
			<path class="st64" d="M155.4,257.1c0.1-0.3-0.1-0.4-0.2-0.1c-3.4,8.2-1.5,16.1,0.1,20.5c0.9-0.6,1-2.3,1-2.3
				S153.4,263.9,155.4,257.1z"/>
			<path class="st64" d="M162.7,195.2c0,0,6.6,19.3-10.2,27c-1.3,0.6,3.4,3.7,4.7,3.7c2.3-0.8,5.1-4.3,5.1-4.3l4.2-7.1
				c0,0,2.2-6.1,1.3-9.4c-0.9-3.2-1.4-5-1.4-5l-2.2-4.5L162.7,195.2z"/>
			<path class="st64" d="M162.2,158.5c0,0,11.8,16.4-4.9,28.7c2.4,3.8,3.2,3.6,3.2,3.6l3.4-3.4c0,0,5.5-7.3,5.9-12.4
				c0.4-5.1-2.5-10.2-3.1-11.3S162.2,158.5,162.2,158.5z"/>
			<path class="st64" d="M168.5,119.6c0.2,0,2.5-0.5,2.9,0.5c0.5,1.2,0.7,4.6,0,11.7c-0.7,7.1-8.7,24.6-9.6,26.2
				c-0.9,1.6-2.8,0-2.8,0s2.8-9.7,4.1-12.5c1.2-2.8,3.1-17.1,3.1-17.1l0.8-7.4l0.5-1.3L168.5,119.6"/>
			<path class="st6" d="M155.7,279.2c-0.3,0-0.6-0.1-0.9-0.4c-15.5-17.5-6.7-29.2-2.2-33.4c0.8-0.7,0.9-2,0.2-2.8
				c-13.1-16.6-6.6-28.4-3.2-32.8c0.7-0.8,0.6-2-0.2-2.8c-12.3-11.3-11.4-28.5-9.8-32.6c-4.9-5.8-6.7-11.4-5.2-16.7
				c2.8-10.3,16.8-16,20.5-17.3c-6.5-7.3-9.5-14.4-8.8-21c0.7-7.1,5.4-11.7,8-13.8c-6.2-7.3-8.9-14.4-7.9-21
				c1.2-7.9,7.3-12.6,9-13.7V52.3l1.3,0.8c0.3,0.2,8,4.9,9.4,13.9c1,6.6-1.6,13.7-7.9,21.1c3.2,3.6,6.2,15.6,6.8,18.3
				c1.2,0.7,5.1,3.7,7.1,10.4c3,10.2,0.1,23.8-8.6,40.5c-0.1,0.3-0.1,0.6,0.1,0.7c1.7,1.5,7,7.1,7.1,15.1c0,6-3,12-8.9,17.6
				c-0.1,0.1-0.1,0.2-0.1,0.3c0,0.1,0,0.2,0.1,0.2c2.3,2.4,7.7,8.9,7.3,17.3c-0.3,6.3-3.8,12.3-10.3,17.9c-0.1,0.1-0.1,0.2-0.1,0.3
				c0,0.1,0,0.2,0.1,0.3c4,3.3,12.4,12.6,4.2,27c-3.7,6.5-5.7,13.9-5.7,21.2v3c0,0.5-0.3,0.9-0.8,1.1
				C155.9,279.2,155.8,279.2,155.7,279.2z M156.8,55.4v16.4l-0.4,0.2c-0.1,0-7.3,4.6-8.6,12.8c-1,6.3,1.8,13.1,8.1,20.3l0.6,0.7
				l-0.7,0.5c-2.2,1.6-7.3,6-8,13.1c-0.6,6.3,2.3,13.1,8.9,20.3l0.2,0.2v1.4l-0.6,0.2c-0.2,0.1-17.4,5.7-20.3,16.5
				c-1.3,4.8,0.4,10.1,5.3,15.6l0.5,0.5l-0.4,0.5c-1.1,1.4-3.5,19.3,9.3,31c1.4,1.3,1.6,3.5,0.4,5.1c-3.2,4-9.2,15.1,3.2,30.7
				c1.2,1.5,1,3.8-0.4,5.1c-5,4.7-11.4,14.8,1.4,30.1v-1.6c0-7.6,2.1-15.2,5.9-22c7.6-13.3-0.1-21.8-3.8-24.9
				c-0.5-0.4-0.7-1-0.7-1.5c0-0.6,0.3-1.2,0.7-1.6c6.2-5.2,9.5-10.9,9.8-16.7c0.4-7.8-4.6-13.8-6.8-16c-0.4-0.4-0.6-0.9-0.6-1.5
				c0-0.6,0.2-1.1,0.6-1.5c5.6-5.3,8.4-10.8,8.4-16.4c0-7.3-5-12.5-6.6-13.9v0c-0.8-0.7-0.9-1.8-0.5-2.7c20.1-38.6,2-48.7,1.9-48.8
				l-0.4-0.2V107c-0.4-2.3-4.1-16.1-6.9-18.2l-0.7-0.5l0.6-0.7c6.3-7.2,9-14,8.1-20.3C163.2,61.1,159,57.1,156.8,55.4z"/>
			<path class="st6" d="M148.3,203.6c0,0,6.3,6.2,8.7,9c0.1,0.2-0.1,0.4-0.2,0.3c-3.7-2.7-7.4-5.8-7.4-5.8L148.3,203.6z"/>
			<path class="st6" d="M158.2,228.9c0,0-6.6-5.8-9.1-8.5c-0.1-0.2,0.1-0.4,0.2-0.3c3.9,2.5,7.7,5.5,7.7,5.5L158.2,228.9z"/>
			<path class="st6" d="M151.3,249.3c0,0,6-6.5,8.2-9.4c0.1-0.2-0.1-0.4-0.3-0.3c-3.6,2.9-7.1,6.2-7.1,6.2L151.3,249.3z"/>
			<path class="st6" d="M163.5,193.5c0,0-5.9-6.6-8.6-9.1c-0.2-0.2-0.4,0-0.3,0.2c2.4,3.9,5.5,7.5,5.5,7.5L163.5,193.5z"/>
			<path class="st6" d="M162.1,156.9c-0.2-0.1-0.4-0.2-0.5-0.3c-1,2.2-2.6,5.8-3.8,8.5c-0.1,0.2,0.2,0.4,0.3,0.2
				c1.5-2,3.7-5.2,4.9-7.1c-0.2-0.4-0.3-0.8-0.5-1.2C162.4,157,162.3,157,162.1,156.9z"/>
		</g>
		<g>
			<path class="st73" d="M105.1,235.8c-3.2,6.9-4.7,14.4-4.1,22l0.2,3c0,0.3-0.3,0.5-0.5,0.3c-16.1-15.4-9.3-27.1-4.9-32
				c1-1.1,1-2.9,0-4c-13.9-14.9-8.9-26.7-5.8-31.4c0.8-1.3,0.5-3-0.6-3.9c-4.9-3.8-8-8.6-9.9-13.4c-3.4-8.4-2.9-16.5-2.1-17.8
				c-3.2-3.1-5.1-6-6.1-8.8C65.8,134.2,90.2,124,90.2,124c0-0.2,0-0.3,0-0.5C70.3,105,83.3,91.8,86.6,89
				c-21.2-20.5-2.1-34.3-2.1-34.3l-1.4-17.5c0,0,21.1,10.5,3.5,34.2c3.7,2.2,8.7,18,8.7,18.1c0,0,19.9,8.6,2.5,49.9
				c-0.3,0.6-0.1,1.3,0.4,1.7c2.1,1.6,5.3,4.9,6.9,9.3c2.1,5.6,1.8,13.3-6.2,22.2c-0.5,0.5-0.4,1.3,0.1,1.7
				c2.4,2.1,8.7,8.5,8.4,17.3c-0.2,4.9-2.5,10.6-8.6,16.7c-0.5,0.5-0.5,1.4,0.2,1.8C103.2,213.2,111.9,221.4,105.1,235.8z"/>
			<path class="st80" d="M90.1,193.7c0,0-7.2,12.6,6.8,31.4c-4.7-3.7-8.7-8.9-9.8-14.9C86.1,204.2,86.7,196.6,90.1,193.7z"/>
			<path class="st80" d="M97.2,228.3c-2,3-7.3,12.6-1.8,25.4c-3.2-5.9-5.4-10.3-4.5-15.2c0.8-4.8,3.3-7.4,3.3-7.4L97.2,228.3z"/>
			<path class="st6" d="M96.3,255.8c0,0-2.4-7.5-2-12.9c0-0.4,0.6-0.4,0.6,0c0.9,7,3.7,14.5,5.9,17.2c-1.8-1.2-4.2-3.7-4.2-3.7
				L96.3,255.8z"/>
			<path class="st64" d="M101.3,261.1c0,0-5.5-12.7,0.5-22.6c6.1-10.1,4.6-17.7,2-22.2c3.6,3.3,4,10.9,3.4,13.4
				c-0.6,2.5-2.8,8.8-2.8,8.8s-2.1,4.8-2.7,8.8S101.3,261.1,101.3,261.1z"/>
			<path class="st64" d="M99.1,239.9c0.1-0.3-0.1-0.4-0.3-0.1c-2.7,8.4-0.1,16.1,1.8,20.4c0.9-0.7,0.8-2.3,0.8-2.3
				S97.6,246.9,99.1,239.9z"/>
			<path class="st64" d="M101.2,177.7c0,0,8.1,18.7-8,27.8c-1.3,0.7,3.7,3.4,5,3.3c2.2-1,4.8-4.7,4.8-4.7l3.6-7.5
				c0,0,1.7-6.3,0.5-9.4s-1.8-4.9-1.8-4.9l-2.6-4.3L101.2,177.7z"/>
			<path class="st64" d="M97.8,141.1c0,0,13.1,15.4-2.6,29c2.7,3.6,3.5,3.3,3.5,3.3l3.1-3.6c0,0,4.9-7.7,4.8-12.9s-3.4-10-4-11
				C102,144.8,97.8,141.1,97.8,141.1z"/>
			<path class="st64" d="M100.9,101.8c0.2,0,2.5-0.7,3,0.3c0.6,1.2,1,4.6,1,11.7c-0.1,7.1-6.7,25.2-7.5,26.9
				c-0.8,1.7-2.8,0.2-2.8,0.2s2.1-9.9,3-12.7c1-2.9,1.7-17.3,1.7-17.3l0.2-7.5l0.4-1.3L100.9,101.8"/>
			<path class="st64" d="M107.5,189.7c-9.4-0.5-22.2-7.2-28-13.3c-3.4-8.4-2.9-16.5-2.1-17.8c-3.2-3.1-5.1-6-6.1-8.8
				c3.3-3.1,6.2-5.7,6.2-5.7l18.2,3.8l9.6,2.7c2.1,5.6,1.8,13.3-6.2,22.2c-0.5,0.5-0.4,1.3,0.1,1.7
				C101.6,176.5,107.9,180.9,107.5,189.7z"/>
			<polygon class="st64" points="88.9,197.7 92.3,194.8 96.8,195.7 91.3,191.4 90,194.8 			"/>
			<path class="st6" d="M101.1,262c-0.3,0-0.6-0.1-0.9-0.3c-16.9-16.2-9.1-28.6-5-33.2c0.7-0.8,0.7-2.1,0-2.8
				c-14.4-15.4-8.9-27.8-5.9-32.4c0.6-0.9,0.4-2.1-0.5-2.7c-13.2-10.2-13.7-27.5-12.4-31.7c-5.4-5.4-7.6-10.8-6.6-16.2
				c2-10.5,15.4-17.3,19.1-19c-7.1-6.8-10.6-13.6-10.5-20.2c0.2-7.1,4.4-12.1,6.8-14.4c-6.8-6.8-10-13.6-9.6-20.3
				c0.6-8,6.3-13.1,7.8-14.4l-1.5-18.6l1.3,0.7c0.3,0.2,8.4,4.3,10.5,13.1c1.6,6.5-0.5,13.8-6.2,21.6c3.5,3.3,7.4,15,8.3,17.7
				c1.2,0.6,5.4,3.2,7.9,9.7c3.8,9.9,2,23.7-5.2,41.1c-0.1,0.3,0,0.6,0.2,0.7c1.8,1.4,7.6,6.5,8.3,14.5c0.5,6-2,12.2-7.5,18.3
				c-0.1,0.1-0.1,0.2-0.1,0.3c0,0.1,0,0.2,0.1,0.2c2.5,2.2,8.4,8.2,8.6,16.6c0.2,6.3-2.8,12.6-8.9,18.7c-0.1,0.1-0.1,0.2-0.1,0.3
				c0,0.1,0.1,0.2,0.2,0.2c4.3,3,13.4,11.6,6.3,26.6c-3.2,6.8-4.6,14.3-4,21.6l0.2,2.9c0,0.5-0.2,0.9-0.7,1.1
				C101.4,261.9,101.2,261.9,101.1,262z M84.1,38.8l1.3,16.4L85,55.4c-0.1,0.1-6.9,5.1-7.5,13.4c-0.4,6.3,2.8,12.9,9.7,19.6l0.7,0.6
				l-0.7,0.6c-2,1.7-6.8,6.6-6.9,13.7c-0.1,6.3,3.4,12.9,10.5,19.5l0.2,0.2l0.1,1.4l-0.6,0.2c-0.2,0.1-16.9,7.1-18.9,18.1
				c-0.9,4.9,1.3,10,6.5,15.1l0.5,0.5l-0.4,0.6c-1,1.5-1.9,19.6,11.7,30.1c1.5,1.2,1.9,3.4,0.8,5c-2.8,4.3-7.9,15.8,5.7,30.3
				c1.3,1.4,1.3,3.7,0,5.1c-4.6,5.1-10.1,15.7,3.9,29.8l-0.1-1.6c-0.6-7.6,0.8-15.4,4.1-22.4c6.5-13.9-1.9-21.8-5.8-24.5
				c-0.5-0.4-0.8-0.9-0.9-1.5c0-0.6,0.2-1.2,0.6-1.6c5.7-5.7,8.6-11.6,8.4-17.4c-0.3-7.8-5.7-13.4-8.1-15.4
				c-0.4-0.4-0.7-0.9-0.7-1.4c0-0.6,0.2-1.1,0.5-1.5c5.2-5.8,7.5-11.5,7-17c-0.6-7.3-6-12-7.7-13.3l0,0c-0.8-0.6-1.1-1.7-0.7-2.7
				C114,99,95.2,90.4,95,90.3l-0.5-0.2l0-0.4c-0.6-2.2-5.4-15.7-8.3-17.6l-0.8-0.5l0.6-0.7c5.7-7.7,7.9-14.7,6.4-20.9
				C90.9,44,86.4,40.3,84.1,38.8z"/>
			<path class="st6" d="M87.6,187.2c0,0,6.8,5.6,9.4,8.2c0.2,0.2,0,0.4-0.2,0.3c-3.9-2.4-7.9-5.2-7.9-5.2L87.6,187.2z"/>
			<path class="st6" d="M99.5,211.6c0,0-7-5.3-9.8-7.8c-0.2-0.1,0-0.4,0.2-0.3c4.1,2.2,8.1,4.8,8.1,4.8L99.5,211.6z"/>
			<path class="st6" d="M94.3,232.5c0,0,5.4-6.9,7.4-10c0.1-0.2-0.1-0.4-0.3-0.2c-3.4,3.2-6.6,6.8-6.6,6.8L94.3,232.5z"/>
			<path class="st6" d="M101.9,175.9c0,0-6.4-6.1-9.3-8.4c-0.2-0.1-0.4,0.1-0.3,0.2c2.7,3.7,6.1,7.1,6.1,7.1L101.9,175.9z"/>
			<path class="st6" d="M97.6,139.5c-0.2-0.1-0.4-0.2-0.5-0.3c-0.8,2.3-2.2,6-3.1,8.7c-0.1,0.2,0.2,0.3,0.3,0.2
				c1.4-2.1,3.2-5.5,4.3-7.5c-0.2-0.4-0.4-0.7-0.6-1.1C97.9,139.6,97.8,139.6,97.6,139.5z"/>
		</g>
		<g>
			<g>
				<g>
					<g>
						<path class="st5" d="M163.7,142c-3.4-1.4-5.9-5-5.1-10c0.7-4.5,3.3-8.5,7.1-11C186.9,113.5,178.6,141.1,163.7,142z"/>
						<path class="st6" d="M163.6,142.8l-0.2-0.1c-4.2-1.7-6.4-6-5.6-11c0.8-4.7,3.5-8.9,7.4-11.6l0.2-0.1c7.1-2.5,10.5-1,12.1,0.7
							c2.1,2.2,2.4,6.1,0.7,10.3c-2.1,5.4-7.5,11.3-14.5,11.7L163.6,142.8z M166.1,121.7c-3.5,2.4-5.9,6.2-6.6,10.4
							c-0.8,4.9,1.7,7.9,4.4,9c6.2-0.5,11-5.8,12.9-10.6c1.4-3.6,1.3-6.8-0.4-8.5C174.5,120.1,171,120,166.1,121.7z"/>
					</g>
					<g>
						<path class="st6" d="M175.6,125c-0.4-1-1.1-1.4-2-1.5c0.5,0.2,0.9,0.6,1.1,1.2c0.6,1.6-0.1,3.7-1,5.4c-1.1,2-2.9,3.3-5.1,3.8
							c0,0.1,0.1,0.2,0.1,0.4c2.4-0.3,4.6-1.7,5.8-3.9C175.5,128.6,176.2,126.5,175.6,125z"/>
						<path class="st6" d="M175.1,128.8c-0.2,0.3-2.5,3-2.3,2.7c1.1-1.7,1.8-5.6-0.8-5.9c-0.6-0.1-0.5-1.4,0.2-1.8
							c0.5-0.4,1.7-0.4,2.3-0.1c0.5,0.3,0.8,0.7,1,1.1c0.1,0.2-0.2,0.5-0.1,0.7C175.6,126.6,175.6,127.8,175.1,128.8z"/>
						<path class="st13" d="M169.5,128c1.2,0.7-0.5,1.8,0.2,3c0.1,0.2,0.7,0.5,1.6-0.6c0.9-0.9,1.3-1.9,0.4-3
							c-0.3-0.4-1.1-0.7-1.5-0.6C169.6,127,169.2,127.8,169.5,128z"/>
					</g>
					<path class="st13" d="M164.5,138.7C164.5,138.6,164.5,138.6,164.5,138.7C164.5,138.7,164.6,138.7,164.5,138.7
						c0.2,0,0.3,0,0.4,0c0.2,0,0.4-0.1,0.7-0.1c0.5-0.1,0.9-0.2,1.4-0.4c0.9-0.3,1.8-0.7,2.6-1.2c0.8-0.5,1.6-1.1,2.3-1.7
						c0.7-0.7,1-0.5,0.3,0.3c-0.6,0.8-1.4,1.5-2.2,2.2c-0.8,0.7-1.7,1.2-2.6,1.7c-0.5,0.2-0.9,0.4-1.5,0.6c-0.3,0.1-0.5,0.2-0.8,0.2
						c-0.1,0-0.3,0.1-0.4,0.1c-0.1,0-0.1,0-0.3,0c-0.1,0-0.3,0-0.4,0L164.5,138.7z"/>
				</g>
			</g>
			<g>
				<g>
					<g>
						<path class="st5" d="M77.2,142c3.4-1.4,5.9-5,5.1-10c-0.7-4.5-3.3-8.5-7.1-11C54,113.5,62.3,141.1,77.2,142z"/>
						<path class="st6" d="M77.2,142.8c-7-0.4-12.4-6.3-14.5-11.7c-1.7-4.2-1.4-8.1,0.7-10.3c1.6-1.7,5-3.2,12.1-0.7l0.2,0.1
							c4,2.7,6.7,6.9,7.4,11.6c0.8,4.9-1.3,9.2-5.6,11l-0.2,0.1L77.2,142.8z M64.6,122c-1.7,1.7-1.8,4.9-0.4,8.5
							c1.9,4.8,6.7,10.2,12.9,10.6c2.7-1.2,5.2-4.1,4.4-9c-0.7-4.2-3.1-8-6.6-10.4C70,120,66.4,120.1,64.6,122z"/>
					</g>
					<g>
						<path class="st6" d="M65.3,125c0.4-1,1.1-1.4,2-1.5c-0.5,0.2-0.9,0.6-1.1,1.2c-0.6,1.6,0.1,3.7,1,5.4c1.1,2,2.9,3.3,5.1,3.8
							c0,0.1-0.1,0.2-0.1,0.4c-2.4-0.3-4.6-1.7-5.8-3.9C65.5,128.6,64.8,126.5,65.3,125z"/>
						<path class="st6" d="M65.9,128.8c0.2,0.3,2.5,3,2.3,2.7c-1.1-1.7-1.8-5.6,0.8-5.9c0.6-0.1,0.5-1.4-0.2-1.8
							c-0.5-0.4-1.7-0.4-2.3-0.1c-0.5,0.3-0.8,0.7-1,1.1c-0.1,0.2,0.2,0.5,0.1,0.7C65.3,126.6,65.4,127.8,65.9,128.8z"/>
						<path class="st13" d="M71.4,128c-1.2,0.7,0.5,1.8-0.2,3c-0.1,0.2-0.7,0.5-1.6-0.6c-0.9-0.9-1.3-1.9-0.4-3
							c0.3-0.4,1.1-0.7,1.5-0.6C71.3,127,71.8,127.8,71.4,128z"/>
					</g>
					<path class="st13" d="M76.4,138.7C76.4,138.6,76.4,138.6,76.4,138.7C76.4,138.7,76.3,138.7,76.4,138.7c-0.2,0-0.3,0-0.4,0
						c-0.2,0-0.4-0.1-0.7-0.1c-0.5-0.1-0.9-0.2-1.4-0.4c-0.9-0.3-1.8-0.7-2.6-1.2c-0.8-0.5-1.6-1.1-2.3-1.7c-0.7-0.7-1-0.5-0.3,0.3
						c0.6,0.8,1.4,1.5,2.2,2.2c0.8,0.7,1.7,1.2,2.6,1.7c0.5,0.2,0.9,0.4,1.5,0.6c0.3,0.1,0.5,0.2,0.8,0.2c0.1,0,0.3,0.1,0.4,0.1
						c0.1,0,0.1,0,0.3,0c0.1,0,0.3,0,0.4,0L76.4,138.7z"/>
				</g>
			</g>
		</g>
		<g>
			<path class="st82" d="M170.8,57.9c0,6.6-1.7,12.8-4.7,18.4c-8-14.8-25.5-16.9-45.6-16.9s-37.6,2.1-45.6,16.9
				c-3-5.6-4.7-11.8-4.7-18.4c0-24,22.6-43.4,50.4-43.4S170.8,33.9,170.8,57.9z"/>
			<path class="st83" d="M122.7,15c0,0,34.6,17.7,16.4,49.2c27.5,7.6,30.9,4.6,31.6-6.4C171.5,46.9,162.1,15.9,122.7,15z"/>
			<path class="st84" d="M118.2,15c0,0-36,9.3-20.8,52.5c-27.5,7.6-26.5,1.3-27.2-9.7C69.4,46.9,78.8,15.9,118.2,15z"/>
			<path class="st7" d="M81.5,31.6c0,0,16.7-18.4,36.2-16.4C106.5,17.3,88.7,25.4,81.5,31.6z"/>
			<g>
				<path class="st6" d="M143.2,44.3c-0.7-18.6-21.6-29-21.8-29.1l0.7-1.5c0.2,0.1,22,10.9,22.8,30.6L143.2,44.3z"/>
			</g>
			<g>
				<path class="st6" d="M94.6,44.3h-1.7c0-21.1,24.8-30.5,25-30.6l0.6,1.6C118.3,15.4,94.6,24.4,94.6,44.3z"/>
			</g>
			<path class="st6" d="M74.8,78l-0.7-1.4c-3.2-5.9-4.8-12.2-4.8-18.8c0-24.4,23-44.3,51.2-44.3c28.2,0,51.2,19.9,51.2,44.3
				c0,6.6-1.6,12.9-4.8,18.8l-0.7,1.4l-0.7-1.4C157.9,63,142,60.2,120.5,60.2S83,63,75.6,76.7L74.8,78z M120.5,58.5
				c17.4,0,36.5,1.3,45.6,16c2.6-5.3,3.9-10.9,3.9-16.7c0-23.5-22.2-42.6-49.5-42.6S70.9,34.4,70.9,57.9c0,5.8,1.3,11.4,3.9,16.7
				C83.9,59.8,103.1,58.5,120.5,58.5z"/>
		</g>
		<g>
			<g>
				<g>
					<g>
						<path class="st65" d="M172.6,155.3c0.7,0,1.3-0.4,1.6-1.1c0.3-0.7,0.2-1.4-0.3-1.9l-3.9-4.4c-0.3-0.4-0.8-0.6-1.3-0.6l0,0
							c-0.5,0-1,0.2-1.3,0.6l-3.9,4.4c-0.5,0.5-0.6,1.3-0.3,1.9c0.3,0.7,0.9,1.1,1.6,1.1H172.6z"/>
						<path class="st6" d="M168.7,148.2c0.3,0,0.5,0.1,0.7,0.3l3.9,4.4c0.5,0.6,0.1,1.6-0.7,1.6h-3.9h-3.9c-0.8,0-1.3-1-0.7-1.6
							l3.9-4.4C168.2,148.3,168.5,148.2,168.7,148.2 M168.7,146.5c-0.8,0-1.5,0.3-2,0.9l-3.9,4.4c-0.7,0.8-0.9,1.9-0.4,2.8
							c0.4,1,1.4,1.6,2.4,1.6h3.9h3.9c1,0,2-0.6,2.4-1.6c0.4-1,0.3-2-0.4-2.8l-3.9-4.4C170.2,146.8,169.5,146.5,168.7,146.5
							L168.7,146.5z"/>
						<g>
							<path class="st65" d="M165.6,160.3c0.8,0,1.4-0.5,1.6-1.3c0-0.2,0-0.4,0-0.6l-0.4-2.2c-0.1-0.6-0.6-1-1.2-1h-0.1l-0.1,0
								c-0.5,0.1-0.9,0.5-0.9,0.9l-0.4,2.2c-0.2,0.9,0.4,1.7,1.3,1.8C165.4,160.3,165.5,160.3,165.6,160.3z"/>
							<path class="st6" d="M165.6,156.1c0.2,0,0.3,0.1,0.3,0.3l0.4,2.2c0,0.1,0,0.2,0,0.3c-0.1,0.4-0.4,0.6-0.7,0.6
								c0,0-0.1,0-0.1,0c-0.4-0.1-0.7-0.5-0.6-0.9l0.4-2.2C165.2,156.3,165.4,156.1,165.6,156.1
								C165.5,156.1,165.5,156.1,165.6,156.1 M165.6,154.4c-0.1,0-0.2,0-0.4,0c-0.8,0.1-1.5,0.8-1.6,1.6l-0.4,2.2
								c-0.1,0.6,0,1.3,0.4,1.8c0.4,0.5,0.9,0.9,1.6,1c0.1,0,0.3,0,0.4,0c1.2,0,2.2-0.8,2.4-2c0.1-0.3,0.1-0.6,0-0.9l-0.4-2.2
								C167.4,155.1,166.5,154.4,165.6,154.4L165.6,154.4z"/>
						</g>
						<g>
							<path class="st65" d="M168.7,160.3c0.8,0,1.4-0.5,1.6-1.3c0-0.2,0-0.4,0-0.6l-0.4-2.2c-0.1-0.6-0.6-1-1.2-1h-0.1l-0.1,0
								c-0.5,0.1-0.9,0.5-0.9,0.9l-0.4,2.2c-0.1,0.4,0,0.8,0.3,1.2c0.2,0.3,0.6,0.6,1,0.7C168.5,160.3,168.6,160.3,168.7,160.3z"/>
							<path class="st6" d="M168.7,156.1c0.2,0,0.3,0.1,0.3,0.3l0.4,2.2c0,0.1,0,0.2,0,0.3c-0.1,0.4-0.4,0.6-0.7,0.6
								c0,0-0.1,0-0.1,0c-0.4-0.1-0.7-0.5-0.6-0.9l0.4-2.2C168.4,156.3,168.5,156.1,168.7,156.1
								C168.7,156.1,168.7,156.1,168.7,156.1 M168.7,154.4c-0.1,0-0.2,0-0.4,0c-0.8,0.1-1.5,0.8-1.6,1.6l-0.4,2.2
								c-0.1,0.6,0,1.3,0.4,1.8c0.4,0.5,0.9,0.9,1.6,1c0.1,0,0.3,0,0.4,0c1.2,0,2.2-0.8,2.4-2c0.1-0.3,0.1-0.6,0-0.9l-0.4-2.2
								C170.5,155.1,169.7,154.4,168.7,154.4L168.7,154.4z"/>
						</g>
						<g>
							<path class="st65" d="M171.9,160.3c0.8,0,1.4-0.6,1.6-1.3c0-0.2,0-0.4,0-0.6l-0.4-2.2c-0.1-0.6-0.6-1-1.2-1h-0.1l-0.1,0
								c-0.5,0.1-0.9,0.5-0.9,0.9l-0.4,2.2c-0.1,0.4,0,0.8,0.3,1.2c0.2,0.3,0.6,0.6,1,0.7C171.7,160.3,171.8,160.3,171.9,160.3z"/>
							<path class="st6" d="M171.9,156.1c0.2,0,0.3,0.1,0.3,0.3l0.4,2.2c0,0.1,0,0.2,0,0.3c-0.1,0.4-0.4,0.6-0.7,0.6
								c0,0-0.1,0-0.1,0c-0.4-0.1-0.7-0.5-0.6-0.9l0.4-2.2C171.6,156.3,171.7,156.1,171.9,156.1
								C171.9,156.1,171.9,156.1,171.9,156.1 M171.9,154.4c-0.1,0-0.2,0-0.4,0c-0.8,0.1-1.5,0.8-1.6,1.6l-0.4,2.2
								c-0.2,1.3,0.6,2.6,2,2.8c0.1,0,0.3,0,0.4,0c1.2,0,2.2-0.8,2.4-2c0.1-0.3,0.1-0.6,0-0.9l-0.4-2.2
								C173.7,155.1,172.9,154.4,171.9,154.4L171.9,154.4z"/>
						</g>
					</g>
					<path class="st7" d="M168.5,148.9c0.5-0.4,3.2,2.6,2.6,3C170.5,152.4,168.1,149.3,168.5,148.9z"/>
				</g>
				<g>
					<circle class="st18" cx="168.7" cy="143.5" r="4.2"/>
					<path class="st6" d="M168.7,140c1.9,0,3.4,1.5,3.4,3.4c0,1.9-1.5,3.4-3.4,3.4c-1.9,0-3.4-1.5-3.4-3.4
						C165.3,141.6,166.8,140,168.7,140 M168.7,138.4c-2.8,0-5.1,2.3-5.1,5.1c0,2.8,2.3,5.1,5.1,5.1c2.8,0,5.1-2.3,5.1-5.1
						C173.8,140.6,171.5,138.4,168.7,138.4L168.7,138.4z"/>
					<path class="st19" d="M166,142.3c-0.7,1.5,0,3.3,1.5,3.9c1.5,0.7,3.3,0,3.9-1.5c0.2-0.5,0.3-1.1,0.2-1.7c0,0.1-0.1,0.3-0.1,0.4
						c-0.6,1.3-2.1,1.8-3.3,1.3c-1.3-0.6-1.8-2.1-1.3-3.4c0.1-0.1,0.1-0.2,0.2-0.3C166.7,141.3,166.3,141.7,166,142.3z"/>
					<path class="st7" d="M168.5,142.1c0.1,0,0.3,0,0.4,0c0.4,0.1,0.8,0.4,0.9,0.8c0.4-0.1,0.8-0.4,0.9-0.9c0.1-0.6-0.3-1.2-0.9-1.3
						c-0.6-0.1-1.2,0.3-1.3,0.9C168.5,141.8,168.5,142,168.5,142.1z"/>
				</g>
			</g>
			<g>
				<g>
					<g>
						<path class="st65" d="M68.4,155.3c-0.7,0-1.3-0.4-1.6-1.1c-0.3-0.7-0.2-1.4,0.3-1.9l3.9-4.4c0.3-0.4,0.8-0.6,1.3-0.6l0,0
							c0.5,0,1,0.2,1.3,0.6l3.9,4.4c0.5,0.5,0.6,1.3,0.3,1.9c-0.3,0.7-0.9,1.1-1.6,1.1H68.4z"/>
						<path class="st6" d="M72.2,148.2c0.3,0,0.5,0.1,0.7,0.3l3.9,4.4c0.5,0.6,0.1,1.6-0.7,1.6h-3.9h-3.9c-0.8,0-1.3-1-0.7-1.6
							l3.9-4.4C71.7,148.3,72,148.2,72.2,148.2 M72.2,146.5c-0.8,0-1.5,0.3-2,0.9l-3.9,4.4c-0.7,0.8-0.9,1.9-0.4,2.8
							c0.4,1,1.4,1.6,2.4,1.6h3.9h3.9c1,0,2-0.6,2.4-1.6c0.4-1,0.3-2-0.4-2.8l-3.9-4.4C73.7,146.8,73,146.5,72.2,146.5L72.2,146.5z"
							/>
						<g>
							<path class="st65" d="M75.4,160.3c-0.8,0-1.4-0.5-1.6-1.3c0-0.2,0-0.4,0-0.6l0.4-2.2c0.1-0.6,0.6-1,1.2-1h0.1l0.1,0
								c0.5,0.1,0.9,0.5,0.9,0.9l0.4,2.2c0.2,0.9-0.4,1.7-1.3,1.8C75.6,160.3,75.5,160.3,75.4,160.3z"/>
							<path class="st6" d="M75.4,156.1C75.4,156.1,75.4,156.1,75.4,156.1c0.2,0,0.3,0.1,0.3,0.3l0.4,2.2c0.1,0.4-0.2,0.8-0.6,0.9
								c0,0-0.1,0-0.1,0c-0.4,0-0.7-0.3-0.7-0.6c0-0.1,0-0.2,0-0.3l0.4-2.2C75.1,156.2,75.2,156.1,75.4,156.1 M75.4,154.4
								c-1,0-1.8,0.7-2,1.7l-0.4,2.2c-0.1,0.3-0.1,0.6,0,0.9c0.2,1.2,1.2,2,2.4,2c0.1,0,0.3,0,0.4,0c0.6-0.1,1.2-0.5,1.6-1
								c0.4-0.5,0.5-1.2,0.4-1.8l-0.4-2.2c-0.2-0.8-0.8-1.5-1.6-1.6C75.6,154.4,75.5,154.4,75.4,154.4L75.4,154.4z"/>
						</g>
						<g>
							<path class="st65" d="M72.2,160.3c-0.8,0-1.4-0.5-1.6-1.3c0-0.2,0-0.4,0-0.6l0.4-2.2c0.1-0.6,0.6-1,1.2-1h0.1l0.1,0
								c0.5,0.1,0.9,0.5,0.9,0.9l0.4,2.2c0.1,0.4,0,0.8-0.3,1.2c-0.2,0.3-0.6,0.6-1,0.7C72.4,160.3,72.3,160.3,72.2,160.3z"/>
							<path class="st6" d="M72.2,156.1C72.2,156.1,72.2,156.1,72.2,156.1c0.2,0,0.3,0.1,0.3,0.3l0.4,2.2c0.1,0.4-0.2,0.8-0.6,0.9
								c0,0-0.1,0-0.1,0c-0.4,0-0.7-0.3-0.7-0.6c0-0.1,0-0.2,0-0.3l0.4-2.2C71.9,156.2,72,156.1,72.2,156.1 M72.2,154.4
								c-1,0-1.8,0.7-2,1.7l-0.4,2.2c-0.1,0.3-0.1,0.6,0,0.9c0.2,1.2,1.2,2,2.4,2c0.1,0,0.3,0,0.4,0c0.6-0.1,1.2-0.5,1.6-1
								c0.4-0.5,0.5-1.2,0.4-1.8l-0.4-2.2c-0.2-0.8-0.8-1.5-1.6-1.6C72.5,154.4,72.3,154.4,72.2,154.4L72.2,154.4z"/>
						</g>
						<g>
							<path class="st65" d="M69,160.3c-0.8,0-1.4-0.6-1.6-1.3c0-0.2,0-0.4,0-0.6l0.4-2.2c0.1-0.6,0.6-1,1.2-1h0.1l0.1,0
								c0.5,0.1,0.9,0.5,0.9,0.9l0.4,2.2c0.1,0.4,0,0.8-0.3,1.2c-0.2,0.3-0.6,0.6-1,0.7C69.2,160.3,69.1,160.3,69,160.3z"/>
							<path class="st6" d="M69,156.1C69.1,156.1,69.1,156.1,69,156.1c0.2,0,0.3,0.1,0.3,0.3l0.4,2.2c0.1,0.4-0.2,0.8-0.6,0.9
								c0,0-0.1,0-0.1,0c-0.4,0-0.7-0.3-0.7-0.6c0-0.1,0-0.2,0-0.3l0.4-2.2C68.7,156.2,68.9,156.1,69,156.1 M69,154.4
								c-1,0-1.8,0.7-2,1.7l-0.4,2.2c-0.1,0.3-0.1,0.6,0,0.9c0.2,1.2,1.2,2,2.4,2c0.1,0,0.3,0,0.4,0c1.3-0.2,2.2-1.5,2-2.8l-0.4-2.2
								c-0.2-0.8-0.8-1.5-1.6-1.6C69.3,154.4,69.2,154.4,69,154.4L69,154.4z"/>
						</g>
					</g>
					<path class="st7" d="M72.4,148.9c-0.5-0.4-3.2,2.6-2.6,3C70.5,152.4,72.9,149.3,72.4,148.9z"/>
				</g>
				<g>
					<circle class="st18" cx="72.2" cy="143.5" r="4.2"/>
					<path class="st6" d="M72.2,140c1.9,0,3.4,1.5,3.4,3.4c0,1.9-1.5,3.4-3.4,3.4c-1.9,0-3.4-1.5-3.4-3.4
						C68.8,141.6,70.3,140,72.2,140 M72.2,138.4c-2.8,0-5.1,2.3-5.1,5.1c0,2.8,2.3,5.1,5.1,5.1c2.8,0,5.1-2.3,5.1-5.1
						C77.3,140.6,75,138.4,72.2,138.4L72.2,138.4z"/>
					<path class="st19" d="M74.9,142.3c0.7,1.5,0,3.3-1.5,3.9c-1.5,0.7-3.3,0-3.9-1.5c-0.2-0.5-0.3-1.1-0.2-1.7
						c0,0.1,0.1,0.3,0.1,0.4c0.6,1.3,2.1,1.8,3.3,1.3c1.3-0.6,1.8-2.1,1.3-3.4c-0.1-0.1-0.1-0.2-0.2-0.3
						C74.3,141.3,74.7,141.7,74.9,142.3z"/>
					<path class="st7" d="M72.4,142.1c-0.1,0-0.3,0-0.4,0c-0.4,0.1-0.8,0.4-0.9,0.8c-0.4-0.1-0.8-0.4-0.9-0.9
						c-0.1-0.6,0.3-1.2,0.9-1.3c0.6-0.1,1.2,0.3,1.3,0.9C72.5,141.8,72.5,142,72.4,142.1z"/>
				</g>
			</g>
		</g>
		<path class="st5" d="M120.5,65.8L69.7,82.3c0,83,15.7,103.4,50.8,103.4s50.8-20.4,50.8-103.4L120.5,65.8z"/>
		<path class="st7" d="M72.5,118.2l2.4,9.8l4.4,0.6l-4,1.7c0,0,1.4,13.2,3.5,23.8c-2.1,0.5-7-19.9-7-28.8c0-8-0.9-8.3-0.9-8.3
			L72.5,118.2z"/>
		<path class="st13" d="M76.3,147.3c0,0,9.4,35.1,42.8,35.8c25.3,0.5,44.7-16.7,46.9-70.8c1.7,2.7,2.9,4.6,3.7,6.5
			c0.6,1.4-0.2,3.1-0.2,3.1s-0.8,8.2-1.5,14.1c-1.1,10.1-8.2,30.9-15.2,37.8c-7,6.9-13.3,9.6-22.8,10.7s-23.3,2-31.7-3.2
			c-7.6-4.7-8-3.7-12.3-10.5c-4.3-6.8-7.8-15.4-8.2-17.6C77.4,151.1,76.3,147.3,76.3,147.3z"/>
		<path class="st6" d="M120.5,186.5c-19.4,0-31.5-6.5-39.3-21c-8.4-15.7-12.3-42.1-12.3-83.2v-0.6L120.5,65l51.6,16.8v0.6
			c0,41.1-3.9,67.5-12.3,83.2C152,180.1,139.8,186.5,120.5,186.5z M70.5,82.9c0.1,85.6,17.6,101.9,50,101.9
			c32.3,0,49.9-16.3,50-101.9l-50-16.2L70.5,82.9z"/>
		<g>
			<path class="st13" d="M168.5,119.3c0,0-23.6-5.6-28-24.1c-1.8,2.4-21.9,8.2-39.8-6.9c-0.6,5.2-1.6,12.4-14.6,15.5
				c-2.9,0.7-5.5,2.1-7.6,4.1c-2.2,2.2-5.6,6.9-6.6,12.2c-0.2-7.5,5.8-20.7,5.8-20.7l19.5-18.7l34.8-3.5l18.8,5.3l4.6,8.5
				c0,0,6.2,13.7,6.6,14.2C162.3,105.9,168.5,119.3,168.5,119.3z"/>
			<path class="st73" d="M68.1,111.1c2.6-6.8,3.3-14.1,5.5-21c2.1-6.6,5.9-12.9,10.4-18.2c2.7-3.2,5.8-5.5,9.2-7.2
				c1.3-0.2,2.6-0.4,3.6-0.6c6.7-1.3,13.5-2.5,20.3-3.4c1.2,0,2.4,0.1,3.6,0.2c12,0.7,25.2,3.8,35.3,10.7c5,3.4,9.1,8.3,10.6,14.2
				c1.1,4.4,1.3,8.9,2,13.3c-0.3,4.9,0.6,9.6,5.2,13.4c0.1,0.1,0.2,0.2,0.4,0.3c-1,2.4-2.3,4.7-3.8,6.2c0,0-21.1-5.4-27.7-29.4
				c-21.7,6.1-38.8-1.7-45-6.7c-0.3,26.1-17.4,6.7-26.3,36.7c-1.5-1.6-2.9-4.2-4-6.9C67.6,112.2,67.9,111.7,68.1,111.1z"/>
			<path class="st80" d="M170.3,116.2c0,0-0.1,0-0.3-0.1c-2.2-1-17.5-8.4-26.4-25.9c0.1,4,2.5,12.1,11.7,19.8s12.6,8.7,13.9,8.8
				s1-1.2,1-1.2V116.2z"/>
			<path class="st80" d="M145.8,87.4c0,0-27.9,4.2-45.4-3.3c2.6,2.5,13,7.3,22.7,7.5s22.5-3,22.6-3.6S145.8,87.4,145.8,87.4z"/>
			<path class="st64" d="M97.3,84.7c0,0-2.3,7.4-11.3,11.1s-13.9,19.3-13.9,19.3s0.3-4.4,0.3-4.8S76,101,76,101l5.5-5.9l3.9-4.5
				l7.6-4.3L97.3,84.7z"/>
			<path class="st6" d="M70.6,120.1c-1.9-2-3.3-5-4.2-7.2l-0.2-0.5l0.3-0.4c0.3-0.4,0.6-0.8,0.7-1.2c1.4-3.8,2.3-7.8,3.2-11.7
				c0.7-3,1.3-6.2,2.3-9.2c2-6.3,5.6-12.7,10.5-18.5c2.6-3.1,5.8-5.6,9.5-7.4l0.2-0.1l0.1,0c1.3-0.2,2.5-0.4,3.5-0.6
				c7.5-1.5,14.1-2.6,20.3-3.4l0.1,0l0.1,0c1.2,0,2.4,0.1,3.6,0.2c14.1,0.9,26.8,4.7,35.7,10.8c4,2.7,9.2,7.5,11,14.7
				c0.7,2.9,1.1,5.9,1.4,8.8c0.2,1.5,0.3,3,0.6,4.5l0,0.1l0,0.1c-0.4,5.6,1.1,9.5,4.8,12.6c0.1,0.1,0.2,0.2,0.3,0.2l0.6,0.4
				l-0.3,0.6c-0.8,1.9-2.2,4.6-3.9,6.5l-0.4,0.4l-0.5-0.1c-0.2-0.1-21.2-5.7-28.1-29.2c-20.1,5.4-36.1-0.9-43.6-6.1
				c-0.5,12-5.1,13.9-10.4,16c-5.4,2.2-11.6,4.6-16,19.3l-0.4,1.5L70.6,120.1z M167.6,99.2c-0.2-1.5-0.4-3-0.6-4.5
				c-0.3-2.8-0.6-5.8-1.4-8.6c-1.7-6.7-6.5-11.1-10.3-13.7c-8.7-5.9-21-9.7-34.8-10.5c-1.2-0.1-2.3-0.1-3.5-0.2
				C111,62.5,104.4,63.6,97,65c-1,0.2-2.2,0.4-3.5,0.6c-3.4,1.7-6.4,4-8.8,6.9c-4.8,5.6-8.3,11.8-10.2,17.9c-0.9,3-1.6,6.1-2.3,9.1
				c-0.9,4-1.7,8.1-3.2,12v0c-0.2,0.5-0.4,0.9-0.7,1.3c0.8,1.9,1.7,3.6,2.7,5c4.6-14.1,11.2-16.7,16.5-18.9
				c5.3-2.1,9.2-3.7,9.3-16.1l0-1.8l1.4,1.1c6,4.9,23.1,12.5,44.2,6.6l0.8-0.2l0.2,0.8c5.9,21.2,23.4,27.7,26.6,28.7
				c1-1.2,2.1-2.9,3-4.9C168.9,109.6,167.2,105.2,167.6,99.2z"/>
			<path class="st64" d="M170.3,118c0,0-1.2-21.1-20.8-30.5c6.6,3.3,17.4,17.6,20.9,30.8"/>
			<path class="st64" d="M148.2,86.3c0,0-23.4-6.3-48.3-2.2c2.5-1.9,11.8-3.6,16.4-3.6c4.6,0,18.7,0,24.5,2.1S148.2,86.3,148.2,86.3
				z"/>
			<path class="st6" d="M138.8,89.6c1.1-0.2,4.3-0.9,8-2.6c0.2-0.1,0.4,0.2,0.2,0.4c-2,1.8-5.6,3.5-6.6,3.4
				c-0.7-0.1-1.4-0.6-1.9-0.9C138.5,89.7,138.6,89.6,138.8,89.6z"/>
		</g>
		<path class="st65" d="M185.4,73.9c0-23.5-41-35-64.9-35c-22.5,0-64.9,11.5-64.9,35c0,10.7-1.9,48.6,15.3,45.6
			c0-0.7,0.2-38.9,49.6-38.9s49.6,38.2,49.6,38.9C187.3,122.5,185.4,84.7,185.4,73.9z"/>
		<path class="st79" d="M64.6,106.4c0,0,16.4-40.6,71-25.4c-13.9-0.1-43.8-2.5-56,14.6c-6.7,9.4-7.7,15.1-8.3,18.6
			c-0.6,3.6-0.6,4.8-0.6,4.8l-3.7,0.5l-6.6-4.8c0,0-3.8-12.4-4-17.8c-0.2-5.4-1-12.8-1-12.9c0-0.1,1.1-13.2,1.1-13.2
			C56.4,86.3,60.4,101.2,64.6,106.4z"/>
		<path class="st79" d="M183.2,64.9c0.9,24.9-7.4,38.5-7.4,38.5s-17.3-32.6-66.5-25.7c-5.5,0.8,2.8,1.5-3.9,3.3
			c13.9-0.1,43.8-2.5,56,14.6c6.7,9.4,7.7,15.1,8.3,18.6c0.6,3.6,0.6,4.8,0.6,4.8l3.7,0.5l6.6-4.8c0,0,3.8-12.4,4-17.8
			c0.2-5.4,1-12.8,1-12.9c0-0.1-0.1-12.8-0.1-12.8L183.2,64.9z"/>
		<path class="st6" d="M172,120.5c-0.7,0-1.3-0.1-2-0.2l-0.7-0.1v-0.7c0-0.4-0.1-9.9-6.2-19.3c-8.1-12.5-22.4-18.8-42.6-18.8
			c-48.3,0-48.8,36.5-48.8,38.1v0.7l-0.7,0.1c-3.2,0.6-5.9-0.1-8.2-2.1c-8.5-7.2-8.2-30.2-8.1-41.3c0-1.2,0-2.2,0-3
			C54.7,50,96.9,38,120.5,38c10.5,0,27.1,2.3,41.8,8.8c10.9,4.8,24,13.4,24,27.1c0,0.8,0,1.9,0,3c0.1,11.1,0.4,34-8.1,41.3
			C176.4,119.7,174.3,120.5,172,120.5z M170.9,118.7c2.4,0.3,4.4-0.3,6.1-1.8c7.9-6.7,7.6-29.2,7.5-40c0-1.2,0-2.2,0-3
			c0-23.9-42.4-34.2-64.1-34.2c-9.5,0-25.9,2.3-40.6,8.6C69.2,53,56.4,61.2,56.4,73.9c0,0.9,0,1.9,0,3c-0.1,10.8-0.4,33.3,7.5,40
			c1.7,1.5,3.8,2.1,6.1,1.8c0.1-2.5,1-11,6.4-19.5c5.8-8.9,18.1-19.6,44.1-19.6C167.2,79.7,170.7,113.2,170.9,118.7z"/>
		<g>
			<g>
				<path class="st6" d="M136.9,129.9c0.2,2.2,2,4,4.3,4.1s4.2-1.6,4.5-3.8l-4.4-2.4L136.9,129.9z"/>
				<g>
					<path class="st6" d="M132.3,131.8c0.4-1.1,1.1-2.2,2-2.8c0.9-0.7,2-1.1,3-1.4c2.1-0.5,4.1-0.4,6,0c1.9,0.4,3.8,1,5.5,1.9
						c1.7,0.8,3.4,1.9,4.8,3.1c0.2,0.1,0.2,0.4,0.1,0.5c-0.1,0.1-0.3,0.2-0.5,0.1c-1.6-0.9-3.3-1.6-5-2.2c-1.7-0.6-3.5-1-5.2-1.2
						c-1.7-0.2-3.5-0.2-5.1,0.3c-1.6,0.4-2.8,1.3-3.3,2.5l0,0c-0.3,0.6-1,0.9-1.6,0.7C132.4,133,132.1,132.4,132.3,131.8z"/>
				</g>
				
					<ellipse transform="matrix(0.9944 -0.1055 0.1055 0.9944 -13.0436 15.5229)" class="st7" cx="140.3" cy="131.1" rx="0.8" ry="0.8"/>
				<path class="st13" d="M132.7,136.9c0.1-0.1,0.3-0.3,0.4-0.5c2,1.4,6.2,2.6,13.9,0.5c0.1,0.2,0.2,0.3,0.2,0.5
					C139.1,141.5,134.8,139.2,132.7,136.9z"/>
			</g>
			<g>
				<path class="st6" d="M104,129.9c-0.2,2.2-2,4-4.3,4.1s-4.2-1.6-4.5-3.8l4.4-2.4L104,129.9z"/>
				<g>
					<path class="st6" d="M106.4,132.6c-0.5-1.3-1.7-2.1-3.3-2.5c-1.6-0.4-3.3-0.4-5.1-0.3c-1.8,0.2-3.5,0.6-5.2,1.2
						c-1.7,0.6-3.4,1.3-5,2.2c-0.2,0.1-0.4,0-0.5-0.1c-0.1-0.2,0-0.4,0.1-0.5c1.5-1.2,3.1-2.3,4.8-3.1c1.7-0.9,3.6-1.5,5.5-1.9
						c1.9-0.4,4-0.5,6,0c1,0.2,2.1,0.7,3,1.4c0.9,0.7,1.7,1.7,2,2.8c0.2,0.6-0.2,1.3-0.8,1.5C107.3,133.5,106.6,133.2,106.4,132.6
						L106.4,132.6z"/>
				</g>
				
					<ellipse transform="matrix(0.1055 -0.9944 0.9944 0.1055 -42.4084 215.071)" class="st7" cx="98.3" cy="131.1" rx="0.8" ry="0.8"/>
				<path class="st13" d="M108.2,136.9c-0.1-0.1-0.3-0.3-0.4-0.5c-2,1.4-6.2,2.6-13.9,0.5c-0.1,0.2-0.2,0.3-0.2,0.5
					C101.9,141.5,106.2,139.2,108.2,136.9z"/>
			</g>
		</g>
		<path class="st7" d="M77.4,57.6c13.1-7.2,40-17.4,72.9-3.8c0.6,0.2,1.1-0.6,0.6-1c-5.4-4.3-12.3-9-31.4-9.8
			c-18.2-0.8-33.8,7.3-42.7,13.6C76.2,57.1,76.7,58,77.4,57.6z"/>
		<path class="st79" d="M71.1,86.1c10.2-8.3,32.1-21.3,63.7-14c0.6,0.1,0.9-0.7,0.4-0.9c-5.6-3-12.5-6.2-29.6-4.1
			c-16.3,2-28.5,11.4-35.2,18.3C70,85.8,70.6,86.5,71.1,86.1z"/>
		<path class="st79" d="M150.1,59.9c8.4,1.5,23.9,6.7,33.7,25.3c0.2,0.3,0.7,0.2,0.6-0.2c-0.9-4-0.2-7.6-10.5-16.2
			c-8.1-6.8-17.6-9.1-23.8-9.5C149.8,59.2,149.7,59.8,150.1,59.9z"/>
		<path class="st79" d="M60.5,82.4c3-6,10.5-16.5,27.1-19.7c0.3-0.1,0.3-0.5,0-0.5c-3.3-0.2-7.3-0.3-14.9,4.2
			c-7.3,4.3-11,11.2-12.6,15.8C59.9,82.5,60.3,82.7,60.5,82.4z"/>
		<path class="st79" d="M153.5,76.3c7.3,1.9,20.8,7.9,28.1,25.5c0.1,0.3,0.6,0.2,0.6-0.2c-0.5-3.7-1.4-8.2-8.1-15.6
			c-6.5-7.1-15-9.6-20.5-10.4C153.2,75.7,153.1,76.2,153.5,76.3z"/>
		<path class="st6" d="M176.6,118c0.5-1.6-0.2-7.2-3.3-14.1c-0.2-0.4,0.4-0.7,0.6-0.3c2.6,3.6,5.3,10.4,5.1,12.1
			c-0.2,1.2-1.1,0.9-1.7,1.7C177.1,117.6,176.5,118.3,176.6,118z"/>
		<path class="st6" d="M64.2,118.1c-0.4-1.9,0.9-7.3,3.3-13.5c0.1-0.4-0.4-0.7-0.6-0.3c-2.7,3.5-5.4,9.8-5.2,11.5
			c0.2,1.1,1.2,1.3,1.8,1.9C63.8,117.8,64.3,118.4,64.2,118.1z"/>
		<path class="st6" d="M55.9,78.8c0.5-1.6,2.2-6,5.1-10.8c0.2-0.3-0.1-0.6-0.3-0.4c-2.5,2.4-5.7,7.2-5.9,8.7c-0.1,1,0.6,1.3,0.8,2
			C55.7,78.4,55.8,79,55.9,78.8z"/>
		<path class="st6" d="M184.5,76c-0.5-1.4-1.9-5.5-4.7-10c-0.2-0.3,0.2-0.6,0.4-0.4c2.6,2.3,5.8,6.8,5.8,8.1c0,0.9-0.8,1.2-1.1,1.8
			C184.8,75.7,184.6,76.2,184.5,76z"/>
		<path class="st6" d="M121.4,14.4c-0.9,0.9-3.6,3.5-6,7.4c-0.1,0.2-0.5,0.1-0.4-0.2c0.8-2.9,3.1-7,4.1-7.5c0.7-0.4,1.2,0.1,1.8,0.2
			C121,14.3,121.5,14.3,121.4,14.4z"/>
		<g>
			<path class="st13" d="M120.3,118.5l-3.2,21.7c0,0-7.4,5.8,0.1,12.2c-1.2-3.5-2.1-6.8-0.8-8.3c1.3-1.4,2.8-2,3-2.2
				c0.1-0.3,0.7-7.2,0.7-7.2l0.5-15.6L120.3,118.5z"/>
			
				<ellipse transform="matrix(0.345 -0.9386 0.9386 0.345 -59.0619 207.9174)" class="st7" cx="119.4" cy="146.3" rx="2.1" ry="1.7"/>
			<path class="st7" d="M124.3,141.7l-2.3-1.8l-1.1-21.7l-0.3,22.8l3.9,1.7C124.5,142.6,125,142.2,124.3,141.7z"/>
			<path class="st6" d="M118,151.8c-2.7-3.9-1.7-7.1,0.7-8.8c-0.2-0.1,0.8-1.1,0.8-1.4c0-0.5-1-0.1-0.8-0.4c-3.6,2.1-4.5,6.4-3,9.1
				c0.5,1,1.9,2.7,2.3,2.4C118.2,152.6,118.4,152.3,118,151.8z"/>
			<path class="st6" d="M124.1,142.8c-3.7-1.5-6.1-0.2-7.1,2.2c-0.1-0.1-0.4-0.2-0.6-0.1c-0.4,0.1-0.7,0.2-0.9,0.4
				c0.7-2,2.2-3.7,3.9-4.3c1.1-0.4,2.1-0.1,3.1,0.2c0.9,0.3,2.5,1.1,2.4,1.4C124.8,142.8,124.6,143,124.1,142.8z"/>
			<path class="st6" d="M118.6,143.2l0-1.1l1.7-23.7l0.6-0.3l-0.2,23.1l1.2,0.5C122,141.8,119.8,142.2,118.6,143.2z"/>
			<path class="st13" d="M119.1,153.3c1.7,1.6,5,1.1,6.1-1.3c0.2-0.5-0.4-1-0.8-0.7c-1.5,1.5-3.4,1.9-5,1.1
				C119,152.3,118.8,153,119.1,153.3z"/>
		</g>
		<g>
			<path class="st85" d="M120.5,163.1c-4.4-0.1-7.8-0.7-7.8-0.7s1.3,3.3,7.8,3.3s7.8-3.3,7.8-3.3S124.9,163.1,120.5,163.1z"/>
			<path class="st86" d="M120.5,161c-4.4-3.5-7.8,1.5-7.8,1.5s3.3,0.6,7.8,0.7c4.4-0.1,7.8-0.7,7.8-0.7S124.9,157.4,120.5,161z"/>
		</g>
		<path class="st13" d="M83.9,117.7L83.9,117.7c0.9,0.5,1.9,0.6,2.9,0.5c4-0.5,15.2-1.5,21.5,1.8c1,0.5,2.2,0.2,2.7-0.8l1-1.9
			l-6.5-2.9l-10.1-1.2l-5.9,0.9l-5.7,2.7V117.7z"/>
		<path class="st13" d="M157,117.7L157,117.7c-0.9,0.5-1.9,0.6-2.9,0.5c-4-0.5-15.2-1.5-21.5,1.8c-1,0.5-2.2,0.2-2.7-0.8l-1-1.9
			l6.5-2.9l10.1-1.2l5.9,0.9l5.7,2.7V117.7z"/>
		<g>
			<path class="st6" d="M83.6,116.5c1.9-1.7,4.2-2.9,6.6-3.7c2.4-0.8,5-1.2,7.5-1.1c2.5,0.1,5.1,0.4,7.5,1.3
				c1.2,0.3,2.3,0.9,3.5,1.4c1.1,0.6,2.2,1.3,3.2,2c0.3,0.2,0.4,0.6,0.2,1c-0.2,0.2-0.5,0.3-0.7,0.3l-0.1,0c-1.2-0.3-2.3-0.7-3.4-1
				l-1.7-0.4c-0.3-0.1-0.6-0.2-0.8-0.2l-0.8-0.2c-0.6-0.1-1.1-0.2-1.7-0.3l-1.7-0.2c-0.3,0-0.6-0.1-0.8-0.1l-0.8,0
				c-0.6,0-1.1-0.1-1.7-0.1c-2.3-0.1-4.5,0.2-6.7,0.6c-2.2,0.4-4.5,1.1-6.6,2l-0.1,0c-0.4,0.2-0.8,0-0.9-0.4
				C83.3,117,83.4,116.7,83.6,116.5z"/>
			<path class="st6" d="M156.5,117.6c-2.1-0.9-4.3-1.6-6.6-2c-2.2-0.4-4.5-0.7-6.7-0.6c-0.6,0-1.1,0.1-1.7,0.1l-0.8,0
				c-0.3,0-0.6,0.1-0.8,0.1l-1.7,0.2c-0.6,0.1-1.1,0.2-1.7,0.3l-0.8,0.2c-0.3,0.1-0.6,0.2-0.8,0.2l-1.7,0.4c-1.1,0.3-2.2,0.7-3.4,1
				l-0.1,0c-0.4,0.1-0.7-0.1-0.8-0.5c-0.1-0.3,0.1-0.6,0.3-0.7c1-0.7,2.1-1.4,3.2-2c1.1-0.5,2.3-1.1,3.5-1.4
				c2.4-0.9,4.9-1.2,7.5-1.3c2.6,0,5.1,0.4,7.5,1.1c2.4,0.8,4.7,1.9,6.6,3.7c0.3,0.3,0.3,0.7,0.1,1
				C157.2,117.7,156.9,117.8,156.5,117.6L156.5,117.6z"/>
		</g>
		<path class="st13" d="M125.7,175.9c-1.6,0.3-3.1,0.5-5.2,0.5c-2.1,0-3.6-0.2-5.2-0.5c-0.5-0.1-0.7,0.5-0.4,0.8
			c1.6,1.3,3.4,1.9,5.6,1.9s4-0.6,5.6-1.9C126.4,176.4,126.1,175.8,125.7,175.9z"/>
	</g>
</g>
</svg>
