<?xml version="1.0" encoding="utf-8"?>
<!-- Generator: Adobe Illustrator 21.0.0, SVG Export Plug-In . SVG Version: 6.00 Build 0)  -->
<svg version="1.1" id="Layer_1" xmlns="http://www.w3.org/2000/svg" xmlns:xlink="http://www.w3.org/1999/xlink" x="0px" y="0px"
	 viewBox="0 0 240.9 453.5" style="enable-background:new 0 0 240.9 453.5;" xml:space="preserve">
<style type="text/css">
	.st0{fill:#794552;}
	.st1{fill:#C7B89E;}
	.st2{fill:#F9A960;}
	.st3{fill:#D17C32;}
	.st4{fill:#956070;}
	.st5{fill:#FDDCC0;}
	.st6{fill:#501338;}
	.st7{fill:#FFFFFF;}
	.st8{fill:#B38091;}
	.st9{fill:#D1D5DB;}
	.st10{fill:#989A9C;}
	.st11{fill:#937B70;}
	.st12{fill:#E6DEC9;}
	.st13{fill:#F0B39C;}
	.st14{fill:#8E183F;}
	.st15{fill:#F5F5F5;}
	.st16{fill:none;stroke:#462062;stroke-width:0.7554;stroke-linecap:round;stroke-miterlimit:10;}
	.st17{fill:#B5BAC0;}
	.st18{fill:#C71F41;}
	.st19{fill:#EF5784;}
	.st20{fill:#A91D41;}
	.st21{opacity:0.5;fill:#C1C1C1;}
	.st22{opacity:0.27;fill:#E78B6F;}
	.st23{fill:#CB8A43;}
	.st24{fill:#754D24;}
	.st25{fill:#FBBA6C;}
	.st26{fill:#837070;}
	.st27{fill:#866A58;}
	.st28{fill:#9A7E67;}
	.st29{fill:#B39885;}
	.st30{fill:#5B4580;}
	.st31{fill:#E1DFDF;}
	.st32{fill:#C0BEBD;}
	.st33{fill:#D53231;}
	.st34{fill:#E94647;}
	.st35{fill:#797083;}
	.st36{fill:#A9A4B4;}
	.st37{fill:#5B5567;}
	.st38{fill:#CE202B;}
	.st39{fill:#EE3734;}
	.st40{fill:#F49294;}
	.st41{fill:#B89AA6;}
	.st42{fill:#D4907B;}
	.st43{fill:#FAB276;}
	.st44{opacity:0.5;fill:#794552;}
	.st45{fill:#B57D90;}
	.st46{opacity:0.7;fill:#794552;}
	.st47{opacity:0.15;fill:#F2E8A5;}
	.st48{fill:#D67E3A;}
	.st49{fill:#735A99;}
	.st50{fill:#644C88;}
	.st51{fill:#9480B4;}
	.st52{fill:#E4D2A4;}
	.st53{fill:#FAEDD0;}
	.st54{fill:#C4B18B;}
	.st55{fill:#735A99;stroke:#501338;stroke-width:1.571;stroke-miterlimit:10;}
	.st56{fill:#C8BFBF;}
	.st57{fill:#B2ABAB;}
	.st58{fill:#FFE098;}
	.st59{fill:#ECC77E;}
	.st60{fill:#FFEBC7;}
	.st61{fill:#A1675E;}
	.st62{fill:#90564F;}
	.st63{fill:#C07F78;}
	.st64{fill:#68485A;}
	.st65{fill:#FFDD81;}
	.st66{fill:#814945;}
	.st67{fill:#945B58;}
	.st68{fill:#B17977;}
	.st69{fill:#884C4A;}
	.st70{fill-rule:evenodd;clip-rule:evenodd;fill:#989A9C;}
	.st71{fill:#D89E98;}
	.st72{fill:#64445C;}
	.st73{fill:#816474;}
	.st74{fill:#A48390;}
	.st75{fill:#DDAD41;}
	.st76{fill:#F48657;}
	.st77{fill:#D77151;}
	.st78{fill:#F8AB89;}
	.st79{fill:#E9C05B;}
	.st80{fill:#9A8691;}
	.st81{fill:#A28F99;}
	.st82{fill:#8780BC;}
	.st83{fill:#6966AD;}
	.st84{fill:#B2ADD5;}
	.st85{fill:#F48C8C;}
	.st86{fill:#E86363;}
	.st87{fill:#F4876E;}
	.st88{fill:#E56A51;}
	.st89{fill:#80655C;}
	.st90{fill:#C3AC6F;}
	.st91{fill:#9F874A;}
	.st92{fill:#DBC68E;}
	.st93{opacity:0.11;fill:#FFFFFF;}
	.st94{fill:#F7A799;}
	.st95{fill:#FCE5A5;}
	.st96{fill:#DEBB6C;}
	.st97{fill:#B67C76;}
	.st98{fill:none;stroke:#462062;stroke-width:0.843;stroke-linecap:round;stroke-miterlimit:10;}
	.st99{fill:#9D9B86;}
	.st100{fill:#8780BC;stroke:#501338;stroke-width:1.6795;stroke-miterlimit:10;}
	.st101{fill:#C5C4B4;}
	.st102{fill:#E9E9D9;}
	.st103{fill:#E9C15D;}
	.st104{opacity:0.3;}
	.st105{fill:#A27388;}
	.st106{opacity:0.5;fill:#FFFFFF;}
	.st107{fill:#91667A;}
	.st108{opacity:0.4;}
	.st109{opacity:0.5;}
	.st110{opacity:0.5;fill:#A7A7A6;}
	.st111{fill:#C16D34;}
	.st112{opacity:0.4;fill:#FFFFFF;}
	.st113{fill:none;stroke:#501338;stroke-width:1.5687;stroke-linecap:round;stroke-linejoin:round;stroke-miterlimit:10;}
	.st114{opacity:0.27;}
	.st115{fill:#E78B6F;}
	.st116{opacity:0.2;fill:#F48E8E;}
	.st117{fill:#99744B;}
	.st118{fill:#825D38;}
	.st119{fill:#C9CAA6;}
	.st120{fill:#BCBC96;}
	.st121{fill:none;stroke:#462062;stroke-width:0.7845;stroke-linecap:round;stroke-miterlimit:10;}
	.st122{fill:#66402A;}
	.st123{fill:#935C35;}
	.st124{opacity:0.6;fill:#7A4928;}
	.st125{opacity:0.4;fill:#F48E8E;}
	.st126{fill:#E1E1E1;}
	.st127{fill:#C1C1C1;}
	.st128{fill:#52363A;}
	.st129{fill:#C6C5C4;}
	.st130{opacity:0.6;}
	.st131{fill:#888888;}
	.st132{fill:#515252;}
	.st133{opacity:0.6;fill:#888888;}
	.st134{fill:#616160;}
	.st135{fill:#515150;}
	.st136{fill:#957B66;}
	.st137{fill:#B89984;}
	.st138{fill:#787878;}
	.st139{fill:#775F4F;}
	.st140{fill:#D7B9A8;}
	.st141{fill:#99999A;}
	.st142{opacity:0.4;fill:#E6DEC9;}
	.st143{fill:none;stroke:#462062;stroke-width:0.7586;stroke-linecap:round;stroke-miterlimit:10;}
	.st144{fill:#3F4242;}
	.st145{opacity:0.5;fill:#F0B39C;}
	.st146{opacity:0.57;fill:#B89AA6;}
	.st147{fill:#619F7F;}
	.st148{fill:#548E6E;}
	.st149{fill:#C16A2F;}
	.st150{fill:#CE413A;}
	.st151{fill:#B23330;}
	.st152{opacity:0.62;fill:#E48C7D;}
	.st153{fill:#5E3827;}
	.st154{fill:#F48E8E;}
	.st155{fill:#444445;}
	.st156{fill:#353435;}
	.st157{opacity:0.5;fill:#B89AA6;}
	.st158{fill:#4D4C4D;}
	.st159{fill:#444344;}
	.st160{opacity:0.6;fill:#A1A1A1;}
	.st161{fill:#282827;}
	.st162{fill:#636464;}
	.st163{fill:#575959;}
	.st164{fill:#3A3A3A;}
	.st165{opacity:0.5;fill:#787878;}
	.st166{fill:none;stroke:#462062;stroke-width:0.8198;stroke-linecap:round;stroke-miterlimit:10;}
	.st167{fill:#5B5B5C;}
	.st168{fill:#E4E4E4;}
	.st169{fill:#FFF1EA;}
	.st170{fill:#E1CDC5;}
	.st171{opacity:0.4;fill:#F0B39C;}
	.st172{opacity:0.5;fill:#ADADAD;}
	.st173{fill:#B58F5B;}
	.st174{fill:#606060;}
	.st175{fill:#4F5150;}
	.st176{opacity:0.6;fill:#989A9C;}
	.st177{fill:#5D7A6D;}
	.st178{fill:#4C685B;}
	.st179{fill:none;stroke:#462062;stroke-width:0.8057;stroke-linecap:round;stroke-miterlimit:10;}
	.st180{fill:#F7B975;}
	.st181{fill:#8D7449;}
	.st182{opacity:0.35;fill:#F7B975;}
	.st183{fill:#686868;}
	.st184{fill:#959595;}
	.st185{opacity:0.3;fill:#FFFFFF;}
	.st186{fill:#4C4B4C;}
	.st187{fill:#A27F67;}
	.st188{fill:#C6A691;}
	.st189{opacity:0.2;fill:#684D39;}
	.st190{fill:#926E56;}
	.st191{opacity:0.8;fill:#3A3A3A;}
	.st192{fill:#ED3E2B;}
	.st193{fill:#DB2C1F;}
	.st194{opacity:0.7;fill:#989A9C;}
	.st195{fill:#6B4845;}
	.st196{fill:#846363;}
	.st197{fill:#5E3E3C;}
	.st198{fill:none;stroke:#501338;stroke-width:1.6206;stroke-miterlimit:10;}
	.st199{opacity:0.5;fill:#E29780;}
	.st200{opacity:0.6;fill:#FFFFFF;}
	.st201{fill:#ECD8BB;}
	.st202{opacity:0.3;fill:#937B70;}
	.st203{fill:#FCF9F4;}
	.st204{opacity:0.6;fill:#F0B39C;}
	.st205{fill:none;stroke:#462062;stroke-width:0.7828;stroke-linecap:round;stroke-miterlimit:10;}
	.st206{fill:#CDCDCD;}
	.st207{opacity:0.5;fill:#A8A7A7;}
	.st208{fill:#868686;}
	.st209{opacity:0.3;fill:#F0B39C;}
	.st210{opacity:0.7;fill:#F0B39C;}
	.st211{fill:#735A99;stroke:#501338;stroke-width:1.5656;stroke-miterlimit:10;}
	.st212{opacity:0.5;fill:#FCF9F4;}
	.st213{opacity:0.5;fill:#FDDCC0;}
	.st214{fill:#6B3A37;}
	.st215{fill:#92A3D3;}
	.st216{fill:#B0C2E4;}
	.st217{fill:#7790BC;}
	.st218{fill:#7F95C6;}
	.st219{fill:#D0A7C2;}
	.st220{fill:#B7BE79;}
	.st221{fill:#725F82;}
	.st222{fill:#635175;}
	.st223{fill:none;stroke:#501338;stroke-width:1.5843;stroke-miterlimit:10;}
	.st224{fill:#C5B8DA;}
	.st225{fill:#A999C9;}
	.st226{fill:#8B6445;}
	.st227{fill:#7A5439;}
	.st228{fill:none;stroke:#501338;stroke-width:1.5751;stroke-linecap:round;stroke-linejoin:round;stroke-miterlimit:10;}
	.st229{fill:#D9CEB7;}
	.st230{fill:#CCBDA2;}
	.st231{opacity:0.2;fill:#FFFFFF;}
	.st232{fill:#B61F30;}
	.st233{fill:#595B5B;}
</style>
<g>
	<g>
		<ellipse class="st0" cx="121" cy="370.1" rx="48" ry="16.7"/>
		<polygon class="st1" points="121,322.8 81.8,319.7 73.3,328.8 121,346.4 168.6,328.8 160.1,319.7 		"/>
		<g>
			<path class="st1" d="M47,330.8c0,0,6.4-27.1,50.1-5.6c43.7,21.5,61.5,30.7,61.5,30.7s41,1.5,37.3,8.6c-3.8,7.2-9.4,20.2-16,20.7
				s-80.2-18.1-80.2-18.1S40.5,353.3,47,330.8z"/>
			<path class="st3" d="M172.6,384.1c-2-0.3-12.2-2.5-20-4.3c8.3,2.4,13.3,4.2,20,4.7c1.2,0.1,2.3,0.2,3.3,0.2
				C174.6,384.5,173.5,384.2,172.6,384.1z"/>
			<path class="st3" d="M121.8,372.7c-6.1-1.4-12-2.9-15.6-3.7C110.8,370.2,116,371.5,121.8,372.7z"/>
			<path class="st11" d="M46.5,338.2c1.8,4.8,12.8,16,27.2,20.4c8.5,2.6,16.3,5.6,26.8,8.7c-1.9-0.8-3.6-1.7-3.6-1.7l2.4-7.2
				c-14.2-4.6-26-8.5-30.2-10.3c-19-8.2-20.6-12-19-23.6C49.7,325.2,45.5,335.4,46.5,338.2z"/>
			<path class="st0" d="M158.6,355.9c1.5,0,2.8,0.1,4.2,0.1c-1.6-0.1-2.7-0.2-3-0.2c-0.5,0-4.7-1.9-9-4.1
				C153.9,353.4,156.5,354.8,158.6,355.9z"/>
			<path class="st0" d="M127.4,373.8c-1.9-0.4-3.8-0.7-5.6-1.1c10.4,2.5,21.3,5.1,21.3,5.1s4.2,0.9,9.5,2.1
				C146.6,378.1,138.9,376,127.4,373.8z"/>
			<path class="st0" d="M106.3,369c-2-0.5-3.9-1.1-5.8-1.6c0.8,0.4,1.7,0.7,2.5,0.9C103.4,368.3,104.6,368.6,106.3,369z"/>
			<path class="st0" d="M169.9,382.3c6.7,0.5,14.9,0.1,14.9,0.1c-1.8,1.6-0.9,2.7-8.9,2.3c3.5,0.6,7.9,0.7,10.9-3.9
				c4-6.2,9.5-16.2,9.3-17.4c-0.1-1.2-0.8-0.4-0.8-0.4c-2.4-1-5-2.6-8.7-3.2c-8-1.3-18.8-1-27.8-0.4l-5,7.7l2-8.5
				c-15.2-8.1-32.7-17.2-48.5-24.3l-2.5,12.4l-5.5,11.5C100.8,367.2,156.7,381.2,169.9,382.3z"/>
			<path class="st4" d="M155.8,358.8l-3.4,11l6.9-9.7c13-0.9,35.8,3.8,33,10c0,0,5.2-6.4,2.7-8.3c-1.7-1.4-7.5-2.9-12.8-3.6
				c-6.2-0.7-14.5-1.9-19.3-2.2h0c-1.3,0-2.7-0.1-4.2-0.1c-2.1-1.1-4.7-2.5-7.8-4.1c-0.1,0-0.1-0.1-0.2-0.1
				c-5.3-2.6-10.9-5.5-10.9-5.5l-28.4-14l-3-0.6l-1,2.9C123.1,341.6,140.6,350.7,155.8,358.8z"/>
			<path class="st12" d="M57.1,319.2c11.6-0.4,30.2,6.2,50.3,15.3l1-2.9l3,0.6l28.4,14c0,0,6.6,4.1,11.9,6.7
				C126.3,339.2,71.7,308.2,57.1,319.2z"/>
			<path class="st6" d="M96.9,365.6c0,0,1.7,0.9,3.6,1.7c0,0,0,0,0,0c1.8,0.5,3.7,1.1,5.8,1.6c3.6,0.9,9.5,2.3,15.6,3.7
				c1.8,0.4,3.7,0.8,5.6,1.1c11.4,2.2,19.2,4.3,25.2,6c7.9,1.7,18,3.9,20,4.3c0.9,0.1,3.6,1,4.8,1.2c8,0.4,11.5-7.4,13.2-11.1
				c0,0-3.8,4.7-12.1,5.7c-6,0.7-16.6-3.1-27.4-8c0,0-40.8-2.9-50.7-13.4L96.9,365.6z"/>
			<path class="st6" d="M98.9,355.4c0.1,0,0.1,0.1,0.2,0.1c-2.6,7.1-3.5,10.5-3.5,10.5l-1.8-0.7C93.8,365.2,97.2,358.2,98.9,355.4z"
				/>
			<path class="st6" d="M103.5,340.8c-0.1,0-0.2-0.1-0.2-0.1c1.4-7.5,1.7-10.9,1.7-10.9l1.9,0.4
				C106.9,330.2,104.7,337.7,103.5,340.8z"/>
			<polygon class="st6" points="152.4,369.7 156.9,355.2 158.5,356.6 			"/>
			<path class="st11" d="M90.6,346.3c0.1,0,0.1,0,0.1,0.1c-2.3,6.6-3,9.6-3,9.6l-1.8-0.5C86,355.5,89.1,348.7,90.6,346.3z"/>
			
				<ellipse transform="matrix(0.3854 -0.9228 0.9228 0.3854 -223.1849 396.2247)" class="st4" cx="185.8" cy="365.7" rx="0.4" ry="4.2"/>
			
				<ellipse transform="matrix(0.4045 -0.9145 0.9145 0.4045 -241.1757 338.0984)" class="st7" cx="139" cy="354.3" rx="0.5" ry="12.4"/>
			<path class="st8" d="M192,370.6c0.8-2.4,2.4-5.5,2.4-6.6l-1.4,0.1l1.1-0.8c-0.3-1.4-7.7-4.1-12.2-4.7c0,0,9.8,1,12,2.8
				c2.2,1.7,2.7,1.3,2,3.3C195.1,366.7,192,370.6,192,370.6z"/>
			<path class="st8" d="M106.9,343.1l2.2-11.2l16.7,8.2c-4.8-1.6-15.8-6.4-15.8-6.4L106.9,343.1z"/>
			<path class="st6" d="M178.7,356.8c-0.1,0.4-0.3,0.8-0.5,1.3c-4.5,7.3-27,13.8-27,13.8l-7.8,0.8l-26.4-6.4l10.4-5.6l27.7-5.8
				l2.3-0.5c0.7,0.4,1.2,0.6,1.4,0.7C161.1,355.1,170,355.6,178.7,356.8z"/>
			<path class="st6" d="M196.5,362.4c-1.6-2.7-9.6-4.5-17.8-5.6c-8.7-1.2-17.7-1.6-19.9-1.6c-0.2-0.1-0.7-0.4-1.4-0.7
				c-5.3-2.7-23.9-12.2-60-29.9c-17.3-8.5-31-10.5-40.6-6c-8.4,4-10.4,11.6-10.6,12.1c-1,3.6-0.5,7.2,1.5,10.7
				c9.6,16.5,50,26,51.7,26.4c2.9,0.7,71.6,18.2,80.1,18.2c0.1,0,0.3,0,0.4,0c6.2-0.5,11-10.2,15.1-18.2c0.5-1.1,1-2,1.5-2.9
				C197,364,197,363.2,196.5,362.4z M49.1,340.6c-1.8-3.2-2.3-6.4-1.4-9.6l0,0c0-0.1,1.9-7.4,9.8-11.2c3.1-1.5,6.7-2.2,10.7-2.2
				c7.8,0,17.4,2.7,28.5,8.2c3.8,1.9,7.5,3.7,10.9,5.4c-1.5,12.6-4.8,20.5-11.9,34.1C85,362.3,56.6,353.5,49.1,340.6z M195.2,364.2
				c-0.5,0.9-1,1.9-1.5,2.9c-3.7,7.3-8.5,16.9-13.9,17.4c-5.1,0.4-54.5-11.7-79.9-18.1c-0.1,0-1.1-0.3-2.7-0.7
				c6.9-13.1,10.4-21.4,11.9-33.8c25.3,12.5,40,19.9,46,23c2.1,1.1,3.2,1.6,3.2,1.7l0.2,0.1h0.2c5.9,0,13.1,0.5,19.5,1.4
				c8.6,1.2,15.8,3,17.1,5.1C195.4,363.5,195.4,363.8,195.2,364.2z"/>
		</g>
		<g>
			<path class="st1" d="M195.6,330.8c0,0-6.4-27.1-50.1-5.6C101.9,346.7,84,355.9,84,355.9s-41,1.5-37.3,8.6
				c3.8,7.2,9.4,20.2,16,20.7s80.2-18.1,80.2-18.1S202.2,353.3,195.6,330.8z"/>
			<path class="st3" d="M70,384.1c2-0.3,12.2-2.5,20-4.3c-8.3,2.4-13.3,4.2-20,4.7c-1.2,0.1-2.3,0.2-3.3,0.2
				C68,384.5,69.1,384.2,70,384.1z"/>
			<path class="st3" d="M120.8,372.7c6.1-1.4,12-2.9,15.6-3.7C131.8,370.2,126.7,371.5,120.8,372.7z"/>
			<path class="st11" d="M196.2,338.2c-1.8,4.8-12.8,16-27.2,20.4c-8.5,2.6-16.3,5.6-26.8,8.7c1.9-0.8,3.6-1.7,3.6-1.7l-2.4-7.2
				c14.2-4.6,26-8.5,30.2-10.3c19-8.2,20.6-12,19-23.6C193,325.2,197.2,335.4,196.2,338.2z"/>
			<path class="st0" d="M84,355.9c-1.5,0-2.8,0.1-4.2,0.1c1.6-0.1,2.7-0.2,3-0.2c0.5,0,4.7-1.9,9-4.1
				C88.8,353.4,86.1,354.8,84,355.9z"/>
			<path class="st0" d="M115.2,373.8c1.9-0.4,3.8-0.7,5.6-1.1c-10.4,2.5-21.3,5.1-21.3,5.1s-4.2,0.9-9.5,2.1
				C96.1,378.1,103.8,376,115.2,373.8z"/>
			<path class="st0" d="M136.4,369c2-0.5,3.9-1.1,5.8-1.6c-0.8,0.4-1.7,0.7-2.5,0.9C139.3,368.3,138.1,368.6,136.4,369z"/>
			<path class="st0" d="M72.8,382.3c-6.7,0.5-14.9,0.1-14.9,0.1c1.8,1.6,0.9,2.7,8.9,2.3c-3.5,0.6-7.9,0.7-10.9-3.9
				c-4-6.2-9.5-16.2-9.3-17.4c0.1-1.2,0.8-0.4,0.8-0.4c2.4-1,5-2.6,8.7-3.2c8-1.3,18.8-1,27.8-0.4l5,7.7l-2-8.5
				c15.2-8.1,32.7-17.2,48.5-24.3l2.5,12.4l5.5,11.5C141.9,367.2,86,381.2,72.8,382.3z"/>
			<path class="st4" d="M86.9,358.8l3.4,11l-6.9-9.7c-13-0.9-35.8,3.8-33,10c0,0-5.2-6.4-2.7-8.3c1.7-1.4,7.5-2.9,12.8-3.6
				c6.2-0.7,14.5-1.9,19.3-2.2h0c1.3,0,2.7-0.1,4.2-0.1c2.1-1.1,4.7-2.5,7.8-4.1c0.1,0,0.1-0.1,0.2-0.1c5.3-2.6,10.9-5.5,10.9-5.5
				l28.4-14l3-0.6l1,2.9C119.6,341.6,102,350.7,86.9,358.8z"/>
			<path class="st12" d="M185.6,319.2c-11.6-0.4-30.2,6.2-50.3,15.3l-1-2.9l-3,0.6l-28.4,14c0,0-6.6,4.1-11.9,6.7
				C116.3,339.2,171,308.2,185.6,319.2z"/>
			<path class="st6" d="M145.7,365.6c0,0-1.7,0.9-3.6,1.7c0,0,0,0,0,0c-1.8,0.5-3.7,1.1-5.8,1.6c-3.6,0.9-9.5,2.3-15.6,3.7
				c-1.8,0.4-3.7,0.8-5.6,1.1c-11.4,2.2-19.2,4.3-25.2,6c-7.9,1.7-18,3.9-20,4.3c-0.9,0.1-3.6,1-4.8,1.2c-8,0.4-11.5-7.4-13.2-11.1
				c0,0,4.8,6.2,13.1,7.2c6,0.7,15.9-2.6,26.7-7.4c0,0,40.4-4.9,50.3-15.5L145.7,365.6z"/>
			<path class="st6" d="M143.8,355.4c-0.1,0-0.1,0.1-0.2,0.1c2.6,7.1,3.5,10.5,3.5,10.5l1.8-0.7
				C148.8,365.2,145.5,358.2,143.8,355.4z"/>
			<path class="st6" d="M139.2,340.8c0.1,0,0.2-0.1,0.2-0.1c-1.4-7.5-1.7-10.9-1.7-10.9l-1.9,0.4
				C135.8,330.2,137.9,337.7,139.2,340.8z"/>
			<polygon class="st6" points="90.3,369.7 85.7,355.2 84.2,356.6 			"/>
			<path class="st11" d="M152,346.3c-0.1,0-0.1,0-0.1,0.1c2.3,6.6,3,9.6,3,9.6l1.8-0.5C156.7,355.5,153.5,348.7,152,346.3z"/>
			
				<ellipse transform="matrix(0.9228 -0.3854 0.3854 0.9228 -136.5322 50.1437)" class="st7" cx="56.8" cy="365.7" rx="4.2" ry="0.4"/>
			
				<ellipse transform="matrix(0.9145 -0.4045 0.4045 0.9145 -134.4497 72.2014)" class="st7" cx="103.6" cy="354.3" rx="12.4" ry="0.5"/>
			<path class="st7" d="M50.7,370.6c-0.8-2.4-2.4-5.5-2.4-6.6l1.4,0.1l-1.1-0.8c0.3-1.4,7.7-4.1,12.2-4.7c0,0-9.8,1-12,2.8
				c-2.2,1.7-2.7,1.3-2,3.3C47.6,366.7,50.7,370.6,50.7,370.6z"/>
			<path class="st7" d="M135.7,343.1l-2.2-11.2l-16.7,8.2c4.8-1.6,15.8-6.4,15.8-6.4L135.7,343.1z"/>
			<path class="st6" d="M196.4,330.7c-0.1-0.5-2.1-8.2-10.6-12.1c-9.6-4.5-23.2-2.5-40.6,6c-41,20.2-59.5,29.6-61.4,30.6
				c-4.4,0-34.4,1.7-37.7,7.3c-0.5,0.8-0.5,1.6,0,2.5c0.5,0.9,1,1.9,1.5,2.9c4.1,8,8.9,17.7,15.1,18.2c0.1,0,0.2,0,0.4,0
				c8.5,0,77.1-17.4,80.1-18.2c1.7-0.4,42.1-10,51.7-26.4C196.9,337.9,197.4,334.3,196.4,330.7z M142.8,366.4
				c-25.4,6.5-74.8,18.6-79.9,18.1c-5.4-0.5-10.2-10.1-13.9-17.4c-0.5-1.1-1-2-1.5-2.9c-0.2-0.4-0.2-0.7,0-1
				c2.2-3.7,22.8-6.5,36.6-6.5l0.2,0l0.2-0.1c0.2-0.1,14.9-7.7,49.2-24.6c1.5,12.3,5,20.7,11.9,33.8
				C143.8,366.1,142.8,366.4,142.8,366.4z M193.6,340.6c-7.5,12.9-35.8,21.7-46.6,24.7c-7.2-13.5-10.5-21.5-11.9-34.1
				c3.4-1.7,7.1-3.5,10.9-5.4c11.1-5.5,20.7-8.2,28.5-8.2c4,0,7.6,0.7,10.7,2.2c7.9,3.7,9.8,11.1,9.8,11.2l0,0
				C195.9,334.3,195.4,337.5,193.6,340.6z"/>
		</g>
		<path class="st11" d="M79.3,327.7c0,0,2.5,1.9,1.8,3.3c-0.7,1.4-2.9,3.8-2.9,3.8s3.4,5.9,2.6,8.8s-12.2,7.2-12.2,7.2l-4-3.2
			l-0.2-8l7.8-8.2L79.3,327.7"/>
		<path class="st11" d="M164.2,328.1c0,0-2.5,1.9-1.8,3.3c0.7,1.4,2.9,3.8,2.9,3.8s-3.4,5.9-2.6,8.8c0.7,2.8,12.2,7.2,12.2,7.2
			l4-3.2l0.2-8l-7.8-8.2L164.2,328.1"/>
		<polygon class="st13" points="139.2,201.1 138.1,211.7 136.2,228.7 105.7,228.7 103.2,205.4 102.7,201.1 104.4,190.3 105.7,182.1 
			136.2,182.1 137.7,191.7 		"/>
		<path class="st42" d="M139.2,201.1l-1.2,10.6c-6.4,1.2-16,2.4-20.2,1.7c-4-0.7-10.8-5.2-14.7-7.9l-0.5-4.4l1.7-10.7l17.6-0.9
			l15.7,2.3L139.2,201.1z"/>
		<path class="st6" d="M136.9,229.5h-31.8l-3.1-28.5l3.2-19.6h31.7L140,201l0,0.1L136.9,229.5z M106.4,228h29.1l3-26.9l-2.9-18.2
			h-29.2l-2.9,18.2L106.4,228z"/>
		<g>
			<g>
				<polygon class="st2" points="133.2,231.2 131,226.2 125.3,222.1 124.9,222.5 123.3,223.8 122.9,224.2 121,229.8 119,224.2 
					118.6,223.8 117,222.5 116.6,222.1 110.9,226.2 108.7,231.2 106.3,237.6 108.7,244.5 121,259.1 133.2,244.5 135.6,237.6 				"/>
				<path class="st6" d="M121,260.1l-12.8-15.3l-2.5-7.2l2.5-6.6l2.3-5.2l6.2-4.5l3,2.5l1.3,3.9l1.3-3.9l3-2.5l6.2,4.5l2.3,5.2
					l2.5,6.6l-2.5,7.2L121,260.1z M109.3,244.1L121,258l11.6-13.9l2.3-6.5l-2.3-6.1l-2.1-4.8l-5.1-3.6l0,0l-1.9,1.6l-2.5,7.3
					l-2.5-7.3l-1.9-1.6l-5.1,3.6l-2.1,4.8l-2.3,6.1L109.3,244.1z"/>
			</g>
			<path class="st3" d="M123.5,224.4c0,0,5.7,5,7.6,12.1c0.3,1,0.5,2.1,0.5,3.1c1.2-2.7,2.2-5,2.9-7c-0.4-0.5-0.8-1-1.2-1.4
				c-2.5-2.7-5.8-5.2-9.9-7.4L123.5,224.4z"/>
			<path class="st3" d="M118.5,224.4c0,0-5.7,5-7.6,12.1c-0.3,1-0.5,2.1-0.5,3.1c-1.2-2.7-2.2-5-2.9-7c0.4-0.5,0.8-1,1.2-1.4
				c2.5-2.7,5.8-5.2,9.9-7.4L118.5,224.4z"/>
			<g>
				<circle class="st6" cx="121" cy="231.7" r="1.7"/>
				<path class="st9" d="M121.2,231.2c0.1,0,0.2,0,0.3,0.1c-0.1-0.2-0.4-0.4-0.7-0.4c-0.4,0-0.7,0.3-0.7,0.7c0,0.1,0,0.3,0.1,0.4
					C120.4,231.5,120.8,231.2,121.2,231.2z"/>
			</g>
			<g>
				<circle class="st6" cx="121" cy="246.5" r="1.7"/>
				<path class="st9" d="M121.2,246.1c0.1,0,0.2,0,0.3,0.1c-0.1-0.2-0.4-0.4-0.7-0.4c-0.4,0-0.7,0.3-0.7,0.7c0,0.1,0,0.3,0.1,0.4
					C120.4,246.4,120.8,246.1,121.2,246.1z"/>
			</g>
		</g>
		<g>
			<path class="st18" d="M202.3,297.8c0,7.6-0.8,15.7-2.6,24.4c-0.2,1-0.4,1.9-0.6,2.9c-0.2,1-0.5,1.9-0.7,2.9c0,0.1,0,0.1-0.1,0.2
				c0,0,0,0.1,0,0.1c-0.2,0.8-0.4,1.6-0.6,2.4c-0.1,0.5-0.3,1.1-0.5,1.6c-0.2,0.5-0.3,1.1-0.5,1.6c-0.2,0.5-0.3,1.1-0.5,1.7
				c-0.3,1.1-0.7,2.1-1,3.2c-0.5,1.5-1,3-1.6,4.6v0c-0.3,0.8-0.6,1.6-0.9,2.5c0,0.1-0.1,0.2-0.1,0.2c0,0,0,0,0,0
				c-0.2,0.4-0.3,0.9-0.5,1.3c-0.2,0.6-0.6,1.1-0.9,1.5c-0.3,0.3-0.6,0.6-1,0.8c0,0,0,0,0,0c-0.1,0.1-0.3,0.1-0.4,0.2
				c-1.5,0.8-3.6,0.9-5.9,0.6c-0.1,0-0.1,0-0.2,0c-1.5-0.2-3.1-0.6-4.6-1.1c-0.4-0.1-0.8-0.2-1.2-0.4c-0.4-0.1-0.9-0.3-1.3-0.5
				c-2.3-0.8-4.5-1.8-6.4-2.7l0,0c-0.4-0.2-0.7-0.3-1-0.5c-2.8-1.4-4.7-2.4-4.7-2.4v0c-0.1-0.1-0.2-0.1-0.2-0.2
				c-0.2-0.2-0.4-0.5-0.6-0.8v0c-0.1-0.1-0.1-0.3-0.2-0.4c-0.1-0.5-0.1-0.9,0.1-1.4l2.2-6.2l0.4-1.3l0-0.1c-0.1-0.1-0.4-0.5-0.8-0.9
				c0,0,0,0-0.1-0.1c-0.3-0.3-0.5-0.7-0.8-1.2c-0.4-0.6-0.8-1.2-1.1-1.8c0-0.1-0.1-0.2-0.1-0.3c-0.1-0.3-0.3-0.5-0.4-0.8
				c0-0.1-0.1-0.2-0.1-0.3c-0.1-0.2-0.1-0.4-0.2-0.5c0-0.1-0.1-0.2-0.1-0.3c0-0.1,0-0.2,0-0.3c0-0.3,0.1-0.5,0.2-0.7
				c0.1-0.1,0.2-0.2,0.3-0.3c0.2-0.1,0.4-0.3,0.6-0.4c0.3-0.2,0.7-0.4,1.1-0.7c0.4-0.3,0.8-0.5,1.3-0.8c0.4-0.3,0.9-0.6,1.3-0.9
				c0.2-0.1,0.4-0.2,0.5-0.4c0.9-0.7,1.8-1.4,2.4-2.2c0,0,0,0,0,0c0.5-0.6,0.8-1.2,0.9-1.8c0-0.2,0.1-0.4,0.1-0.8
				c0-0.2,0.1-0.4,0.1-0.6c0-0.2,0.1-0.5,0.1-0.7c0,0,0.1-0.5,0.3-1.4c0-0.2,0.1-0.5,0.1-0.8c0-0.1,0-0.2,0.1-0.3
				c0.4-2.5,1-6,1.4-10.1c0.1-0.6,0.1-1.2,0.2-1.7c0.7-8.2,0.7-18.7-1.5-29.4c-1.2-5.8-3-11.7-5.7-17.5c-0.4-0.8-0.8-1.7-1.2-2.5
				c0,0.3-1.1,13-2.3,27.2c-0.2,2.1-0.4,4.3-0.6,6.5c-1.2,14.3-2.4,28.4-2.8,32.2c-0.1,0.6-0.4,0.5-0.4,0.5l-0.3,0.1L121,330.7
				v-72.1l12.4-20.9l4.7-7.9l1.1-11.6l0.7-7.8l0.5,0.2l8.2,3.3l7.9,3.1l2.5,1l4.6,1.8c0,0,0.1,0.1,0.4,0.2c0.4,0.3,1.3,0.9,2.4,1.8
				c0.2,0.1,0.4,0.3,0.6,0.5c3.1,2.5,7.8,6.8,12.9,12.9c5.8,7,12,16.4,16.4,28.2c0.1,0.4,0.3,0.7,0.4,1.1c0,0.1,0.1,0.2,0.1,0.4
				c0.1,0.2,0.2,0.4,0.2,0.7c2.6,7.5,4.5,15.9,5.1,25.2C202.2,293,202.3,295.4,202.3,297.8z"/>
			<path class="st5" d="M171.5,315.9c-0.2,1-0.4,1.7-0.4,2.1c-0.5,3-6.3,5.8-8.3,7.2c-1.5,1.1,1,4.8,2.4,6.6
				c0.5,0.6,0.6,1.5,0.4,2.3l-2.2,6.2c-0.4,1,0,2.2,0.9,2.8c0,0,23.8,13.8,27.6,4.5c3.1-7.8,5.5-15.3,7.1-22.4
				C186.7,320,176.9,317.2,171.5,315.9z"/>
			<path class="st20" d="M164.5,249.4c0,0,19.6,18.7,14.3,65.4c9,3.2,21.2,7.5,21.2,7.5l-0.9,2.8l-27.5-9.3c0,0,5.5-26.6,1.6-40.2
				C169.2,262.2,164.5,249.4,164.5,249.4z"/>
			<path class="st19" d="M202.3,297.8c-0.2,10.2-2.3,23-2.3,23s-0.3,0-0.7,0c0,0-0.1,0-0.1,0c0,0,0,0,0,0c-0.8,0-2.1-0.2-3.8-0.9
				c0-0.2,0.1-0.4,0.1-0.5c0.9-4.1,1.5-8.2,1.8-12.1c0-0.5,0.1-1,0.1-1.4c1.2-15.2-1.2-28.8-5.1-40.5c-0.1-0.4-0.2-0.7-0.4-1.1
				c-7.1-20.4-18.9-34.7-24.6-40.9c-0.4-0.4-0.7-0.7-1-1c-1.5-1.6-2.4-2.4-2.4-2.4l0.1,0l0.5-0.2l0,0.2c0,0,0,0,0.3,0.2
				c-0.1,0.1,0.1,0,0.1,0c0.3,0.3,0.9,0.6,1.5,1.2c4.5,3.8,16.1,14.3,23.7,28.5c2.6,4.9,4.6,9.4,6.1,13.6c0.1,0.4,0.3,0.7,0.4,1.1
				c0,0.1,0.1,0.2,0.1,0.4c0.1,0.2,0.2,0.4,0.2,0.7c3.4,10.2,4.2,18.4,5.1,25c0,0,0,0.1,0,0.1C202.3,292.7,202.3,295.2,202.3,297.8z
				"/>
			<path class="st6" d="M199.5,321.1c-4.9-2.1-10.9-3.8-18.3-5.4c6.7,2.6,13.6,4.9,18.3,7.2V321.1z"/>
			<path class="st19" d="M199.6,308.1c0,0-3.9-1.4-12.8-3.1c11.7,0.2,13.7,1.9,13.7,1.9L199.6,308.1z"/>
			<path class="st6" d="M173.3,301.6c0,0,11.2-1.5,15.9,0.6c-8.6-0.4-15.8,1.3-15.9,1.2C173.3,301.6,173.3,301.6,173.3,301.6z"/>
			<path class="st6" d="M196.5,263.4c0,0-7.2,0.8-9.5,3.5c5.1-1.9,9.9-1.9,9.9-2C196.5,263.4,196.5,263.4,196.5,263.4z"/>
			<path class="st7" d="M172.3,338.2c0,0,12,3.3,18.9,4l4.9-14.9l2.3,1l-5.5,17.6C192.7,345.9,184.4,345.7,172.3,338.2z"/>
			<path class="st13" d="M198.3,328.3c-6.5-3.1-13.5-5-20.4-4.9c-1,4.9-3,9.9-5.6,14.8c0,0,9.7,6.3,20.2,7.9
				c-2.7,3.9-2.3,6.3-10.9,4.1c-8.6-2.2-18.3-8.4-18.3-8.4l1.6-5.9l1.1-3.3l-3-4.4l-0.5-2.8l3.6-2.1l4-3.6l1.3-3.9
				c9.4,2.8,18.5,6,27.4,9.5L198.3,328.3z"/>
			<path class="st5" d="M166.8,326.3c0.3-0.5,0.6-0.9,1-1.3c0.4-0.4,0.8-0.7,1.2-1c0.4-0.3,0.9-0.5,1.4-0.7c0.5-0.2,1-0.4,1.5-0.5
				l0,0c-0.3,0.5-0.7,0.9-1.1,1.2c-0.4,0.4-0.8,0.7-1.2,1c-0.4,0.3-0.9,0.6-1.3,0.8C167.8,326,167.4,326.2,166.8,326.3z"/>
			<path class="st6" d="M192.2,346.4c0,0-10-1.8-14.4-5.1c8.1,2.9,14.9,3.7,14.9,3.7L192.2,346.4z"/>
			<polygon class="st6" points="169,345.6 172,342.1 170.3,346 			"/>
			<polygon class="st6" points="176.4,348.7 179.4,345.2 177.8,349.2 			"/>
			<polygon class="st6" points="183,350.4 184.7,348.4 183.8,350.6 			"/>
			<path class="st20" d="M164.8,251.3l-4.6,67.2c-4.6,1.4-9.6,3.4-14.9,6c-9.2,4.5-17.3,8.5-24.3,12v-5.8l35.2-14.2l0.4-4.7
				l-18.9,4.4l19.2-9l7.6-57.8L164.8,251.3z"/>
			<path class="st20" d="M166.4,221.1c0,0.1,0,0.2,0,0.3c0,0.2-0.1,0.3-0.1,0.5c0,0.2-0.1,0.4-0.1,0.6c0,0.1,0,0.2-0.1,0.3
				c-3.6,14.7-20.2,14.9-20.2,14.9h-13.4l4.8-8.1l1.8-11.3l0.7-7.8l0.5,0.2l0.1-0.8l14.1,5.2c3.5,1.3,6.5,3.1,9.6,5l0.2,0.7
				c0,0,0.1-0.6,0.4-0.4c0,0,0.3,0.2,0.3,0.2C165.4,220.8,165.9,220.8,166.4,221.1z"/>
			<path class="st6" d="M191.6,250.8c-4.5-8.5-9.6-15.2-14.2-20.3c-3.3-3.6-7-6.8-11-9.4c-0.5-0.3-1-0.7-1.6-1c0,0,0,0,0,0
				c-0.1-0.1-0.3-0.2-0.5-0.3c-3.1-1.9-6.5-3.5-9.9-4.8l-14.1-5.2l-0.1,0.8l-1.2,7.6l-1.8,11.3l-4.8,8.1l-12.3,20.7l0.7,69.9
				l0.7-1.7v-67.7l12.5-21.1l4.5-7.7l1.7-18.6l13,4.8c4.5,1.7,8.7,3.8,12.6,6.5c0.4,0.2,0.7,0.5,1.1,0.7c3.6,2.6,7,5.6,10,9
				c6.3,7.2,13.6,17.5,18.5,31.1c0.2,0.5,0.3,0.9,0.5,1.4c5.2,14.9,7.6,33.5,3.1,56c0,0,0,0,0,0.1c-0.1,0.4-0.1,0.7-0.2,1.1
				c0,0.2-0.1,0.4-0.1,0.5c-0.1,0.5-0.2,1.1-0.4,1.7c-8.1-3.9-16.8-6.8-26.1-8.8c0.7-3.5,1.3-7.6,1.7-12.1c0.1-0.6,0.1-1.1,0.2-1.7
				c0.4-5.6,0.6-11.8,0.1-18.2c0-0.3,0-0.5-0.1-0.8c-0.9-10.1-3.3-20.7-8.5-30.6l-1.3-2.4l0,0l-0.1,2.8c0,1.2-5,59.3-5.6,66.6
				c0,0.1,0,0.1,0,0.2c0,0,0,0,0,0l1.4,0.8l0.1-0.9c1.5-17,4.6-53.6,5.4-63.9c10.7,22.4,7.7,48.3,4.9,62c-0.1,0.4-0.1,0.7-0.2,0.9
				c-0.3,2-3.8,4.1-6.1,5.5c-0.8,0.5-1.4,0.9-1.9,1.2c-0.4,0.3-0.7,0.8-0.7,1.3c-0.2,2.1,2.5,5.7,3.5,7l-2.5,7.1
				c-0.5,1.3,0,2.8,1.2,3.7c0.6,0.4,13.6,7.8,22,7.8c1.2,0,2.2-0.1,3.2-0.5c1.7-0.6,2.8-1.7,3.5-3.2
				C210.6,303,202,270.4,191.6,250.8z M192.2,344.9c-0.1,0.3-0.2,0.6-0.4,1c0,0.1-0.1,0.1-0.1,0.2c0,0.1-0.1,0.2-0.1,0.3
				c-0.1,0.3-0.2,0.6-0.4,0.9c-0.5,1.2-1.3,2-2.6,2.4c-1.3,0.4-2.9,0.5-4.6,0.3c-0.2,0-0.4-0.1-0.6-0.1c-1.7-0.3-3.6-0.8-5.4-1.4
				c-0.4-0.1-0.7-0.2-1.1-0.4c-2.3-0.8-4.5-1.8-6.4-2.7c-0.4-0.2-0.7-0.3-1-0.5c-2.8-1.4-4.7-2.5-4.7-2.5c-0.6-0.4-0.9-1.2-0.6-1.9
				l2.4-6.9c0.3-0.8,1.8-3.8,3.3-5.8c-1.4,1.1-3.1,2.5-3.9,3.7c-1.4-1.8-2.9-4.1-2.8-5.3c0-0.2,0.1-0.2,0.1-0.3
				c0.4-0.3,1-0.7,1.8-1.2c2.7-1.7,6.3-3.9,6.8-6.6c0-0.2,0.1-0.5,0.2-0.9c0-0.1,0.1-0.3,0.1-0.4c2.3,0.4,4.6,1,6.8,1.6
				c0,0,0.1,0,0.1,0c1.2,0.3,2.4,0.7,3.6,1c2.6,0.8,5.2,1.7,7.7,2.7c0,0,0,0,0,0c0.3,0.1,0.6,0.3,0.9,0.4c2.3,0.9,4.6,2,6.9,3.1
				c-0.2,0.8-0.4,1.5-0.6,2.3c0,0,0,0,0,0C196.2,333.4,194.4,339,192.2,344.9z"/>
		</g>
		<g>
			<path class="st18" d="M121,258.6v73L82.5,318c0,0-0.1-0.2-0.3-2.5c-0.5-5.8-1.5-17.6-2.5-29.5c-1.4-16.6-2.8-33.4-2.8-33.7
				c-14.9,28.4-6.5,62.9-6,65.8c0.5,3,6.3,5.8,8.3,7.2c2,1.5-3.2,7.5-3.2,7.6l2.6,7.5c0.4,1,0,2.2-0.9,2.8c0,0-23.8,13.8-27.6,4.5
				c-34.4-86.1,28.4-127.7,28.5-127.7l9-3.6l14.7-5.8l1.8,19.4L121,258.6z"/>
			<path class="st5" d="M70.4,315.9c0.2,1,0.4,1.7,0.4,2.1c0.5,3,6.3,5.8,8.3,7.2c1.5,1.1-1,4.8-2.4,6.6c-0.5,0.6-0.6,1.5-0.4,2.3
				l2.2,6.2c0.4,1,0,2.2-0.9,2.8c0,0-23.8,13.8-27.6,4.5c-3.1-7.8-5.5-15.3-7.1-22.4C55.2,320,65,317.2,70.4,315.9z"/>
			<path class="st20" d="M77.5,249.4c0,0-19.6,18.7-14.3,65.4c-9,3.2-21.2,7.5-21.2,7.5l0.9,2.8l27.5-9.3c0,0-5.5-26.6-1.6-40.2
				C72.7,262.2,77.5,249.4,77.5,249.4z"/>
			<path class="st19" d="M87.4,216.2c0,0-51.8,24.4-40.7,103.8c-2.9,1.1-4.7,0.9-4.7,0.9s-3.4-20.6-2.1-30.3
				c1.3-9.7,2.3-22.8,12-40.8s25.7-29.8,25.7-29.8L87.4,216.2z"/>
			<path class="st6" d="M42.4,321.1c4.9-2.1,10.9-3.8,18.3-5.4c-6.7,2.6-13.6,4.9-18.3,7.2V321.1z"/>
			<path class="st19" d="M42.4,309.6c0,0,3.8-2.9,12.7-4.6c-11.7,0.2-13.7,1.9-13.7,1.9L42.4,309.6z"/>
			<path class="st19" d="M51.5,255.3c0,0,7.2-0.9,10.4-0.4c-4.4-2.9-10.3-2.4-10.3-2.4L51.5,255.3z"/>
			<path class="st6" d="M68.6,301.6c0,0-11.2-1.5-15.9,0.6c8.6-0.4,15.8,1.3,15.9,1.2C68.6,301.6,68.6,301.6,68.6,301.6z"/>
			<path class="st7" d="M69.6,338.2c0,0-12,3.3-18.9,4l-4.9-14.9l-2.3,1l5.5,17.6C49.2,345.9,57.5,345.7,69.6,338.2z"/>
			<path class="st13" d="M43.6,328.3c6.5-3.1,13.5-5,20.4-4.9c1,4.9,3,9.9,5.6,14.8c0,0-9.7,6.3-20.2,7.9c2.7,3.9,2.3,6.3,10.9,4.1
				s18.3-8.4,18.3-8.4l-1.6-5.9l-1.1-3.3l3-4.4l0.5-2.8l-3.6-2.1l-4-3.6l-1.3-3.9c-9.4,2.8-18.5,6-27.4,9.5L43.6,328.3z"/>
			<path class="st5" d="M75.1,326.3c-0.3-0.5-0.6-0.9-1-1.3c-0.4-0.4-0.8-0.7-1.2-1c-0.4-0.3-0.9-0.5-1.4-0.7
				c-0.5-0.2-1-0.4-1.5-0.5l0,0c0.3,0.5,0.7,0.9,1.1,1.2c0.4,0.4,0.8,0.7,1.2,1c0.4,0.3,0.9,0.6,1.3,0.8
				C74.1,326,74.6,326.2,75.1,326.3z"/>
			<path class="st6" d="M49.8,346.4c0,0,10-1.8,14.4-5.1c-8.1,2.9-14.9,3.7-14.9,3.7L49.8,346.4z"/>
			<polygon class="st6" points="73,345.6 70,342.1 71.6,346 			"/>
			<polygon class="st6" points="63.9,348.7 60.9,345.2 62.5,349.2 			"/>
			<polygon class="st6" points="57.3,350.4 55.6,348.4 56.5,350.6 			"/>
			<path class="st20" d="M77.2,251.3l4.6,67.2c4.6,1.4,9.6,3.4,14.9,6c9.2,4.5,17.3,8.5,24.3,12v-5.8l-35.2-14.2l-0.7-11.2l7.9,1.4
				l-8.3-6l-7.3-51.3L77.2,251.3z"/>
			<path class="st6" d="M104.6,229.6l-3.4-19.6L87.4,215c-8.8,3.3-16.7,8.5-23,15.5c-4.6,5.1-9.7,11.8-14.2,20.3
				c-10.3,19.5-18.9,52.2-1,97c0.6,1.6,1.8,2.7,3.5,3.2c0.9,0.3,2,0.5,3.2,0.5c8.4,0,21.4-7.5,22-7.8c1.2-0.8,1.7-2.3,1.2-3.7
				l-2.5-7.1c1-1.3,3.8-4.9,3.5-7c-0.1-0.6-0.3-1-0.7-1.3c-0.5-0.3-1.1-0.7-1.9-1.2c-2.3-1.4-5.8-3.6-6.1-5.5c0-0.2-0.1-0.5-0.2-0.9
				c-2.8-13.7-5.7-39.6,4.9-62c0.8,10.3,4,46.8,5.4,63.9l0.1,0.9l1.5-0.2c-0.5-6.3-5.7-66.2-5.7-67.4l-0.1-2.8l-1.3,2.5
				c-11.8,22.4-9.4,48.7-6.6,63.5c-9.3,2.1-18,5-26.1,8.8c-10.3-45.7,7.7-76.1,21.4-91.7c6.4-7.3,14.5-12.8,23.6-16.2l13-4.8
				l1.7,18.6l17,28.8v77.7l1,1.5l0.5-0.3v-79.2L104.6,229.6z M69.8,316.8c0,0.1,0.1,0.3,0.1,0.4c0.1,0.4,0.1,0.7,0.2,0.9
				c0.5,2.6,4.1,4.9,6.8,6.6c0.7,0.4,1.4,0.8,1.8,1.2c0,0,0.1,0.1,0.1,0.3c0.1,1.2-1.4,3.6-2.8,5.4c-0.8-1.2-2.4-2.7-3.9-3.7
				c1.6,2.4,3,5,3.3,5.8l2.4,6.9c0.2,0.7,0,1.5-0.6,1.9c-0.1,0.1-16.8,9.7-23.9,7.2c-1.3-0.4-2.1-1.2-2.6-2.4
				c-3-7.5-5.3-14.7-6.9-21.6C51.9,321.6,60.6,318.6,69.8,316.8z"/>
		</g>
		<g>
			<path class="st18" d="M121.4,259.3l-22.6-51.6c0,0-12.6,1.9-11.4,22.8l9.4,2.3l-2.8,9.7c-0.9,2.6-0.4,2.6,1.2,3.4L121.4,259.3z"
				/>
			<path class="st19" d="M87.8,230.1c0,0,0.7-18,11-20.9c0-1-0.2-2.1-2.2-0.9c-2,1.2-5.4,3.1-6.8,6.9s-2.3,8.4-2.4,10.5
				c-0.1,2.1,0.1,4.5,0.1,4.5L87.8,230.1z"/>
			<path class="st19" d="M98.6,228.2l-2.8,15.6l24.7,14.6l-26.4-12.8c0,0-0.7-0.3-0.3-2.7s3.8-11.9,3.8-11.9L98.6,228.2z"/>
			<path class="st6" d="M98.9,227.3l-2.3,5.6l0.4,2l2.1-7.4C99,227.5,98.9,227.3,98.9,227.3z"/>
			<path class="st6" d="M99.2,206.9l-0.5,0.1c-0.1,0-13.2,2.3-12,23.5l0,0.5l9.2,2.3l-2.6,9.1c-0.9,2.6-0.5,3.2,1.2,4.1l26.2,13.3
				l1.2-0.7l-1.2-2.6L99.2,206.9z M95.2,245.2c-1.2-0.6-1.2-0.6-0.6-2.6l3-10.4L88,230c-0.9-17.5,8.2-21,10.4-21.6l21.6,49.5
				L95.2,245.2z"/>
		</g>
		<g>
			<path class="st18" d="M154.5,230.5l-9.4,2.3l0.7,2.5l2.1,7.3c0.9,2.6,0.4,2.6-1.2,3.4l-25.2,12.8l-0.4-0.1l0-0.9l9.6-22
				l12.3-28.1C143.1,207.7,155.7,209.6,154.5,230.5z"/>
			<path class="st20" d="M154.5,230.5l-9.4,2.3l0.7,2.5c-4.7,2.6-13.8,2.4-13.8,2.4L131,237l-0.2-1.2l12.3-28.1
				C143.1,207.7,155.7,209.6,154.5,230.5z"/>
			<path class="st18" d="M152.1,215.3c-0.1-0.2-0.1-0.3-0.2-0.5c-0.5,0.3-1,0.6-1.6,0.9c3.4,6.2,3.7,14.4,3.7,14.4l0.4,0.1
				c0,0,0.1-2.5,0.1-4.5C154.5,223.7,153.6,219.1,152.1,215.3z"/>
			<path class="st19" d="M143.3,228.2l3,15.6l-24.9,14.6l26.4-12.8c0,0,0.7-0.3,0.3-2.7s-3.8-11.9-3.8-11.9L143.3,228.2z"/>
			<path class="st6" d="M143.1,227.3l2.3,5.6l-0.4,1.9l-0.7-2.5l-1.4-4.9C143,227.4,143,227.3,143.1,227.3z"/>
			<path class="st6" d="M143.2,207l-0.5-0.1l-21.8,49.9v3l26.4-13.4c1.8-0.9,2.1-1.5,1.2-4.1l-2.6-9.1l9.2-2.3l0-0.5
				C156.4,209.3,143.3,207,143.2,207z M153.9,230l-9.6,2.3l3,10.4c0.6,1.9,0.6,1.9-0.6,2.6l-24.8,12.6l21.6-49.5
				C145.7,209,154.7,212.4,153.9,230z"/>
			<polygon class="st19" points="132.1,237.7 121.8,257.9 131,237 			"/>
		</g>
		<g>
			<g>
				<path class="st3" d="M122.9,224c5.8,3.1,10,6.8,12.6,11c0.3,0.4,0.9,0.3,1-0.2l3-15.3l2.2-11L122.9,224z"/>
				<path class="st5" d="M135.4,232.2c0,0-3.4-4.8-10.5-7.3c2.9,2.4,6,4.4,7.5,6.1c1.6,1.8,3.3,4.2,3.3,4.2s0.5,0.8,0.9-1.2
					c0.4-2,2.8-16,2.8-16L135.4,232.2z"/>
				<path class="st6" d="M135,235.3c-2.6-4.2-6.8-7.8-12.4-10.8l-0.4-0.8l20.4-16.8l-5.6,28c-0.1,0.5-0.4,0.8-0.9,0.9
					c-0.1,0-0.1,0-0.2,0C135.6,235.9,135.3,235.7,135,235.3z M124,223.9c5.3,2.9,9.3,6.5,11.9,10.6l4.9-24.5L124,223.9z"/>
			</g>
			<g>
				<path class="st43" d="M119,224c-5.8,3.1-10,6.8-12.6,11c-0.3,0.4-0.9,0.3-1-0.2l-3-15.3l-2.2-11L119,224z"/>
				<path class="st7" d="M106.5,232.2c0,0,3.4-4.8,10.5-7.3c-2.9,2.4-6,4.4-7.5,6.1c-1.6,1.8-3.3,4.2-3.3,4.2s-0.5,0.8-0.9-1.2
					c-0.4-2-2.8-16-2.8-16L106.5,232.2z"/>
				<path class="st6" d="M105.9,235.9c-0.1,0-0.1,0-0.2,0c-0.5-0.1-0.8-0.4-0.9-0.9l-5.6-28l20.4,16.8l-0.4,0.8
					c-5.6,3-9.8,6.6-12.4,10.8C106.7,235.7,106.3,235.9,105.9,235.9z M101.1,210l4.9,24.5c2.6-4.1,6.6-7.7,11.9-10.6L101.1,210z"/>
			</g>
		</g>
		<g>
			<path class="st4" d="M163.4,104.4c0,5.9-1.5,11.4-4.2,16.4c-7.1-13.1-22.6-15-40.6-15s-33.4,1.9-40.6,15
				c-2.7-5-4.2-10.5-4.2-16.4c0-21.3,20.1-38.6,44.8-38.6S163.4,83.1,163.4,104.4z"/>
			<path class="st44" d="M120.6,66.3c0,0,30.7,15.7,14.6,43.7c24.4,6.7,27.5,4.1,28.1-5.7C164,94.7,155.6,67.1,120.6,66.3z"/>
			<path class="st45" d="M116.6,66.3c0,0-32,8.3-18.5,46.7c-24.4,6.7-23.6,1.1-24.2-8.6C73.2,94.7,81.5,67.1,116.6,66.3z"/>
			<path class="st7" d="M83.9,81.1c0,0,14.9-16.4,32.2-14.6C105.7,67.5,89.9,74.6,83.9,81.1z"/>
			<path class="st6" d="M78,122.4l-0.7-1.2c-2.9-5.2-4.3-10.9-4.3-16.7c0-21.7,20.4-39.4,45.5-39.4c25.1,0,45.5,17.7,45.5,39.4
				c0,5.8-1.4,11.5-4.3,16.7l-0.7,1.2l-0.7-1.2c-6.6-12.1-20.7-14.6-39.9-14.6s-33.3,2.5-39.9,14.6L78,122.4z M118.6,105
				c15.4,0,32.5,1.1,40.5,14.2c2.3-4.7,3.5-9.7,3.5-14.8c0-20.9-19.8-37.9-44-37.9s-44,17-44,37.9c0,5.2,1.2,10.1,3.5,14.8
				C86.1,106.2,103.1,105,118.6,105z"/>
		</g>
		<g>
			<path class="st4" d="M203.4,137.2c0,8.8-3.5,17.2-9.8,24.5c-14,16.3-41.5,27.4-73.1,27.4c-32,0-59.7-11.3-73.5-27.9
				c-6-7.2-9.4-15.3-9.4-23.9c0-28.6,37.1-51.9,82.9-51.9S203.4,108.5,203.4,137.2z"/>
			<path class="st6" d="M120.5,190.2c-31.3,0-59.8-10.8-74.4-28.3c-6.3-7.5-9.6-16.1-9.6-24.7c0-29.2,37.7-53,84-53
				c46.3,0,84,23.8,84,53c0,8.8-3.5,17.5-10.1,25.2C179.7,179.5,151.4,190.2,120.5,190.2z M120.5,86.5c-45.1,0-81.8,22.8-81.8,50.7
				c0,8.2,3.1,16,9.1,23.2c14.1,17,42,27.5,72.7,27.5c30.3,0,58-10.3,72.2-27c6.2-7.3,9.5-15.5,9.5-23.7
				C202.2,109.2,165.6,86.5,120.5,86.5z"/>
		</g>
		<path class="st46" d="M57.2,163c-4.6-3.8-5-10.3-1-14.6c9.1-9.5,29-24.5,64.2-24.5c35.6,0,55.2,15.8,63.9,25.5
			c3.8,4.3,3.4,10.6-1.1,14.3c-9.2,7.8-28.9,19.3-64.1,19.2C86.6,182.8,66.8,170.9,57.2,163z"/>
		<path class="st47" d="M63.7,107.8c26.9-19,79.1-23.6,113.5-0.1c0.9,0.6,0.2,2.1-0.9,1.7c-42.5-17-81.2-11.9-111.7,0.1
			C63.5,109.8,62.8,108.4,63.7,107.8z"/>
		<g>
			<path class="st5" d="M172,147c3.1,1,4.8,6.3,4.4,10.9c-0.3,4-2.4,7.8-5.5,10.3c-3.3,2.6-8.4,3.9-10.5,0.5
				c-0.8-1.8-1.1-3.7-0.9-5.7c0.3-3.1,1.4-6.1,3.1-8.7C164.5,151.5,168.2,145.8,172,147z"/>
			<g>
				<path class="st6" d="M172,153.2c-0.6-1-1.5-1.3-2.5-1.2c0.6,0.1,1.1,0.5,1.5,1.1c1,1.6,0.7,4.1,0,6.2c-0.8,2.4-2.5,4.3-4.8,5.3
					c0.1,0.1,0.1,0.2,0.2,0.4c2.6-0.8,4.7-2.9,5.6-5.6C172.7,157.3,173,154.8,172,153.2z"/>
				<path class="st6" d="M172.3,157.6c-0.1,0.4-2.1,3.9-2,3.5c0.9-2.2,0.7-6.5-2.2-6.4c-0.7,0-0.8-1.4-0.2-2.1
					c0.5-0.5,1.8-0.8,2.5-0.6c0.7,0.2,1,0.6,1.3,1c0.2,0.2-0.1,0.6,0,0.8C172.4,155,172.6,156.4,172.3,157.6z"/>
				<path class="st13" d="M167.2,157.4c1.1,0.4-0.2,1.7,0.6,2.6c0.2,0.2,0.7,0.3,1.3-0.8c0.6-0.9,0.8-1.9-0.2-2.7
					c-0.3-0.3-1.1-0.4-1.4-0.2C167.1,156.4,166.8,157.2,167.2,157.4z"/>
			</g>
			<path class="st13" d="M163.8,167.5C163.8,167.5,163.8,167.5,163.8,167.5C163.8,167.6,163.9,167.6,163.8,167.5c0.1,0,0.2,0,0.3,0
				c0.2,0,0.4,0,0.5,0c0.4,0,0.8-0.1,1.1-0.1c0.8-0.1,1.5-0.3,2.3-0.6c0.7-0.3,1.4-0.7,2.1-1.1c0.6-0.5,1.2-1.1,1.7-1.7
				c-0.4,0.7-0.9,1.4-1.5,2c-0.6,0.6-1.3,1.1-2,1.5c-0.7,0.4-1.5,0.8-2.3,1.1c-0.4,0.1-0.8,0.3-1.2,0.4c-0.2,0-0.4,0.1-0.7,0.1
				c-0.1,0-0.2,0-0.4,0c-0.1,0-0.1,0-0.2,0c-0.1,0-0.2,0-0.3-0.1L163.8,167.5z"/>
			<g>
				<g id="Path_349_30_">
					<path class="st5" d="M69.9,147.1c-3.1,1-4.8,6.3-4.4,10.9c0.3,4,2.4,7.8,5.5,10.3c3.3,2.6,8.4,3.9,10.5,0.5
						c0.8-1.8,1.1-3.7,0.9-5.7c-0.3-3.1-1.4-6.1-3.1-8.7C77.5,151.6,73.7,145.9,69.9,147.1z"/>
					<path class="st6" d="M77.6,171.5c-2.2,0-4.9-1-7-2.7c-3.3-2.6-5.5-6.5-5.8-10.8c-0.5-4.7,1.3-10.5,4.9-11.6l0,0
						c4.3-1.3,8.3,4.6,10.2,7.5c1.8,2.7,2.9,5.8,3.3,9.1c0.3,2.1,0,4.2-0.9,6.1l0,0.1c-0.8,1.2-1.9,2-3.4,2.3
						C78.4,171.5,78,171.5,77.6,171.5z M70.1,147.8c-2.8,0.9-4.3,5.9-3.9,10.1c0.3,3.8,2.2,7.4,5.3,9.7c2.2,1.7,4.9,2.7,6.9,2.3
						c1.1-0.2,1.9-0.7,2.4-1.6c0.8-1.6,1-3.4,0.8-5.2c-0.3-3-1.4-5.9-3-8.4C76.9,152.2,73.4,146.8,70.1,147.8z"/>
				</g>
				<g>
					<path class="st6" d="M76.2,165c-2.5-0.9-4.5-2.9-5.3-5.5c-0.6-2.1-0.9-4.6,0-6.2c0.4-0.7,0.9-1,1.5-1.1c-1-0.1-1.9,0.2-2.5,1.2
						c-1,1.6-0.7,4.1,0,6.2c0.9,3,3.4,5.2,6.5,5.8C76.2,165.2,76.2,165.1,76.2,165z"/>
					<path class="st6" d="M69.6,157.8c0.1,0.4,2.1,3.9,2,3.5c-0.9-2.2-0.7-6.5,2.2-6.4c0.7,0,0.8-1.4,0.2-2.1
						c-0.5-0.5-1.8-0.8-2.5-0.6c-0.7,0.2-1,0.6-1.3,1c-0.2,0.2,0.1,0.6,0,0.8C69.5,155.1,69.3,156.5,69.6,157.8z"/>
					<path class="st13" d="M74.5,157.5c-1.1,0.4,0.1,1.6-0.6,2.5c-0.1,0.2-0.7,0.3-1.3-0.8c-0.6-0.9-0.8-1.9,0.2-2.7
						c0.3-0.3,1-0.4,1.4-0.2C74.6,156.6,74.9,157.4,74.5,157.5z"/>
				</g>
				<path class="st13" d="M78.6,169.1c-0.1,0-0.2,0-0.3,0.1c-0.1,0-0.1,0-0.2,0c-0.1,0-0.3,0-0.4,0c-0.2,0-0.4-0.1-0.7-0.1
					c-0.4-0.1-0.8-0.2-1.2-0.4c-0.8-0.3-1.6-0.6-2.3-1.1c-0.7-0.4-1.4-0.9-2-1.5c-0.6-0.6-1.1-1.3-1.5-2c0.5,0.7,1.1,1.2,1.7,1.7
					c0.6,0.5,1.4,0.8,2.1,1.1c0.7,0.3,1.5,0.5,2.3,0.6c0.4,0.1,0.8,0.1,1.1,0.1c0.2,0,0.4,0,0.5,0c0.1,0,0.2,0,0.2,0
					c0,0,0.1,0,0.1,0c0,0,0,0,0,0L78.6,169.1z"/>
			</g>
			<path class="st6" d="M164.3,171.4c-0.4,0-0.8,0-1.1-0.1c-1.5-0.3-2.7-1.1-3.4-2.3l0-0.1c-0.9-1.9-1.2-4-0.9-6.1
				c0.3-3.2,1.5-6.3,3.3-9c1.9-2.9,5.8-8.9,10.2-7.5l0,0c3.6,1.2,5.3,7,4.9,11.6c-0.4,4.2-2.5,8.2-5.8,10.8
				C169.2,170.4,166.5,171.4,164.3,171.4z M161,168.2c0.5,0.9,1.3,1.4,2.4,1.6c2,0.3,4.8-0.6,6.9-2.3c3-2.4,4.9-5.9,5.3-9.7
				c0.4-4.1-1.1-9.2-3.9-10.1c-3.3-1-6.8,4.3-8.5,6.9c-1.7,2.5-2.7,5.4-3,8.4C160,164.8,160.3,166.6,161,168.2z"/>
		</g>
		<path class="st5" d="M75.6,144.2l1.8,35.3c0.5,8.7,6.4,16.1,14.8,18.5c5.9,1.7,12.6,4.1,17.8,7c3.4,1.9,7.2,3,11.1,3h0
			c3.9,0,7.7-1.1,11.1-3c5.2-3,11.9-5.3,17.8-7c8.4-2.4,14.3-9.8,14.8-18.5l1.8-35.3c0,0-21.9-16.2-45.4-16.4
			C96.8,127.7,75.6,144.2,75.6,144.2z"/>
		<path class="st13" d="M77.3,163.9c0,0-0.4,20.8,7,27.6c7.4,6.7,12.7,4.8,22.8,9.5c3.7,1.7,8.3,4.3,13.8,4.4
			c5.5,0.1,15.3-6.1,21.1-7.4s21.2-4.1,20.8-23.7c1.8,0.3,4.3,7.8-3.5,18.1c-3.3,2.5-8,5.1-10,5.6c-1.9,0.5-9.1,3.2-11,4
			c-1.9,0.9-11.4,4.9-13.4,5.5c-2,0.6-8.8,0.5-14.7-2.2c-6-2.8-12.5-6.1-16.6-7c-4.1-0.8-11.6-5.1-13.8-9.9
			c-2.2-4.7-2.9-10.2-2.8-11.9c0.1-1.7-0.9-11.7-0.9-11.7L77.3,163.9z"/>
		<path class="st6" d="M121,208c-4,0-7.9-1.1-11.4-3.1c-4.3-2.5-10.3-4.8-17.6-7c-8.7-2.5-14.8-10.2-15.3-19.2l-1.9-35.8
			c0,0,22-15.4,45.6-15.9c24.5-0.5,46.9,16.6,46.9,16.6l-1.9,35.1c-0.5,9-6.6,16.7-15.3,19.2c-7.3,2.1-13.3,4.5-17.6,7
			C128.9,206.9,124.9,208,121,208z M75.6,144.2l2.5,34.5c0.4,8.3,6.2,15.5,14.2,17.8c7.5,2.2,13.5,4.5,17.9,7.1
			c3.3,1.9,7,2.9,10.7,2.9c3.7,0,7.4-1,10.7-2.9c4.4-2.6,10.5-4.9,17.9-7.1c8.1-2.3,13.8-9.5,14.2-17.8l2.5-34.5
			c0,0-24-14.1-45.7-14.1C96,130.1,75.6,144.2,75.6,144.2z"/>
		<g>
			<path class="st43" d="M143.7,185.6l-19.3-5.6c-1.1-0.3-2.3-0.6-3.5-0.8c-1.2,0.2-2.3,0.5-3.5,0.8l-19.3,5.6
				c-0.2,6.2-1.6,12.5-4.5,19c0,0.1,0,0.1,0.1,0.1c4.9-3.2,8.8-5.9,11.7-10.7l15.5-2.5l15.5,2.5c2.9,4.8,6.8,7.5,11.7,10.7
				c0,0,0.1,0,0.1-0.1C145.3,198,143.9,191.7,143.7,185.6z"/>
			<path class="st48" d="M116.8,180.8l-3.1,2.3l5.2-0.8l-1.4,1.6l5.3-1.2l-0.9,1.1l20.2,3.9c0,0-1.4,8.9,4.6,15.6
				c-0.8-5.2-1.7-9.5-1.7-9.5l-1.3-7.3l-2.1-1.3l-16.4-4.4l-4.1-0.9L118,180L116.8,180.8z"/>
			<path class="st7" d="M96.4,198.4c0,0,3.4-3.9,4.1-10.9l11.2-5.1l-13.4,3.7l-1.7,10.1L96.4,198.4z"/>
			<path class="st48" d="M95.3,203.2c0,0,7.1-5.9,8.4-10.4l17.2-1.7l-14.6,3.2c0,0-6,5.7-6.2,5.8c-0.1,0.2-4.5,3.6-4.5,3.6
				L95.3,203.2z"/>
			<path class="st6" d="M93.7,206.1l-0.5-0.3c-0.3-0.2-0.4-0.6-0.3-0.9c2.8-6.2,4.3-12.5,4.5-18.7l0-0.5l19.8-5.7
				c1.2-0.4,2.4-0.6,3.5-0.8l0.1,0l0.1,0c1.1,0.2,2.3,0.5,3.5,0.8l19.8,5.7l0,0.5c0.2,6.3,1.7,12.5,4.5,18.7l0.2,0.5l-0.5,0.4
				c-0.3,0.2-0.7,0.2-1,0c-4.4-2.9-8.7-5.7-11.7-10.6l-15-2.4l-15,2.4c-3,4.9-7.3,7.7-11.8,10.7L93.7,206.1z M93.4,204.5
				C93.4,204.5,93.3,204.5,93.4,204.5C93.3,204.5,93.4,204.5,93.4,204.5z M99,186.7c-0.2,5.5-1.5,11.1-3.7,16.5
				c3.8-2.6,7.1-5.1,9.6-9.2l0.2-0.3l15.9-2.5l0.1,0l15.8,2.5l0.2,0.3c2.5,4.1,5.8,6.6,9.6,9.2c-2.2-5.4-3.4-11-3.7-16.5l-18.7-5.4
				c-1.1-0.3-2.2-0.6-3.3-0.8c-1,0.2-2.1,0.4-3.3,0.8L99,186.7z"/>
			<polygon class="st48" points="121,191.2 137.7,191.5 127.2,192.2 			"/>
		</g>
		<g>
			<path class="st43" d="M87.7,137.7l-11,21.6l-1.1-15.8C75.6,143.5,83.2,139.3,87.7,137.7z"/>
			<path class="st6" d="M76.1,162.1l-1.4-19l0.4-0.2c0.3-0.2,7.7-4.2,12.2-5.9l1.8-0.7L76.1,162.1z M76.3,143.9l0.9,12.7l8.8-17.5
				C82.4,140.7,77.7,143.2,76.3,143.9z"/>
		</g>
		<g>
			<path class="st43" d="M154.1,137.6l11.2,23.8l1-17.5C166.3,143.9,158.6,139.3,154.1,137.6z"/>
			<path class="st6" d="M165.9,164.4l-13.2-28.1l1.7,0.6c4.5,1.7,12,6.1,12.3,6.3l0.4,0.2L165.9,164.4z M155.6,139.1l9.1,19.3
				l0.8-14.1C164.2,143.5,159.4,140.7,155.6,139.1z"/>
		</g>
		<g>
			<g>
				<path class="st13" d="M90.9,150.6c1.2-0.7,14.8-4.1,22.7-2.4c0.8,0.2,1.7-2.6,1.7-2.6s-7.7-3.1-13.2-1.4c-5.4,1.8-11,5.9-11,5.9
					L90.9,150.6z"/>
				<path class="st6" d="M90.7,150.2c0.4-0.4,0.9-0.8,1.3-1.2l1.3-1.1l1.4-1l1.4-0.8c1.9-1,4-1.7,6.1-2.1c2.1-0.4,4.3-0.5,6.5-0.3
					l1.7,0.2c0.6,0.1,1.1,0.2,1.7,0.3l1.7,0.4c0.6,0.2,1.1,0.4,1.7,0.6l0,0.5l-1.6-0.4l-1.6-0.3l-1.6-0.2l-1.6-0.1
					c-2.1-0.1-4.3,0-6.3,0.5c-2.1,0.4-4.1,1-6,1.9l-1.4,0.7l-1.4,0.8l-1.4,0.9l-1.3,1.1L90.7,150.2z"/>
			</g>
			<g>
				<path class="st13" d="M151,150.6c-1.2-0.7-14.8-4.1-22.7-2.4c-0.8,0.2-1.7-2.6-1.7-2.6s7.7-3.1,13.2-1.4s11,5.9,11,5.9
					L151,150.6z"/>
				<path class="st6" d="M151.2,150.2c-0.4-0.4-0.9-0.8-1.3-1.2l-1.3-1.1l-1.4-1l-1.4-0.8c-1.9-1-4-1.7-6.1-2.1
					c-2.1-0.4-4.3-0.5-6.5-0.3l-1.7,0.2c-0.6,0.1-1.1,0.2-1.7,0.3l-1.7,0.4c-0.6,0.2-1.1,0.4-1.7,0.6l0,0.5l1.6-0.4l1.6-0.3l1.6-0.2
					l1.6-0.1c2.1-0.1,4.3,0,6.3,0.5c2.1,0.4,4.1,1,6,1.9l1.4,0.7l1.4,0.8l1.4,0.9l1.3,1.1L151.2,150.2z"/>
			</g>
		</g>
		<g>
			<path class="st13" d="M121.1,155.7l-0.5,0.2l-2.1,10.7c0,0-9.6,6.1-1.8,13.2c-1.5-3.2-2.6-6-0.4-8.6c2.2-2.7,3.8-2.8,3.8-2.8
				l0.8-5.3l0.5-6.6L121.1,155.7z"/>
			
				<ellipse transform="matrix(0.709 -0.7052 0.7052 0.709 -87.6245 134.9668)" class="st7" cx="119.7" cy="173.7" rx="2.5" ry="1.4"/>
			<path class="st13" d="M112.9,199.8c3.6,3.8,8.7,4.3,17.3-0.5C119.8,201,117.4,200.4,112.9,199.8z"/>
			<path class="st7" d="M125.6,168.1l-3.3-1.5l-0.6-7.8l0,8.6l3.9,0.8C125.5,168.2,125.5,168.1,125.6,168.1z"/>
			<g>
				<path class="st13" d="M131.1,159.9c0,0,2.2,4.1,9.7,2.4c5.2-1.1,8.3-6.1,8.1-6.2c-4.3-0.3-9.5,0.4-10.8,0.4
					C133.1,156.4,131.1,159.9,131.1,159.9z"/>
				<g>
					<g>
						<path class="st6" d="M131.1,159.9c0,0,3-7.1,17.7-3.8C135,156,131.1,159.9,131.1,159.9z"/>
						<path class="st6" d="M133.8,157.8c0.6,2.1,2.7,3.3,4.9,2.9c2.2-0.4,3.6-2.4,3.4-4.6L133.8,157.8z"/>
						
							<ellipse transform="matrix(0.9935 -0.1137 0.1137 0.9935 -17.1397 16.522)" class="st7" cx="136.2" cy="158.5" rx="0.6" ry="0.6"/>
					</g>
				</g>
				<path class="st13" d="M131.1,159.9c0,0-0.2,5.3,4.5,8.6c-2.5-4.3-2.5-5.5-2.9-8.2C132.6,159.7,131.1,159.9,131.1,159.9z"/>
				<path class="st13" d="M110.8,159.9c0,0-2.2,4.1-9.7,2.4c-5.2-1.1-8.3-6.1-8.1-6.2c4.3-0.3,9.5,0.4,10.8,0.4
					C108.9,156.4,110.8,159.9,110.8,159.9z"/>
				<g>
					<g>
						<path class="st6" d="M110.8,159.9c0,0-3-7.1-17.7-3.8C107,156,110.8,159.9,110.8,159.9z"/>
						<path class="st6" d="M108.1,157.8c-0.6,2.1-2.7,3.3-4.9,2.9c-2.2-0.4-3.6-2.4-3.4-4.6L108.1,157.8z"/>
						
							<ellipse transform="matrix(0.1137 -0.9935 0.9935 0.1137 -66.3363 242.6092)" class="st7" cx="102.8" cy="158.5" rx="0.6" ry="0.6"/>
					</g>
				</g>
				<path class="st13" d="M110.8,159.9c0,0,0.2,5.3-4.5,8.6c2.5-4.3,2.5-5.5,2.9-8.2C109.3,159.7,110.8,159.9,110.8,159.9z"/>
			</g>
			<path class="st5" d="M117,179c0,0,2.8,3.6,11.1,1.4c-0.5-1.1-1.5-2.1-1.5-2.1s-6.3,0.8-6.4,0.7C120.2,179,117,179,117,179z"/>
			<path class="st13" d="M117.6,178.2c1.2,1.1,4.3,3.5,8.4-0.5c0.4-0.4,0.3-0.8-0.2-0.6c-2.7,1-6.3,0.9-8.1,0.5
				C117.5,177.6,117.4,178,117.6,178.2z"/>
			<path class="st6" d="M125.5,168.3C125.5,168.3,125.5,168.3,125.5,168.3l-3.9-0.9l0.1-11.7l-0.6,0l-1.2,12.1
				c-7.7,3.7-5.9,10.8-2.3,12.6c0.9,0.4,2.7,1,2.9,0.6c0.1-0.2,0.1-0.5-0.4-0.7C111.3,177.2,117.4,167.2,125.5,168.3z"/>
			<path class="st6" d="M118,179.3c0,0,3.3,2.1,8.6,0.9c0.6-0.1,1.1,0.1,1.5,0.6l0,0c0,0-5.1,1.8-10-0.2
				C117.3,179.4,118,179.3,118,179.3z"/>
		</g>
	</g>
	<g>
		<g>
			<path class="st23" d="M193.3,453.5H47.8c-4,0-7.3-3.3-7.3-7.3v0c0-4,3.3-7.3,7.3-7.3h145.4c4,0,7.3,3.3,7.3,7.3v0
				C200.6,450.3,197.3,453.5,193.3,453.5z"/>
			<g>
				<g>
					<path class="st24" d="M190.8,409.2H50.3c-4.1,0-7.5,3.4-7.5,7.5v27.6c0,4.1,3.4,7.5,7.5,7.5h140.5c4.1,0,7.5-3.4,7.5-7.5v-27.6
						C198.3,412.5,194.9,409.2,190.8,409.2z M196.3,444.2c0,3-2.4,5.5-5.5,5.5H50.3c-3,0-5.5-2.5-5.5-5.5v-27.6c0-3,2.5-5.5,5.5-5.5
						h140.5c3,0,5.5,2.5,5.5,5.5V444.2z"/>
					<path class="st25" d="M196.3,416.6v27.6c0,3-2.4,5.5-5.5,5.5H50.3c-3,0-5.5-2.5-5.5-5.5v-27.6c0-3,2.5-5.5,5.5-5.5h140.5
						C193.8,411.2,196.3,413.6,196.3,416.6z"/>
				</g>
			</g>
		</g>
		<g>
			<path class="st24" d="M98.4,422h6.9v1.5h-5.2v4.7c0.2,0,0.5-0.1,0.8-0.1c0.3,0,0.6-0.1,0.9-0.1c0.6,0,1.2,0.1,1.7,0.2
				c0.5,0.1,1,0.4,1.4,0.7c0.4,0.3,0.7,0.8,1,1.4c0.2,0.6,0.4,1.3,0.4,2.2s-0.1,1.6-0.3,2.3c-0.2,0.6-0.5,1.2-0.9,1.6
				s-0.9,0.7-1.4,0.9s-1.2,0.3-1.8,0.3c-0.2,0-0.4,0-0.7,0c-0.3,0-0.6,0-0.8,0c-0.3,0-0.6-0.1-0.9-0.1s-0.5-0.1-0.8-0.2V422z
				 M100.1,435.9c0.2,0.1,0.4,0.1,0.7,0.1s0.6,0,0.9,0c0.8,0,1.4-0.3,1.9-0.8c0.5-0.5,0.7-1.3,0.7-2.4c0-0.7-0.1-1.3-0.2-1.7
				c-0.2-0.4-0.4-0.8-0.6-1c-0.3-0.2-0.6-0.4-0.9-0.5c-0.4-0.1-0.7-0.1-1.2-0.1c-0.1,0-0.2,0-0.4,0c-0.1,0-0.3,0-0.4,0
				c-0.1,0-0.3,0-0.4,0.1c-0.1,0-0.2,0.1-0.3,0.1V435.9z"/>
			<path class="st24" d="M108,427c0.4-0.3,0.9-0.5,1.6-0.6c0.6-0.1,1.3-0.2,1.9-0.2c0.6,0,1.1,0.1,1.5,0.3c0.4,0.2,0.7,0.4,0.9,0.7
				c0.2,0.3,0.4,0.7,0.4,1.1c0.1,0.4,0.1,0.8,0.1,1.3c0,0.9,0,1.7-0.1,2.6s-0.1,1.6-0.1,2.4c0,0.6,0,1.1,0.1,1.6
				c0,0.5,0.1,0.9,0.2,1.4h-1.2l-0.4-1.3h-0.1c-0.2,0.4-0.5,0.7-1,1c-0.4,0.3-1,0.4-1.7,0.4c-0.8,0-1.4-0.3-1.9-0.8
				c-0.5-0.6-0.8-1.3-0.8-2.3c0-0.6,0.1-1.2,0.3-1.6c0.2-0.4,0.5-0.8,0.9-1c0.4-0.3,0.8-0.5,1.4-0.6c0.5-0.1,1.1-0.2,1.8-0.2
				c0.1,0,0.3,0,0.4,0s0.3,0,0.5,0c0-0.5,0.1-0.9,0.1-1.2c0-0.8-0.1-1.4-0.4-1.8c-0.2-0.3-0.7-0.5-1.4-0.5c-0.4,0-0.9,0.1-1.3,0.2
				c-0.5,0.1-0.9,0.3-1.2,0.5L108,427z M112.7,432.3c-0.1,0-0.3,0-0.4,0c-0.1,0-0.3,0-0.4,0c-0.3,0-0.7,0-1,0.1
				c-0.3,0.1-0.6,0.2-0.9,0.3s-0.5,0.3-0.6,0.6c-0.2,0.3-0.2,0.6-0.2,0.9c0,0.6,0.1,1,0.4,1.4c0.3,0.3,0.6,0.5,1.1,0.5
				c0.6,0,1.1-0.1,1.4-0.4c0.3-0.3,0.6-0.6,0.7-1V432.3z"/>
			<path class="st24" d="M122.4,431l0.1-1.7h-0.1l-0.8,1.8l-3.7,6.2h-1v-11h1.6v6.5l-0.1,1.6h0.1l0.7-1.8l3.8-6.3h1v11h-1.6V431z
				 M119.1,421.9c0.1,0.7,0.3,1.2,0.5,1.4s0.6,0.4,1,0.4c0.4,0,0.7-0.2,1-0.5c0.3-0.3,0.5-0.8,0.5-1.4l1.2,0.4c-0.1,0.9-0.4,1.6-1,2
				s-1.1,0.7-1.8,0.7c-0.3,0-0.7,0-1-0.1c-0.3-0.1-0.6-0.3-0.9-0.5c-0.3-0.2-0.5-0.5-0.6-0.8c-0.2-0.3-0.3-0.7-0.4-1.2L119.1,421.9z
				"/>
			<path class="st24" d="M129,432.4h-0.8v5h-1.6v-11h1.6v5l0.7-0.3l2.7-4.7h1.7l-2.6,4.4l-0.8,0.7l0.9,0.9l2.8,5h-1.9L129,432.4z"/>
			<path class="st24" d="M141.5,436.6c-0.4,0.3-0.8,0.6-1.3,0.7c-0.5,0.2-1.1,0.3-1.7,0.3c-0.7,0-1.3-0.1-1.8-0.4
				c-0.5-0.3-0.9-0.7-1.3-1.2c-0.3-0.5-0.6-1.1-0.7-1.8s-0.2-1.5-0.2-2.4c0-1.9,0.3-3.3,1-4.3s1.7-1.5,2.9-1.5
				c0.4,0,0.8,0.1,1.2,0.2s0.8,0.3,1.1,0.6c0.3,0.3,0.6,0.7,0.8,1.3s0.3,1.3,0.3,2.2c0,0.3,0,0.5,0,0.8c0,0.3,0,0.6-0.1,0.9h-5.6
				c0,0.6,0.1,1.2,0.2,1.7c0.1,0.5,0.3,1,0.5,1.3c0.2,0.4,0.5,0.6,0.8,0.8c0.3,0.2,0.8,0.3,1.3,0.3c0.4,0,0.8-0.1,1.2-0.2
				c0.4-0.1,0.7-0.3,0.9-0.5L141.5,436.6z M140.3,430.7c0-1.1-0.1-1.9-0.5-2.4c-0.3-0.5-0.8-0.8-1.4-0.8c-0.7,0-1.2,0.3-1.6,0.8
				c-0.4,0.5-0.6,1.3-0.7,2.4H140.3z"/>
		</g>
	</g>
</g>
</svg>
