<?xml version="1.0" encoding="utf-8"?>
<!-- Generator: Adobe Illustrator 21.0.0, SVG Export Plug-In . SVG Version: 6.00 Build 0)  -->
<svg version="1.1" id="Layer_1" xmlns="http://www.w3.org/2000/svg" xmlns:xlink="http://www.w3.org/1999/xlink" x="0px" y="0px"
	 viewBox="0 0 240.9 453.5" style="enable-background:new 0 0 240.9 453.5;" xml:space="preserve">
<style type="text/css">
	.st0{fill:#794552;}
	.st1{fill:#C7B89E;}
	.st2{fill:#F9A960;}
	.st3{fill:#D17C32;}
	.st4{fill:#956070;}
	.st5{fill:#FDDCC0;}
	.st6{fill:#501338;}
	.st7{fill:#FFFFFF;}
	.st8{fill:#B38091;}
	.st9{fill:#D1D5DB;}
	.st10{fill:#989A9C;}
	.st11{fill:#937B70;}
	.st12{fill:#E6DEC9;}
	.st13{fill:#F0B39C;}
	.st14{fill:#8E183F;}
	.st15{fill:#F5F5F5;}
	.st16{fill:none;stroke:#462062;stroke-width:0.7554;stroke-linecap:round;stroke-miterlimit:10;}
	.st17{fill:#B5BAC0;}
	.st18{fill:#C71F41;}
	.st19{fill:#EF5784;}
	.st20{fill:#A91D41;}
	.st21{opacity:0.5;fill:#C1C1C1;}
	.st22{opacity:0.27;fill:#E78B6F;}
	.st23{fill:#CB8A43;}
	.st24{fill:#754D24;}
	.st25{fill:#FBBA6C;}
	.st26{fill:#837070;}
	.st27{fill:#866A58;}
	.st28{fill:#9A7E67;}
	.st29{fill:#B39885;}
	.st30{fill:#5B4580;}
	.st31{fill:#E1DFDF;}
	.st32{fill:#C0BEBD;}
	.st33{fill:#D53231;}
	.st34{fill:#E94647;}
	.st35{fill:#797083;}
	.st36{fill:#A9A4B4;}
	.st37{fill:#5B5567;}
	.st38{fill:#CE202B;}
	.st39{fill:#EE3734;}
	.st40{fill:#F49294;}
	.st41{fill:#B89AA6;}
	.st42{fill:#D4907B;}
	.st43{fill:#FAB276;}
	.st44{opacity:0.5;fill:#794552;}
	.st45{fill:#B57D90;}
	.st46{opacity:0.7;fill:#794552;}
	.st47{opacity:0.15;fill:#F2E8A5;}
	.st48{fill:#D67E3A;}
	.st49{fill:#735A99;}
	.st50{fill:#644C88;}
	.st51{fill:#9480B4;}
	.st52{fill:#E4D2A4;}
	.st53{fill:#FAEDD0;}
	.st54{fill:#C4B18B;}
	.st55{fill:#735A99;stroke:#501338;stroke-width:1.571;stroke-miterlimit:10;}
	.st56{fill:#C8BFBF;}
	.st57{fill:#B2ABAB;}
	.st58{fill:#FFE098;}
	.st59{fill:#ECC77E;}
	.st60{fill:#FFEBC7;}
	.st61{fill:#A1675E;}
	.st62{fill:#90564F;}
	.st63{fill:#C07F78;}
	.st64{fill:#68485A;}
	.st65{fill:#FFDD81;}
	.st66{fill:#814945;}
	.st67{fill:#945B58;}
	.st68{fill:#B17977;}
	.st69{fill:#884C4A;}
	.st70{fill-rule:evenodd;clip-rule:evenodd;fill:#989A9C;}
	.st71{fill:#D89E98;}
	.st72{fill:#64445C;}
	.st73{fill:#816474;}
	.st74{fill:#A48390;}
	.st75{fill:#DDAD41;}
	.st76{fill:#F48657;}
	.st77{fill:#D77151;}
	.st78{fill:#F8AB89;}
	.st79{fill:#E9C05B;}
	.st80{fill:#9A8691;}
	.st81{fill:#A28F99;}
	.st82{fill:#8780BC;}
	.st83{fill:#6966AD;}
	.st84{fill:#B2ADD5;}
	.st85{fill:#F48C8C;}
	.st86{fill:#E86363;}
	.st87{fill:#F4876E;}
	.st88{fill:#E56A51;}
	.st89{fill:#80655C;}
	.st90{fill:#C3AC6F;}
	.st91{fill:#9F874A;}
	.st92{fill:#DBC68E;}
	.st93{opacity:0.11;fill:#FFFFFF;}
	.st94{fill:#F7A799;}
	.st95{fill:#FCE5A5;}
	.st96{fill:#DEBB6C;}
	.st97{fill:#B67C76;}
	.st98{fill:none;stroke:#462062;stroke-width:0.843;stroke-linecap:round;stroke-miterlimit:10;}
	.st99{fill:#9D9B86;}
	.st100{fill:#8780BC;stroke:#501338;stroke-width:1.6795;stroke-miterlimit:10;}
	.st101{fill:#C5C4B4;}
	.st102{fill:#E9E9D9;}
	.st103{fill:#E9C15D;}
	.st104{opacity:0.3;}
	.st105{fill:#A27388;}
	.st106{opacity:0.5;fill:#FFFFFF;}
	.st107{fill:#91667A;}
	.st108{opacity:0.4;}
	.st109{opacity:0.5;}
	.st110{opacity:0.5;fill:#A7A7A6;}
	.st111{fill:#C16D34;}
	.st112{opacity:0.4;fill:#FFFFFF;}
	.st113{fill:none;stroke:#501338;stroke-width:1.5687;stroke-linecap:round;stroke-linejoin:round;stroke-miterlimit:10;}
	.st114{opacity:0.27;}
	.st115{fill:#E78B6F;}
	.st116{opacity:0.2;fill:#F48E8E;}
	.st117{fill:#99744B;}
	.st118{fill:#825D38;}
	.st119{fill:#C9CAA6;}
	.st120{fill:#BCBC96;}
	.st121{fill:none;stroke:#462062;stroke-width:0.7845;stroke-linecap:round;stroke-miterlimit:10;}
	.st122{fill:#66402A;}
	.st123{fill:#935C35;}
	.st124{opacity:0.6;fill:#7A4928;}
	.st125{opacity:0.4;fill:#F48E8E;}
	.st126{fill:#E1E1E1;}
	.st127{fill:#C1C1C1;}
	.st128{fill:#52363A;}
	.st129{fill:#C6C5C4;}
	.st130{opacity:0.6;}
	.st131{fill:#888888;}
	.st132{fill:#515252;}
	.st133{opacity:0.6;fill:#888888;}
	.st134{fill:#616160;}
	.st135{fill:#515150;}
	.st136{fill:#957B66;}
	.st137{fill:#B89984;}
	.st138{fill:#787878;}
	.st139{fill:#775F4F;}
	.st140{fill:#D7B9A8;}
	.st141{fill:#99999A;}
	.st142{opacity:0.4;fill:#E6DEC9;}
	.st143{fill:none;stroke:#462062;stroke-width:0.7586;stroke-linecap:round;stroke-miterlimit:10;}
	.st144{fill:#3F4242;}
	.st145{opacity:0.5;fill:#F0B39C;}
	.st146{opacity:0.57;fill:#B89AA6;}
	.st147{fill:#619F7F;}
	.st148{fill:#548E6E;}
	.st149{fill:#C16A2F;}
	.st150{fill:#CE413A;}
	.st151{fill:#B23330;}
	.st152{opacity:0.62;fill:#E48C7D;}
	.st153{fill:#5E3827;}
	.st154{fill:#F48E8E;}
	.st155{fill:#444445;}
	.st156{fill:#353435;}
	.st157{opacity:0.5;fill:#B89AA6;}
	.st158{fill:#4D4C4D;}
	.st159{fill:#444344;}
	.st160{opacity:0.6;fill:#A1A1A1;}
	.st161{fill:#282827;}
	.st162{fill:#636464;}
	.st163{fill:#575959;}
	.st164{fill:#3A3A3A;}
	.st165{opacity:0.5;fill:#787878;}
	.st166{fill:none;stroke:#462062;stroke-width:0.8198;stroke-linecap:round;stroke-miterlimit:10;}
	.st167{fill:#5B5B5C;}
	.st168{fill:#E4E4E4;}
	.st169{fill:#FFF1EA;}
	.st170{fill:#E1CDC5;}
	.st171{opacity:0.4;fill:#F0B39C;}
	.st172{opacity:0.5;fill:#ADADAD;}
	.st173{fill:#B58F5B;}
	.st174{fill:#606060;}
	.st175{fill:#4F5150;}
	.st176{opacity:0.6;fill:#989A9C;}
	.st177{fill:#5D7A6D;}
	.st178{fill:#4C685B;}
	.st179{fill:none;stroke:#462062;stroke-width:0.8057;stroke-linecap:round;stroke-miterlimit:10;}
	.st180{fill:#F7B975;}
	.st181{fill:#8D7449;}
	.st182{opacity:0.35;fill:#F7B975;}
	.st183{fill:#686868;}
	.st184{fill:#959595;}
	.st185{opacity:0.3;fill:#FFFFFF;}
	.st186{fill:#4C4B4C;}
	.st187{fill:#A27F67;}
	.st188{fill:#C6A691;}
	.st189{opacity:0.2;fill:#684D39;}
	.st190{fill:#926E56;}
	.st191{opacity:0.8;fill:#3A3A3A;}
	.st192{fill:#ED3E2B;}
	.st193{fill:#DB2C1F;}
	.st194{opacity:0.7;fill:#989A9C;}
	.st195{fill:#6B4845;}
	.st196{fill:#846363;}
	.st197{fill:#5E3E3C;}
	.st198{fill:none;stroke:#501338;stroke-width:1.6206;stroke-miterlimit:10;}
	.st199{opacity:0.5;fill:#E29780;}
	.st200{opacity:0.6;fill:#FFFFFF;}
	.st201{fill:#ECD8BB;}
	.st202{opacity:0.3;fill:#937B70;}
	.st203{fill:#FCF9F4;}
	.st204{opacity:0.6;fill:#F0B39C;}
	.st205{fill:none;stroke:#462062;stroke-width:0.7828;stroke-linecap:round;stroke-miterlimit:10;}
	.st206{fill:#CDCDCD;}
	.st207{opacity:0.5;fill:#A8A7A7;}
	.st208{fill:#868686;}
	.st209{opacity:0.3;fill:#F0B39C;}
	.st210{opacity:0.7;fill:#F0B39C;}
	.st211{fill:#735A99;stroke:#501338;stroke-width:1.5656;stroke-miterlimit:10;}
	.st212{opacity:0.5;fill:#FCF9F4;}
	.st213{opacity:0.5;fill:#FDDCC0;}
	.st214{fill:#6B3A37;}
	.st215{fill:#92A3D3;}
	.st216{fill:#B0C2E4;}
	.st217{fill:#7790BC;}
	.st218{fill:#7F95C6;}
	.st219{fill:#D0A7C2;}
	.st220{fill:#B7BE79;}
	.st221{fill:#725F82;}
	.st222{fill:#635175;}
	.st223{fill:none;stroke:#501338;stroke-width:1.5843;stroke-miterlimit:10;}
	.st224{fill:#C5B8DA;}
	.st225{fill:#A999C9;}
	.st226{fill:#8B6445;}
	.st227{fill:#7A5439;}
	.st228{fill:none;stroke:#501338;stroke-width:1.5751;stroke-linecap:round;stroke-linejoin:round;stroke-miterlimit:10;}
	.st229{fill:#D9CEB7;}
	.st230{fill:#CCBDA2;}
	.st231{opacity:0.2;fill:#FFFFFF;}
	.st232{fill:#B61F30;}
	.st233{fill:#595B5B;}
</style>
<g>
	<g>
		<g>
			<path class="st23" d="M193.2,453.5H47.8c-4,0-7.3-3.3-7.3-7.3v0c0-4,3.3-7.3,7.3-7.3h145.4c4,0,7.3,3.3,7.3,7.3v0
				C200.5,450.3,197.2,453.5,193.2,453.5z"/>
			<g>
				<g>
					<path class="st24" d="M190.7,409.2H50.2c-4.1,0-7.5,3.4-7.5,7.5v27.6c0,4.1,3.4,7.5,7.5,7.5h140.5c4.1,0,7.5-3.4,7.5-7.5v-27.6
						C198.2,412.5,194.9,409.2,190.7,409.2z M196.2,444.2c0,3-2.4,5.5-5.5,5.5H50.2c-3,0-5.5-2.5-5.5-5.5v-27.6c0-3,2.5-5.5,5.5-5.5
						h140.5c3,0,5.5,2.5,5.5,5.5V444.2z"/>
					<path class="st25" d="M196.2,416.6v27.6c0,3-2.4,5.5-5.5,5.5H50.2c-3,0-5.5-2.5-5.5-5.5v-27.6c0-3,2.5-5.5,5.5-5.5h140.5
						C193.8,411.2,196.2,413.6,196.2,416.6z"/>
				</g>
			</g>
		</g>
		<g>
			<path class="st24" d="M112.4,433.8h-4.9l-0.9,3.6h-1.5l4-15.4h1.5l4,15.4h-1.5L112.4,433.8z M112.1,432.5l-1.6-6.4
				c-0.2-0.9-0.5-2-0.5-2.4h0c-0.1,0.4-0.3,1.5-0.5,2.4l-1.6,6.4H112.1z"/>
			<path class="st24" d="M123.4,437.4h-1.3V427h-4.4v10.3h-1.3v-11.6h7V437.4z"/>
			<path class="st24" d="M133.2,429.4v8h-1.1l-0.1-1.1c-0.5,0.8-1.4,1.3-2.7,1.3c-2.1,0-3.7-1.3-3.7-3.5c0-2.2,1.4-3.5,4-3.5h2.3
				v-1.2c0-1.7-0.8-2.6-2.3-2.6c-1.3,0-2.2,0.7-2.3,2H126c0.1-2,1.5-3.3,3.7-3.3C131.9,425.5,133.2,427,133.2,429.4z M131.9,434.1
				v-2.3h-2.3c-1.7,0-2.6,0.8-2.6,2.3c0,1.5,1,2.2,2.5,2.2C131,436.3,131.9,435.4,131.9,434.1z"/>
		</g>
	</g>
	<g>
		<path class="st18" d="M179.6,368.8c-0.1,0.3-0.1,0.6-0.2,1c0,0.1,0,0.1-0.1,0.2c-0.1,0.3-0.2,0.6-0.3,1c-0.3,0.8-0.5,1.6-0.9,2.3
			c-0.1,0.2-0.2,0.4-0.3,0.5c-0.1,0.2-0.2,0.3-0.3,0.5c-0.1,0.2-0.2,0.3-0.3,0.5c-0.1,0.2-0.2,0.3-0.3,0.5c-0.2,0.3-0.4,0.6-0.7,0.9
			c-0.2,0.3-0.5,0.6-0.7,0.9c-0.5,0.6-1.1,1.1-1.7,1.6c-0.7,0.6-1.6,1.2-2.4,1.7c0,0,0,0,0,0c-0.3,0.2-0.7,0.4-1.1,0.6
			c-1,0.5-2,0.9-3.1,1.3c-0.2,0.1-0.4,0.2-0.7,0.2c-0.7,0.3-1.5,0.5-2.3,0.7c-0.3,0.1-0.6,0.1-0.8,0.2c-0.1,0-0.3,0.1-0.4,0.1
			c-0.3,0.1-0.6,0.2-1,0.2c-0.4,0.1-0.9,0.2-1.3,0.3c-0.4,0.1-0.9,0.2-1.3,0.2c-0.7,0.1-1.3,0.2-2,0.3c-0.8,0.1-1.6,0.2-2.5,0.3
			c0,0-0.1,0-0.1,0c-0.9,0.1-1.8,0.2-2.8,0.3c-1.9,0.2-3.9,0.3-5.9,0.4c-0.3,0-0.7,0-1,0c-0.7,0-1.4,0.1-2.1,0.1
			c-1.8,0.1-3.7,0.1-5.6,0.1c-4.6,0.1-7.3-0.5-14-2.5c-1.9-0.5-3.9-0.5-5.8,0c-6.7,1.9-9.4,2.6-14,2.5c-1.9,0-3.8-0.1-5.6-0.1
			c-0.7,0-1.4,0-2.1-0.1c-0.4,0-0.7,0-1,0c-2.1-0.1-4.1-0.2-5.9-0.4c-1-0.1-1.9-0.2-2.8-0.3c-0.1,0-0.1,0-0.1,0
			c-0.8-0.1-1.7-0.2-2.5-0.3c-0.7-0.1-1.4-0.2-2-0.3c-0.4-0.1-0.9-0.2-1.3-0.2c-0.5-0.1-0.9-0.2-1.3-0.3c-0.3-0.1-0.6-0.1-1-0.2
			c-0.1,0-0.3-0.1-0.4-0.1c-0.3-0.1-0.6-0.1-0.8-0.2c-0.8-0.2-1.6-0.5-2.3-0.7c-0.2-0.1-0.4-0.2-0.7-0.2c-1.1-0.4-2.1-0.8-3.1-1.3
			c-0.4-0.2-0.7-0.4-1.1-0.6c0,0,0,0,0,0c-0.9-0.5-1.7-1.1-2.4-1.7c-0.6-0.5-1.2-1-1.7-1.6c-0.3-0.3-0.5-0.6-0.7-0.9
			c-0.3-0.3-0.5-0.6-0.7-0.9c-0.1-0.2-0.2-0.3-0.3-0.5c-0.1-0.2-0.2-0.3-0.3-0.5c-0.1-0.2-0.2-0.3-0.3-0.5c-0.1-0.2-0.2-0.4-0.3-0.5
			c-0.4-0.7-0.7-1.5-0.9-2.3c-0.1-0.3-0.2-0.6-0.3-1c0-0.1,0-0.1-0.1-0.2c-0.1-0.3-0.2-0.6-0.2-1c-0.3-1.6-0.5-3.4-0.4-5.3
			c0.3-11,6.5-25.7,11.7-36.2c1.2-2.5,2.4-4.8,3.4-6.7c0.2-0.4,0.5-0.8,0.8-1.2c2.3-3.1,6.2-4.7,10.1-4.1l31.9,5.4
			c1.1,0.2,2.3,0.2,3.5,0l31.9-5.4c4-0.7,8,1.1,10.3,4.4c0.2,0.3,0.4,0.6,0.6,0.9c5.2,9.7,14.4,28.4,15.1,41.9c0,0.3,0,0.6,0,0.9
			C180.1,365.4,180,367.2,179.6,368.8z"/>
		<g>
			<path class="st20" d="M118,340.4c-27.2-1.3-48.7-19.9-47.5-22c0.3-0.5,0.6-1,0.9-1.4h4l19.7,4.7c0,0,26.5,3.6,27.8,9.7
				C124.1,337.5,121.3,340.4,118,340.4z"/>
			<path class="st20" d="M122.9,340.4c27.2-1.3,48.7-19.9,47.5-22c-0.3-0.5-0.6-1-0.9-1.4h-4l-19.7,4.7c0,0-26.5,3.6-27.8,9.7
				C116.8,337.5,119.6,340.4,122.9,340.4z"/>
		</g>
		<path class="st20" d="M179.4,369.7c-1.7,0.8-10.9-4.9-12.3-5.5c2.5-24.1-3.9-36.2-5.4-37.1c-0.1-0.1-0.2-0.1-0.2-0.1l0.4-6
			l2.5-1.3c0.2,0.3,0.4,0.6,0.6,0.9C170.2,330.3,186.6,343.6,179.4,369.7z"/>
		<path class="st20" d="M61.5,369.7c1.7,0.8,10.9-5,12.3-5.6c-2.5-24.1,4-36.1,5.4-37.1c0.1-0.1,0.2-0.1,0.2-0.1l-0.4-6l-2.5-1.3
			c-0.2,0.3-0.4,0.6-0.6,0.9C70.8,330.3,54.3,343.6,61.5,369.7z"/>
		<path class="st20" d="M180.1,363.5c-3.9-2.9-11.6-5.7-13.2,1.8c-3.4,16.5-22.8,19-44.7,9.6c-1.1-0.5-2.2-0.5-3.3,0
			c-21.9,9.4-41.2,6.9-44.7-9.6c-1.6-7.6-9.4-4.7-13.2-1.8c-0.1,1.9,0.1,3.7,0.4,5.3c0.1,0.3,0.1,0.6,0.2,1c0,0.1,0,0.1,0.1,0.2
			c0.1,0.3,0.2,0.6,0.3,1c0.3,0.8,0.6,1.6,0.9,2.3c0.1,0.2,0.2,0.4,0.3,0.5l0.3,0.5c0.1,0.1,0.1,0.2,0.2,0.4
			c0.1,0.2,0.3,0.4,0.4,0.6c0.2,0.3,0.4,0.6,0.7,0.9c0.2,0.3,0.5,0.6,0.7,0.9c0.5,0.6,1.1,1.1,1.7,1.6c0.7,0.6,1.6,1.2,2.4,1.7
			c0,0,0,0,0,0c0.3,0.2,0.7,0.4,1.1,0.6c1,0.5,2,0.9,3.1,1.3c0.2,0.1,0.4,0.2,0.7,0.2c0.7,0.3,1.5,0.5,2.3,0.7
			c0.3,0.1,0.6,0.1,0.8,0.2c0.1,0,0.3,0.1,0.4,0.1c0.3,0.1,0.6,0.2,1,0.2c0.4,0.1,0.9,0.2,1.3,0.3c0.4,0.1,0.9,0.2,1.3,0.2
			c0.7,0.1,1.3,0.2,2,0.3c0.8,0.1,1.6,0.2,2.5,0.3c0,0,0.1,0,0.1,0c0.9,0.1,1.8,0.2,2.8,0.3c1.9,0.2,3.9,0.3,5.9,0.4
			c0.3,0,0.7,0,1,0c0.7,0,1.4,0.1,2.1,0.1c1.8,0.1,3.7,0.1,5.6,0.1c4.6,0.1,7.3-0.5,14-2.5c0.9-0.3,1.9-0.4,2.9-0.4
			c1,0,1.9,0.1,2.9,0.4c6.7,1.9,9.4,2.6,14,2.5c1.9,0,3.8-0.1,5.6-0.1c0.7,0,1.4,0,2.1-0.1c0.4,0,0.7,0,1,0c2.1-0.1,4.1-0.2,5.9-0.4
			c1-0.1,1.9-0.2,2.8-0.3c0.1,0,0.1,0,0.1,0c0.8-0.1,1.7-0.2,2.5-0.3c0.7-0.1,1.4-0.2,2-0.3c0.4-0.1,0.9-0.2,1.3-0.2
			c0.5-0.1,0.9-0.2,1.3-0.3c0.3-0.1,0.6-0.1,1-0.2c0.1,0,0.3-0.1,0.4-0.1c0.3-0.1,0.6-0.1,0.8-0.2c0.8-0.2,1.6-0.5,2.3-0.7
			c0.2-0.1,0.4-0.2,0.7-0.2c1.1-0.4,2.1-0.8,3.1-1.3c0.4-0.2,0.7-0.4,1.1-0.6c0,0,0,0,0,0c0.9-0.5,1.7-1.1,2.4-1.7
			c0.6-0.5,1.2-1,1.7-1.6c0.3-0.3,0.5-0.6,0.7-0.9c0.2-0.3,0.5-0.6,0.7-0.9c0.1-0.2,0.3-0.4,0.4-0.6c0.1-0.1,0.1-0.2,0.2-0.4
			l0.3-0.5c0.1-0.2,0.2-0.4,0.3-0.5c0.3-0.7,0.6-1.5,0.9-2.3c0.1-0.3,0.2-0.6,0.3-1c0-0.1,0-0.1,0.1-0.2c0.1-0.3,0.2-0.6,0.2-1
			C180,367.2,180.1,365.4,180.1,363.5z"/>
		<path class="st19" d="M71.1,328.7l0.2,0.4c0,0-12.6,21.3-9,40.5c-2.4-7.8-3.9-13.7-1.4-21.7c2.5-8,8.4-17.1,8.4-17.1l1.4-1.9
			L71.1,328.7z"/>
		<path class="st20" d="M112.5,377.5c1.4-0.8,2.7-1.7,3.9-2.6c1.2-1,2.3-2,3.3-3.2c1-1.1,1.9-2.4,2.7-3.7c0.8-1.3,1.6-2.6,2.4-3.9
			c0.1-0.1,0.2-0.1,0.3,0c0.1,0.1,0.2,0.2,0.1,0.3c-0.4,1.6-1,3-1.7,4.4c-0.7,1.4-1.6,2.7-2.6,3.9c-1,1.2-2.2,2.3-3.6,3.1
			c-1.4,0.9-3,1.5-4.7,1.8c-0.1,0-0.1,0-0.2-0.1C112.5,377.5,112.5,377.5,112.5,377.5z"/>
		<path class="st20" d="M107.4,346.1c2.4,0,4.8-0.1,7-0.4c2.3-0.3,4.5-0.9,6.6-1.6c2.2-0.7,4.2-1.7,6.3-2.7c2.1-1,4.1-2.1,6.1-3.2
			c0.2-0.1,0.4,0,0.5,0.2c0.1,0.2,0.1,0.4,0,0.5c-1.7,1.7-3.6,3.2-5.6,4.5c-2,1.3-4.1,2.3-6.4,3.1c-2.3,0.8-4.6,1.2-7.1,1.3
			c-2.5,0.1-5-0.3-7.4-1.2c-0.1,0-0.2-0.1-0.1-0.2C107.2,346.2,107.3,346.1,107.4,346.1z"/>
		<path class="st20" d="M131.9,378.5c-1.2-0.3-2.4-0.6-3.4-1.1c-1.1-0.5-2-1.1-2.9-1.7c-0.9-0.7-1.7-1.5-2.4-2.3
			c-0.8-0.8-1.4-1.7-2.2-2.6c-0.1-0.1-0.2,0-0.3,0.1c-0.1,0.1-0.1,0.2-0.1,0.3c0.4,1.2,0.9,2.3,1.5,3.2c0.6,1,1.4,1.8,2.4,2.6
			c0.9,0.7,2,1.3,3.2,1.6c1.2,0.3,2.6,0.4,4.1,0.2C131.8,378.7,131.9,378.6,131.9,378.5C131.9,378.5,131.9,378.5,131.9,378.5z"/>
		<path class="st20" d="M156.1,364.9c-1.9,1.1-4.9,2.7-10.4,3.3c-5.1,0.7-10-0.3-12.8-1.7c-0.1,0.2-0.1,0.3-0.1,0.5
			c0.1,2.7,5.5,8.6,12.7,7.7c10.3-1.4,10.9-8.4,10.7-9.6C156.2,365,156.2,364.9,156.1,364.9z"/>
		<path class="st20" d="M84.8,364.9c1.9,1.1,4.9,2.7,10.4,3.3c5.1,0.7,10-0.3,12.8-1.7c0.1,0.2,0.1,0.3,0.1,0.5
			c-0.1,2.7-5.5,8.6-12.7,7.7c-10.3-1.4-10.9-8.4-10.7-9.6C84.7,365,84.8,364.9,84.8,364.9z"/>
		<path class="st6" d="M136.6,386.7c-4.1,0-6.9-0.6-13.5-2.5c-1.7-0.5-3.6-0.5-5.3,0c-6.9,2-9.6,2.6-14.2,2.5
			c-1.9,0-3.8-0.1-5.6-0.1c-0.7,0-1.4,0-2.1-0.1l-1,0c-2.2-0.1-4.2-0.2-6-0.4c-0.9-0.1-1.9-0.2-2.8-0.3c-0.1,0-0.2,0-0.2,0
			c-0.8-0.1-1.7-0.2-2.5-0.3c-0.7-0.1-1.4-0.2-2-0.3c-0.5-0.1-0.9-0.2-1.3-0.2c-0.5-0.1-0.9-0.2-1.4-0.3c-0.3-0.1-0.7-0.2-1-0.2
			l-0.4-0.1c-0.3-0.1-0.6-0.1-0.9-0.2c-0.8-0.2-1.6-0.5-2.3-0.7l-0.7-0.2c-1.1-0.4-2.2-0.9-3.2-1.4c-0.3-0.2-0.7-0.3-1-0.5h0
			l-0.2-0.1c-0.9-0.5-1.8-1.1-2.5-1.8c-0.6-0.5-1.2-1.1-1.8-1.7c-0.3-0.3-0.5-0.6-0.8-0.9c-0.2-0.3-0.5-0.6-0.7-1
			c-0.1-0.2-0.2-0.3-0.3-0.5c-0.1-0.2-0.2-0.3-0.3-0.5l-0.3-0.5c-0.1-0.2-0.2-0.4-0.3-0.6c-0.4-0.7-0.7-1.5-0.9-2.4
			c-0.1-0.3-0.2-0.5-0.2-0.8l0,0l-0.1-0.4c-5.8-21.1,3.5-33.9,10.2-43.2c1.8-2.4,3.3-4.5,4.4-6.5c0.1-0.1,0.1-0.2,0.2-0.3l0.1-0.1
			c0.1-0.1,0.2-0.3,0.2-0.4c0.1-0.1,0.1-0.1,0.1-0.2l0.4-0.6l0,0c2.5-3.2,6.6-4.8,10.7-4.1l31.9,5.4c1.1,0.2,2.1,0.2,3.2,0l31.9-5.4
			c4.3-0.7,8.6,1.1,11.1,4.7c0.2,0.3,0.4,0.6,0.6,1l0,0c1.1,2,2.6,4.1,4.4,6.5c6.7,9.3,16,22.1,10.2,43.2c0,0.1,0,0.1-0.1,0.2
			c-0.1,0.3-0.2,0.6-0.3,1c-0.3,0.9-0.6,1.7-0.9,2.4c-0.1,0.2-0.2,0.4-0.3,0.6l-0.3,0.5c-0.1,0.2-0.2,0.4-0.3,0.5
			c-0.1,0.2-0.2,0.4-0.3,0.5c-0.3,0.4-0.5,0.7-0.7,1c-0.2,0.3-0.5,0.6-0.8,0.9c-0.5,0.6-1.1,1.2-1.8,1.7c-0.8,0.6-1.6,1.2-2.5,1.8
			l-0.2,0.1c-0.3,0.2-0.6,0.3-0.9,0.5c-1,0.5-2,1-3.2,1.4l-0.7,0.2c-0.8,0.3-1.6,0.5-2.3,0.7c-0.3,0.1-0.6,0.2-0.9,0.2l-0.4,0.1
			c-0.3,0.1-0.7,0.2-1,0.2c-0.4,0.1-0.9,0.2-1.4,0.3c-0.4,0.1-0.9,0.2-1.3,0.2c-0.7,0.1-1.3,0.2-2,0.3c-0.8,0.1-1.6,0.2-2.5,0.3
			c0,0-0.1,0-0.2,0c-0.9,0.1-1.8,0.2-2.8,0.3c-1.8,0.2-3.7,0.3-6,0.4l-1,0c-0.7,0-1.4,0.1-2.1,0.1c-1.8,0.1-3.7,0.1-5.6,0.1
			C137.1,386.7,136.8,386.7,136.6,386.7z M120.5,382.2c1,0,2.1,0.1,3.1,0.4c6.8,2,9.4,2.5,13.8,2.4c1.9,0,3.8-0.1,5.6-0.1
			c0.7,0,1.4,0,2.1-0.1l1.1,0c2.2-0.1,4.1-0.2,5.9-0.4c0.9-0.1,1.9-0.2,2.8-0.3l0.1,0c0.9-0.1,1.7-0.2,2.5-0.3
			c0.7-0.1,1.3-0.2,2-0.3c0.4-0.1,0.9-0.2,1.3-0.2c0.5-0.1,0.9-0.2,1.3-0.3c0.3-0.1,0.6-0.1,0.9-0.2l0.4-0.1
			c0.3-0.1,0.5-0.1,0.8-0.2c0.8-0.2,1.5-0.4,2.3-0.7l0.6-0.2c1.1-0.4,2.1-0.8,3-1.3c0.3-0.2,0.6-0.3,1-0.5l0.3-0.2
			c0.8-0.5,1.5-1,2.2-1.5c0.6-0.5,1.1-1,1.6-1.5c0.2-0.3,0.5-0.6,0.7-0.8c0.2-0.3,0.4-0.5,0.6-0.9c0.1-0.2,0.2-0.3,0.3-0.5
			c0.1-0.2,0.2-0.3,0.3-0.5l0.3-0.5c0.1-0.2,0.2-0.3,0.2-0.5c0.3-0.7,0.6-1.4,0.9-2.2c0.1-0.3,0.2-0.6,0.3-0.9l0-0.1
			c0,0,0-0.1,0-0.1c5.6-20.4-3.4-32.8-10-41.9c-1.7-2.4-3.3-4.6-4.5-6.7c-0.2-0.3-0.3-0.6-0.5-0.8c-2.1-3.1-5.8-4.7-9.5-4.1
			l-31.9,5.4c-1.2,0.2-2.5,0.2-3.7,0l-31.9-5.4c-3.6-0.6-7.1,0.8-9.3,3.7c-0.1,0.1-0.1,0.1-0.1,0.2l-0.2,0.3
			c-0.1,0.1-0.1,0.2-0.2,0.3l-0.1,0.2c0,0.1-0.1,0.1-0.1,0.2c-1.1,2.1-2.7,4.3-4.5,6.7c-6.5,9-15.5,21.4-10.1,41.5l0.1,0.4
			c0,0,0,0.1,0,0.1l0,0.1c0.1,0.3,0.2,0.6,0.3,0.9c0.2,0.8,0.5,1.5,0.9,2.2c0.1,0.2,0.2,0.4,0.3,0.5l0.3,0.5
			c0.1,0.1,0.2,0.3,0.3,0.5c0.1,0.2,0.2,0.3,0.3,0.4c0.3,0.4,0.4,0.7,0.6,0.9c0.2,0.3,0.5,0.6,0.7,0.9c0.5,0.5,1,1,1.6,1.5
			c0.7,0.5,1.4,1.1,2.2,1.5l0.3,0.2c0.3,0.2,0.6,0.4,1,0.5c0.9,0.5,1.9,0.9,3,1.3l0.7,0.2c0.7,0.2,1.5,0.5,2.2,0.7
			c0.3,0.1,0.5,0.1,0.8,0.2l0.4,0.1c0.3,0.1,0.6,0.2,1,0.2c0.4,0.1,0.9,0.2,1.3,0.3c0.4,0.1,0.9,0.2,1.3,0.2c0.6,0.1,1.3,0.2,2,0.3
			c0.8,0.1,1.6,0.2,2.5,0.3l0.1,0c0.9,0.1,1.8,0.2,2.8,0.3c1.8,0.2,3.7,0.3,5.9,0.4l1,0c0.7,0,1.4,0.1,2.1,0.1
			c1.8,0.1,3.7,0.1,5.6,0.1c4.4,0.1,7-0.5,13.8-2.4C118.4,382.4,119.4,382.2,120.5,382.2z"/>
		<path class="st20" d="M135.9,336.6c-7.6,0.4-9,0.2-15.1-0.6c-0.1,0-0.2,0-0.3,0c0,0,0,0,0,0c0,0,0,0,0,0c-0.1,0-0.2,0-0.3,0
			c-6.1,0.9-7.6,1.1-15.1,0.6c-0.4,0-0.6,0.1-0.5,0.3c5.8,4.8,11.5,7.6,13.7,8.6c0.6,0.2,1.3,0.4,2.1,0.4l0,0c0.1,0,0.2,0,0.2,0l0,0
			c0.8,0,1.6-0.1,2.1-0.4c2.2-1,7.9-3.7,13.7-8.6C136.6,336.7,136.3,336.6,135.9,336.6z"/>
		<path class="st20" d="M114.7,379.3c2.8-0.3,3.4-0.2,5.7,0.5c0,0,0.1,0,0.1,0c0,0,0,0,0,0c0,0,0,0,0,0c0,0,0.1,0,0.1,0
			c2.3-0.6,2.8-0.8,5.7-0.5c0.1,0,0.2-0.1,0.2-0.2c-2.2-3.6-4.3-5.7-5.1-6.4c-0.2-0.2-0.5-0.3-0.8-0.3l0,0c0,0-0.1,0-0.1,0l0,0
			c-0.3,0-0.6,0.1-0.8,0.3c-0.8,0.7-2.9,2.8-5.1,6.4C114.5,379.2,114.6,379.3,114.7,379.3z"/>
		<path class="st6" d="M178.6,370.9c0.3,0.2-2.9,2.8-7.4,4.7c-0.1,0.1,0,0.3,0.1,0.2c5-1.2,7.8-2.9,7.6-3.1L178.6,370.9z"/>
		<path class="st19" d="M65.9,340.6c-0.4,0.1,0.4,3.1,2.4,6.2c0.1,0.1-0.1,0.3-0.2,0.2c-3.1-2.7-4.1-5-3.8-5.1L65.9,340.6z"/>
		<path class="st6" d="M63.9,374c-0.3,0.3,3.7,2.6,9,4c0.1,0,0.1,0.3-0.1,0.3c-5.8-0.5-9.2-1.9-9-2.1L63.9,374z"/>
		<rect x="109" y="202.9" class="st26" width="19.4" height="19.4"/>
		<polygon class="st27" points="120.5,291.7 86.3,291.7 86.9,310.1 120.5,319.2 154,310.1 154.6,291.7 		"/>
		<path class="st27" d="M120.5,297.2c-25.3,0-32-5.7-32-5.7l6.2,13.5l25.8,6.8l25.8-6.8l6.2-13.5c0,0-4.9,3.7-19.7,5.1
			C129.3,297,125.2,297.2,120.5,297.2z"/>
		<g>
			<path class="st18" d="M101.7,305.2c0.6,0.3,2.1,1,2.1,1c-4.5,6.6-6.1,15.2-6.4,24.8c-1.6-0.4-3.1-0.8-4.6-1.2
				c-61.3-17.3-61.1-81.2-25.7-110.4c7.8-6.4,17.3-11.2,28.2-13.4c1.8-0.4,3.6-0.7,5.5-0.9c0,0,1.9,6.1,7.5,10.3
				c2.9,2.2,6.9,3.9,12.2,3.9v74.2H86.4l-2.3-54.3C63.5,249.5,54.1,286.1,101.7,305.2z"/>
			<path class="st19" d="M70.1,302.5c-10.2,6.1-9.3,7.7-9.3,7.7l1.7,0.7C62.6,311,63.2,309,70.1,302.5
				C70.2,302.6,70.2,302.5,70.1,302.5z"/>
			<path class="st20" d="M57.3,281.3c11.7-2,11.4-3.9,11.4-3.9l-1.4-1.3C67.3,276.1,66.1,277.7,57.3,281.3
				C57.2,281.3,57.2,281.3,57.3,281.3z"/>
			<path class="st20" d="M96.6,308.9c-3.6,12.3-3.8,20.8-3.8,20.8c2.6,0.8,1.7,0.6,4.6,1.3l6.4-24.8c-0.7-0.1-1.5-0.7-2.1-1
				c-47.6-19.1-38.2-55.6-17.6-66v0l0.8-1.3C71.5,240.6,39.4,281.1,96.6,308.9z"/>
			<path class="st19" d="M93.1,325.7l-0.3,3.9l0,0.1c-61.3-17.3-61.1-81.2-25.7-110.4C45.7,242.8,24.1,301.7,93.1,325.7z"/>
			<path class="st6" d="M120.5,218.4c-14.6,0-18.7-13.1-18.9-13.6l-0.2-0.6l-0.7,0.1c-36.3,4.3-56.8,34.6-58.4,62.4
				c-1.4,25,12.3,55.2,54.9,65l0.9,0.2l0-1c0.3-10.8,2.3-18.5,6.3-24.4l0.5-0.8l-0.8-0.4c-0.1,0-1.5-0.7-2.1-1h0
				c-28.7-11.5-33.6-27.9-33.9-36.6c-0.5-11.1,5.6-21.9,15.3-27.4l2.2,53.8l0.1,1.7l1.6,1.3l-0.2-4.6l-2.3-54.7l-1.1,0.6
				c-10.9,5.5-17.8,17.3-17.3,29.4c0.4,9.1,5.5,26.2,34.9,38c0.3,0.1,0.8,0.4,1.2,0.6c-3.7,5.8-5.6,13.3-6,23.5
				c-40.9-9.9-54.1-39.1-52.7-63.2c1.5-27,21.3-56.4,56.4-60.9c1.1,2.8,6.1,13.7,19.4,14.1v20.3h1.6v-21.8H120.5z"/>
			<g>
				<g>
					<path class="st5" d="M102,305.3c0.9,0.3,1.5,0.5,1.8,0.6c2.6,0.9,7.3-2.4,9.3-3.3c1.5-0.7,3.3,2.9,4,4.8
						c0.3,0.7,0.9,1.1,1.6,1.3l5.8,1c1,0.2,1.7,1,1.8,1.9c0,0,0.3,24.7-8.7,23.5c-7.5-1-14.3-2.5-20.6-4.3
						C98.5,318.9,100.6,310,102,305.3z"/>
					<path class="st13" d="M120.3,308.4c0,0,6.4,0.1,6.3,4.1c-0.1,4-1,12.4-2,16s-3.2,6-3.7,6.5c-0.5,0.4-3.7,0.5-6.5,0
						s-17-3.6-17-3.6s-0.9,0.2-0.8-1c0.2-1.2,3-19.1,4.2-22.3c1-2.9,1.2-3.2,1.2-3.2l2.7,0.9c0,0-4.4,13.1-3.3,17.3
						c5.8,1.2,14.5,3.4,14.5,3.4S120.8,319.3,120.3,308.4z"/>
					<path class="st7" d="M116.8,324.7c0,0,2.6-7,2.6-16.2l1.8,0.2C121.3,308.7,121.4,316.6,116.8,324.7z"/>
					<path class="st6" d="M117.5,323.4C117.5,323.4,117.5,323.4,117.5,323.4c3-4.8,4.2-14.9,4.2-14.9l-1.4-0.1
						C120.6,309.5,119.8,317.9,117.5,323.4z"/>
					<path class="st6" d="M126.2,316.3c-1.3,0.5-2.7,0.8-4,0.8c1.3,0.4,2.6,0.6,3.8,0.4L126.2,316.3z"/>
					<path class="st6" d="M125.4,323.5c-1.4,0.6-2.7,0.9-4,0.8c1.3,0.4,2.6,0.6,3.8,0.4L125.4,323.5z"/>
					<path class="st6" d="M123.8,329.4c-0.6,0.4-1.4,0.5-2.3,0.5c0.8,0.3,1.6,0.4,2.2,0.3L123.8,329.4z"/>
					<path class="st7" d="M112.2,306.1c-0.5,0-1,0.1-1.5,0.2c-0.5,0.1-0.9,0.3-1.3,0.5c-0.4,0.2-0.8,0.5-1.2,0.7
						c-0.4,0.3-0.7,0.6-1.1,1l0,0c0.5,0,1-0.2,1.4-0.3c0.5-0.1,0.9-0.3,1.3-0.5c0.4-0.2,0.8-0.4,1.2-0.7
						C111.4,306.8,111.8,306.5,112.2,306.1z"/>
				</g>
				<path class="st6" d="M117.5,335.9c-7.2-1-14.2-2.4-20.7-4.3l-0.6-0.2l0.1-0.7c1.4-11.6,3.4-20.4,4.9-25.7l0.2-0.8l1.8,0.6
					c0.4,0.1,0.7,0.2,0.8,0.3c1.6,0.6,4.8-1.2,6.9-2.3c0.7-0.4,1.3-0.7,1.8-0.9c0.4-0.2,0.9-0.2,1.4,0c1.2,0.5,2.4,2.2,3.7,5.2
					c0.2,0.4,0.6,0.7,1,0.8l5.8,1.1c1.3,0.2,2.3,1.3,2.4,2.7c0,0.7,0.1,18.1-5.4,23c-1,0.9-2.2,1.3-3.4,1.3
					C118,335.9,117.8,335.9,117.5,335.9z M113.4,303.3c-0.4,0.2-1,0.5-1.7,0.9c-2.5,1.4-5.9,3.2-8.2,2.4c-0.1-0.1-0.4-0.1-0.8-0.3
					l-0.2-0.1c-1.2,4.5-3.2,12.9-4.6,24c6.2,1.8,12.9,3.2,19.8,4.1c1.1,0.1,2-0.2,2.9-0.9c5-4.4,4.9-21.6,4.9-21.7
					c-0.1-0.6-0.5-1.1-1.1-1.2l-5.8-1.1c-1-0.2-1.8-0.8-2.2-1.7c-1.2-2.9-2.3-4.1-2.8-4.3C113.5,303.3,113.5,303.3,113.4,303.3
					C113.4,303.3,113.4,303.3,113.4,303.3z"/>
			</g>
			<path class="st19" d="M49,245.9c0,0,6.4,1.6,8.8,4.7c0.2,0.2-0.1,0.5-0.3,0.4c-4.7-2.6-9.4-3.1-9.4-3.2L49,245.9z"/>
			<path class="st6" d="M91.6,329.1c0.6-5.6,1.4-9.8,4.3-17.6c-1.9,7.9-2.3,12.5-2.7,18L91.6,329.1z"/>
			<path class="st20" d="M49.6,254.3c0.3,0.2,15.8,10.9,15.8,10.9l1.1-5.5L49.6,254.3z"/>
		</g>
		<g>
			<path class="st18" d="M148.2,329.7c-1.5,0.4-3,0.8-4.6,1.2c-0.3-9.6-2-18.2-6.4-24.8c0,0,1.5-0.7,2.1-1
				c44-17.7,39.3-50.2,22-63.3c-1.4-1.1-2.9-2-4.4-2.8l0,0.5l-1.1,27.2l-0.8,20.3l-4.2,0l-30.1,6.4v-74.2c1.7,0,3.3-0.2,4.7-0.5
				c7.3-1.6,11.4-6.7,13.4-10.2c1.1-2,1.6-3.6,1.6-3.6c0.8,0.1,1.5,0.2,2.3,0.3c7.2,1.1,13.8,3.3,19.8,6.3c2.1,1,4,2.2,5.9,3.5
				c0.3,0.2,0.6,0.4,1,0.6c1.6,1.1,3.2,2.3,4.7,3.6C209.2,248.5,209.5,312.4,148.2,329.7z"/>
			<path class="st19" d="M175.5,297.8c10.6,5.4,9.8,7.1,9.8,7.1l-1.7,0.8C183.6,305.7,182.9,303.8,175.5,297.8
				C175.5,297.8,175.5,297.8,175.5,297.8z"/>
			<path class="st20" d="M163.7,308.4c-9.4-7.3-8.3-8.8-8.3-8.8l1.8-0.5C157.2,299.1,157.6,301,163.7,308.4
				C163.7,308.3,163.7,308.3,163.7,308.4z"/>
			<path class="st20" d="M144.4,308.9c3.6,12.3,3.8,20.8,3.8,20.8c-2.6,0.8-1.7,0.6-4.6,1.3l-6.4-24.8c0.7-0.1,1.5-0.7,2.1-1
				c47.6-19.1,38.2-55.6,17.6-66v0l-0.8-1.3C169.5,240.6,201.5,281.1,144.4,308.9z"/>
			<path class="st19" d="M147.9,325.7l0.3,3.9l0,0.1c61.3-17.3,61.1-81.2,25.7-110.4C195.2,242.8,216.9,301.7,147.9,325.7z"/>
			<path class="st6" d="M198.6,266.6c-1.5-27.8-22.1-58.2-58.4-62.4l-0.7-0.1l-0.2,0.6c-0.2,0.6-4.3,13.6-18.9,13.6h-0.8v90h1.6V220
				c13.3-0.4,18.3-11.4,19.4-14.1c35,4.4,54.9,33.9,56.4,60.9c1.4,24.1-11.8,53.3-52.7,63.2c-0.4-10.1-2.3-17.7-6-23.5
				c0.4-0.2,0.9-0.4,1.2-0.6c29.5-11.8,34.5-28.9,34.9-38c0.5-12.1-6.4-23.9-17.3-29.4l-1.1-0.6l-0.3,38.2l-0.5,0.8
				c0.6-0.3,0.2,1.9,0.7,1.5l1.3-0.7l0.2-37.3c9.7,5.4,15.8,16.3,15.3,27.4c-0.3,7.5-4,20.7-23.3,31.6c-0.3,0.2-0.7,0.4-1.1,0.6
				c-2.9,1.5-6,3-9.6,4.5h0c-0.7,0.3-2.1,1-2.1,1l-0.8,0.4l0.5,0.8c4,5.8,5.9,13.6,6.3,24.4l0,1l0.9-0.2
				C186.3,321.8,200,291.6,198.6,266.6z"/>
			<g>
				<g>
					<path class="st5" d="M139,305.3c-0.9,0.3-1.5,0.5-1.8,0.6c-2.6,0.9-7.3-2.4-9.3-3.3c-1.5-0.7-3.3,2.9-4,4.8
						c-0.3,0.7-0.9,1.1-1.6,1.3l-5.8,1c-1,0.2-1.7,1-1.8,1.9c0,0-0.3,24.7,8.7,23.5c7.5-1,14.3-2.5,20.6-4.3
						C142.5,318.9,140.3,310,139,305.3z"/>
					<path class="st13" d="M120.6,308.4c0,0-6.4,0.1-6.3,4.1c0.1,4,1,12.4,2,16s3.2,6,3.7,6.5c0.5,0.4,3.7,0.5,6.5,0
						c2.8-0.5,17-3.6,17-3.6s0.9,0.2,0.8-1c-0.2-1.2-3-19.1-4.2-22.3c-1-2.9-1.2-3.2-1.2-3.2l-2.7,0.9c0,0,4.4,13.1,3.3,17.3
						c-5.8,1.2-14.5,3.4-14.5,3.4S120.2,319.3,120.6,308.4z"/>
					<path class="st7" d="M124.1,324.7c0,0-2.6-7-2.6-16.2l-1.8,0.2C119.7,308.7,119.5,316.6,124.1,324.7z"/>
					<path class="st6" d="M123.4,323.4C123.4,323.4,123.4,323.4,123.4,323.4c-3-4.8-4.2-14.9-4.2-14.9l1.4-0.1
						C120.3,309.5,121.2,317.9,123.4,323.4z"/>
					<path class="st6" d="M114.7,316.3c1.3,0.5,2.7,0.8,4,0.8c-1.3,0.4-2.6,0.6-3.8,0.4L114.7,316.3z"/>
					<path class="st6" d="M115.5,323.5c1.4,0.6,2.7,0.9,4,0.8c-1.3,0.4-2.6,0.6-3.8,0.4L115.5,323.5z"/>
					<path class="st6" d="M117.2,329.4c0.6,0.4,1.4,0.5,2.3,0.5c-0.8,0.3-1.6,0.4-2.2,0.3L117.2,329.4z"/>
					<path class="st7" d="M128.8,306.1c0.5,0,1,0.1,1.5,0.2c0.5,0.1,0.9,0.3,1.3,0.5c0.4,0.2,0.8,0.5,1.2,0.7c0.4,0.3,0.7,0.6,1.1,1
						l0,0c-0.5,0-1-0.2-1.4-0.3c-0.5-0.1-0.9-0.3-1.3-0.5c-0.4-0.2-0.8-0.4-1.2-0.7C129.5,306.8,129.1,306.5,128.8,306.1z"/>
				</g>
				<path class="st6" d="M122.7,335.9c-1.3,0-2.4-0.5-3.4-1.3c-5.5-4.9-5.4-22.2-5.4-23c0.1-1.4,1.1-2.5,2.4-2.7l5.8-1.1
					c0.5-0.1,0.8-0.4,1-0.8c1.3-3,2.5-4.7,3.7-5.2c0.5-0.2,0.9-0.2,1.4,0c0.5,0.2,1.1,0.5,1.8,0.9c2.1,1.2,5.3,2.9,6.9,2.3
					c0.2-0.1,0.4-0.1,0.8-0.3l1.8-0.6l0.2,0.8c1.5,5.3,3.6,14,4.9,25.7l0.1,0.7l-0.6,0.2c-6.5,1.9-13.4,3.4-20.7,4.3
					C123.2,335.9,122.9,335.9,122.7,335.9z M127.5,303.3c0,0-0.1,0-0.1,0c-0.6,0.2-1.6,1.5-2.8,4.3c-0.4,0.9-1.2,1.6-2.2,1.7
					l-5.8,1.1c-0.6,0.1-1.1,0.6-1.1,1.2c0,0.1-0.1,17.3,4.9,21.7c0.9,0.8,1.8,1.1,2.9,0.9c6.9-0.9,13.6-2.3,19.8-4.1
					c-1.4-11.1-3.4-19.5-4.6-24l-0.2,0.1c-0.4,0.1-0.6,0.2-0.8,0.3c-2.3,0.8-5.7-1-8.2-2.4C128.6,303.8,128,303.5,127.5,303.3
					C127.6,303.3,127.5,303.3,127.5,303.3z"/>
			</g>
			<path class="st6" d="M173,274.5c0.9,0.2,6.5,1.6,8.9,4c0.1,0.1,0,0.3-0.2,0.3c-4.3-2-8.4-2.6-9.3-2.8c-0.1,0-0.2-0.1-0.1-0.2
				l0.5-1.2C172.9,274.5,172.9,274.5,173,274.5z"/>
			<path class="st6" d="M149.3,329.1c-0.6-5.6-1.4-9.8-4.3-17.6c1.9,7.9,2.3,12.5,2.7,18L149.3,329.1z"/>
			<path class="st20" d="M191.4,254.3c-0.3,0.2-15.8,10.9-15.8,10.9l-1.1-5.5L191.4,254.3z"/>
		</g>
		<path class="st28" d="M120.5,299.6l0-82.8c-4-0.7-19.3-3.8-26-14.5c-28.5,0.3-50.9,36.6-51.9,48.1c0,0.1,0.1,0.2,0.1,0.2
			l27.2,11.1c0.1,0.1,0.3,0,0.3-0.2c0.6-2.1,4.8-16.4,13.9-22.5l-2.4,53.7c1.1,0.9,2.4,2,3.9,3l1.1-0.7L120.5,299.6z"/>
		<path class="st28" d="M120.5,299.6l0-82.8c4-0.7,19.3-3.8,26-14.5c28.5,0.3,50.9,36.6,51.9,48.1c0,0.1-0.1,0.2-0.1,0.2L171,261.8
			c-0.1,0.1-0.3,0-0.3-0.2c-0.6-2.1-4.8-16.4-13.9-22.5l2.4,53.7c-1.1,0.9-2.4,2-3.9,3l-1.6,1.1L120.5,299.6z"/>
		<path class="st27" d="M48.9,252.3l18.8,4.3c0,0,6.5-14.2,17.1-18.9c-7.6,8.2-11.5,13.4-14.8,23.3c-4.7-1.2-13.1-4.1-13.1-4.1
			L48.9,252.3z"/>
		<path class="st29" d="M46.2,251.7c0,0,13.9-44.8,47.3-48.2c0.5-2.2-3.4-1.4-7.4,0.1c-4,1.5-19.3,5.8-29.9,21.4s-13.3,23-13.5,24.9
			C42.4,251.7,46.2,251.7,46.2,251.7z"/>
		<g>
			<g>
				<path class="st30" d="M115,201.3l0,17.5c0,0.2-0.2,0.4-0.4,0.3c-19-7.1-23.6-15.1-20-23.5c0.1-0.1,0.2-0.2,0.4-0.2l19.9,5.6
					C114.9,201.1,115,201.2,115,201.3z"/>
				<path class="st6" d="M114.6,219.9c-0.1,0-0.3,0-0.4-0.1c-11.6-4.3-18.3-9.1-20.7-14.7c-1.3-3.1-1.2-6.4,0.2-9.9
					c0.2-0.5,0.8-0.8,1.3-0.6l19.9,5.6c0.5,0.1,0.8,0.6,0.8,1v17.5c0,0.4-0.2,0.7-0.5,0.9C115.1,219.9,114.9,219.9,114.6,219.9z
					 M95.1,196.3c-1.2,3-1.2,5.7-0.1,8.3c2.1,4.9,8.6,9.5,19.2,13.6v-16.4L95.1,196.3z"/>
			</g>
		</g>
		<path class="st27" d="M192,252.3l-18.8,4.3c0,0-6.5-14.2-17.1-18.9c7.6,8.2,11.5,13.4,14.8,23.3c4.7-1.2,13.1-4.1,13.1-4.1
			L192,252.3z"/>
		<path class="st27" d="M169.4,209.2c-0.2,0.2-0.3,0.5-0.5,0.7c-0.4,0.6-0.7,1.2-1.2,1.6c-33.1,25.8-46.4,28.7-46.4,28.7
			c2.1-7.5,24.7-33.9,26.3-37.5c1.1-0.5,2.9-0.4,5,0C157,203.7,163.2,206.3,169.4,209.2z"/>
		<path class="st29" d="M198.3,249.8c0.2,1.9-3.6,1.9-3.6,1.9s-8.2-26.4-27.1-40.2c0.4-0.5,0.8-1,1.2-1.6c5.2,3.2,11,7.9,15.9,15
			C195.5,240.5,198.1,247.9,198.3,249.8z"/>
		<path class="st28" d="M168.9,209.9c-0.4,0.6-0.8,1.1-1.2,1.6c-5.7-4.2-12.5-7.2-20.2-8c-0.1-0.3,0-0.6,0-0.8c0.4-1,2.5-0.7,5,0
			c0.7,0.2,1.5,0.5,2.3,0.8C157.1,204.4,162.6,206,168.9,209.9z"/>
		<g>
			<g>
				<path class="st30" d="M126,201.3l0,17.5c0,0.2,0.2,0.4,0.4,0.3c19-7.1,23.6-15.1,20-23.5c-0.1-0.1-0.2-0.2-0.4-0.2l-19.9,5.6
					C126.1,201.1,126,201.2,126,201.3z"/>
				<path class="st6" d="M126.3,219.9c-0.2,0-0.4-0.1-0.6-0.2c-0.3-0.2-0.5-0.5-0.5-0.9v-17.5c0-0.5,0.3-0.9,0.8-1l19.9-5.6
					c0.5-0.2,1.1,0.1,1.3,0.6c1.5,3.5,1.6,6.8,0.2,9.9c-2.4,5.5-9.1,10.3-20.7,14.7C126.6,219.9,126.4,219.9,126.3,219.9z
					 M126.8,201.7v16.4c10.6-4.1,17-8.6,19.2-13.6c1.1-2.6,1.1-5.3-0.1-8.3L126.8,201.7z M145.7,195.9L145.7,195.9
					C145.7,195.9,145.7,195.9,145.7,195.9z"/>
			</g>
		</g>
		<path class="st27" d="M156.1,237.7l2.5,55.6c-1.9,1.6-4.1,3.1-6.4,4.5l1.1-12.9l-7.2,0.7l7.4-4.3L156.1,237.7z"/>
		<path class="st27" d="M84.5,246.6l-2.2,46.7c1.6,1.3,3.2,2.5,5,3.6l-0.3-12.5h6.5l-6.7-3.8L84.5,246.6z"/>
		<path class="st29" d="M180.4,241.4c8.1-8.7,9.5-7.4,9.5-7.4l0.3,1.9C190.3,235.9,188.3,236,180.4,241.4
			C180.5,241.4,180.4,241.4,180.4,241.4z"/>
		<path class="st29" d="M70.6,228.2c-8.1-8.7-9.5-7.4-9.5-7.4l-0.3,1.9C60.7,222.7,62.7,222.8,70.6,228.2
			C70.5,228.3,70.5,228.2,70.6,228.2z"/>
		<path class="st27" d="M58.4,252.5c11.8-1.6,12.1,0.3,12.1,0.3l-0.9,1.6C69.6,254.4,67.9,253.3,58.4,252.5
			C58.5,252.5,58.5,252.5,58.4,252.5z"/>
		<path class="st6" d="M121.3,300.7h-1.6l0-83.3c-6.1-1.1-19.3-4.6-25.6-14.3c-16,0.4-28.9,12.4-35.3,19.5
			c-8.8,10-14.7,21.7-15.4,27.5l26.3,10.7c1.1-3.8,5.4-16.5,14-22.3l1.3-0.9l-2.7,56.1l-1.6-0.1l2.5-52.9
			c-8,6.4-11.8,19.5-12.2,21.1c-0.1,0.3-0.3,0.5-0.5,0.6c-0.3,0.1-0.6,0.1-0.8,0l-27.2-11.1c-0.4-0.2-0.7-0.6-0.6-1
			c1-12.1,23.8-48.6,52.7-48.9l0.4,0l0.2,0.4c6.1,9.8,19.8,13.1,25.4,14.1l0.7,0.1L121.3,300.7z M43,249.9L43,249.9
			C43,249.9,43,249.9,43,249.9z"/>
		<path class="st6" d="M119.7,216.1l0.7-0.1c5.6-1,19.3-4.3,25.4-14.1l0.2-0.4l0.4,0c28.9,0.3,51.7,36.8,52.7,48.9
			c0,0.4-0.2,0.9-0.6,1l-27.2,11.1c-0.3,0.1-0.6,0.1-0.8,0c-0.3-0.1-0.5-0.4-0.5-0.6c-0.4-1.5-4.3-14.7-12.2-21.1l2.5,52.9l-1.6,0.1
			l-2.7-56.1l1.3,0.9c8.6,5.8,12.9,18.5,14,22.3l26.3-10.7c-0.7-5.8-6.6-17.4-15.4-27.5c-6.3-7.2-19.3-19.2-35.3-19.5
			c-6.3,9.7-19.5,13.2-25.6,14.3l0,83.3h-1.6L119.7,216.1z M197.9,249.9L197.9,249.9C197.9,249.9,197.9,249.9,197.9,249.9z"/>
		<g>
			<circle class="st27" cx="115.4" cy="285.5" r="2.5"/>
			<circle class="st27" cx="115.4" cy="269.4" r="2.5"/>
			<circle class="st27" cx="115.4" cy="253.3" r="2.5"/>
			<path class="st27" d="M125.9,253.4c-3.6-0.6-7.1-0.6-10.4,0l0.1,0.8c3.2-0.6,6.6-0.6,10.1,0L125.9,253.4z M125.9,269.5
				c-3.4-0.6-6.9-0.6-10.4,0l0.1,0.8c3.4-0.6,6.8-0.6,10.1,0L125.9,269.5z M125.9,285.6c-3.7-1-7.2-1-10.5,0l0.2,0.8
				c3.1-1,6.5-1,10,0L125.9,285.6z"/>
			<g>
				<path class="st6" d="M125.7,253.7c-3.6-0.6-7-0.6-10.1,0l-0.1-0.8c3.2-0.6,6.7-0.6,10.4,0L125.7,253.7z"/>
			</g>
			<g>
				<path class="st6" d="M125.7,269.8c-3.4-0.6-6.8-0.6-10.1,0l-0.1-0.8c3.4-0.6,6.9-0.6,10.4,0L125.7,269.8z"/>
			</g>
			<g>
				<path class="st6" d="M125.7,285.9c-3.5-1-6.9-1-10,0l-0.2-0.8c3.3-1,6.8-1,10.5,0L125.7,285.9z"/>
			</g>
			<g>
				<circle class="st27" cx="126" cy="253.3" r="2.5"/>
				<circle class="st6" cx="125.6" cy="252.9" r="2.5"/>
				<path class="st27" d="M125.6,251.7c0.8,0,1.4,0.6,1.5,1.3c0-0.1,0-0.1,0-0.2c0-0.8-0.7-1.5-1.5-1.5s-1.5,0.7-1.5,1.5
					c0,0.1,0,0.1,0,0.2C124.2,252.3,124.8,251.7,125.6,251.7z"/>
			</g>
			<g>
				<circle class="st27" cx="126" cy="269.4" r="2.5"/>
				<circle class="st6" cx="125.6" cy="269" r="2.5"/>
				<path class="st27" d="M125.6,267.8c0.8,0,1.4,0.6,1.5,1.3c0-0.1,0-0.1,0-0.2c0-0.8-0.7-1.5-1.5-1.5s-1.5,0.7-1.5,1.5
					c0,0.1,0,0.1,0,0.2C124.2,268.4,124.8,267.8,125.6,267.8z"/>
			</g>
			<g>
				<circle class="st27" cx="126" cy="285.5" r="2.5"/>
				<circle class="st6" cx="125.6" cy="285.1" r="2.5"/>
				<path class="st27" d="M125.6,283.8c0.8,0,1.4,0.4,1.5,1c0,0,0-0.1,0-0.1c0-0.6-0.7-1.1-1.5-1.1c-0.8,0-1.5,0.5-1.5,1.1
					c0,0,0,0.1,0,0.1C124.2,284.2,124.8,283.8,125.6,283.8z"/>
			</g>
			<circle class="st6" cx="115" cy="252.9" r="2.5"/>
			<path class="st27" d="M115,251.7c0.8,0,1.4,0.6,1.5,1.3c0-0.1,0-0.1,0-0.2c0-0.8-0.7-1.5-1.5-1.5c-0.8,0-1.5,0.7-1.5,1.5
				c0,0.1,0,0.1,0,0.2C113.6,252.3,114.2,251.7,115,251.7z"/>
			<circle class="st6" cx="115" cy="269" r="2.5"/>
			<path class="st27" d="M115,267.8c0.8,0,1.4,0.6,1.5,1.3c0-0.1,0-0.1,0-0.2c0-0.8-0.7-1.5-1.5-1.5c-0.8,0-1.5,0.7-1.5,1.5
				c0,0.1,0,0.1,0,0.2C113.6,268.4,114.2,267.8,115,267.8z"/>
			<circle class="st6" cx="115" cy="285.1" r="2.5"/>
			<path class="st27" d="M115,283.8c0.8,0,1.4,0.4,1.5,1c0,0,0-0.1,0-0.1c0-0.6-0.7-1.1-1.5-1.1s-1.5,0.5-1.5,1.1c0,0,0,0.1,0,0.1
				C113.6,284.2,114.2,283.8,115,283.8z"/>
		</g>
		<path class="st13" d="M120.5,89L73,104.4c0,77.5,14.7,96.6,47.5,96.6s47.5-19,47.5-96.6L120.5,89z"/>
		<path class="st5" d="M81,129.4c0,0-0.1,67,37.7,66.5c40.9-0.5,40-66.2,40-66.2s-8.8-15.2-39.2-15.2S81,129.4,81,129.4z"/>
		<path class="st13" d="M79.2,165.1c0,0,8.8,32.8,40,33.5c23.7,0.5,41.8-15.6,43.9-66.2c1.6,2.5,2.7,4.3,3.4,6
			c0.6,1.3-0.2,2.9-0.2,2.9s-0.8,7.7-1.4,13.2c-1,9.4-7.6,28.9-14.2,35.3c-6.6,6.4-12.4,8.9-21.3,10s-21.8,1.8-29.6-3
			c-7.1-4.4-7.4-3.5-11.5-9.8c-4.1-6.3-7.3-14.4-7.7-16.4C80.2,168.6,79.2,165.1,79.2,165.1z"/>
		<path class="st6" d="M120.5,201.7c-18.1,0-29.4-6-36.7-19.6c-7.9-14.6-11.5-39.3-11.5-77.7v-0.6l48.2-15.7l48.2,15.7v0.6
			c0,38.4-3.7,63.1-11.5,77.7C149.9,195.7,138.6,201.7,120.5,201.7z M73.8,104.9c0.1,80,16.5,95.2,46.7,95.2
			c30.2,0,46.6-15.2,46.7-95.2l-46.7-15.2L73.8,104.9z"/>
		<path class="st31" d="M120.5,201.9c0,0-23.7-4.3-41.4-12.9c0,0,5.5,25,39.6,50.3c1,0.8,2.4,0.8,3.5,0
			c34.1-25.2,39.6-50.3,39.6-50.3C144.2,197.6,120.5,201.9,120.5,201.9z"/>
		<path class="st32" d="M81.7,193.6c0,0,16.9,15.5,35.5,17.6c-20.8,0.3-34.2-11.4-35.2-14C81,194.6,81.7,193.6,81.7,193.6z"/>
		<path class="st32" d="M159.4,193.6c0,0-16.9,15.5-35.5,17.6c20.8,0.3,34.2-11.4,35.2-14C160.2,194.6,159.4,193.6,159.4,193.6z"/>
		<path class="st32" d="M92.6,214.2c0,0,21.4,22,27.2,21.9c7.5-0.1,34.7-30.8,36.3-34.6c-2.1,4.6-6.4,14.4-26.1,31.7l-7,5.6
			c0,0-2,2.6-5.9-0.3s-16.8-15-16.8-15L92.6,214.2z"/>
		<path class="st6" d="M120.5,240.7c-0.8,0-1.5-0.2-2.2-0.7c-34-25.1-39.9-50.5-39.9-50.7l-0.3-1.6l1.5,0.7
			c16.7,8.1,39,12.4,41,12.8c2-0.4,24.4-4.7,41-12.8l1.5-0.7l-0.3,1.6c-0.1,0.3-6,25.6-39.9,50.7C122,240.4,121.2,240.7,120.5,240.7
			z M80.3,190.5c1.9,5.9,10.3,27.1,38.9,48.2c0.7,0.5,1.8,0.5,2.5,0c28.6-21.1,37-42.3,38.9-48.2c-17.4,8-39.8,12.1-40,12.2l-0.1,0
			l-0.1,0C120.1,202.7,97.7,198.5,80.3,190.5z"/>
		<path class="st31" d="M183.6,91.6c0-22-39.9-32.7-63.2-32.7c-21.9,0-63.2,10.7-63.2,32.7c0,9.5-1.7,53.1,12.5,54.3
			c-0.2,4.1-0.3,8.5-0.3,13.5c0,39.9,36.1,51.2,50.9,51.2c14.7,0,50.9-11.3,50.9-51.2c0-4.9-0.1-9.4-0.3-13.5
			C185.3,144.7,183.6,101.1,183.6,91.6z M106.9,195.1c-24.7-10.7-28.7-45.3-28.5-67.9c6.1-9,18.2-17.9,42.1-17.9
			c24,0,36.1,8.9,42.1,17.9c0.2,22.6-3.9,57.2-28.5,67.9C125.4,198.9,115.5,198.9,106.9,195.1z"/>
		<path class="st32" d="M58.3,88.9c-0.1,8.2,1.3,19.4,3.2,28.6c-1.2,2.5-2,5.1-2.5,7.9c0-0.3-0.1-0.6-0.1-0.9
			c-0.2-5.2-1.6-12.4-1.6-12.5c0-0.1-0.4-15.8-0.1-22.3C57.2,87.7,58.3,88.9,58.3,88.9z"/>
		<path class="st32" d="M135.1,109.2c-13.3-0.1-40.5-1.1-53.9,14.1c-7.4,8.5-10.2,14.8-12.2,23l-6.1-4.9c0,0-0.7-2.1-1.5-4.8
			c0.1-3.3,1-6.5,2.4-9.5c1,3,1.9,5.3,2.9,6.5C66.8,133.6,82.6,94.5,135.1,109.2z"/>
		<path class="st32" d="M175.7,124.6c2.2,3.6,3.5,7.6,3.7,11.8c-0.8,2.7-1.5,4.6-1.5,4.6l-4.1,4.1h-3.5c1.1-5.6-3.1-12.8-10.4-21.9
			c-12.7-15.8-40.5-14.2-53.9-14.1c6.4-1.8-9.9-1.3-4.6-2.2c58.7-10,72.4,23.7,72.4,23.7S174.6,128.4,175.7,124.6z"/>
		<path class="st32" d="M183.7,88.1c0,0-0.5,23.8-0.5,24c0,0.1-0.7,7.3-1,12.4c0,0.4-0.1,0.8-0.1,1.3c-0.7-4-2.1-7.6-4-10.9
			c1.9-8.6,3.6-19.9,3.1-31.3L183.7,88.1z"/>
		<path class="st7" d="M72.9,81.9c14.2-7.7,43.7-18.6,80-5.5c0.7,0.2,1.2-0.6,0.7-1c-6-4.3-13.6-8.9-34.6-9.3
			c-20.1-0.4-37,8.2-46.7,14.9C71.6,81.4,72.2,82.3,72.9,81.9z"/>
		<path class="st32" d="M140.3,82.7c10.4,1.9,29.8,8,41.5,27.8c0.2,0.4,0.9,0.2,0.8-0.2c-1-4.2,0-8-12.6-17.4
			c-10-7.5-21.8-10.3-29.5-10.9C139.9,81.9,139.8,82.6,140.3,82.7z"/>
		<path class="st32" d="M65.5,104.4c4.4-6.6,14.8-17.9,35.5-19.6c0.4,0,0.4-0.5,0-0.6c-4-0.7-8.9-1.2-18.8,3.1
			c-9.4,4.1-14.8,11.7-17.3,16.8C64.8,104.4,65.3,104.7,65.5,104.4z"/>
		<path class="st6" d="M176.9,142.1c0.3-1.6-0.6-6.9-4.1-13.3c-0.2-0.3,0.3-0.7,0.6-0.4c2.7,3.3,5.8,9.6,5.7,11.3
			c-0.1,1.2-1,1-1.5,1.7C177.4,141.6,176.9,142.4,176.9,142.1z"/>
		<path class="st6" d="M64.6,142.7c-0.2-1.8,1.6-6.9,4.5-12.6c0.2-0.3-0.3-0.7-0.5-0.4c-2.9,3-6.2,8.9-6.1,10.5
			c0.1,1.1,1.1,1.3,1.6,2C64.3,142.4,64.7,143,64.6,142.7z"/>
		<path class="st32" d="M162.3,128.2l0,12c5.6,26.3,2.4,45.6-12.3,60.7c6.7-5.2,13.9-11.6,16.7-19.1s5.2-12.3,4.8-24.5
			c-0.4-12.2-1-17.9-1.1-18.1s-2.1-6.2-2.1-6.2L162.3,128.2z"/>
		<path class="st6" d="M57.4,97.8c0.9-1.3,3.5-5.1,7.4-8.9c0.2-0.2,0.1-0.6-0.2-0.5c-3,1.6-7.1,5.3-7.6,6.7
			c-0.4,0.9,0.2,1.4,0.3,2.1C57.3,97.4,57.3,98,57.4,97.8z"/>
		<path class="st31" d="M76.9,129.7c0,0-7.3,41.2,19.6,59.6c-9.2-12.2-12-18.6-13.5-24.6c-1.5-5.9-4.9-22.2-4.7-26.8
			c0.3-4.6,0-9.7,0-9.7L76.9,129.7z"/>
		<path class="st31" d="M161.3,153.4c0,0-0.6,30.5-21.5,39.3c8-7,10.7-11,12.6-14.8c1.8-3.8,6.5-14.4,6.9-17.6
			c0.5-3.2,1.3-6.6,1.3-6.6L161.3,153.4z"/>
		<path class="st6" d="M70.5,147.2c0-1.4,0.2-5.2,1.3-9.7c0.1-0.3-0.2-0.5-0.4-0.2c-1.4,2.5-2.7,7.1-2.5,8.3
			c0.2,0.8,0.8,0.9,1.1,1.4C70.3,147,70.5,147.4,70.5,147.2z"/>
		<path class="st6" d="M78.6,125.8C78.6,125.9,78.6,125.9,78.6,125.8c-1.1,0.6-3.6,4.7-4.5,7.4c-0.1,0.2,0.3,0.3,0.4,0.1
			c1.4-2.1,2.8-3.8,4-5.1C78.6,127.4,78.6,126.6,78.6,125.8z"/>
		<path class="st6" d="M170.4,147.2c0-1.4-0.2-5.2-1.3-9.7c-0.1-0.3,0.2-0.5,0.4-0.2c1.4,2.5,2.7,7.1,2.5,8.3
			c-0.2,0.8-0.8,0.9-1.1,1.4C170.7,147,170.4,147.4,170.4,147.2z"/>
		<path class="st6" d="M162.3,125.8C162.3,125.9,162.3,125.9,162.3,125.8c1.1,0.6,3.6,4.7,4.5,7.4c0.1,0.2-0.3,0.3-0.4,0.1
			c-1.4-2.1-2.8-3.8-4-5.1C162.4,127.4,162.4,126.6,162.3,125.8z"/>
		<path class="st6" d="M183.3,94.7c-0.7-1.3-3-4.8-6.6-8.4c-0.2-0.2,0-0.6,0.3-0.4c3,1.5,6.9,5.1,7.3,6.3c0.2,0.9-0.5,1.3-0.7,1.9
			C183.5,94.4,183.4,94.9,183.3,94.7z"/>
		<path class="st31" d="M105,199.8c2.5,0.9,5.1,1.6,7.6,2c2.6,0.4,5.2,0.7,7.8,0.7c2.6,0,5.2-0.2,7.8-0.7c2.6-0.4,5.1-1.2,7.7-2l0,0
			c0.1,0,0.3,0,0.3,0.2c0,0.1,0,0.2-0.1,0.3c-0.6,0.3-1.2,0.6-1.8,0.9c-0.6,0.3-1.2,0.6-1.9,0.8c-1.3,0.4-2.6,0.9-3.9,1.2
			c-1.3,0.4-2.7,0.5-4,0.7c-0.7,0.1-1.4,0.1-2,0.2c-0.7,0-1.4,0.1-2,0.1c-2.7,0-5.5-0.3-8.1-0.9c-2.7-0.6-5.2-1.6-7.6-2.9
			c-0.1-0.1-0.2-0.2-0.1-0.3C104.7,199.8,104.8,199.8,105,199.8L105,199.8z"/>
		<path class="st32" d="M138.8,198.7c-7.3,4.3-18.2,5.7-18.4,5.4c-0.1,0.3-11-1-18.4-5.4c-1-0.8-1.7-1-1.7-1s3.3,8.5,20,8.5
			c16.7,0,20-8.5,20-8.5S139.8,197.9,138.8,198.7z"/>
		<path class="st6" d="M100.7,197.4c1.4,1,3,1.8,4.6,2.5c1.6,0.7,3.2,1.4,4.9,1.9c3.3,1,6.8,1.6,10.3,1.6c1.7,0,3.5-0.1,5.2-0.4
			c1.7-0.2,3.4-0.7,5.1-1.2c0.8-0.3,1.7-0.5,2.5-0.9c0.8-0.3,1.6-0.7,2.4-1.1c0.8-0.3,1.6-0.8,2.3-1.2c0.8-0.4,1.5-0.9,2.3-1.3l0,0
			c0.1-0.1,0.2,0,0.3,0.1c0.1,0.1,0,0.2-0.1,0.3c-0.7,0.5-1.4,1.1-2.2,1.6c-0.8,0.5-1.5,1-2.3,1.4c-0.8,0.4-1.6,0.9-2.4,1.2
			c-0.8,0.4-1.7,0.7-2.5,1c-3.4,1.2-7,1.9-10.7,1.9c-3.7,0-7.3-0.7-10.7-1.9c-3.4-1.2-6.6-2.9-9.3-5.2c-0.1-0.1-0.1-0.2,0-0.3
			C100.5,197.3,100.6,197.3,100.7,197.4L100.7,197.4z"/>
		<path class="st32" d="M139.5,216.4c-7.6,5.1-18.9,6.7-19,6.3c-0.1,0.3-11.4-1.1-19-6.3c-1-1-1.7-1.2-1.7-1.2s3.5,9.9,20.7,9.9
			c17.3,0,20.7-9.9,20.7-9.9S140.5,215.4,139.5,216.4z"/>
		<path class="st6" d="M100,214.8c1.5,1.1,3.1,2.1,4.7,3c1.6,0.9,3.3,1.6,5.1,2.2c3.5,1.2,7.1,1.9,10.7,1.9c1.8,0,3.6-0.2,5.4-0.5
			c1.8-0.3,3.5-0.8,5.3-1.4c0.9-0.3,1.7-0.6,2.5-1c0.8-0.4,1.7-0.8,2.5-1.2c0.8-0.4,1.6-0.9,2.4-1.4c0.8-0.5,1.6-1,2.4-1.5l0,0
			c0.1-0.1,0.2,0,0.3,0.1c0.1,0.1,0,0.2-0.1,0.3c-0.7,0.6-1.5,1.2-2.2,1.8c-0.8,0.5-1.5,1.2-2.4,1.6c-0.8,0.5-1.6,1-2.5,1.4
			c-0.8,0.5-1.7,0.8-2.6,1.2c-3.5,1.5-7.3,2.2-11.1,2.2c-3.8,0-7.6-0.8-11.1-2.2c-3.5-1.4-6.8-3.4-9.7-6.1c-0.1-0.1-0.1-0.2,0-0.3
			C99.8,214.7,99.9,214.7,100,214.8L100,214.8z"/>
		<path class="st6" d="M164.5,149.9c0.5,2.2,0.7,4.4,0.9,6.6c0.2,2.2,0.3,4.4,0.3,6.6c0,4.4-0.4,8.9-1.3,13.3
			c-0.4,2.2-1,4.3-1.8,6.5c-0.7,2.1-1.6,4.2-2.6,6.2c-2,4-4.7,7.7-8.1,10.6c-0.1,0.1-0.3,0.1-0.4,0c-0.1-0.1-0.1-0.3,0-0.4l0,0
			c2.7-3.5,5.2-7,7.1-10.9c1-1.9,1.8-3.9,2.5-6c0.7-2,1.3-4.1,1.8-6.3c0.9-4.3,1.5-8.6,1.6-13c0.1-4.4,0-8.8-0.7-13.1l0,0
			c0-0.2,0.1-0.3,0.2-0.3C164.3,149.7,164.5,149.8,164.5,149.9z"/>
		<path class="st32" d="M73.1,152.6c0,0-2.6,18.9,3.1,33.3c7.5,9.3,9,11,9,11l-0.4-2.2c0,0-7.2-7.7-8.7-17.5
			c-0.8-3.1-2.4-9.9-2.4-12.5s-0.4-11-0.4-11L73.1,152.6z"/>
		<path class="st32" d="M73.1,152.6c-0.3,2.2-0.3,4.4-0.3,6.6c0,2.2,0.1,4.4,0.4,6.6c0.5,4.4,1.2,8.8,2.6,13.1
			c0.7,2.1,1.4,4.2,2.4,6.3c0.9,2,2,4,3.1,5.9c2.3,3.8,5.4,7.2,9.1,9.8c0.1,0.1,0.3,0.1,0.4-0.1c0.1-0.1,0.1-0.3,0-0.4l0,0
			c-3-3.2-5.8-6.5-8.1-10.2c-1.2-1.8-2.2-3.7-3.1-5.7c-0.9-2-1.7-4-2.4-6.1c-1.3-4.1-2.3-8.4-2.8-12.8c-0.5-4.3-0.8-8.7-0.6-13.1
			l0,0c0-0.2-0.1-0.3-0.3-0.3C73.3,152.3,73.1,152.5,73.1,152.6z"/>
		<g>
			<path class="st13" d="M132.9,166.2c0.2,0,0.4,0.1,0.6,0.1c-0.2,2.3,0.9,6.3,6.3,11.3c-0.1,0.1-0.2,0.3-0.3,0.4
				C132.3,173.5,132.1,168.9,132.9,166.2z"/>
			<path class="st13" d="M108,166.2c-0.2,0-0.4,0.1-0.6,0.1c0.2,2.3-0.9,6.3-6.3,11.3c0.1,0.1,0.2,0.3,0.3,0.4
				C108.7,173.5,108.9,168.9,108,166.2z"/>
		</g>
		<path class="st7" d="M70.6,145.2c0,0-1.5,22.1,5,37.7c-2.3-1.5-4-8.1-4-8.1s-2-8.1-2-12.3c0-4.2,0-12.7,0-12.7L70.6,145.2z"/>
		<path class="st7" d="M86,65.8c0,0-27.9,13.9-27.9,27.9c-0.4-7,0.5-10.2,2.7-12.5s11.3-10,11.5-10.2C77.5,66.1,86,65.8,86,65.8z"/>
		<path class="st33" d="M182.1,125.8c-0.4,3.1-1.6,7.3-2.6,10.5c-0.2-4.2-1.5-8.2-3.7-11.8c0.7-2.6,1.6-5.8,2.4-9.6
			C180,118.3,181.4,121.9,182.1,125.8z"/>
		<path class="st33" d="M63.8,127.1c-1.4,3-2.3,6.1-2.4,9.5c-1-3.5-2.2-8-2.6-11.1c0.5-2.8,1.4-5.5,2.5-7.9
			C62.2,121.1,63,124.4,63.8,127.1z"/>
		<path class="st34" d="M58.9,125.5c0.3,3.1,1.5,7.6,2.6,11.1c0,0.2,0,0.4,0,0.6c-1.8-6.5-3.1-8.5-2.6-11.3
			C58.9,125.7,58.9,125.6,58.9,125.5z"/>
		<path class="st34" d="M178.1,115c-0.8,3.7-1.7,7-2.4,9.6c-9-14.7-32.5-24.1-55.3-24.1c-24,0-48.9,10.5-56.6,26.6
			c-0.8-2.7-1.7-6-2.4-9.5c9.8-20.9,40.4-29.4,59-29.4C138.3,88.2,167.1,96,178.1,115z"/>
		<path class="st34" d="M179.5,137.1c0-0.3,0-0.5,0-0.7c1-3.2,2.2-7.5,2.6-10.5C182.6,128.6,181.3,130.6,179.5,137.1z"/>
		<path class="st32" d="M139.3,61.9c11,1.9,31.4,8.3,44,30c0.2,0.4,0.9,0.2,0.8-0.2c-1.1-4.7-0.9-8.6-11.6-17.4
			c-10.2-8.4-24.9-12.6-33.1-13.1C138.9,61.1,138.8,61.8,139.3,61.9z"/>
		<path class="st33" d="M72.6,110.8c10.7-7.9,33.6-20.2,66.5-13c0.6,0.1,0.9-0.6,0.4-0.9c-5.8-3-13-6.1-30.8-4.2
			c-17,1.8-29.8,10.7-36.8,17.3C71.4,110.5,72.1,111.1,72.6,110.8z"/>
		<g>
			<g>
				<path class="st6" d="M131.3,148.2c0.1,1.6,1.4,2.9,3.1,3c1.6,0.1,3-1.2,3.3-2.8l-3.2-1.7L131.3,148.2z"/>
				<g>
					<path class="st6" d="M128,149.5c0.3-0.8,0.8-1.6,1.5-2c0.7-0.5,1.4-0.8,2.2-1c1.5-0.3,3-0.3,4.4,0c1.4,0.3,2.7,0.7,4,1.3
						c1.3,0.6,2.4,1.4,3.5,2.2c0.1,0.1,0.1,0.3,0,0.4c-0.1,0.1-0.2,0.1-0.3,0.1c-1.2-0.6-2.4-1.2-3.6-1.6c-1.2-0.4-2.5-0.7-3.8-0.9
						c-1.3-0.1-2.5-0.1-3.7,0.2c-1.1,0.3-2,0.9-2.4,1.8l0,0c-0.2,0.5-0.7,0.7-1.2,0.5C128,150.5,127.8,150,128,149.5z"/>
				</g>
				
					<ellipse transform="matrix(0.9944 -0.1055 0.1055 0.9944 -14.9754 14.935)" class="st7" cx="133.7" cy="149.1" rx="0.6" ry="0.6"/>
				<path class="st13" d="M128.3,153.3c0.1-0.1,0.2-0.2,0.3-0.3c1.4,1,4.5,1.9,10,0.4c0.1,0.1,0.1,0.2,0.2,0.4
					C132.9,156.6,129.8,154.9,128.3,153.3z"/>
			</g>
			<g>
				<path class="st6" d="M109.6,148.2c-0.1,1.6-1.4,2.9-3.1,3c-1.6,0.1-3-1.2-3.3-2.8l3.2-1.7L109.6,148.2z"/>
				<g>
					<path class="st6" d="M111.3,150.1c-0.4-0.9-1.3-1.5-2.4-1.8c-1.1-0.3-2.4-0.3-3.7-0.2c-1.3,0.1-2.5,0.4-3.8,0.9
						c-1.2,0.4-2.4,1-3.6,1.6c-0.1,0.1-0.3,0-0.4-0.1c-0.1-0.1,0-0.3,0.1-0.3c1.1-0.9,2.2-1.6,3.5-2.2c1.2-0.6,2.6-1.1,4-1.3
						c1.4-0.3,2.9-0.4,4.4,0c0.7,0.2,1.5,0.5,2.2,1c0.7,0.5,1.2,1.2,1.5,2c0.1,0.5-0.1,1-0.6,1.1C112,150.8,111.5,150.6,111.3,150.1
						L111.3,150.1z"/>
				</g>
				
					<ellipse transform="matrix(0.1055 -0.9944 0.9944 0.1055 -53.8611 238.2865)" class="st7" cx="105.5" cy="149.1" rx="0.6" ry="0.6"/>
				<path class="st13" d="M112.6,153.3c-0.1-0.1-0.2-0.2-0.3-0.3c-1.4,1-4.5,1.9-10,0.4c-0.1,0.1-0.1,0.2-0.2,0.4
					C108.1,156.6,111.2,154.9,112.6,153.3z"/>
			</g>
		</g>
		<g>
			<polygon class="st7" points="120.3,147.4 121.8,158.9 126.1,161 121.2,160.7 116,164.8 120.1,159.9 			"/>
			<path class="st13" d="M116,166c1.2,2.1,4.3,3.1,11.3,2.7C120.1,167.6,118.7,167,116,166z"/>
			<path class="st13" d="M113.3,167.4c0,0,3,8.8,14.7,2.3c-5,0.6-7.9,0.2-7.9,0.2l-5.9-2L113.3,167.4z"/>
			<polygon class="st13" points="119.9,147.4 119.3,148.1 117.8,157.3 112.9,165.2 112.9,166.4 119.3,159.7 120.1,155.4 			"/>
			<path class="st6" d="M128,169.5c-10.9,0.4-12.1-1.5-13.1-3.2l5.9-6.9l-0.4-12h-0.4l-0.8,10.8l-6.2,8.2c0,0.4,1.5,6.2,15.1,3.4
				C128,169.7,128,169.6,128,169.5z"/>
		</g>
		<g>
			<path class="st13" d="M116.2,186.9c1.3-0.2,2.5-0.4,4.3-0.4c1.8,0,3,0.2,4.3,0.4c0.4,0.1,0.6-0.4,0.3-0.7
				c-1.3-1.1-2.8-1.6-4.6-1.6c-1.8,0-3.3,0.5-4.6,1.6C115.6,186.5,115.8,187,116.2,186.9z"/>
			<path class="st6" d="M124.2,185.7c-1.1-0.7-2.3-1-3.7-1c-1.4,0-2.6,0.3-3.7,1l1.3-0.2c1.6-0.2,3.3-0.2,4.9,0L124.2,185.7z"/>
			<g>
				<path class="st13" d="M114.3,180.4c0,0-0.8-0.7-0.8-0.8c0,0.1-0.7,0-0.7,0.1c0,0,0,0,0,0.1c0,0.3-0.4-0.1-0.8-0.1
					c-0.1,0.1-0.2,0.3-0.4,0.3c0,0.4,0.2,1.1,1,1.9c-0.1-0.3,0-0.7,0.3-0.9C113.1,180.7,113.7,180.7,114.3,180.4z"/>
				<path class="st13" d="M126,180.2c0,0,1.6-0.6,1.7-0.6c0,0.1,0.7,0,0.7,0.1c0,0,0,0,0,0.1c0,0.3,0.4-0.1,0.8-0.1
					c0.1,0.1,0.2,0.3,0.4,0.3c0,0.4-0.2,1.1-1,1.9c0.1-0.3,0-0.7-0.3-0.9C128,180.8,126.6,180.6,126,180.2z"/>
				<path class="st6" d="M128.9,179.6c-6.5-1-5.1-2.9-7.6-1.7c-0.3,0.1-0.5,0.2-0.8,0.2c-0.3,0-0.6-0.1-0.8-0.2
					c-2.6-1.3-1.1,0.7-7.6,1.7c-0.5,0.1-0.5,0.5,0,0.7c1.7,0.8,5.1-1,8.5-1c3.4,0,6.8,1.8,8.5,1
					C129.4,180.1,129.4,179.7,128.9,179.6z"/>
				<path class="st6" d="M112.5,178.2c-0.4,0.1-0.7,0.3-1,0.6c-0.3,0.3-0.4,0.7-0.5,1.2c0,0.5,0.1,0.9,0.3,1.3
					c0.2,0.4,0.5,0.7,0.8,0.9c0.1,0.1,0.2,0,0.3-0.1c0,0,0-0.1,0-0.1l0,0c-0.2-0.5-0.5-0.8-0.4-1.7c0.1-0.9,0.5-1,0.7-1.7l0,0
					c0-0.1,0-0.2-0.1-0.3C112.6,178.2,112.6,178.1,112.5,178.2z"/>
				<path class="st6" d="M128.2,178.2c0.4,0,0.8,0.2,1.1,0.5c0.3,0.3,0.5,0.7,0.6,1.2c0.1,0.4,0,0.9-0.1,1.3
					c-0.2,0.4-0.4,0.7-0.7,0.9c-0.1,0.1-0.2,0-0.3-0.1c0,0,0-0.1,0-0.1l0,0c0.1-0.5,0.4-0.8,0.3-1.7c-0.2-0.9-0.6-1-0.9-1.6l0,0
					C128,178.4,128,178.3,128.2,178.2C128.2,178.2,128.2,178.2,128.2,178.2z"/>
			</g>
		</g>
		<g>
			<path class="st13" d="M90.1,135.8c1-0.7,6.7-4.2,16-3.4c2.9,0.2,6,0.9,9,1.9c0.5,0.2,1,0.7,1.1,1.3c0.1,0.6,0,1.3-0.4,1.8
				l-3.4,4.1c-0.3,0.4-0.8,0.6-1.3,0.6c-0.3,0-0.5-0.1-0.7-0.3c-0.3-0.2-3.4-2.2-8.1-2.6c-3.4-0.3-6.8,0.3-10.2,1.9
				c-0.2,0.1-0.5,0.2-0.7,0.1c-0.7-0.1-1.3-0.6-1.5-1.4l-0.5-1.8C89.2,137.2,89.5,136.3,90.1,135.8z"/>
			<path class="st13" d="M152,137.1c-0.9-0.8-5.9-4.8-14.9-4.8c-2.8,0-5.8,0.4-8.9,1.1c-0.5,0.1-1,0.6-1.2,1.2
				c-0.2,0.6-0.2,1.3,0.2,1.8l2.8,4.4c0.3,0.4,0.7,0.7,1.2,0.7c0.2,0,0.5-0.1,0.7-0.2c0.4-0.2,3.6-1.9,8-1.9c3.3,0,6.5,0.9,9.5,2.7
				c0.2,0.1,0.5,0.2,0.7,0.2c0.7,0,1.3-0.5,1.6-1.2l0.7-1.8C152.8,138.5,152.6,137.6,152,137.1z"/>
			<g>
				<path class="st35" d="M149.8,140.3l-0.2-0.1c-3.4-1.7-7-2.5-10.6-2.5c-4.8,0-8.1,1.5-8.8,1.8l-0.2,0.1l-0.2,0
					c-0.3,0-0.5-0.1-0.7-0.3l-3.2-3.9c-0.2-0.2-0.3-0.6-0.2-0.9c0.1-0.3,0.3-0.5,0.6-0.6c3.1-0.7,6.2-1.1,9.2-1.1
					c9.3,0,14.7,3.4,15.7,4.1c0.4,0.2,0.5,0.7,0.3,1.1l-0.6,1.6c-0.1,0.4-0.5,0.6-0.9,0.6H149.8z"/>
				<path class="st36" d="M126.8,136.2c0,0,6.6-2.5,12.7-2.6c-4.1-0.7-10.7-0.8-10.7-0.8l-3.2,1.6l0.5,1.5L126.8,136.2z"/>
				<path class="st37" d="M136.2,137.4c0,0,4.7-3.9,14.7,0.9c-0.4,1.7-1.4,1.8-1.4,1.8l-5-1.3l-3.2-1.4L136.2,137.4z"/>
				<path class="st6" d="M135.5,133.6c9.2,0,14.5,3.4,15.2,4c0.1,0,0.1,0.1,0.1,0.2l-0.6,1.6c0,0.1-0.1,0.1-0.2,0.1c0,0-0.1,0-0.1,0
					c-4.1-2-7.8-2.6-11-2.6c-5,0-8.5,1.6-9.1,1.9c0,0,0,0-0.1,0c0,0-0.1,0-0.1-0.1l-3.2-3.9c0-0.1,0-0.2,0.1-0.2
					C129.8,133.9,132.8,133.6,135.5,133.6 M135.5,132c-3,0-6.2,0.4-9.3,1.1c-0.6,0.1-1,0.5-1.2,1.1c-0.2,0.6-0.1,1.2,0.3,1.6
					l3.2,3.9c0.3,0.4,0.8,0.6,1.3,0.6c0.3,0,0.5-0.1,0.8-0.2c0.4-0.2,3.6-1.7,8.4-1.7c3.5,0,7,0.8,10.3,2.4c0.2,0.1,0.5,0.2,0.8,0.2
					c0.7,0,1.4-0.4,1.6-1.1l0.6-1.6c0.3-0.8,0-1.6-0.6-2.1C150.6,135.6,145,132,135.5,132L135.5,132z"/>
			</g>
			<g>
				<path class="st35" d="M91.1,140.3l0.2-0.1c3.4-1.7,7-2.5,10.6-2.5c4.8,0,8.1,1.5,8.8,1.8l0.2,0.1l0.2,0c0.3,0,0.5-0.1,0.7-0.3
					l3.2-3.9c0.2-0.2,0.3-0.6,0.2-0.9c-0.1-0.3-0.3-0.5-0.6-0.6c-3.1-0.7-6.2-1.1-9.2-1.1c-9.3,0-14.7,3.4-15.7,4.1
					c-0.4,0.2-0.5,0.7-0.3,1.1l0.6,1.6c0.1,0.4,0.5,0.6,0.9,0.6H91.1z"/>
				<path class="st36" d="M108.8,132.9l-3.5-0.8c0,0-0.4,0.1-1,0.2c-0.1,0.6-0.3,1.3-0.5,1.9c5.6,0.2,10.7,1.3,10.6,1.4l0.8-1.4
					L108.8,132.9z"/>
				<path class="st37" d="M101.3,136.3c0,0,0,0.1,0,0.1c0.1,0.4,0,0.8-0.1,1.2l2.2-0.2l3.2,1.4l5,1.3c0,0,1-0.2,1.4-1.8
					C108.3,136.1,104.2,135.9,101.3,136.3z"/>
				<path class="st6" d="M105.4,133.6c2.7,0,5.7,0.3,9,1c0.1,0,0.1,0.1,0.1,0.2l-3.2,3.9c0,0-0.1,0.1-0.1,0.1c0,0,0,0-0.1,0
					c-0.6-0.3-4.1-1.9-9.1-1.9c-3.2,0-6.9,0.6-11,2.6c0,0,0,0-0.1,0c-0.1,0-0.1,0-0.2-0.1l-0.6-1.6c0-0.1,0-0.1,0.1-0.2
					C91,137,96.3,133.6,105.4,133.6 M105.4,132c-9.5,0-15.1,3.5-16.1,4.3c-0.7,0.5-0.9,1.3-0.6,2.1l0.6,1.6c0.3,0.7,0.9,1.1,1.6,1.1
					c0.3,0,0.5-0.1,0.8-0.2c3.3-1.6,6.8-2.4,10.3-2.4c4.8,0,8.1,1.5,8.4,1.7c0.2,0.1,0.5,0.2,0.8,0.2c0.5,0,1-0.2,1.3-0.6l3.2-3.9
					c0.4-0.5,0.5-1.1,0.3-1.6c-0.2-0.6-0.6-1-1.2-1.1C111.6,132.4,108.5,132,105.4,132L105.4,132z"/>
			</g>
		</g>
		<polygon class="st13" points="123.7,122.1 125.6,127.1 125.2,121.9 		"/>
		<polygon class="st7" points="125.6,127.1 125.5,122.1 125.2,122.1 		"/>
		<path class="st13" d="M108.6,122.9c3.6-0.2,7-0.3,11.8-0.3c4.9,0,8.2,0.1,11.8,0.3c1,0,1.6-0.3,0.8-0.5c-3.6-0.8-7.7-1.1-12.7-1.1
			c-5,0-9.1,0.4-12.6,1.2C107,122.6,107.6,123,108.6,122.9z"/>
		<path class="st7" d="M79.1,130.6l1.9,17.2l1.1,0.6l-0.8,1.1c0,0,3.2,21.4,8,28.7c-6.3-12.5-7.8-17.9-7.8-17.9l-2.4-14.8l-0.9-11
			L79.1,130.6z"/>
		<path class="st6" d="M120.5,211.3c-16.9,0-51.7-12.7-51.7-52c0-4.5,0.1-8.8,0.3-12.8c-13.1-2.4-12.7-38.4-12.5-52.1
			c0-1.1,0-2.1,0-2.8c0-22.3,41-33.5,64-33.5c21.6,0,64,10.1,64,33.5c0,0.7,0,1.7,0,2.8c0.1,13.7,0.5,49.7-12.5,52.1
			c0.2,4,0.3,8.3,0.3,12.8C172.2,198.6,137.3,211.3,120.5,211.3z M120.5,59.6c-9.3,0-25.2,2.1-39.5,8.1c-10.4,4.3-22.9,12-22.9,23.9
			c0,0.8,0,1.7,0,2.9c-0.1,12.3-0.5,49.6,11.8,50.7l0.8,0.1l0,0.8c-0.2,4.2-0.3,8.7-0.3,13.4c0,38.1,33.8,50.4,50.2,50.4
			c16.4,0,50.2-12.3,50.2-50.4c0-4.7-0.1-9.2-0.3-13.4l0-0.8l0.8-0.1c12.4-1,12-38.4,11.8-50.7c0-1.1,0-2.1,0-2.9
			C182.9,69.3,141.5,59.6,120.5,59.6z M120.5,198.7c-4.7,0-9.5-1-13.9-2.9l0,0c-25.6-11.1-29.1-47.7-29-68.6l0-0.2l0.1-0.2
			c5.6-8.3,17.6-18.2,42.8-18.2c25.2,0,37.2,9.9,42.8,18.2l0.1,0.2l0,0.2c0.1,20.9-3.4,57.5-29,68.6
			C130,197.8,125.2,198.7,120.5,198.7z M107.2,194.4c8.5,3.7,18.1,3.7,26.6,0c24.7-10.7,28.2-46.4,28.1-66.9
			c-7.9-11.5-21.8-17.3-41.4-17.3S87,116,79.1,127.5C79,148,82.5,183.7,107.2,194.4L107.2,194.4z"/>
	</g>
</g>
</svg>
