<?xml version="1.0" encoding="utf-8"?>
<!-- Generator: Adobe Illustrator 21.0.0, SVG Export Plug-In . SVG Version: 6.00 Build 0)  -->
<svg version="1.1" id="Layer_1" xmlns="http://www.w3.org/2000/svg" xmlns:xlink="http://www.w3.org/1999/xlink" x="0px" y="0px"
	 viewBox="0 0 240.9 453.5" style="enable-background:new 0 0 240.9 453.5;" xml:space="preserve">
<style type="text/css">
	.st0{fill:#794552;}
	.st1{fill:#C7B89E;}
	.st2{fill:#F9A960;}
	.st3{fill:#D17C32;}
	.st4{fill:#956070;}
	.st5{fill:#FDDCC0;}
	.st6{fill:#501338;}
	.st7{fill:#FFFFFF;}
	.st8{fill:#B38091;}
	.st9{fill:#D1D5DB;}
	.st10{fill:#989A9C;}
	.st11{fill:#937B70;}
	.st12{fill:#E6DEC9;}
	.st13{fill:#F0B39C;}
	.st14{fill:#8E183F;}
	.st15{fill:#F5F5F5;}
	.st16{fill:none;stroke:#462062;stroke-width:0.7554;stroke-linecap:round;stroke-miterlimit:10;}
	.st17{fill:#B5BAC0;}
	.st18{fill:#C71F41;}
	.st19{fill:#EF5784;}
	.st20{fill:#A91D41;}
	.st21{opacity:0.5;fill:#C1C1C1;}
	.st22{opacity:0.27;fill:#E78B6F;}
	.st23{fill:#CB8A43;}
	.st24{fill:#754D24;}
	.st25{fill:#FBBA6C;}
	.st26{fill:#837070;}
	.st27{fill:#866A58;}
	.st28{fill:#9A7E67;}
	.st29{fill:#B39885;}
	.st30{fill:#5B4580;}
	.st31{fill:#E1DFDF;}
	.st32{fill:#C0BEBD;}
	.st33{fill:#D53231;}
	.st34{fill:#E94647;}
	.st35{fill:#797083;}
	.st36{fill:#A9A4B4;}
	.st37{fill:#5B5567;}
	.st38{fill:#CE202B;}
	.st39{fill:#EE3734;}
	.st40{fill:#F49294;}
	.st41{fill:#B89AA6;}
	.st42{fill:#D4907B;}
	.st43{fill:#FAB276;}
	.st44{opacity:0.5;fill:#794552;}
	.st45{fill:#B57D90;}
	.st46{opacity:0.7;fill:#794552;}
	.st47{opacity:0.15;fill:#F2E8A5;}
	.st48{fill:#D67E3A;}
	.st49{fill:#735A99;}
	.st50{fill:#644C88;}
	.st51{fill:#9480B4;}
	.st52{fill:#E4D2A4;}
	.st53{fill:#FAEDD0;}
	.st54{fill:#C4B18B;}
	.st55{fill:#735A99;stroke:#501338;stroke-width:1.571;stroke-miterlimit:10;}
	.st56{fill:#C8BFBF;}
	.st57{fill:#B2ABAB;}
	.st58{fill:#FFE098;}
	.st59{fill:#ECC77E;}
	.st60{fill:#FFEBC7;}
	.st61{fill:#A1675E;}
	.st62{fill:#90564F;}
	.st63{fill:#C07F78;}
	.st64{fill:#68485A;}
	.st65{fill:#FFDD81;}
	.st66{fill:#814945;}
	.st67{fill:#945B58;}
	.st68{fill:#B17977;}
	.st69{fill:#884C4A;}
	.st70{fill-rule:evenodd;clip-rule:evenodd;fill:#989A9C;}
	.st71{fill:#D89E98;}
	.st72{fill:#64445C;}
	.st73{fill:#816474;}
	.st74{fill:#A48390;}
	.st75{fill:#DDAD41;}
	.st76{fill:#F48657;}
	.st77{fill:#D77151;}
	.st78{fill:#F8AB89;}
	.st79{fill:#E9C05B;}
	.st80{fill:#9A8691;}
	.st81{fill:#A28F99;}
	.st82{fill:#8780BC;}
	.st83{fill:#6966AD;}
	.st84{fill:#B2ADD5;}
	.st85{fill:#F48C8C;}
	.st86{fill:#E86363;}
	.st87{fill:#F4876E;}
	.st88{fill:#E56A51;}
	.st89{fill:#80655C;}
	.st90{fill:#C3AC6F;}
	.st91{fill:#9F874A;}
	.st92{fill:#DBC68E;}
	.st93{opacity:0.11;fill:#FFFFFF;}
	.st94{fill:#F7A799;}
	.st95{fill:#FCE5A5;}
	.st96{fill:#DEBB6C;}
	.st97{fill:#B67C76;}
	.st98{fill:none;stroke:#462062;stroke-width:0.843;stroke-linecap:round;stroke-miterlimit:10;}
	.st99{fill:#9D9B86;}
	.st100{fill:#8780BC;stroke:#501338;stroke-width:1.6795;stroke-miterlimit:10;}
	.st101{fill:#C5C4B4;}
	.st102{fill:#E9E9D9;}
	.st103{fill:#E9C15D;}
	.st104{opacity:0.3;}
	.st105{fill:#A27388;}
	.st106{opacity:0.5;fill:#FFFFFF;}
	.st107{fill:#91667A;}
	.st108{opacity:0.4;}
	.st109{opacity:0.5;}
	.st110{opacity:0.5;fill:#A7A7A6;}
	.st111{fill:#C16D34;}
	.st112{opacity:0.4;fill:#FFFFFF;}
	.st113{fill:none;stroke:#501338;stroke-width:1.5687;stroke-linecap:round;stroke-linejoin:round;stroke-miterlimit:10;}
	.st114{opacity:0.27;}
	.st115{fill:#E78B6F;}
	.st116{opacity:0.2;fill:#F48E8E;}
	.st117{fill:#99744B;}
	.st118{fill:#825D38;}
	.st119{fill:#C9CAA6;}
	.st120{fill:#BCBC96;}
	.st121{fill:none;stroke:#462062;stroke-width:0.7845;stroke-linecap:round;stroke-miterlimit:10;}
	.st122{fill:#66402A;}
	.st123{fill:#935C35;}
	.st124{opacity:0.6;fill:#7A4928;}
	.st125{opacity:0.4;fill:#F48E8E;}
	.st126{fill:#E1E1E1;}
	.st127{fill:#C1C1C1;}
	.st128{fill:#52363A;}
	.st129{fill:#C6C5C4;}
	.st130{opacity:0.6;}
	.st131{fill:#888888;}
	.st132{fill:#515252;}
	.st133{opacity:0.6;fill:#888888;}
	.st134{fill:#616160;}
	.st135{fill:#515150;}
	.st136{fill:#957B66;}
	.st137{fill:#B89984;}
	.st138{fill:#787878;}
	.st139{fill:#775F4F;}
	.st140{fill:#D7B9A8;}
	.st141{fill:#99999A;}
	.st142{opacity:0.4;fill:#E6DEC9;}
	.st143{fill:none;stroke:#462062;stroke-width:0.7586;stroke-linecap:round;stroke-miterlimit:10;}
	.st144{fill:#3F4242;}
	.st145{opacity:0.5;fill:#F0B39C;}
	.st146{opacity:0.57;fill:#B89AA6;}
	.st147{fill:#619F7F;}
	.st148{fill:#548E6E;}
	.st149{fill:#C16A2F;}
	.st150{fill:#CE413A;}
	.st151{fill:#B23330;}
	.st152{opacity:0.62;fill:#E48C7D;}
	.st153{fill:#5E3827;}
	.st154{fill:#F48E8E;}
	.st155{fill:#444445;}
	.st156{fill:#353435;}
	.st157{opacity:0.5;fill:#B89AA6;}
	.st158{fill:#4D4C4D;}
	.st159{fill:#444344;}
	.st160{opacity:0.6;fill:#A1A1A1;}
	.st161{fill:#282827;}
	.st162{fill:#636464;}
	.st163{fill:#575959;}
	.st164{fill:#3A3A3A;}
	.st165{opacity:0.5;fill:#787878;}
	.st166{fill:none;stroke:#462062;stroke-width:0.8198;stroke-linecap:round;stroke-miterlimit:10;}
	.st167{fill:#5B5B5C;}
	.st168{fill:#E4E4E4;}
	.st169{fill:#FFF1EA;}
	.st170{fill:#E1CDC5;}
	.st171{opacity:0.4;fill:#F0B39C;}
	.st172{opacity:0.5;fill:#ADADAD;}
	.st173{fill:#B58F5B;}
	.st174{fill:#606060;}
	.st175{fill:#4F5150;}
	.st176{opacity:0.6;fill:#989A9C;}
	.st177{fill:#5D7A6D;}
	.st178{fill:#4C685B;}
	.st179{fill:none;stroke:#462062;stroke-width:0.8057;stroke-linecap:round;stroke-miterlimit:10;}
	.st180{fill:#F7B975;}
	.st181{fill:#8D7449;}
	.st182{opacity:0.35;fill:#F7B975;}
	.st183{fill:#686868;}
	.st184{fill:#959595;}
	.st185{opacity:0.3;fill:#FFFFFF;}
	.st186{fill:#4C4B4C;}
	.st187{fill:#A27F67;}
	.st188{fill:#C6A691;}
	.st189{opacity:0.2;fill:#684D39;}
	.st190{fill:#926E56;}
	.st191{opacity:0.8;fill:#3A3A3A;}
	.st192{fill:#ED3E2B;}
	.st193{fill:#DB2C1F;}
	.st194{opacity:0.7;fill:#989A9C;}
	.st195{fill:#6B4845;}
	.st196{fill:#846363;}
	.st197{fill:#5E3E3C;}
	.st198{fill:none;stroke:#501338;stroke-width:1.6206;stroke-miterlimit:10;}
	.st199{opacity:0.5;fill:#E29780;}
	.st200{opacity:0.6;fill:#FFFFFF;}
	.st201{fill:#ECD8BB;}
	.st202{opacity:0.3;fill:#937B70;}
	.st203{fill:#FCF9F4;}
	.st204{opacity:0.6;fill:#F0B39C;}
	.st205{fill:none;stroke:#462062;stroke-width:0.7828;stroke-linecap:round;stroke-miterlimit:10;}
	.st206{fill:#CDCDCD;}
	.st207{opacity:0.5;fill:#A8A7A7;}
	.st208{fill:#868686;}
	.st209{opacity:0.3;fill:#F0B39C;}
	.st210{opacity:0.7;fill:#F0B39C;}
	.st211{fill:#735A99;stroke:#501338;stroke-width:1.5656;stroke-miterlimit:10;}
	.st212{opacity:0.5;fill:#FCF9F4;}
	.st213{opacity:0.5;fill:#FDDCC0;}
	.st214{fill:#6B3A37;}
	.st215{fill:#92A3D3;}
	.st216{fill:#B0C2E4;}
	.st217{fill:#7790BC;}
	.st218{fill:#7F95C6;}
	.st219{fill:#D0A7C2;}
	.st220{fill:#B7BE79;}
	.st221{fill:#725F82;}
	.st222{fill:#635175;}
	.st223{fill:none;stroke:#501338;stroke-width:1.5843;stroke-miterlimit:10;}
	.st224{fill:#C5B8DA;}
	.st225{fill:#A999C9;}
	.st226{fill:#8B6445;}
	.st227{fill:#7A5439;}
	.st228{fill:none;stroke:#501338;stroke-width:1.5751;stroke-linecap:round;stroke-linejoin:round;stroke-miterlimit:10;}
	.st229{fill:#D9CEB7;}
	.st230{fill:#CCBDA2;}
	.st231{opacity:0.2;fill:#FFFFFF;}
	.st232{fill:#B61F30;}
	.st233{fill:#595B5B;}
</style>
<g>
	<g>
		<g>
			<path class="st23" d="M193.2,453.5H47.8c-4,0-7.3-3.3-7.3-7.3v0c0-4,3.3-7.3,7.3-7.3h145.4c4,0,7.3,3.3,7.3,7.3v0
				C200.5,450.3,197.2,453.5,193.2,453.5z"/>
			<g>
				<g>
					<path class="st24" d="M190.7,409.2H50.2c-4.1,0-7.5,3.4-7.5,7.5v27.6c0,4.1,3.4,7.5,7.5,7.5h140.5c4.1,0,7.5-3.4,7.5-7.5v-27.6
						C198.2,412.5,194.9,409.2,190.7,409.2z M196.2,444.2c0,3-2.4,5.5-5.5,5.5H50.2c-3,0-5.5-2.5-5.5-5.5v-27.6c0-3,2.5-5.5,5.5-5.5
						h140.5c3,0,5.5,2.5,5.5,5.5V444.2z"/>
					<path class="st25" d="M196.2,416.6v27.6c0,3-2.4,5.5-5.5,5.5H50.2c-3,0-5.5-2.5-5.5-5.5v-27.6c0-3,2.5-5.5,5.5-5.5h140.5
						C193.8,411.2,196.2,413.6,196.2,416.6z"/>
				</g>
			</g>
		</g>
		<g>
			<path class="st24" d="M101.2,423.5h-3.8v13.9h-1.7v-13.9H92V422h9.2V423.5z"/>
			<path class="st24" d="M100.7,427c0.4-0.3,0.9-0.5,1.6-0.6c0.6-0.1,1.3-0.2,1.9-0.2c0.6,0,1.1,0.1,1.5,0.3
				c0.4,0.2,0.7,0.4,0.9,0.7c0.2,0.3,0.4,0.7,0.4,1.1c0.1,0.4,0.1,0.8,0.1,1.3c0,0.9,0,1.7-0.1,2.6s-0.1,1.6-0.1,2.4
				c0,0.6,0,1.1,0.1,1.6c0,0.5,0.1,0.9,0.2,1.4H106l-0.4-1.3h-0.1c-0.2,0.4-0.5,0.7-1,1c-0.4,0.3-1,0.4-1.7,0.4
				c-0.8,0-1.4-0.3-1.9-0.8c-0.5-0.6-0.8-1.3-0.8-2.3c0-0.6,0.1-1.2,0.3-1.6c0.2-0.4,0.5-0.8,0.9-1c0.4-0.3,0.8-0.5,1.4-0.6
				s1.1-0.2,1.8-0.2c0.1,0,0.3,0,0.4,0s0.3,0,0.5,0c0-0.5,0.1-0.9,0.1-1.2c0-0.8-0.1-1.4-0.4-1.8c-0.2-0.3-0.7-0.5-1.4-0.5
				c-0.4,0-0.9,0.1-1.3,0.2c-0.5,0.1-0.9,0.3-1.2,0.5L100.7,427z M105.4,432.3c-0.1,0-0.3,0-0.4,0c-0.1,0-0.3,0-0.4,0
				c-0.3,0-0.7,0-1,0.1c-0.3,0.1-0.6,0.2-0.9,0.3c-0.3,0.1-0.5,0.3-0.6,0.6c-0.2,0.2-0.2,0.6-0.2,0.9c0,0.6,0.1,1,0.4,1.4
				s0.6,0.5,1.1,0.5c0.6,0,1.1-0.1,1.4-0.4c0.3-0.3,0.6-0.6,0.7-1V432.3z"/>
			<path class="st24" d="M112.6,432.5l-2.5,4.9h-1.8l2.7-5l0.6-0.7l-0.9-0.8l-2.2-4.5h1.7l2.3,4.8h0.9v-4.8h1.6v5l0.8-0.3l2.3-4.7
				h1.7l-2.3,4.5l-0.7,0.7l0.9,0.9l2.5,5h-1.8l-2.5-5H115v5h-1.6v-5.2L112.6,432.5z"/>
			<path class="st24" d="M127.8,436.6c-0.4,0.3-0.8,0.6-1.3,0.7c-0.5,0.2-1.1,0.3-1.7,0.3c-0.7,0-1.3-0.1-1.8-0.4
				c-0.5-0.3-0.9-0.7-1.3-1.2c-0.3-0.5-0.6-1.1-0.7-1.8s-0.2-1.5-0.2-2.4c0-1.9,0.3-3.3,1-4.3s1.7-1.5,2.9-1.5
				c0.4,0,0.8,0.1,1.2,0.2c0.4,0.1,0.8,0.3,1.1,0.6c0.3,0.3,0.6,0.7,0.8,1.3c0.2,0.6,0.3,1.3,0.3,2.2c0,0.3,0,0.5,0,0.8
				c0,0.3,0,0.6-0.1,0.9h-5.6c0,0.6,0.1,1.2,0.2,1.7c0.1,0.5,0.3,1,0.5,1.3c0.2,0.4,0.5,0.6,0.8,0.8c0.3,0.2,0.8,0.3,1.3,0.3
				c0.4,0,0.8-0.1,1.2-0.2s0.7-0.3,0.9-0.5L127.8,436.6z M126.6,430.7c0-1.1-0.1-1.9-0.5-2.4c-0.3-0.5-0.8-0.8-1.4-0.8
				c-0.7,0-1.2,0.3-1.6,0.8c-0.4,0.5-0.6,1.3-0.7,2.4H126.6z"/>
			<path class="st24" d="M135.7,432.5h-3.8v4.9h-1.6v-11h1.6v4.7h3.8v-4.7h1.6v9.6h1.3v4.2h-1.1l-0.3-2.8h-1.5V432.5z"/>
			<path class="st24" d="M146.7,436.6c-0.4,0.3-0.8,0.6-1.3,0.7c-0.5,0.2-1.1,0.3-1.7,0.3c-0.7,0-1.3-0.1-1.8-0.4
				c-0.5-0.3-0.9-0.7-1.3-1.2c-0.3-0.5-0.6-1.1-0.7-1.8s-0.2-1.5-0.2-2.4c0-1.9,0.3-3.3,1-4.3s1.7-1.5,2.9-1.5
				c0.4,0,0.8,0.1,1.2,0.2c0.4,0.1,0.8,0.3,1.1,0.6c0.3,0.3,0.6,0.7,0.8,1.3c0.2,0.6,0.3,1.3,0.3,2.2c0,0.3,0,0.5,0,0.8
				c0,0.3,0,0.6-0.1,0.9h-5.6c0,0.6,0.1,1.2,0.2,1.7c0.1,0.5,0.3,1,0.5,1.3c0.2,0.4,0.5,0.6,0.8,0.8c0.3,0.2,0.8,0.3,1.3,0.3
				c0.4,0,0.8-0.1,1.2-0.2s0.7-0.3,0.9-0.5L146.7,436.6z M145.5,430.7c0-1.1-0.1-1.9-0.5-2.4c-0.3-0.5-0.8-0.8-1.4-0.8
				c-0.7,0-1.2,0.3-1.6,0.8c-0.4,0.5-0.6,1.3-0.7,2.4H145.5z"/>
		</g>
	</g>
	<g>
		<path class="st147" d="M181.5,368.2c-0.1,0.3-0.1,0.7-0.2,1c0,0.1,0,0.1-0.1,0.2c-0.1,0.3-0.2,0.7-0.3,1c-0.3,0.8-0.6,1.6-0.9,2.4
			c-0.1,0.2-0.2,0.4-0.3,0.6c-0.1,0.2-0.2,0.4-0.3,0.5c-0.1,0.2-0.2,0.4-0.3,0.5c-0.1,0.2-0.2,0.3-0.3,0.5c-0.2,0.3-0.4,0.7-0.7,1
			c-0.3,0.3-0.5,0.6-0.8,0.9c-0.5,0.6-1.1,1.1-1.7,1.7c-0.8,0.6-1.6,1.2-2.5,1.8c0,0,0,0,0,0c-0.4,0.2-0.7,0.4-1.1,0.6
			c-1,0.5-2,1-3.2,1.4c-0.2,0.1-0.5,0.2-0.7,0.2c-0.8,0.3-1.5,0.5-2.4,0.7c-0.3,0.1-0.6,0.2-0.9,0.2c-0.1,0-0.3,0.1-0.4,0.1
			c-0.3,0.1-0.7,0.2-1,0.2c-0.5,0.1-0.9,0.2-1.4,0.3c-0.4,0.1-0.9,0.2-1.3,0.3c-0.7,0.1-1.4,0.2-2.1,0.3c-0.8,0.1-1.7,0.2-2.6,0.3
			c0,0-0.1,0-0.2,0c-0.9,0.1-1.9,0.2-2.9,0.3c-2,0.2-4,0.3-6.1,0.4c-0.4,0-0.7,0-1.1,0c-0.7,0-1.4,0.1-2.2,0.1
			c-1.9,0.1-3.8,0.1-5.8,0.1c-4.7,0.1-7.5-0.6-14.4-2.6c-1.9-0.6-4-0.6-5.9,0c-6.9,2-9.7,2.6-14.4,2.6c-2,0-3.9-0.1-5.8-0.1
			c-0.7,0-1.5,0-2.2-0.1c-0.4,0-0.7,0-1.1,0c-2.1-0.1-4.2-0.2-6.1-0.4c-1-0.1-1.9-0.2-2.9-0.3c-0.1,0-0.1,0-0.2,0
			c-0.9-0.1-1.7-0.2-2.6-0.3c-0.7-0.1-1.4-0.2-2.1-0.3c-0.5-0.1-0.9-0.2-1.3-0.3c-0.5-0.1-0.9-0.2-1.4-0.3c-0.3-0.1-0.7-0.2-1-0.2
			c-0.1,0-0.3-0.1-0.4-0.1c-0.3-0.1-0.6-0.1-0.9-0.2c-0.8-0.2-1.6-0.5-2.4-0.7c-0.2-0.1-0.5-0.2-0.7-0.2c-1.1-0.4-2.2-0.9-3.2-1.4
			c-0.4-0.2-0.8-0.4-1.1-0.6c0,0,0,0,0,0c-0.9-0.5-1.7-1.1-2.5-1.8c-0.6-0.5-1.2-1.1-1.7-1.7c-0.3-0.3-0.5-0.6-0.8-0.9
			c-0.3-0.3-0.5-0.6-0.7-1c-0.1-0.2-0.2-0.3-0.3-0.5c-0.1-0.2-0.2-0.3-0.3-0.5c-0.1-0.2-0.2-0.4-0.3-0.5c-0.1-0.2-0.2-0.4-0.3-0.6
			c-0.4-0.7-0.7-1.5-0.9-2.4c-0.1-0.3-0.2-0.6-0.3-1c0-0.1,0-0.1-0.1-0.2c-0.1-0.3-0.2-0.6-0.2-1c-0.3-1.7-1.1-3.8-1.3-5.7
			c-1.7-18.9,4.4-26.3,11.1-36.4c2-3.1,4.4-5.6,5.4-7.6c0.2-0.4,0.5-0.9,0.8-1.3c2.4-3.2,6.4-4.9,10.4-4.2l32.9,5.6
			c1.2,0.2,2.4,0.2,3.6,0l32.9-5.6c4.1-0.7,8.3,1.1,10.6,4.5c0.2,0.3,0.4,0.6,0.6,0.9c2.9,5.3,10.2,13.1,13.4,21.4
			c2.9,7.4,4,13.6,2.8,21c-0.1,0.3,0.1,1.8,0.1,2.1C182.7,365.1,181.8,366.6,181.5,368.2z"/>
		<path class="st106" d="M64.1,339.6c2.7-7.4,5.6-12.4,5.6-12.4l-0.2-0.4l-0.4,0.1l-1.4,2c0,0-6.1,9.4-8.7,17.7
			c-2.5,8.3-1,14.4,1.5,22.4c-1.7-9.3,0.2-19.2,2.8-26.9c0.6,0.9,1.7,2.2,3.3,3.6c0.1,0.1,0.3,0,0.2-0.2
			C65,343,64.2,340.6,64.1,339.6z"/>
		<g>
			<path class="st148" d="M167.9,321.2c2.9-2.5,4.4-4.4,4-5c-0.3-0.5-0.6-1-0.9-1.4H167l-20.4,4.8c0,0-19.1,2.6-26.2,7.1
				c-7-4.5-26.2-7.1-26.2-7.1L74,314.8h-4.1c-0.3,0.4-0.6,0.9-0.9,1.4c-0.3,0.6,1.1,2.5,4,5c-6.5,9.8-20.1,23.3-13.3,48c0,0,0,0,0,0
				c0,0.1,0,0.1,0.1,0.2c0.1,0.3,0.2,0.7,0.3,1c0.3,0.8,0.6,1.6,0.9,2.4c0.1,0.2,0.2,0.4,0.3,0.6l0.3,0.5c0.1,0.1,0.1,0.2,0.2,0.4
				c0.1,0.2,0.3,0.4,0.4,0.7c0.2,0.3,0.5,0.7,0.7,1c0.3,0.3,0.5,0.6,0.8,0.9c0.5,0.6,1.1,1.1,1.7,1.7c0.8,0.6,1.6,1.2,2.5,1.8
				c0,0,0,0,0,0c0.4,0.2,0.7,0.4,1.1,0.6c1,0.5,2,1,3.2,1.4c0.2,0.1,0.5,0.2,0.7,0.2c0.8,0.3,1.5,0.5,2.4,0.7
				c0.3,0.1,0.6,0.2,0.9,0.2c0.1,0,0.3,0.1,0.4,0.1c0.3,0.1,0.7,0.2,1,0.2c0.5,0.1,0.9,0.2,1.4,0.3c0.4,0.1,0.9,0.2,1.3,0.3
				c0.7,0.1,1.4,0.2,2.1,0.3c0.8,0.1,1.7,0.2,2.6,0.3c0,0,0.1,0,0.2,0c0.9,0.1,1.9,0.2,2.9,0.3c2,0.2,4,0.3,6.1,0.4
				c0.4,0,0.7,0,1.1,0c0.7,0,1.4,0.1,2.2,0.1c1.9,0.1,3.8,0.1,5.8,0.1c4.7,0.1,7.5-0.6,14.4-2.6c1-0.3,2-0.4,3-0.4c1,0,2,0.1,3,0.4
				c6.9,2,9.7,2.6,14.4,2.6c2,0,3.9-0.1,5.8-0.1c0.7,0,1.5,0,2.2-0.1c0.4,0,0.7,0,1.1,0c2.1-0.1,4.2-0.2,6.1-0.4
				c1-0.1,1.9-0.2,2.9-0.3c0.1,0,0.1,0,0.2,0c0.9-0.1,1.7-0.2,2.6-0.3c0.7-0.1,1.4-0.2,2.1-0.3c0.5-0.1,0.9-0.2,1.3-0.3
				c0.5-0.1,0.9-0.2,1.4-0.3c0.3-0.1,0.7-0.2,1-0.2c0.1,0,0.3-0.1,0.4-0.1c0.3-0.1,0.6-0.1,0.9-0.2c0.8-0.2,1.6-0.5,2.4-0.7
				c0.2-0.1,0.5-0.2,0.7-0.2c1.1-0.4,2.2-0.9,3.2-1.4c0.4-0.2,0.8-0.4,1.1-0.6c0,0,0,0,0,0c0.9-0.5,1.7-1.1,2.5-1.8
				c0.6-0.5,1.2-1.1,1.7-1.7c0.3-0.3,0.5-0.6,0.8-0.9c0.2-0.3,0.5-0.6,0.7-1c0.1-0.2,0.3-0.4,0.4-0.7c0.1-0.1,0.1-0.2,0.2-0.4
				l0.3-0.5c0.1-0.2,0.2-0.4,0.3-0.6c0.4-0.7,0.7-1.5,0.9-2.4c0.1-0.3,0.2-0.6,0.3-1c0-0.1,0-0.1,0.1-0.2
				C188,344.6,174.5,331,167.9,321.2z M121.2,372.2C121.1,372.2,121.1,372.1,121.2,372.2C121.1,372.1,121.1,372.1,121.2,372.2
				C121.1,372.1,121.1,372.1,121.2,372.2z M168.6,363.5C168.6,363.5,168.6,363.5,168.6,363.5c-0.1,0.3-0.2,0.7-0.3,1.1
				c-3.2,15.4-19.9,19-39.7,12.3c-1-0.5-2-1.1-2.8-1.7c-0.9-0.7-1.7-1.5-2.5-2.4c-0.5-0.5-0.9-1.1-1.4-1.6c0.7-1,1.3-2,1.9-3
				c0.7-1.5,1.3-3,1.7-4.6c0-0.1,0-0.2-0.1-0.3c-0.1-0.1-0.3-0.1-0.3,0c-0.8,1.4-1.6,2.7-2.5,4.1c-0.9,1.3-1.8,2.6-2.8,3.8
				c-1,1.2-2.1,2.3-3.4,3.3c-1.1,0.9-2.2,1.6-3.5,2.4c-20,6.8-36.9,3.3-40.1-12.2c-0.1-0.4-0.2-0.8-0.3-1.2l0,0
				c-2.6-24.8,4.1-37.2,5.6-38.2c0.1-0.1,0.2-0.1,0.2-0.1l0,0c6.8,4.6,16.9,9.8,28.6,12.3c4.4,3.3,8.4,5.3,10.6,6.4
				c-1,0.2-2.1,0.5-3.1,0.6c-2.3,0.4-4.8,0.5-7.3,0.4c-0.1,0-0.1,0.1-0.1,0.1c0,0.1,0.1,0.2,0.2,0.3c2.5,0.9,5.1,1.3,7.7,1.2
				c2.5-0.1,5-0.5,7.3-1.3c2.3-0.8,4.5-1.9,6.6-3.2c2-1.3,3.9-2.8,5.7-4.5c11.7-2.5,21.8-7.7,28.6-12.3l0,0c0,0,0.1,0,0.2,0.1
				C164.5,326.3,171.2,338.7,168.6,363.5z"/>
			<path class="st148" d="M157.3,364.2c-1.9,1.1-5.1,2.8-10.8,3.4c-5.3,0.8-10.3-0.3-13.2-1.7c-0.1,0.2-0.1,0.4-0.1,0.5
				c0.1,2.8,5.7,8.9,13,7.9c10.6-1.5,11.2-8.7,11-9.9C157.3,364.3,157.3,364.3,157.3,364.2z"/>
			<path class="st148" d="M94.4,367.6c-5.7-0.7-8.8-2.3-10.8-3.4c0,0.1-0.1,0.2-0.1,0.2c-0.2,1.2,0.4,8.4,11,9.9
				c7.3,1,13-5.1,13-7.9c0-0.1,0-0.3-0.1-0.5C104.8,367.3,99.7,368.4,94.4,367.6z"/>
		</g>
		<path class="st6" d="M137.1,386.7c-4.3,0-7.1-0.6-13.9-2.6c-1.8-0.5-3.7-0.5-5.5,0c-7.1,2.1-9.9,2.7-14.7,2.6
			c-2,0-3.9-0.1-5.8-0.1c-0.8,0-1.5,0-2.2-0.1l-1.1,0c-2.3-0.1-4.3-0.2-6.2-0.4c-1-0.1-1.9-0.2-2.8-0.3c-0.1,0-0.2,0-0.2,0
			c-0.8-0.1-1.7-0.2-2.5-0.3c-0.7-0.1-1.4-0.2-2.1-0.3c-0.5-0.1-0.9-0.2-1.4-0.3c-0.5-0.1-0.9-0.2-1.4-0.3c-0.3-0.1-0.7-0.2-1-0.2
			l-0.4-0.1c-0.3-0.1-0.6-0.2-0.9-0.2c-0.8-0.2-1.6-0.5-2.4-0.7l-0.7-0.2c-1.2-0.4-2.3-0.9-3.3-1.4c-0.3-0.2-0.7-0.4-1-0.5h0
			l-0.2-0.1c-1-0.6-1.8-1.2-2.6-1.8c-0.7-0.5-1.3-1.1-1.8-1.7c-0.3-0.3-0.5-0.6-0.8-1c-0.2-0.3-0.5-0.6-0.7-1
			c-0.1-0.2-0.2-0.3-0.3-0.5c-0.1-0.2-0.2-0.4-0.3-0.5l-0.3-0.6c-0.1-0.2-0.2-0.4-0.3-0.6c-0.4-0.7-0.7-1.6-1-2.5
			c-0.1-0.3-0.2-0.5-0.2-0.8l0,0l-0.1-0.4c-6-21.7,3.6-34.9,10.5-44.6c1.8-2.5,3.4-4.7,4.5-6.7c0.1-0.1,0.1-0.2,0.2-0.3l0.1-0.1
			c0.1-0.1,0.2-0.3,0.3-0.4c0.1-0.1,0.1-0.1,0.1-0.2l0.4-0.6l0,0c2.6-3.3,6.8-5,11-4.3l32.9,5.6c1.1,0.2,2.2,0.2,3.3,0l32.9-5.6
			c4.4-0.7,8.9,1.2,11.4,4.9c0.2,0.3,0.4,0.6,0.6,1l0,0c1.1,2,2.7,4.2,4.5,6.7c7,9.6,16.5,22.8,10.5,44.6c0,0.1,0,0.1-0.1,0.2
			c-0.1,0.3-0.2,0.7-0.3,1c-0.3,0.9-0.6,1.7-1,2.5c-0.1,0.2-0.2,0.4-0.3,0.6l-0.3,0.5c-0.1,0.2-0.2,0.4-0.3,0.6
			c-0.1,0.2-0.2,0.4-0.3,0.5c-0.3,0.4-0.5,0.7-0.7,1c-0.3,0.3-0.5,0.6-0.8,0.9c-0.6,0.6-1.2,1.2-1.8,1.7c-0.8,0.6-1.7,1.3-2.6,1.8
			l-0.2,0.1c-0.3,0.2-0.6,0.4-1,0.5c-1,0.5-2.1,1-3.3,1.4l-0.7,0.2c-0.8,0.3-1.6,0.5-2.4,0.7c-0.3,0.1-0.6,0.2-0.9,0.2l-0.4,0.1
			c-0.3,0.1-0.7,0.2-1,0.2c-0.5,0.1-0.9,0.2-1.4,0.3c-0.4,0.1-0.9,0.2-1.3,0.3c-0.7,0.1-1.4,0.2-2.1,0.3c-0.8,0.1-1.7,0.2-2.6,0.3
			c0,0-0.1,0-0.2,0c-0.9,0.1-1.9,0.2-2.8,0.3c-1.8,0.2-3.9,0.3-6.2,0.4l-1.1,0c-0.7,0-1.5,0.1-2.2,0.1c-1.9,0.1-3.8,0.1-5.8,0.1
			C137.6,386.7,137.4,386.7,137.1,386.7z M120.5,382.1c1.1,0,2.2,0.2,3.2,0.5c7,2,9.7,2.6,14.2,2.5c2,0,3.9-0.1,5.7-0.1
			c0.7,0,1.5,0,2.2-0.1l1.1,0c2.3-0.1,4.3-0.2,6.1-0.4c1-0.1,1.9-0.2,2.8-0.3l0.1,0c0.9-0.1,1.8-0.2,2.6-0.3c0.7-0.1,1.4-0.2,2-0.3
			c0.4-0.1,0.9-0.2,1.3-0.2c0.5-0.1,0.9-0.2,1.4-0.3c0.3-0.1,0.6-0.2,1-0.2l0.4-0.1c0.3-0.1,0.6-0.1,0.8-0.2
			c0.8-0.2,1.6-0.5,2.3-0.7l0.7-0.2c1.1-0.4,2.1-0.9,3.1-1.3c0.3-0.2,0.7-0.4,1-0.5l0.3-0.2c0.8-0.5,1.6-1,2.2-1.6
			c0.6-0.5,1.2-1,1.7-1.6c0.3-0.3,0.5-0.6,0.7-0.9c0.2-0.3,0.4-0.5,0.7-0.9c0.1-0.2,0.2-0.3,0.3-0.5c0.1-0.2,0.2-0.3,0.3-0.5
			l0.3-0.5c0.1-0.2,0.2-0.3,0.2-0.5c0.3-0.7,0.6-1.5,0.9-2.3c0.1-0.3,0.2-0.6,0.3-0.9l0-0.1c0,0,0-0.1,0-0.1
			c5.8-21-3.5-33.8-10.3-43.2c-1.8-2.5-3.5-4.8-4.6-6.9c-0.2-0.3-0.3-0.6-0.5-0.9c-2.2-3.2-6-4.8-9.8-4.2l-32.9,5.6
			c-1.3,0.2-2.6,0.2-3.8,0l-32.9-5.6c-3.7-0.6-7.4,0.9-9.6,3.9c-0.1,0.1-0.1,0.1-0.2,0.2l-0.2,0.3c-0.1,0.1-0.1,0.2-0.2,0.3
			l-0.1,0.2c0,0.1-0.1,0.1-0.1,0.2c-1.1,2.1-2.8,4.4-4.6,6.9c-6.7,9.3-15.9,22-10.4,42.8l0.1,0.4c0,0,0,0.1,0,0.1l0,0.1
			c0.1,0.3,0.2,0.6,0.3,0.9c0.3,0.8,0.6,1.6,0.9,2.3c0.1,0.2,0.2,0.4,0.3,0.5l0.3,0.5c0.1,0.1,0.2,0.3,0.3,0.5
			c0.1,0.2,0.2,0.3,0.3,0.5c0.3,0.4,0.5,0.7,0.7,0.9c0.2,0.3,0.5,0.6,0.7,0.9c0.5,0.6,1.1,1.1,1.7,1.6c0.7,0.6,1.4,1.1,2.2,1.6
			l0.3,0.2c0.3,0.2,0.7,0.4,1,0.5c0.9,0.5,1.9,0.9,3.1,1.3l0.7,0.2c0.7,0.3,1.5,0.5,2.3,0.7c0.3,0.1,0.6,0.2,0.8,0.2l0.4,0.1
			c0.3,0.1,0.7,0.2,1,0.2c0.4,0.1,0.9,0.2,1.4,0.3c0.4,0.1,0.9,0.2,1.3,0.2c0.7,0.1,1.3,0.2,2,0.3c0.8,0.1,1.7,0.2,2.5,0.3l0.1,0
			c0.9,0.1,1.9,0.2,2.8,0.3c1.8,0.2,3.8,0.3,6.1,0.4l1.1,0c0.7,0,1.4,0.1,2.2,0.1c1.8,0.1,3.8,0.1,5.7,0.1c4.5,0.1,7.2-0.5,14.2-2.5
			C118.3,382.3,119.4,382.1,120.5,382.1z"/>
		<path class="st6" d="M180.4,370.4c0.3,0.2-3,2.9-7.6,4.9c-0.1,0.1,0,0.3,0.1,0.3c5.2-1.2,8-3,7.9-3.2L180.4,370.4z"/>
		<path class="st6" d="M62.1,373.6c-0.3,0.3,3.8,2.7,9.3,4.2c0.1,0,0.1,0.3-0.1,0.3c-6-0.5-9.5-1.9-9.3-2.2L62.1,373.6z"/>
		<rect x="108.6" y="197.1" class="st26" width="20" height="20"/>
		<polygon class="st48" points="120.5,288.8 85.3,288.8 85.8,307.7 120.5,317.1 155.1,307.7 155.7,288.8 		"/>
		<g>
			<path class="st147" d="M101.1,302.6c0.7,0.3,2.2,1,2.2,1c-4.6,6.8-6.3,15.7-6.6,25.6c-1.6-0.4-3.2-0.8-4.8-1.2
				c-63.3-17.8-63-83.8-26.5-113.9c8-6.7,17.8-11.6,29.1-13.8c1.8-0.4,3.7-0.7,5.7-0.9c0,0,1.9,6.3,7.7,10.7c3,2.3,7.1,4,12.6,4
				v76.5H85.3l-2.3-56C61.7,245.3,52,282.9,101.1,302.6z"/>
			<path class="st106" d="M68.6,300C68.6,299.9,68.6,299.9,68.6,300c-4.5,2.6-6.9,4.4-8.2,5.7c-30.6-29-12.7-72.1,5-91.6
				c-36.5,30.1-36.8,96.1,26.5,113.9l0-0.1l0.3-4.1c-13.1-4.6-23-10.3-30.4-16.9C62.9,305.7,64.8,303.5,68.6,300z"/>
			<path class="st148" d="M103.3,303.6l-6.6,25.6c-2.9-0.7-2-0.4-4.7-1.3c0,0,0.2-8.7,3.9-21.4c-19.2-9.3-28.7-20.1-32.2-30.4
				c-1.7,0.6-4.4,1.3-8.4,2c0,0,0-0.1,0-0.1c3.9-1.6,6.3-2.7,7.9-3.6c-1.3-4.8-1.4-9.4-0.7-13.8c-3.8-2.6-14.8-10.2-15-10.4
				l16.3,5.3c4-12,13.9-21,20-22.2l-0.8,1.4v0c-21.2,10.7-31,48.4,18.1,68.1C101.8,302.9,102.6,303.5,103.3,303.6z"/>
			<path class="st6" d="M120.5,213.2c-15,0-19.3-13.5-19.5-14.1l-0.2-0.6l-0.7,0.1c-37.4,4.4-58.6,35.7-60.2,64.4
				c-1.4,25.7,12.7,56.9,56.6,67.1l1,0.2l0-1c0.4-11.1,2.4-19.1,6.5-25.1l0.5-0.8l-0.9-0.4c-0.1,0-1.5-0.7-2.2-1h0
				c-29.6-11.9-34.6-28.8-35-37.8c-0.5-11.4,5.8-22.6,15.8-28.2l2.3,55.5l0.1,1.8l1.7,1.3l-0.2-4.7l-2.4-56.5l-1.1,0.6
				c-11.2,5.7-18.4,17.9-17.8,30.3c0.4,9.4,5.6,27,36,39.2c0.3,0.1,0.8,0.4,1.3,0.6c-3.8,6-5.8,13.7-6.2,24.2
				c-42.2-10.2-55.8-40.3-54.4-65.2c1.5-27.8,22-58.2,58.1-62.8c1.1,2.8,6.3,14.1,20,14.6v20.9h1.6v-22.5H120.5z"/>
			<g>
				<g>
					<path class="st5" d="M101.4,302.7c0.9,0.3,1.6,0.5,1.8,0.6c2.6,0.9,7.5-2.4,9.6-3.4c1.5-0.7,3.4,3,4.2,4.9
						c0.3,0.7,0.9,1.2,1.7,1.3l6,1.1c1,0.2,1.7,1,1.8,2c0,0,0.3,25.5-8.9,24.2c-7.7-1-14.8-2.6-21.2-4.4
						C97.8,316.8,100,307.6,101.4,302.7z"/>
					<path class="st13" d="M120.3,306c0,0,6.6,0.1,6.5,4.3c-0.1,4.2-1,12.8-2.1,16.5c-1.1,3.7-3.3,6.2-3.8,6.7
						c-0.5,0.5-3.8,0.5-6.8,0c-2.9-0.5-17.5-3.7-17.5-3.7s-1,0.2-0.8-1c0.2-1.2,3.1-19.7,4.3-23c1-3,1.3-3.3,1.3-3.3l2.8,0.9
						c0,0-4.5,13.5-3.4,17.8c5.9,1.3,14.9,3.5,14.9,3.5S120.8,317.2,120.3,306z"/>
					<path class="st7" d="M116.7,322.7c0,0,2.7-7.2,2.7-16.7l1.9,0.3C121.3,306.3,121.5,314.4,116.7,322.7z"/>
					<path class="st6" d="M117.4,321.4C117.5,321.4,117.4,321.4,117.4,321.4c3.1-4.9,4.3-15.3,4.3-15.3l-1.4-0.1
						C120.6,307.1,119.8,315.7,117.4,321.4z"/>
					<path class="st6" d="M126.4,314.1c-1.4,0.5-2.8,0.8-4.2,0.8c1.4,0.4,2.7,0.6,3.9,0.5L126.4,314.1z"/>
					<path class="st6" d="M125.5,321.6c-1.4,0.6-2.8,0.9-4.2,0.8c1.3,0.5,2.6,0.6,3.9,0.5L125.5,321.6z"/>
					<path class="st6" d="M123.9,327.6c-0.7,0.4-1.5,0.5-2.4,0.5c0.8,0.3,1.6,0.4,2.2,0.3L123.9,327.6z"/>
					<path class="st7" d="M111.9,303.6c-0.5,0-1,0.1-1.5,0.2c-0.5,0.1-0.9,0.3-1.3,0.5c-0.4,0.2-0.8,0.5-1.2,0.8
						c-0.4,0.3-0.8,0.6-1.1,1l0,0c0.5,0,1-0.2,1.5-0.3c0.5-0.1,0.9-0.3,1.3-0.5c0.4-0.2,0.8-0.4,1.2-0.7
						C111.2,304.3,111.5,304,111.9,303.6z"/>
				</g>
				<path class="st6" d="M117.4,334.3c-7.5-1-14.6-2.5-21.3-4.5l-0.7-0.2l0.1-0.7c1.4-12,3.6-21,5.1-26.5l0.2-0.8l1.8,0.6
					c0.4,0.1,0.7,0.2,0.8,0.3c1.7,0.6,5-1.2,7.1-2.4c0.7-0.4,1.3-0.7,1.8-1c0.4-0.2,0.9-0.2,1.4,0c1.2,0.5,2.5,2.3,3.8,5.4
					c0.2,0.4,0.6,0.7,1.1,0.8l6,1.1c1.3,0.2,2.4,1.4,2.5,2.8c0,0.8,0.1,18.6-5.6,23.7c-1,0.9-2.2,1.4-3.5,1.4
					C117.9,334.4,117.7,334.3,117.4,334.3z M113.1,300.7c-0.4,0.2-1,0.5-1.7,0.9c-2.6,1.4-6.1,3.3-8.5,2.5c-0.2-0.1-0.4-0.1-0.8-0.3
					l-0.2-0.1c-1.3,4.6-3.3,13.3-4.7,24.7c6.4,1.8,13.3,3.3,20.4,4.2c1.1,0.2,2.1-0.2,3-0.9c5.2-4.6,5-22.3,5-22.4
					c-0.1-0.6-0.5-1.2-1.2-1.3l-6-1.1c-1-0.2-1.9-0.9-2.3-1.8c-1.3-3-2.3-4.3-2.9-4.5C113.3,300.7,113.2,300.7,113.1,300.7
					C113.2,300.7,113.2,300.7,113.1,300.7z"/>
			</g>
			<path class="st19" d="M46.7,241.5c0,0,6.6,1.6,9,4.9c0.2,0.2-0.1,0.5-0.3,0.4c-4.9-2.7-9.7-3.2-9.7-3.3L46.7,241.5z"/>
			<path class="st6" d="M90.7,327.3c0.6-5.8,1.4-10.1,4.4-18.2c-1.9,8.2-2.4,12.9-2.7,18.6L90.7,327.3z"/>
		</g>
		<g>
			<path class="st147" d="M149,327.9c-1.5,0.4-3.1,0.8-4.8,1.2c-0.3-9.9-2-18.7-6.6-25.6c0,0,1.5-0.7,2.2-1
				c45.4-18.2,40.5-51.8,22.7-65.2c-1.4-1.1-3-2-4.6-2.9l0,0.5l-1.2,28l-0.9,21l-4.3,0l-31.1,6.6V214c1.7,0,3.4-0.2,4.8-0.5
				c7.5-1.6,11.7-6.9,13.8-10.5c1.2-2.1,1.7-3.7,1.7-3.7c0.8,0.1,1.6,0.2,2.3,0.3c7.4,1.1,14.3,3.4,20.4,6.5
				c2.1,1.1,4.2,2.3,6.1,3.6c0.3,0.2,0.7,0.4,1,0.6c1.7,1.2,3.3,2.4,4.9,3.7C212,244.2,212.3,310.1,149,327.9z"/>
			<path class="st148" d="M178.5,260.6c2,11.6-2,25.3-19.2,37.6c0.9,1.4,2.5,3.8,5.8,7.7c0,0,0,0-0.1,0.1c-4-3.1-6.2-5.2-7.3-6.6
				c-3.6,2.5-7.8,4.9-12.5,7.2c3.7,12.7,3.9,21.4,3.9,21.4c-2.7,0.9-1.8,0.6-4.7,1.3l-6.6-25.6c0.7-0.1,1.5-0.7,2.2-1
				c49.1-19.7,39.4-57.4,18.1-68.1v0l-0.8-1.4c6.1,1.3,16,10.2,20,22.2l16.4-5.3C193.4,250.3,182.3,258,178.5,260.6z"/>
			<g class="st108">
				<path class="st7" d="M175.5,214c16.6,18.3,33.4,57.3,10.2,86c-1.4-1.1-3.9-2.8-8.4-5.1c0,0,0,0,0,0.1c4,3.2,6.1,5.3,7.2,6.5
					c-7.6,8.8-19.1,16.5-35.7,22.2l0.3,4.1l0,0.1C212.3,310.1,212,244.2,175.5,214z"/>
			</g>
			<path class="st6" d="M201,262.9c-1.6-28.7-22.8-60-60.2-64.4l-0.7-0.1l-0.2,0.6c-0.2,0.6-4.5,14.1-19.5,14.1h-0.8V306h1.6v-91.2
				c13.7-0.4,18.9-11.7,20-14.6c36.1,4.6,56.6,34.9,58.1,62.8c1.4,24.9-12.2,55-54.4,65.2c-0.4-10.5-2.4-18.2-6.2-24.2
				c0.5-0.2,1-0.5,1.3-0.6c30.4-12.2,35.6-29.8,36-39.2c0.5-12.5-6.6-24.7-17.8-30.3l-1.1-0.6l-0.3,39.4l-0.5,0.8
				c0.6-0.3,0.2,1.9,0.7,1.5l1.3-0.7l0.2-38.4c10,5.6,16.3,16.8,15.8,28.2c-0.3,7.8-4.1,21.4-24.1,32.6c-0.4,0.2-0.7,0.4-1.1,0.6
				c-2.9,1.6-6.2,3.1-9.9,4.6h0c-0.7,0.3-2.1,1-2.2,1l-0.9,0.4l0.5,0.8c4.1,6,6.1,14,6.5,25.1l0,1l1-0.2
				C188.4,319.8,202.5,288.6,201,262.9z"/>
			<g>
				<g>
					<path class="st5" d="M139.6,302.7c-0.9,0.3-1.6,0.5-1.8,0.6c-2.6,0.9-7.5-2.4-9.6-3.4c-1.5-0.7-3.4,3-4.2,4.9
						c-0.3,0.7-0.9,1.2-1.7,1.3l-6,1.1c-1,0.2-1.7,1-1.8,2c0,0-0.3,25.5,8.9,24.2c7.7-1,14.8-2.6,21.2-4.4
						C143.2,316.8,140.9,307.6,139.6,302.7z"/>
					<path class="st13" d="M120.6,306c0,0-6.6,0.1-6.5,4.3c0.1,4.2,1,12.8,2.1,16.5s3.3,6.2,3.8,6.7c0.5,0.5,3.8,0.5,6.8,0
						s17.5-3.7,17.5-3.7s1,0.2,0.8-1c-0.2-1.2-3.1-19.7-4.3-23c-1-3-1.3-3.3-1.3-3.3l-2.8,0.9c0,0,4.5,13.5,3.4,17.8
						c-5.9,1.3-14.9,3.5-14.9,3.5S120.2,317.2,120.6,306z"/>
					<path class="st7" d="M124.2,322.7c0,0-2.7-7.2-2.7-16.7l-1.9,0.3C119.6,306.3,119.5,314.4,124.2,322.7z"/>
					<path class="st6" d="M123.5,321.4C123.5,321.4,123.5,321.4,123.5,321.4c-3.1-4.9-4.3-15.3-4.3-15.3l1.4-0.1
						C120.3,307.1,121.2,315.7,123.5,321.4z"/>
					<path class="st6" d="M114.5,314.1c1.4,0.5,2.8,0.8,4.2,0.8c-1.4,0.4-2.7,0.6-3.9,0.5L114.5,314.1z"/>
					<path class="st6" d="M115.4,321.6c1.4,0.6,2.8,0.9,4.2,0.8c-1.3,0.5-2.6,0.6-3.9,0.5L115.4,321.6z"/>
					<path class="st6" d="M117.1,327.6c0.7,0.4,1.5,0.5,2.4,0.5c-0.8,0.3-1.6,0.4-2.2,0.3L117.1,327.6z"/>
					<path class="st7" d="M129.1,303.6c0.5,0,1,0.1,1.5,0.2c0.5,0.1,0.9,0.3,1.3,0.5c0.4,0.2,0.8,0.5,1.2,0.8c0.4,0.3,0.8,0.6,1.1,1
						l0,0c-0.5,0-1-0.2-1.5-0.3c-0.5-0.1-0.9-0.3-1.3-0.5c-0.4-0.2-0.8-0.4-1.2-0.7C129.8,304.3,129.4,304,129.1,303.6z"/>
				</g>
				<path class="st6" d="M122.8,334.4c-1.3,0-2.5-0.5-3.5-1.4c-5.7-5.1-5.6-22.9-5.6-23.7c0.1-1.4,1.2-2.5,2.5-2.8l6-1.1
					c0.5-0.1,0.9-0.4,1.1-0.8c1.3-3.1,2.6-4.9,3.8-5.4c0.5-0.2,1-0.2,1.4,0c0.5,0.2,1.1,0.6,1.8,1c2.2,1.2,5.4,3,7.1,2.4
					c0.2-0.1,0.4-0.2,0.8-0.3l1.8-0.6l0.2,0.8c1.5,5.5,3.7,14.5,5.1,26.5l0.1,0.7l-0.7,0.2c-6.7,2-13.9,3.5-21.3,4.5
					C123.3,334.3,123,334.4,122.8,334.4z M127.7,300.7c0,0-0.1,0-0.1,0c-0.6,0.2-1.7,1.5-2.9,4.5c-0.4,0.9-1.2,1.6-2.3,1.8l-6,1.1
					c-0.6,0.1-1.1,0.6-1.2,1.3c0,0.1-0.1,17.8,5,22.4c0.9,0.8,1.9,1.1,3,0.9c7.1-1,14-2.4,20.4-4.2c-1.4-11.4-3.5-20.1-4.7-24.7
					l-0.2,0.1c-0.4,0.1-0.6,0.2-0.8,0.3c-2.4,0.9-5.9-1.1-8.5-2.5C128.8,301.2,128.2,300.9,127.7,300.7
					C127.8,300.7,127.8,300.7,127.7,300.7z"/>
			</g>
			<path class="st6" d="M174.7,271c1,0.2,6.7,1.7,9.2,4.1c0.1,0.1,0,0.3-0.2,0.3c-4.4-2.1-8.6-2.7-9.5-2.9c-0.1,0-0.2-0.1-0.1-0.2
				l0.5-1.2C174.5,271,174.6,271,174.7,271z"/>
			<path class="st6" d="M150.3,327.3c-0.6-5.8-1.4-10.1-4.4-18.2c1.9,8.2,2.4,12.9,2.7,18.6L150.3,327.3z"/>
		</g>
		<path class="st48" d="M120.5,297l0-85.4c-4.2-0.7-19.9-3.9-26.8-14.9c-29.4,0.3-53.6,36.9-54.6,48.9c0,0.1,1.1,1,1.2,1L68.4,258
			c0.1,0.1,0.3,0,0.3-0.2c0.6-2.1,5-16.9,14.3-23.2L80.5,290c1.1,1,2.5,2,4.1,3.1l1.1-0.7L120.5,297z"/>
		<path class="st48" d="M120.5,296.8l0-85.4c4.2-0.7,19.9-3.9,26.8-14.9c29.4,0.3,52.5,37.7,53.5,49.6c0,0.1-0.1,0.2-0.2,0.2
			l-28.1,11.5c-0.1,0.1-0.3,0-0.3-0.2c-0.6-2.1-5-16.9-14.3-23.2l2.4,55.3c-1.1,1-2.5,2-4.1,3.1l-1.7,1.1L120.5,296.8z"/>
		<path class="st28" d="M170.5,204.4c-0.4,0.6-0.8,1.1-1.3,1.7c-5.9-4.3-12.8-7.5-20.8-8.3c-0.1-0.3,0-0.6,0-0.8
			c0.4-1,2.6-0.7,5.2,0c0.8,0.2,1.6,0.5,2.4,0.8C158.2,198.7,163.9,200.4,170.5,204.4z"/>
		<g class="st109">
			<path class="st7" d="M85,197.8c-4.2,1.6-19.9,6-30.9,22s-13.7,23.7-14,25.7c-0.2,2,3.7,2,3.7,2s4.9-15.8,15.9-29.7
				c1.2,0.5,3.9,1.8,9.2,5.5c0,0,0,0,0.1-0.1c-4.1-4.3-6.5-6.3-7.9-7.1c7.7-9.1,18.1-17,31.5-18.4C93.1,195.5,89.1,196.3,85,197.8z"
				/>
			<path class="st7" d="M186.8,219.9c-5-7.3-11-12.2-16.4-15.5c-0.4,0.6-0.8,1.1-1.3,1.7c9,6.6,15.7,16,20.3,24.2
				c-1.5,1-3.7,3-7.1,6.6c0,0,0,0,0.1,0.1c4-2.8,6.5-4.2,8-5c4.6,8.6,6.7,15.5,6.7,15.5s3.9,0,3.7-2
				C200.6,243.5,197.8,235.9,186.8,219.9z"/>
		</g>
		<g>
			<g>
				<path class="st149" d="M92.7,281.2l-6.9-3.9l-2.3-35l-2.3,48.1c1.6,1.3,3.3,2.6,5.2,3.7L86,281.2H92.7z"/>
				<path class="st149" d="M68.5,248.2c-0.9-0.5-3.7-1-12,0.1c0,0,0,0.1,0,0.1c7,0.5,9.8,1.3,10.9,1.6c-0.9,1.6-1.3,2.5-1.3,2.5
					l-19.4-4.4l8.3,4.8c0,0,8.7,2.9,13.5,4.2c3.4-10.2,7.4-15.6,15.2-24C76.6,236.2,71.4,243.4,68.5,248.2z"/>
			</g>
			<path class="st149" d="M174.8,252.6c0,0-6.7-14.6-17.6-19.5c7.8,8.4,11.8,13.8,15.2,24c4.9-1.3,13.5-4.2,13.5-4.2l8.3-4.8
				L174.8,252.6z"/>
			<path class="st149" d="M146.9,282.5l7.4-0.8l-1.1,13.3c2.4-1.5,4.6-3,6.6-4.6l-2.6-57.4l-2.7,45L146.9,282.5z"/>
		</g>
		<path class="st6" d="M121.3,298h-1.6l0-85.9c-6.3-1.2-19.9-4.8-26.4-14.8c-16.5,0.4-29.8,12.8-36.4,20.2
			c-9.1,10.4-15.2,22.4-15.9,28.3l27.1,11.1c1.1-3.9,5.6-17.1,14.5-23l1.3-0.9l-2.7,57.9l-1.6-0.1l2.6-54.6
			c-8.2,6.6-12.2,20.1-12.6,21.7c-0.1,0.3-0.3,0.5-0.5,0.7c-0.3,0.1-0.6,0.1-0.9,0L40,247.1c-0.4-0.2-0.7-0.6-0.7-1.1
			c1.1-12.4,24.5-50.1,54.3-50.4l0.5,0l0.2,0.4c6.3,10.1,20.4,13.6,26.2,14.5l0.7,0.1L121.3,298z M40.6,245.6L40.6,245.6L40.6,245.6
			z"/>
		<path class="st6" d="M119.7,210.7l0.7-0.1c5.8-1,20-4.4,26.2-14.5l0.2-0.4l0.5,0c29.8,0.3,53.3,37.9,54.3,50.4
			c0,0.5-0.2,0.9-0.7,1.1l-28.1,11.5c-0.3,0.1-0.6,0.1-0.9,0c-0.3-0.1-0.5-0.4-0.5-0.7c-0.4-1.6-4.4-15.1-12.6-21.7l2.6,54.6
			l-1.6,0.1l-2.7-57.9l1.3,0.9c8.9,5.9,13.3,19.1,14.5,23l27.1-11.1c-0.7-6-6.8-18-15.9-28.3c-6.5-7.4-19.9-19.8-36.4-20.2
			c-6.5,10-20.1,13.6-26.4,14.8l0,85.9h-1.6L119.7,210.7z M200.3,245.6L200.3,245.6L200.3,245.6z"/>
		<g>
			<circle class="st110" cx="115.2" cy="282.4" r="2.5"/>
			<circle class="st110" cx="115.2" cy="265.8" r="2.5"/>
			<circle class="st110" cx="115.2" cy="249.1" r="2.5"/>
			<path class="st110" d="M126,249.2c-3.8-0.6-7.4-0.6-10.7,0l0.1,0.8c3.3-0.6,6.8-0.6,10.4,0L126,249.2z M126,265.8
				c-3.6-0.6-7.2-0.6-10.7,0l0.1,0.8c3.5-0.6,7-0.6,10.4,0L126,265.8z M126.1,282.5c-3.8-1-7.4-1-10.8,0l0.2,0.8c3.2-1,6.7-1,10.3,0
				L126.1,282.5z"/>
			<g>
				<path class="st6" d="M125.9,249.5c-3.7-0.6-7.2-0.6-10.4,0l-0.1-0.8c3.3-0.6,7-0.6,10.7,0L125.9,249.5z"/>
			</g>
			<g>
				<path class="st6" d="M125.9,266.2c-3.5-0.6-7-0.6-10.4,0l-0.1-0.8c3.6-0.6,7.2-0.6,10.7,0L125.9,266.2z"/>
			</g>
			<g>
				<path class="st6" d="M125.9,282.8c-3.6-1-7.1-1-10.3,0l-0.2-0.8c3.4-1,7-1,10.8,0L125.9,282.8z"/>
			</g>
			<g>
				<circle class="st110" cx="126.1" cy="249.1" r="2.5"/>
				<circle class="st6" cx="125.7" cy="248.7" r="2.5"/>
				<path class="st27" d="M125.7,247.5c0.8,0,1.4,0.6,1.5,1.3c0-0.1,0-0.1,0-0.2c0-0.8-0.7-1.5-1.5-1.5c-0.8,0-1.5,0.7-1.5,1.5
					c0,0.1,0,0.1,0,0.2C124.3,248.1,125,247.5,125.7,247.5z"/>
			</g>
			<g>
				<circle class="st110" cx="126.1" cy="265.8" r="2.5"/>
				<circle class="st6" cx="125.7" cy="265.3" r="2.5"/>
				<path class="st27" d="M125.7,264.1c0.8,0,1.4,0.6,1.5,1.3c0-0.1,0-0.1,0-0.2c0-0.8-0.7-1.5-1.5-1.5c-0.8,0-1.5,0.7-1.5,1.5
					c0,0.1,0,0.1,0,0.2C124.3,264.7,125,264.1,125.7,264.1z"/>
			</g>
			<g>
				<circle class="st110" cx="126.1" cy="282.4" r="2.5"/>
				<circle class="st6" cx="125.7" cy="281.9" r="2.5"/>
				<path class="st27" d="M125.7,280.6c0.8,0,1.4,0.5,1.5,1c0,0,0-0.1,0-0.1c0-0.6-0.7-1.2-1.5-1.2c-0.8,0-1.5,0.5-1.5,1.2
					c0,0,0,0.1,0,0.1C124.3,281,125,280.6,125.7,280.6z"/>
			</g>
			<circle class="st6" cx="114.8" cy="248.7" r="2.5"/>
			<path class="st27" d="M114.8,247.5c0.8,0,1.4,0.6,1.5,1.3c0-0.1,0-0.1,0-0.2c0-0.8-0.7-1.5-1.5-1.5c-0.8,0-1.5,0.7-1.5,1.5
				c0,0.1,0,0.1,0,0.2C113.4,248.1,114,247.5,114.8,247.5z"/>
			<circle class="st6" cx="114.8" cy="265.3" r="2.5"/>
			<path class="st27" d="M114.8,264.1c0.8,0,1.4,0.6,1.5,1.3c0-0.1,0-0.1,0-0.2c0-0.8-0.7-1.5-1.5-1.5c-0.8,0-1.5,0.7-1.5,1.5
				c0,0.1,0,0.1,0,0.2C113.4,264.7,114,264.1,114.8,264.1z"/>
			<circle class="st6" cx="114.8" cy="281.9" r="2.5"/>
			<path class="st27" d="M114.8,280.6c0.8,0,1.4,0.5,1.5,1c0,0,0-0.1,0-0.1c0-0.6-0.7-1.2-1.5-1.2c-0.8,0-1.5,0.5-1.5,1.2
				c0,0,0,0.1,0,0.1C113.4,281,114,280.6,114.8,280.6z"/>
		</g>
		<g>
			<g>
				<path class="st28" d="M114.8,195.5l0,18c0,0.2-0.2,0.4-0.4,0.3c-19.6-7.4-24.3-15.6-20.7-24.3c0.1-0.1,0.2-0.2,0.4-0.2l20.5,5.8
					C114.7,195.3,114.8,195.4,114.8,195.5z"/>
				<path class="st6" d="M114.5,214.7c-0.1,0-0.3,0-0.4-0.1c-11.9-4.5-18.9-9.4-21.4-15.1c-1.4-3.2-1.3-6.6,0.2-10.2
					c0.2-0.5,0.8-0.8,1.3-0.6l20.5,5.8c0.5,0.1,0.8,0.6,0.8,1.1v18.1c0,0.4-0.2,0.7-0.5,0.9C114.9,214.6,114.7,214.7,114.5,214.7z
					 M94.3,190.3c-1.2,3.1-1.2,5.9-0.1,8.5c2.2,5.1,8.8,9.8,19.8,14v-16.9L94.3,190.3z"/>
			</g>
		</g>
		<g>
			<g>
				<path class="st28" d="M126.2,195.5l0,18c0,0.2,0.2,0.4,0.4,0.3c19.6-7.4,24.3-15.6,20.7-24.3c-0.1-0.1-0.2-0.2-0.4-0.2
					l-20.5,5.8C126.3,195.3,126.2,195.4,126.2,195.5z"/>
				<path class="st6" d="M126.5,214.7c-0.2,0-0.5-0.1-0.6-0.2c-0.3-0.2-0.5-0.6-0.5-0.9v-18.1c0-0.5,0.3-0.9,0.8-1.1l20.5-5.8
					c0.5-0.2,1.1,0.1,1.3,0.6c1.5,3.6,1.6,7,0.2,10.2c-2.4,5.7-9.4,10.6-21.4,15.1C126.7,214.7,126.6,214.7,126.5,214.7z M127,195.9
					v16.9c10.9-4.2,17.6-8.9,19.8-14c1.2-2.7,1.1-5.5-0.1-8.5L127,195.9z M146.5,189.9C146.5,189.9,146.5,189.9,146.5,189.9
					C146.5,189.9,146.5,189.9,146.5,189.9z"/>
			</g>
		</g>
		<path class="st6" d="M99.4,209.4c1.5,1.2,3.2,2.2,4.9,3.1c1.7,0.9,3.4,1.7,5.2,2.3c3.6,1.3,7.3,1.9,11,2c1.9,0,3.7-0.2,5.6-0.5
			c1.8-0.3,3.6-0.9,5.4-1.5c0.9-0.3,1.8-0.7,2.6-1.1c0.9-0.4,1.7-0.8,2.6-1.3c0.9-0.4,1.7-1,2.5-1.4c0.8-0.5,1.6-1.1,2.4-1.6l0,0
			c0.1-0.1,0.2,0,0.3,0.1c0.1,0.1,0,0.2-0.1,0.3c-0.8,0.6-1.5,1.3-2.3,1.9c-0.8,0.6-1.6,1.2-2.4,1.7c-0.8,0.5-1.7,1-2.6,1.5
			c-0.9,0.5-1.8,0.9-2.7,1.3c-3.6,1.5-7.5,2.3-11.4,2.3c-3.9,0-7.8-0.8-11.4-2.3c-3.6-1.5-7-3.5-10-6.3c-0.1-0.1-0.1-0.2,0-0.3
			C99.1,209.4,99.3,209.3,99.4,209.4L99.4,209.4z"/>
		<g>
			<g>
				<g>
					<path class="st150" d="M173,152.3c0-5.1-0.1-9.7-0.3-13.9c-2.2-54.7-30.8-68.5-52.2-68.5c-33.3,0-50.6,20-52.2,68.5
						c-0.2,4.2-0.3,8.8-0.3,13.9c0,27.2-13.9,40.7-10.3,63.2c15.6-13.8,27.5-10.4,62.8-10.4c35.3,0,48.4-1.6,62.5,8.9
						C189.4,195,173,181.9,173,152.3z"/>
					<path class="st151" d="M122.3,192.4c3.8,6.4,0,12.6,0,12.6h-11.5c0,0,6.1-3,7.3-6.3c1.1-3.3,0.5-6.3,0.5-6.3
						S120.8,192.4,122.3,192.4z"/>
					<path class="st151" d="M177.7,179.3c0,0,2,12.3,2.8,19.1c0.8,6.8-3.2,7.9-14.4,7.9c4.4,0.9,10.9,3,17,7.6
						c1.7-5.3,2-10.8,0.7-16.1C182.3,192.5,177.7,179.3,177.7,179.3z"/>
					<path class="st151" d="M63.9,179.3c0,0-2,12.3-2.8,19.1c-0.8,6.8,2.8,7.7,14,7.8c-4.4,0.9-11.2,4.1-17.3,8.7
						c-1-6.5-1-10.4,0.2-16.7C59,192.8,63.9,179.3,63.9,179.3z"/>
					<path class="st151" d="M86.2,108.8c0,0,10.1-15.4,32.8-15.4s32.3,14.9,32.3,14.9S140.8,97,119,97
						C99.3,97,86.2,108.8,86.2,108.8z"/>
					<path class="st151" d="M83.5,85.6c0,0,10.9-15.4,35.5-15.4s34.9,14.9,34.9,14.9S142.7,73.8,119,73.8
						C97.7,73.8,83.5,85.6,83.5,85.6z"/>
					<path class="st151" d="M68.3,149c0,0,3.4,20.8,11,29.9c8.8,10.5,18.2,12.5,18.2,12.5s-4.2,2.6-3.8,11.3
						c-10.5-4.8-16.4-8.6-20.8-15.6c-4-6.3-5.6-13.4-5.7-19.9S68.3,149,68.3,149z"/>
					<path class="st151" d="M172.6,147.7c0,0-3.3,20.1-14.8,32.9c-8.6,9.7-21.9,12.5-21.9,12.5s4.1,3.3,3.7,9.6
						c8.9-2.8,19.4-9.3,24.2-15c7-8.3,9-15.4,10.1-21.7C172.5,157,172.6,147.7,172.6,147.7z"/>
					<path class="st151" d="M90.4,85.3c0,0-6.4,12.8-6.6,26.7c-5.4,5.4-8.7,17.8-8.7,17.8s-0.6-18.4,5.7-31
						C86,88.2,90.4,85.3,90.4,85.3z"/>
					<path class="st151" d="M149.4,85.3c0,0,3,6.7,4.7,15.6c0.7,3.6,1.3,7.6,1.3,11.7c4.2,5.7,9.3,20.6,9.3,20.6s0.6-21.8-5.7-34.4
						C153.8,88.2,149.4,85.3,149.4,85.3z"/>
					<path class="st6" d="M57.1,217l-0.2-1.5c-1.9-12.1,1.1-21.7,4.3-31.8c2.9-9.2,6-18.8,6-31.5c0-4.9,0.1-9.6,0.3-13.9
						c0.8-24.3,5.5-41.5,14.4-52.9c8.7-11,21.3-16.4,38.6-16.4c13,0,25.1,5,33.9,14c11.7,11.9,18.1,30.5,19.1,55.3
						c0.2,4.4,0.3,9,0.3,13.9c0,13.8,3.6,24,6.8,33c3.5,10,6.6,18.7,3.1,28.9l-0.4,1.1l-0.9-0.7c-12.1-9-23.1-8.9-49.7-8.8
						c-3.8,0-7.9,0-12.3,0c-6.4,0-12.1-0.1-17.1-0.2c-22.4-0.4-32.6-0.6-45.2,10.4L57.1,217z M120.5,70.7c-16.8,0-29,5.2-37.4,15.8
						c-8.7,11-13.3,28-14,51.9c-0.2,4.4-0.3,9-0.3,13.9c0,13-3.1,22.6-6,32c-3,9.5-5.9,18.6-4.5,29.6c12.5-10.5,23-10.3,45.1-9.9
						c5,0.1,10.7,0.2,17.1,0.2c4.4,0,8.5,0,12.3,0c25.5-0.2,37.5-0.2,49.8,8.4c2.7-9.2,0-17-3.5-26.8c-3.2-9.1-6.9-19.4-6.9-33.6
						c0-4.9-0.1-9.5-0.3-13.9c-1-24.4-7.3-42.6-18.7-54.2C144.7,75.5,133.1,70.7,120.5,70.7z"/>
				</g>
				<g>
					<path class="st39" d="M164.7,138.3c-0.6,22.8-15.5,44.9-29.4,50.9c-8.9,3.9-20.8,3.8-29.7-0.1c-4.6-2-9.2-5.3-13.3-9.6
						c-6.8-7.2-12.5-17-15.2-28.3c-1.1-4.4-1.7-8.9-1.9-13.6c0-35,33.4-40.8,44.5-40.6C129.4,97.1,159.7,99,164.7,138.3z"/>
					<path class="st152" d="M76.3,127.1c0,0-0.8,23.7,12.4,42.6c13.8,19.8,21.6,19.7,31.6,20.6c8.5,0.7,25.2-7.2,34.6-24.5
						c9.5-17.2,7.7-38.4,7.7-38.4s2.6,9,2.4,12.7c-0.3,3.7-2.5,21.4-13,34.3c-10.5,13-16.2,16.3-31.2,17.7
						c-15,1.4-30.3-12.9-34.5-19.5C82.2,166,73,153,76.3,127.1z"/>
					<path class="st6" d="M120.6,192.9c-5.4,0-10.7-1-15.3-3c-4.7-2-9.4-5.4-13.6-9.8c-7.3-7.6-12.7-17.8-15.4-28.7
						c-1.1-4.5-1.8-9.2-1.9-13.8c0-11.7,3.7-21.2,10.9-28.4c10.6-10.5,26.6-13.2,34.4-13.1c3.6,0,14.5,0.2,24.7,6
						c11.9,6.8,19,18.9,21.1,36l0,0.1l0,0.1c-0.6,23.4-16,45.6-29.9,51.6C131.1,191.9,125.9,192.9,120.6,192.9z M119.2,97.8
						c-7.6,0-22.8,2.6-32.9,12.6c-6.9,6.8-10.4,16-10.4,27.2c0.1,4.5,0.8,9,1.9,13.4c2.6,10.6,8,20.5,15,27.9c4,4.2,8.5,7.5,13,9.4
						c8.7,3.8,20.4,3.8,29.1,0.1c13.4-5.8,28.2-27.3,28.9-50.1c-3.4-26.2-18.7-40.2-44.3-40.5C119.5,97.8,119.4,97.8,119.2,97.8z"/>
				</g>
				<g>
					<path class="st6" d="M139.3,205.8c-0.1,0-0.1,0-0.2,0c-0.4-0.1-0.7-0.5-0.6-1c2.4-10-6.9-13.3-7.3-13.4c-0.4-0.1-0.7-0.6-0.5-1
						c0.1-0.4,0.6-0.7,1-0.5c0.1,0,11.1,3.9,8.4,15.3C140,205.5,139.7,205.8,139.3,205.8z"/>
				</g>
				<g>
					<path class="st150" d="M118.6,192.3c0,0,2.9,8.2-8.2,12.7l-1.2,52.1c0,0-11.9-37-15.2-52.7c-1.9-11.2,5-15.8,10.3-15.8
						C108.6,190.3,110.1,191.7,118.6,192.3z"/>
					<path class="st6" d="M110,261.9l-1.5-4.6c-0.1-0.4-12-37.3-15.2-52.8c-1.1-6.7,0.8-10.6,2.6-12.8c2.1-2.5,5.3-4,8.5-4h0.2
						l0.1,0.1c0.8,0.3,1.5,0.6,2.2,0.9c2.8,1.2,5,2.2,11.8,2.7l0.5,0l0.2,0.5c0,0.1,3,8.8-8.1,13.5L110,261.9z M104.2,189.4
						c-2.7,0-5.3,1.3-7.1,3.4c-2.3,2.7-3.1,6.7-2.3,11.4c2.5,12.1,10.4,37.5,13.7,48l1.1-47.8l0.5-0.2c8.8-3.5,8.2-9.4,7.8-11.2
						c-6.6-0.5-8.9-1.5-11.8-2.8C105.6,190,105,189.7,104.2,189.4z"/>
				</g>
				<g>
					<polygon class="st150" points="124,205 139.5,236.2 139.4,204.9 					"/>
					<polygon class="st151" points="127.6,212.1 139.4,209.4 139.4,204.9 124.3,205 					"/>
					<path class="st6" d="M140.3,239.7l-17.7-35.5l17.6-0.1L140.3,239.7z M125.3,205.8l13.4,26.9l-0.1-27L125.3,205.8z"/>
				</g>
				<g>
					<path class="st6" d="M75.4,139.1c-0.4,0-0.8-0.3-0.8-0.7c0-0.4-3.8-35.5,15.5-54c0.3-0.3,0.8-0.3,1.1,0c0.3,0.3,0.3,0.8,0,1.1
						c-18.7,17.9-15,52.3-15,52.7C76.2,138.7,75.9,139.1,75.4,139.1C75.4,139.1,75.4,139.1,75.4,139.1z"/>
				</g>
				<g>
					<path class="st6" d="M164.7,139.1C164.7,139.1,164.6,139.1,164.7,139.1c-0.5-0.1-0.9-0.5-0.8-0.9c0-0.3,3.7-34.8-15-52.7
						c-0.3-0.3-0.3-0.8,0-1.1c0.3-0.3,0.8-0.3,1.1,0c19.3,18.5,15.5,53.7,15.5,54C165.4,138.8,165.1,139.1,164.7,139.1z"/>
				</g>
				<g>
					<path class="st6" d="M93.8,197.8c-0.1,0-0.2,0-0.3-0.1C70.4,188.3,67,168.2,67,157.1c0-0.4,0.4-0.8,0.8-0.8
						c0.4,0,0.8,0.4,0.8,0.8c0,10.7,3.3,30.1,25.5,39.2c0.4,0.2,0.6,0.6,0.4,1.1C94.4,197.6,94.1,197.8,93.8,197.8z"/>
				</g>
				<g>
					<path class="st6" d="M139.1,199c-0.4,0-0.7-0.2-0.9-0.6c-0.2-0.5,0.1-1,0.6-1.1c30-10.2,33.3-35.8,33.3-46.4
						c0-0.5,0.4-0.9,0.9-0.9s0.9,0.4,0.9,0.9c0,10.9-3.4,37.5-34.5,48.1C139.3,199,139.2,199,139.1,199z"/>
				</g>
				<g>
					<path class="st6" d="M102.4,205.2c-0.4,0-0.8-0.3-0.8-0.7c-0.9-10.7,9.5-14.1,9.6-14.1c0.4-0.1,0.9,0.1,1,0.5
						c0.1,0.4-0.1,0.9-0.5,1c-0.4,0.1-9.2,3-8.5,12.4C103.2,204.8,102.9,205.1,102.4,205.2C102.4,205.2,102.4,205.2,102.4,205.2z"/>
				</g>
			</g>
			<g>
				<g>
					<g>
						<path class="st38" d="M123.8,130.9c1.5-0.4,2.9-1,4.2-1.8c1.4-0.8,2.6-1.9,4.3-2.7c0.4-0.2,0.8-0.4,1.2-0.5
							c0.4-0.2,0.9-0.2,1.3-0.3c0.4,0,0.9-0.1,1.3-0.1c0.4,0,0.9,0,1.3,0.1c1.7,0.2,3.3,0.8,5,1.3c0.2,0.1,0.3,0.3,0.2,0.5
							c0,0.2-0.2,0.3-0.3,0.3l0,0c-1.6-0.3-3.2-0.5-4.8-0.5c-0.4,0-0.8,0.1-1.1,0.1c-0.4,0.1-0.7,0.2-1.1,0.2c-0.7,0.3-1.4,0.5-2,1
							c-1.2,0.9-2.5,2.1-3.9,3.2c-1.4,1.1-3,1.9-4.7,2.5c-0.7,0.3-1.5-0.3-1.8-1.1C122.6,132.1,123,131.2,123.8,130.9
							C123.7,130.9,123.8,130.9,123.8,130.9L123.8,130.9z"/>
					</g>
				</g>
				<g>
					<g>
						<path class="st6" d="M122.8,129.8c1.5-0.3,3-0.8,4.5-1.4c1.5-0.6,2.9-1.5,4.6-2.2c0.4-0.2,0.9-0.3,1.3-0.4
							c0.4-0.1,0.9-0.2,1.4-0.2c0.5,0,0.9-0.1,1.4,0c0.4,0,0.9,0.1,1.3,0.1c1.8,0.2,3.4,0.8,5,1.4c0.2,0.1,0.3,0.3,0.2,0.4
							c-0.1,0.2-0.2,0.2-0.4,0.2l0,0c-1.6-0.3-3.3-0.6-4.9-0.6c-0.4,0-0.8,0-1.2,0.1c-0.4,0-0.8,0.1-1.1,0.2
							c-0.7,0.2-1.5,0.4-2.1,0.8c-1.4,0.7-2.7,1.7-4.3,2.6c-1.6,0.9-3.3,1.5-5,2c-0.8,0.2-1.6-0.3-1.8-1.1
							C121.5,130.8,121.9,130,122.8,129.8C122.7,129.8,122.8,129.8,122.8,129.8L122.8,129.8z"/>
					</g>
				</g>
				<g>
					<g>
						<path class="st38" d="M116,134.1c-1.7-0.6-3.3-1.4-4.8-2.5c-1.5-1.1-2.7-2.3-4-3.1c-0.6-0.5-1.3-0.8-2-1
							c-0.4-0.1-0.7-0.2-1.1-0.3c-0.4,0-0.8-0.1-1.2-0.1c-1.6-0.1-3.2,0.1-4.9,0.3l0,0c-0.2,0-0.3-0.1-0.4-0.3
							c0-0.2,0.1-0.4,0.2-0.4c1.6-0.5,3.3-1,5-1.1c0.4,0,0.9,0,1.3,0c0.4,0,0.9,0.1,1.3,0.1c0.4,0.1,0.9,0.2,1.3,0.4
							c0.4,0.2,0.9,0.3,1.3,0.5c1.6,0.8,3,1.9,4.4,2.7c1.4,0.8,2.8,1.4,4.3,1.9l0,0c0.8,0.2,1.2,1.1,1,2
							C117.6,133.8,116.8,134.3,116,134.1C116,134.1,116,134.1,116,134.1z"/>
					</g>
				</g>
				<g>
					<g>
						<path class="st6" d="M116.4,132.8c-1.7-0.5-3.4-1.2-4.9-2.1c-1.5-0.9-2.8-2-4.2-2.7c-0.7-0.4-1.4-0.6-2.1-0.9
							c-0.4-0.1-0.8-0.2-1.1-0.2c-0.4,0-0.8-0.1-1.2-0.1c-1.6-0.1-3.3,0.2-4.9,0.4l0,0c-0.2,0-0.4-0.1-0.4-0.3
							c0-0.2,0.1-0.3,0.2-0.4c1.6-0.5,3.3-1,5-1.2c0.4,0,0.9,0,1.3-0.1c0.4,0,0.9,0.1,1.4,0.1c0.4,0.1,0.9,0.2,1.4,0.3
							c0.4,0.1,0.9,0.3,1.3,0.5c1.7,0.7,3.1,1.7,4.5,2.3c1.4,0.7,2.9,1.2,4.4,1.6l0,0c0.8,0.2,1.3,1,1.1,1.7
							C118.1,132.5,117.3,133,116.4,132.8C116.5,132.8,116.5,132.8,116.4,132.8z"/>
					</g>
				</g>
			</g>
			<g>
				<g>
					<g>
						<path class="st6" d="M131.4,136.2c0.1,1.8,1.6,3.2,3.4,3.2c1.8,0,3.3-1.3,3.5-3l-3.5-1.8L131.4,136.2z"/>
					</g>
					<g>
						<g>
							<path class="st6" d="M127.7,137.7c0.3-0.9,0.9-1.7,1.6-2.2c0.7-0.6,1.5-0.9,2.4-1.1c1.6-0.4,3.2-0.3,4.8,0
								c1.5,0.3,3,0.8,4.4,1.4c1.4,0.6,2.7,1.5,3.8,2.4c0.1,0.1,0.1,0.3,0,0.4c-0.1,0.1-0.3,0.1-0.4,0.1c-1.3-0.7-2.6-1.3-4-1.7
								c-1.4-0.4-2.7-0.8-4.1-0.9c-1.4-0.1-2.8-0.1-4,0.2c-1.2,0.3-2.2,1-2.6,2l0,0c-0.2,0.5-0.8,0.7-1.3,0.5
								C127.8,138.7,127.6,138.2,127.7,137.7z"/>
						</g>
					</g>
					<g>
						
							<ellipse transform="matrix(0.9938 -0.1108 0.1108 0.9938 -14.3667 15.6868)" class="st7" cx="134" cy="137.2" rx="0.6" ry="0.6"/>
					</g>
				</g>
				<g>
					<g>
						<path class="st6" d="M108.8,136.3c-0.1,1.8-1.6,3.2-3.4,3.2c-1.8,0-3.3-1.3-3.5-3l3.5-1.8L108.8,136.3z"/>
					</g>
					<g>
						<g>
							<path class="st6" d="M110.6,138.4c-0.4-1-1.3-1.7-2.6-2c-1.2-0.4-2.6-0.4-4-0.3c-1.4,0.1-2.8,0.5-4.1,0.9
								c-1.4,0.4-2.7,1-4,1.7c-0.1,0.1-0.3,0-0.4-0.1c-0.1-0.1,0-0.3,0.1-0.4c1.2-0.9,2.5-1.7,3.8-2.4c1.4-0.7,2.8-1.1,4.4-1.4
								c1.5-0.3,3.1-0.4,4.8,0c0.8,0.2,1.6,0.5,2.4,1.1c0.7,0.5,1.3,1.4,1.6,2.3c0.2,0.5-0.1,1.1-0.6,1.2
								C111.4,139.1,110.8,138.9,110.6,138.4L110.6,138.4z"/>
						</g>
					</g>
					<g>
						
							<ellipse transform="matrix(0.1167 -0.9932 0.9932 0.1167 -44.0763 224.7878)" class="st7" cx="104.3" cy="137.2" rx="0.6" ry="0.6"/>
					</g>
				</g>
			</g>
			<g>
				<g>
					<g>
						<g>
							<g>
								<path class="st39" d="M114.6,155.1c0,0-3.3,2.2-2.4,4.7s3.7,3.5,8.3,3.5c4.9-0.1,7.3-2.3,7.1-4.6s-2.6-3.9-2.6-3.9"/>
							</g>
						</g>
						<g class="st114">
							<path class="st115" d="M112.6,158.7c0,0,1.9,2.3,7,2.4s7.7-2.2,7.7-2.2s0.4,4.2-7.7,4S112.6,158.7,112.6,158.7z"/>
						</g>
					</g>
					<g>
						<path class="st6" d="M114.7,155.2c-0.9,0.8-1.7,1.8-2,2.8c-0.2,0.5-0.1,1,0.1,1.5c0.2,0.5,0.5,1,0.9,1.3
							c0.8,0.7,1.8,1.2,3,1.4c1.1,0.2,2.3,0.3,3.5,0.3c1.2,0,2.3-0.1,3.5-0.4c1.1-0.3,2.1-0.8,2.9-1.5c0.7-0.8,1-1.8,0.6-2.9
							c-0.3-1.1-1.1-2-2-2.8l0,0c0,0,0-0.1,0-0.2c0,0,0.1,0,0.1,0c0.6,0.3,1.1,0.7,1.5,1.1c0.5,0.4,0.9,1,1.2,1.6
							c0.3,0.6,0.5,1.3,0.4,2c-0.1,0.7-0.4,1.4-0.9,1.9c-0.9,1.1-2.2,1.7-3.4,2.1c-1.3,0.4-2.6,0.5-3.8,0.5c-1.3,0-2.5-0.1-3.8-0.4
							c-1.3-0.3-2.6-0.8-3.5-1.9c-0.5-0.5-0.8-1.1-1-1.8c-0.2-0.7-0.1-1.5,0.1-2.1c0.3-0.6,0.7-1.2,1.2-1.6c0.5-0.4,1-0.8,1.5-1.1
							c0.1,0,0.1,0,0.1,0C114.7,155.1,114.7,155.1,114.7,155.2L114.7,155.2z"/>
					</g>
				</g>
			</g>
			<g>
				<path class="st153" d="M119,97c0,0-7.9,16.5-37.9,18.6C91.2,102.1,105.9,97.4,119,97z"/>
				<path class="st6" d="M79.4,116.6l1.1-1.4c11.3-15,27.2-18.6,38.5-19l1.3,0l-0.6,1.2c-0.3,0.7-8.4,16.9-38.6,19.1L79.4,116.6z
					 M117.5,97.9c-10.5,0.6-24.3,4.1-34.6,16.8C105.9,112.5,115,101.6,117.5,97.9z"/>
			</g>
			<g>
				<path class="st153" d="M119.3,97c0,0,7.9,16.5,37.9,18.6C148.2,102.1,134.1,96.7,119.3,97z"/>
				<path class="st6" d="M158.7,116.6l-1.6-0.1c-30.1-2.2-38.2-18.4-38.6-19.1l-0.5-1.1l1.3,0c16.6-0.3,30.3,6.4,38.6,19
					L158.7,116.6z M120.7,97.8c2.4,3.6,11.6,14.7,34.8,16.9C147.7,103.8,135.4,97.9,120.7,97.8z"/>
			</g>
			<g class="st108">
				<path class="st38" d="M98.2,167.3c0,4.7-1.9,9-5.1,12c-6.8-7.2-12.5-17-15.2-28.3c1.2-0.3,2.4-0.4,3.6-0.4
					C90.7,150.6,98.2,158.1,98.2,167.3z"/>
			</g>
			<g class="st108">
				<path class="st38" d="M141.8,167.3c0,4.7,1.9,9.2,5,12.2c7.1-7.9,12.5-17.3,15.3-28.5c-1.2-0.3-2.4-0.4-3.6-0.4
					C149.3,150.6,141.8,158.1,141.8,167.3z"/>
			</g>
			<g>
				<path class="st38" d="M108.3,117.4c3.7-0.2,7.2-0.4,12.2-0.4c5,0,8.5,0.1,12.2,0.3c1.1,0.1,1.7-0.3,0.8-0.5
					c-3.7-0.8-7.9-1.2-13-1.2c-5.1,0-9.4,0.4-13,1.2C106.6,117.1,107.2,117.4,108.3,117.4z"/>
			</g>
			<g>
				<path class="st38" d="M131.1,168.2c0-0.3-12.8-1-21.5,0.8c-0.6-0.4,1.6-1.1,1.6-1.1l3.5-0.9l6.8-0.7L131.1,168.2z"/>
				<path class="st38" d="M116.8,185.3c0.6,0.1,6.1,0.1,7.4-0.1l0,0c0.1,0,0.2,0.1,0.2,0.2c0,0.1,0,0.1-0.1,0.2
					c-0.6,0.4-1.2,0.6-1.8,0.8c-0.6,0.2-1.3,0.2-2,0.2c-0.7,0-1.3-0.1-2-0.2c-0.6-0.2-1.3-0.4-1.9-0.7c-0.1,0-0.1-0.2-0.1-0.3
					C116.6,185.3,116.7,185.3,116.8,185.3L116.8,185.3z"/>
				<path class="st38" d="M126.7,171.8c-1.1-0.1-2.1-0.3-3.2-0.4c-1-0.1-2.1-0.1-3.1-0.1c-2.1,0.1-4.1,0.3-6.2,0.7l0,0
					c-0.2,0-0.3-0.1-0.4-0.3c0-0.1,0-0.2,0.1-0.3c1-0.7,2-1.1,3.1-1.4c1.1-0.3,2.2-0.4,3.4-0.4c1.1,0,2.3,0.1,3.4,0.4
					c1.1,0.3,2.2,0.7,3.1,1.2c0.2,0.1,0.2,0.3,0.1,0.4C127,171.8,126.9,171.8,126.7,171.8L126.7,171.8z"/>
				<path class="st6" d="M109.4,168.5c1.6-1,3.4-1.7,5.3-2.2c1.8-0.5,3.8-0.8,5.7-0.8c1.9,0,3.8,0.1,5.7,0.5
					c1.9,0.4,3.7,0.9,5.4,1.7c0.2,0.1,0.2,0.3,0.2,0.4c-0.1,0.1-0.2,0.2-0.3,0.2c-1.8-0.3-3.7-0.6-5.5-0.7c-1.8-0.2-3.6-0.2-5.4-0.2
					c-1.8,0.1-3.6,0.2-5.4,0.5c-1.8,0.3-3.6,0.7-5.4,1.1c-0.2,0-0.3-0.1-0.4-0.2C109.3,168.7,109.3,168.5,109.4,168.5z"/>
			</g>
		</g>
	</g>
</g>
</svg>
