<?xml version="1.0" encoding="utf-8"?>
<!-- Generator: Adobe Illustrator 21.0.0, SVG Export Plug-In . SVG Version: 6.00 Build 0)  -->
<svg version="1.1" id="Layer_1" xmlns="http://www.w3.org/2000/svg" xmlns:xlink="http://www.w3.org/1999/xlink" x="0px" y="0px"
	 viewBox="0 0 240.9 453.5" style="enable-background:new 0 0 240.9 453.5;" xml:space="preserve">
<style type="text/css">
	.st0{fill:#794552;}
	.st1{fill:#C7B89E;}
	.st2{fill:#F9A960;}
	.st3{fill:#D17C32;}
	.st4{fill:#956070;}
	.st5{fill:#FDDCC0;}
	.st6{fill:#501338;}
	.st7{fill:#FFFFFF;}
	.st8{fill:#B38091;}
	.st9{fill:#D1D5DB;}
	.st10{fill:#989A9C;}
	.st11{fill:#937B70;}
	.st12{fill:#E6DEC9;}
	.st13{fill:#F0B39C;}
	.st14{fill:#8E183F;}
	.st15{fill:#F5F5F5;}
	.st16{fill:none;stroke:#462062;stroke-width:0.7554;stroke-linecap:round;stroke-miterlimit:10;}
	.st17{fill:#B5BAC0;}
	.st18{fill:#C71F41;}
	.st19{fill:#EF5784;}
	.st20{fill:#A91D41;}
	.st21{opacity:0.5;fill:#C1C1C1;}
	.st22{opacity:0.27;fill:#E78B6F;}
	.st23{fill:#CB8A43;}
	.st24{fill:#754D24;}
	.st25{fill:#FBBA6C;}
	.st26{fill:#837070;}
	.st27{fill:#866A58;}
	.st28{fill:#9A7E67;}
	.st29{fill:#B39885;}
	.st30{fill:#5B4580;}
	.st31{fill:#E1DFDF;}
	.st32{fill:#C0BEBD;}
	.st33{fill:#D53231;}
	.st34{fill:#E94647;}
	.st35{fill:#797083;}
	.st36{fill:#A9A4B4;}
	.st37{fill:#5B5567;}
	.st38{fill:#CE202B;}
	.st39{fill:#EE3734;}
	.st40{fill:#F49294;}
	.st41{fill:#B89AA6;}
	.st42{fill:#D4907B;}
	.st43{fill:#FAB276;}
	.st44{opacity:0.5;fill:#794552;}
	.st45{fill:#B57D90;}
	.st46{opacity:0.7;fill:#794552;}
	.st47{opacity:0.15;fill:#F2E8A5;}
	.st48{fill:#D67E3A;}
	.st49{fill:#735A99;}
	.st50{fill:#644C88;}
	.st51{fill:#9480B4;}
	.st52{fill:#E4D2A4;}
	.st53{fill:#FAEDD0;}
	.st54{fill:#C4B18B;}
	.st55{fill:#735A99;stroke:#501338;stroke-width:1.571;stroke-miterlimit:10;}
	.st56{fill:#C8BFBF;}
	.st57{fill:#B2ABAB;}
	.st58{fill:#FFE098;}
	.st59{fill:#ECC77E;}
	.st60{fill:#FFEBC7;}
	.st61{fill:#A1675E;}
	.st62{fill:#90564F;}
	.st63{fill:#C07F78;}
	.st64{fill:#68485A;}
	.st65{fill:#FFDD81;}
	.st66{fill:#814945;}
	.st67{fill:#945B58;}
	.st68{fill:#B17977;}
	.st69{fill:#884C4A;}
	.st70{fill-rule:evenodd;clip-rule:evenodd;fill:#989A9C;}
	.st71{fill:#D89E98;}
	.st72{fill:#64445C;}
	.st73{fill:#816474;}
	.st74{fill:#A48390;}
	.st75{fill:#DDAD41;}
	.st76{fill:#F48657;}
	.st77{fill:#D77151;}
	.st78{fill:#F8AB89;}
	.st79{fill:#E9C05B;}
	.st80{fill:#9A8691;}
	.st81{fill:#A28F99;}
	.st82{fill:#8780BC;}
	.st83{fill:#6966AD;}
	.st84{fill:#B2ADD5;}
	.st85{fill:#F48C8C;}
	.st86{fill:#E86363;}
	.st87{fill:#F4876E;}
	.st88{fill:#E56A51;}
	.st89{fill:#80655C;}
	.st90{fill:#C3AC6F;}
	.st91{fill:#9F874A;}
	.st92{fill:#DBC68E;}
	.st93{opacity:0.11;fill:#FFFFFF;}
	.st94{fill:#F7A799;}
	.st95{fill:#FCE5A5;}
	.st96{fill:#DEBB6C;}
	.st97{fill:#B67C76;}
	.st98{fill:none;stroke:#462062;stroke-width:0.843;stroke-linecap:round;stroke-miterlimit:10;}
	.st99{fill:#9D9B86;}
	.st100{fill:#8780BC;stroke:#501338;stroke-width:1.6795;stroke-miterlimit:10;}
	.st101{fill:#C5C4B4;}
	.st102{fill:#E9E9D9;}
	.st103{fill:#E9C15D;}
	.st104{opacity:0.3;}
	.st105{fill:#A27388;}
	.st106{opacity:0.5;fill:#FFFFFF;}
	.st107{fill:#91667A;}
	.st108{opacity:0.4;}
	.st109{opacity:0.5;}
	.st110{opacity:0.5;fill:#A7A7A6;}
	.st111{fill:#C16D34;}
	.st112{opacity:0.4;fill:#FFFFFF;}
	.st113{fill:none;stroke:#501338;stroke-width:1.5687;stroke-linecap:round;stroke-linejoin:round;stroke-miterlimit:10;}
	.st114{opacity:0.27;}
	.st115{fill:#E78B6F;}
	.st116{opacity:0.2;fill:#F48E8E;}
	.st117{fill:#99744B;}
	.st118{fill:#825D38;}
	.st119{fill:#C9CAA6;}
	.st120{fill:#BCBC96;}
	.st121{fill:none;stroke:#462062;stroke-width:0.7845;stroke-linecap:round;stroke-miterlimit:10;}
	.st122{fill:#66402A;}
	.st123{fill:#935C35;}
	.st124{opacity:0.6;fill:#7A4928;}
	.st125{opacity:0.4;fill:#F48E8E;}
	.st126{fill:#E1E1E1;}
	.st127{fill:#C1C1C1;}
	.st128{fill:#52363A;}
	.st129{fill:#C6C5C4;}
	.st130{opacity:0.6;}
	.st131{fill:#888888;}
	.st132{fill:#515252;}
	.st133{opacity:0.6;fill:#888888;}
	.st134{fill:#616160;}
	.st135{fill:#515150;}
	.st136{fill:#957B66;}
	.st137{fill:#B89984;}
	.st138{fill:#787878;}
	.st139{fill:#775F4F;}
	.st140{fill:#D7B9A8;}
	.st141{fill:#99999A;}
	.st142{opacity:0.4;fill:#E6DEC9;}
	.st143{fill:none;stroke:#462062;stroke-width:0.7586;stroke-linecap:round;stroke-miterlimit:10;}
	.st144{fill:#3F4242;}
	.st145{opacity:0.5;fill:#F0B39C;}
	.st146{opacity:0.57;fill:#B89AA6;}
	.st147{fill:#619F7F;}
	.st148{fill:#548E6E;}
	.st149{fill:#C16A2F;}
	.st150{fill:#CE413A;}
	.st151{fill:#B23330;}
	.st152{opacity:0.62;fill:#E48C7D;}
	.st153{fill:#5E3827;}
	.st154{fill:#F48E8E;}
	.st155{fill:#444445;}
	.st156{fill:#353435;}
	.st157{opacity:0.5;fill:#B89AA6;}
	.st158{fill:#4D4C4D;}
	.st159{fill:#444344;}
	.st160{opacity:0.6;fill:#A1A1A1;}
	.st161{fill:#282827;}
	.st162{fill:#636464;}
	.st163{fill:#575959;}
	.st164{fill:#3A3A3A;}
	.st165{opacity:0.5;fill:#787878;}
	.st166{fill:none;stroke:#462062;stroke-width:0.8198;stroke-linecap:round;stroke-miterlimit:10;}
	.st167{fill:#5B5B5C;}
	.st168{fill:#E4E4E4;}
	.st169{fill:#FFF1EA;}
	.st170{fill:#E1CDC5;}
	.st171{opacity:0.4;fill:#F0B39C;}
	.st172{opacity:0.5;fill:#ADADAD;}
	.st173{fill:#B58F5B;}
	.st174{fill:#606060;}
	.st175{fill:#4F5150;}
	.st176{opacity:0.6;fill:#989A9C;}
	.st177{fill:#5D7A6D;}
	.st178{fill:#4C685B;}
	.st179{fill:none;stroke:#462062;stroke-width:0.8057;stroke-linecap:round;stroke-miterlimit:10;}
	.st180{fill:#F7B975;}
	.st181{fill:#8D7449;}
	.st182{opacity:0.35;fill:#F7B975;}
	.st183{fill:#686868;}
	.st184{fill:#959595;}
	.st185{opacity:0.3;fill:#FFFFFF;}
	.st186{fill:#4C4B4C;}
	.st187{fill:#A27F67;}
	.st188{fill:#C6A691;}
	.st189{opacity:0.2;fill:#684D39;}
	.st190{fill:#926E56;}
	.st191{opacity:0.8;fill:#3A3A3A;}
	.st192{fill:#ED3E2B;}
	.st193{fill:#DB2C1F;}
	.st194{opacity:0.7;fill:#989A9C;}
	.st195{fill:#6B4845;}
	.st196{fill:#846363;}
	.st197{fill:#5E3E3C;}
	.st198{fill:none;stroke:#501338;stroke-width:1.6206;stroke-miterlimit:10;}
	.st199{opacity:0.5;fill:#E29780;}
	.st200{opacity:0.6;fill:#FFFFFF;}
	.st201{fill:#ECD8BB;}
	.st202{opacity:0.3;fill:#937B70;}
	.st203{fill:#FCF9F4;}
	.st204{opacity:0.6;fill:#F0B39C;}
	.st205{fill:none;stroke:#462062;stroke-width:0.7828;stroke-linecap:round;stroke-miterlimit:10;}
	.st206{fill:#CDCDCD;}
	.st207{opacity:0.5;fill:#A8A7A7;}
	.st208{fill:#868686;}
	.st209{opacity:0.3;fill:#F0B39C;}
	.st210{opacity:0.7;fill:#F0B39C;}
	.st211{fill:#735A99;stroke:#501338;stroke-width:1.5656;stroke-miterlimit:10;}
	.st212{opacity:0.5;fill:#FCF9F4;}
	.st213{opacity:0.5;fill:#FDDCC0;}
	.st214{fill:#6B3A37;}
	.st215{fill:#92A3D3;}
	.st216{fill:#B0C2E4;}
	.st217{fill:#7790BC;}
	.st218{fill:#7F95C6;}
	.st219{fill:#D0A7C2;}
	.st220{fill:#B7BE79;}
	.st221{fill:#725F82;}
	.st222{fill:#635175;}
	.st223{fill:none;stroke:#501338;stroke-width:1.5843;stroke-miterlimit:10;}
	.st224{fill:#C5B8DA;}
	.st225{fill:#A999C9;}
	.st226{fill:#8B6445;}
	.st227{fill:#7A5439;}
	.st228{fill:none;stroke:#501338;stroke-width:1.5751;stroke-linecap:round;stroke-linejoin:round;stroke-miterlimit:10;}
	.st229{fill:#D9CEB7;}
	.st230{fill:#CCBDA2;}
	.st231{opacity:0.2;fill:#FFFFFF;}
	.st232{fill:#B61F30;}
	.st233{fill:#595B5B;}
</style>
<g>
	<g>
		<path class="st201" d="M194.8,345.7c-3.9,9.8-28.9-4.7-28.9-4.7c-0.9-0.6-1.3-1.8-0.9-2.9l2.7-7.8c0,0-5.4-6.4-3.4-7.9
			c2.1-1.5,8.1-4.4,8.7-7.6c0.5-3,9.3-39.1-6.3-68.8c0,0.4-1.5,17.9-3,35.3c-1.3,14.9-2.5,29.8-2.9,33.7c-0.1,0.7-0.4,0.5-0.4,0.5
			l-39.7,18.7l-0.3-81.6l17.8-30.2l1.9-20.3l9.1,3.6l8.2,3.3l2.7,1.1l4.8,1.9c0,0,1.4,0.9,3.6,2.7c3.2,2.6,8.2,7.1,13.5,13.5
			C198.6,248.2,218.3,287,194.8,345.7z"/>
		<path class="st201" d="M120.5,252.6v81.2l-40.3-19c0,0-0.1-0.2-0.3-2.6c-0.5-6.1-1.6-18.5-2.6-30.9c-1.5-17.4-3-34.9-3-35.3
			c-15.6,29.7-6.8,65.9-6.3,68.8c0.5,3.1,6.6,6.1,8.7,7.6c2.1,1.5-3.4,7.9-3.4,7.9L76,338c0.4,1.1,0,2.3-0.9,2.9
			c0,0-25,14.5-28.9,4.7C10.1,255.5,75.8,212,76,212l9.4-3.7l15.4-6.1l1.9,20.3L120.5,252.6z"/>
		<ellipse class="st0" cx="120.5" cy="369.3" rx="50.2" ry="17.5"/>
		<path class="st202" d="M99.9,236.6l-15-28.5c0,0,23.1-8,36.6-8.9c11.7-0.8,38.5,10.4,38.5,10.4l-14.1,26.9
			c-3.8,7.7-22.4,15.2-22.4,15.2S105.5,245,99.9,236.6z"/>
		<g>
			<path class="st201" d="M43.1,328.2c0,0,6.7-28.4,52.4-5.9c45.7,22.5,64.4,32.1,64.4,32.1s43,1.6,39,9
				c-3.9,7.5-9.9,21.1-16.8,21.7c-6.9,0.6-83.9-19-83.9-19S36.2,351.7,43.1,328.2z"/>
			<path class="st3" d="M174.6,384c-2.1-0.4-12.8-2.7-21-4.5c8.7,2.5,13.9,4.4,20.9,4.9c1.3,0.1,2.4,0.2,3.4,0.2
				C176.6,384.4,175.5,384.1,174.6,384z"/>
			<path class="st3" d="M121.4,372c-6.4-1.5-12.6-3-16.3-3.9C109.9,369.4,115.2,370.7,121.4,372z"/>
			<path class="st0" d="M159.9,354.4c1.5,0,3,0.1,4.4,0.1c-1.7-0.1-2.9-0.2-3.1-0.2c-0.6,0-4.9-2-9.4-4.3
				C154.9,351.9,157.7,353.3,159.9,354.4z"/>
			<path class="st0" d="M127.3,373.2c-2-0.4-4-0.8-5.9-1.2c10.9,2.6,22.3,5.3,22.3,5.3s4.4,1,9.9,2.2
				C147.3,377.7,139.2,375.5,127.3,373.2z"/>
			<path class="st0" d="M105.1,368.1c-2.1-0.6-4.1-1.1-6-1.7c0.9,0.4,1.8,0.7,2.6,0.9C102.1,367.4,103.3,367.7,105.1,368.1z"/>
			<path class="st0" d="M171.7,382.1c7,0.6,15.6,0.1,15.6,0.1c-1.9,1.7-1,2.9-9.3,2.4c3.6,0.6,8.3,0.8,11.4-4
				c4.2-6.5,9.9-16.9,9.8-18.2c-0.1-1.2-0.8-0.5-0.8-0.4c-2.6-1-5.2-2.7-9.1-3.3c-8.4-1.4-19.7-1.1-29.1-0.5l-5.3,8.1l2.1-8.9
				c-15.9-8.5-34.2-18-50.7-25.4l-2.7,13l-5.7,12.1C99.4,366.2,157.9,381,171.7,382.1z"/>
			<path class="st4" d="M156.9,357.5l-3.6,11.5l7.2-10.1c13.6-0.9,37.5,4,34.5,10.5c0-0.1,5.5-6.7,2.8-8.7c-1.8-1.4-7.9-3-13.4-3.8
				c-6.5-0.8-15.1-1.9-20.2-2.3h0c-1.4,0-2.9-0.1-4.4-0.1c-2.2-1.1-5-2.6-8.2-4.3c-0.1,0-0.1-0.1-0.2-0.1
				c-5.6-2.7-11.4-5.7-11.4-5.7l-29.8-14.7l-3.1-0.7l-1,3.1C122.7,339.5,141.1,349,156.9,357.5z"/>
			<path class="st203" d="M53.6,316.1c12.2-0.4,31.6,6.5,52.6,16l1-3.1l3.1,0.7l29.8,14.7c0,0,6.9,4.3,12.5,7
				C126.1,337,68.9,304.5,53.6,316.1z"/>
			<path class="st6" d="M95.3,364.6c0,0,1.8,1,3.7,1.8c0,0,0,0,0,0c1.9,0.6,3.9,1.1,6,1.7c3.7,0.9,10,2.4,16.3,3.9
				c1.9,0.4,3.8,0.8,5.9,1.2c11.9,2.3,20,4.5,26.3,6.3c8.2,1.8,18.9,4.1,21,4.5c0.9,0.1,3.8,1,5,1.2c8.4,0.4,12.1-7.7,13.8-11.6
				c0,0-3.9,4.9-12.7,6c-6.3,0.7-17.4-3.3-28.7-8.3c0,0-42.7-3-53-14L95.3,364.6z"/>
			<path class="st6" d="M97.4,353.9c0.1,0.1,0.1,0.1,0.2,0.1c-2.8,7.5-3.6,11-3.6,11l-1.9-0.8C92.1,364.2,95.5,356.9,97.4,353.9z"/>
			<path class="st6" d="M102.2,338.6c-0.1,0-0.2-0.1-0.2-0.1c1.5-7.8,1.8-11.4,1.8-11.4l2,0.5C105.7,327.6,103.5,335.4,102.2,338.6z
				"/>
			<polygon class="st6" points="153.3,369 158.1,353.7 159.7,355.2 			"/>
			<path class="st202" d="M99,366.4c-11-3.2-19.1-6.4-28-9.1c-15.1-4.6-26.6-16.4-28.5-21.4c-1.1-2.8,3.3-13.6,3.9-14.3
				c-1.6,11.1-0.3,15.4,15.1,22.6l-0.2-6.8l8.1-8.6l7.4-3.9c0,0,2.6,2,1.9,3.5c-0.7,1.4-3.1,4-3.1,4s3.5,6.2,2.8,9.2
				c-0.5,1.9-5.4,4.4-9,6c3.5,1.3,8.7,3.1,15,5.2c1-2.2,3.1-6.5,4.2-8.3c0.1,0,0.1,0,0.2,0.1c-1.5,4.4-2.4,7.2-2.8,8.8
				c3.6,1.2,7.6,2.5,11.7,3.8l-2.5,7.5C95.3,364.6,97.1,365.6,99,366.4z"/>
			
				<ellipse transform="matrix(0.3854 -0.9228 0.9228 0.3854 -220.7067 397.9698)" class="st4" cx="188.4" cy="364.7" rx="0.4" ry="4.4"/>
			
				<ellipse transform="matrix(0.4045 -0.9145 0.9145 0.4045 -239.5714 337.5184)" class="st7" cx="139.4" cy="352.7" rx="0.6" ry="13"/>
			<path class="st8" d="M194.8,369.8c0.8-2.5,2.5-5.8,2.5-6.9l-1.4,0.1l1.2-0.8c-0.3-1.5-8.1-4.3-12.8-4.9c0,0,10.2,1.1,12.5,2.9
				c2.3,1.8,2.9,1.4,2.1,3.5C198,365.8,194.8,369.8,194.8,369.8z"/>
			<path class="st8" d="M105.8,341.1l2.3-11.7l17.4,8.6c-5-1.7-16.6-6.7-16.6-6.7L105.8,341.1z"/>
			<path class="st6" d="M180.9,355.4c-0.1,0.4-0.3,0.9-0.6,1.3c-4.7,7.6-28.3,14.4-28.3,14.4l-8.2,0.9l-27.7-6.7l10.9-5.9l29-6.1
				l2.5-0.5c0.8,0.4,1.3,0.6,1.5,0.8C162.4,353.7,171.8,354.1,180.9,355.4z"/>
			<path class="st6" d="M199.6,361.3c-1.7-2.8-10-4.7-18.7-5.9c-9.1-1.2-18.5-1.7-20.8-1.7c-0.2-0.1-0.7-0.4-1.5-0.8
				c-5.5-2.8-25-12.7-62.8-31.3c-18.1-8.9-32.4-11-42.5-6.3c-8.8,4.2-10.9,12.1-11.1,12.7c-1.1,3.8-0.5,7.6,1.6,11.2
				C54,356.5,96.3,366.5,98.1,367c3.1,0.8,74.9,19,83.8,19c0.1,0,0.3,0,0.4,0c6.5-0.6,11.5-10.7,15.8-19.1c0.6-1.1,1.1-2.1,1.6-3.1
				C200.1,363,200.1,362.1,199.6,361.3z M45.3,338.5c-1.9-3.3-2.4-6.7-1.4-10l0,0c0-0.1,2-7.8,10.2-11.7c3.3-1.5,7-2.3,11.2-2.3
				c8.2,0,18.2,2.9,29.8,8.6c4,2,7.8,3.8,11.4,5.6c-1.5,13.2-5,21.5-12.5,35.6C82.8,361.2,53.1,352,45.3,338.5z M198.2,363.1
				c-0.5,0.9-1,2-1.6,3.1c-3.9,7.6-8.9,17.7-14.5,18.2c-5.4,0.5-57.1-12.2-83.7-19c-0.1,0-1.1-0.3-2.8-0.7
				c7.3-13.7,10.9-22.4,12.4-35.3c26.5,13.1,41.8,20.8,48.1,24c2.2,1.1,3.3,1.7,3.4,1.7l0.2,0.1h0.2c6.2,0,13.7,0.6,20.5,1.5
				c9,1.2,16.5,3.1,17.9,5.3C198.4,362.4,198.4,362.7,198.2,363.1z"/>
		</g>
		<g>
			<path class="st201" d="M198.7,328.2c0,0-6.7-28.4-52.4-5.9c-45.7,22.5-64.4,32.1-64.4,32.1s-43,1.6-39,9
				c3.9,7.5,9.9,21.1,16.8,21.7c6.9,0.6,83.9-19,83.9-19S205.5,351.7,198.7,328.2z"/>
			<path class="st202" d="M195.3,321.5c1.5,10.9,0.3,15.3-14.2,22.2l0.2-5.9l-8.2-8.6l-7.4-3.8c0,0-2.6,2-1.9,3.5
				c0.7,1.4,3.1,4,3.1,4s-3.5,6.2-2.8,9.2c0.4,1.7,4.7,4,8.1,5.6c-3.5,1.3-8.8,3.1-15,5.2c-1-2.2-3.1-6.5-4.2-8.3
				c-0.1,0-0.1,0-0.2,0.1c1.5,4.4,2.4,7.3,2.8,8.8c-3.6,1.2-7.6,2.5-11.7,3.8l2.5,7.5c0,0-1.8,1-3.7,1.8c11-3.2,19.1-6.4,28-9.1
				c15.1-4.6,26.6-16.4,28.5-21.4C200.2,333,195.9,322.3,195.3,321.5z"/>
			<path class="st3" d="M67.1,384c2.1-0.4,12.8-2.7,21-4.5c-8.7,2.5-13.9,4.4-20.9,4.9c-1.3,0.1-2.4,0.2-3.4,0.2
				C65.1,384.4,66.2,384.1,67.1,384z"/>
			<path class="st3" d="M120.3,372c6.4-1.5,12.6-3,16.3-3.9C131.8,369.4,126.5,370.7,120.3,372z"/>
			<path class="st0" d="M81.8,354.4c-1.5,0-3,0.1-4.4,0.1c1.7-0.1,2.9-0.2,3.1-0.2c0.6,0,4.9-2,9.4-4.3
				C86.8,351.9,84,353.3,81.8,354.4z"/>
			<path class="st0" d="M114.5,373.2c2-0.4,4-0.8,5.9-1.2c-10.9,2.6-22.3,5.3-22.3,5.3s-4.4,1-9.9,2.2
				C94.4,377.7,102.5,375.5,114.5,373.2z"/>
			<path class="st0" d="M136.6,368.1c2.1-0.6,4.1-1.1,6-1.7c-0.9,0.4-1.8,0.7-2.6,0.9C139.6,367.4,138.4,367.7,136.6,368.1z"/>
			<path class="st0" d="M70,382.1c-7,0.6-15.6,0.1-15.6,0.1c1.9,1.7,1,2.9,9.3,2.4c-3.6,0.6-8.3,0.8-11.4-4
				c-4.2-6.5-9.9-16.9-9.8-18.2c0.1-1.2,0.8-0.5,0.8-0.4c2.6-1,5.2-2.7,9.1-3.3c8.4-1.4,19.7-1.1,29.1-0.5l5.3,8.1l-2.1-8.9
				c15.9-8.5,34.2-18,50.7-25.4l2.7,13l5.7,12.1C142.4,366.2,83.8,381,70,382.1z"/>
			<path class="st4" d="M84.8,357.5l3.6,11.5l-7.2-10.1c-13.6-0.9-37.5,4-34.5,10.5c0-0.1-5.5-6.7-2.8-8.7c1.8-1.4,7.9-3,13.4-3.8
				c6.5-0.8,15.1-1.9,20.2-2.3h0c1.4,0,2.9-0.1,4.4-0.1c2.2-1.1,5-2.6,8.2-4.3c0.1,0,0.1-0.1,0.2-0.1c5.6-2.7,11.4-5.7,11.4-5.7
				l29.8-14.7l3.1-0.7l1,3.1C119,339.5,100.7,349,84.8,357.5z"/>
			<path class="st203" d="M188.1,316.1c-12.2-0.4-31.6,6.5-52.6,16l-1-3.1l-3.1,0.7l-29.8,14.7c0,0-6.9,4.3-12.5,7
				C115.6,337,172.8,304.5,188.1,316.1z"/>
			<path class="st6" d="M146.4,364.6c0,0-1.8,1-3.7,1.8c0,0,0,0,0,0c-1.9,0.6-3.9,1.1-6,1.7c-3.7,0.9-10,2.4-16.3,3.9
				c-1.9,0.4-3.8,0.8-5.9,1.2c-11.9,2.3-20,4.5-26.3,6.3c-8.2,1.8-18.9,4.1-21,4.5c-0.9,0.1-3.8,1-5,1.2
				c-8.4,0.4-12.1-7.7-13.8-11.6c0,0,5,6.5,13.8,7.6c6.3,0.7,16.6-2.7,27.9-7.8c0,0,42.3-5.2,52.7-16.2L146.4,364.6z"/>
			<path class="st6" d="M144.4,353.9c-0.1,0.1-0.1,0.1-0.2,0.1c2.8,7.5,3.6,11,3.6,11l1.9-0.8C149.7,364.2,146.2,356.9,144.4,353.9z
				"/>
			<path class="st6" d="M139.5,338.6c0.1,0,0.2-0.1,0.2-0.1c-1.5-7.8-1.8-11.4-1.8-11.4l-2,0.5C136,327.6,138.3,335.4,139.5,338.6z"
				/>
			<polygon class="st6" points="88.4,369 83.6,353.7 82,355.2 			"/>
			
				<ellipse transform="matrix(0.9228 -0.3854 0.3854 0.9228 -136.4214 48.7208)" class="st7" cx="53.3" cy="364.7" rx="4.4" ry="0.4"/>
			
				<ellipse transform="matrix(0.9145 -0.4045 0.4045 0.9145 -133.9453 71.5446)" class="st7" cx="102.3" cy="352.7" rx="13" ry="0.6"/>
			<path class="st7" d="M46.9,369.8c-0.8-2.5-2.5-5.8-2.5-6.9l1.4,0.1l-1.2-0.8c0.3-1.5,8.1-4.3,12.8-4.9c0,0-10.2,1.1-12.5,2.9
				c-2.3,1.8-2.9,1.4-2.1,3.5C43.7,365.8,46.9,369.8,46.9,369.8z"/>
			<path class="st7" d="M135.9,341.1l-2.3-11.7l-17.4,8.6c5-1.7,16.6-6.7,16.6-6.7L135.9,341.1z"/>
			<path class="st6" d="M199.4,328c-0.1-0.6-2.2-8.5-11.1-12.7c-10-4.7-24.3-2.6-42.5,6.3c-43,21.1-62.3,31-64.3,32
				c-4.6,0-36,1.8-39.5,7.6c-0.5,0.8-0.5,1.7,0,2.6c0.5,0.9,1,1.9,1.6,3c4.3,8.4,9.3,18.5,15.8,19.1c0.1,0,0.2,0,0.4,0
				c8.9,0,80.7-18.2,83.8-19c1.8-0.4,44.1-10.4,54.2-27.7C200,335.6,200.5,331.8,199.4,328z M143.3,365.4
				c-26.6,6.8-78.3,19.4-83.7,19c-5.6-0.5-10.7-10.6-14.5-18.2c-0.6-1.1-1.1-2.1-1.6-3.1c-0.2-0.4-0.2-0.7,0-1
				c2.3-3.9,23.9-6.8,38.3-6.8l0.2,0l0.2-0.1c0.2-0.1,15.6-8,51.5-25.8c1.6,12.9,5.2,21.6,12.4,35.3
				C144.4,365.2,143.4,365.4,143.3,365.4z M196.5,338.5c-7.9,13.5-37.5,22.7-48.8,25.8c-7.5-14.2-11-22.5-12.5-35.7
				c3.6-1.8,7.4-3.6,11.4-5.6c11.7-5.7,21.6-8.6,29.8-8.6c4.2,0,8,0.8,11.2,2.3c8.3,3.9,10.2,11.6,10.2,11.7l0,0
				C198.9,331.8,198.4,335.2,196.5,338.5z"/>
		</g>
		<g>
			<path class="st203" d="M205.3,286.1c-1-7.1-1.8-15.9-5.6-26.9c0.2,0,0.3,0,0.3,0c-0.5-1.5-0.5-1.5-0.5-1.5s-0.1,0-0.3,0
				c-1.6-4.4-3.7-9.1-6.4-14.2C182.7,224.6,166,212,166,212l-0.7,0.3c0,0,19.2,17.3,29.3,46.4c-1.9,0.6-3.9,1.4-5,2.6
				c1.9-0.7,3.8-1.2,5.4-1.5c4.1,12.2,6.6,26.5,5.4,42.4c-2.1-0.4-5.6-0.8-11-0.9c5.2,1,8.7,1.8,10.8,2.4c-0.4,4.3-1,8.7-2,13.2
				c3.1,1.2,4.9,0.9,4.9,0.9S206.7,296.3,205.3,286.1z"/>
			<path class="st5" d="M173.4,312.6c-0.2,1.1-0.4,1.8-0.4,2.2c-0.5,3.1-6.6,6.1-8.7,7.6c-1.5,1.1,1.1,5,2.5,6.9
				c0.5,0.7,0.6,1.6,0.4,2.4L165,338c-0.4,1.1,0,2.3,0.9,2.9c0,0,25,14.5,28.9,4.7c3.3-8.2,5.7-16,7.4-23.4
				C189.3,316.9,179,314,173.4,312.6z"/>
			<path class="st202" d="M166,242.9c0,0,20.6,19.6,15,68.5c9.4,3.4,22.1,7.9,22.1,7.9l-0.9,3l-28.8-9.7c0,0,5.8-27.9,1.6-42.1
				C171,256.3,166,242.9,166,242.9z"/>
			<path class="st6" d="M202.7,318c-5.2-2.2-11.4-3.9-19.2-5.7c7.1,2.7,14.2,5.2,19.2,7.5V318z"/>
			<path class="st6" d="M175.3,297.6c0,0,11.7-1.6,16.6,0.6c-9-0.4-16.5,1.3-16.6,1.2C175.3,297.6,175.3,297.6,175.3,297.6z"/>
			<path class="st7" d="M174.2,336c0,0,12.5,3.4,19.8,4.2l5.1-15.6l2.4,1.1l-5.8,18.5C195.6,344,186.9,343.8,174.2,336z"/>
			<path class="st13" d="M201.4,325.6c-6.8-3.3-14.2-5.2-21.3-5.1c-1.1,5.2-3.2,10.3-5.9,15.5c0,0,10.1,6.5,21.2,8.3
				c-2.9,4.1-2.4,6.6-11.4,4.3c-9-2.3-19.1-8.7-19.1-8.7l1.7-6.1l1.2-3.4l-3.1-4.6l-0.5-2.9l3.8-2.2l4.2-3.8l1.4-4.1
				c9.8,3,19.4,6.3,28.7,10L201.4,325.6z"/>
			<path class="st5" d="M168.4,323.4c0.3-0.5,0.6-1,1-1.4c0.4-0.4,0.8-0.7,1.3-1c0.5-0.3,0.9-0.6,1.4-0.8c0.5-0.2,1-0.4,1.6-0.5l0,0
				c-0.3,0.5-0.7,0.9-1.1,1.3c-0.4,0.4-0.8,0.7-1.3,1c-0.4,0.3-0.9,0.6-1.4,0.8C169.6,323.1,169,323.3,168.4,323.4z"/>
			<path class="st6" d="M195,344.5c0,0-10.5-1.9-15-5.4c8.5,3,15.6,3.9,15.6,3.9L195,344.5z"/>
			<polygon class="st6" points="170.7,343.7 173.9,340 172.1,344.1 			"/>
			<polygon class="st6" points="178.5,346.9 181.7,343.3 179.9,347.4 			"/>
			<polygon class="st6" points="185.4,348.7 187.2,346.6 186.3,348.9 			"/>
			<path class="st202" d="M166.3,245l-4.8,70.4c-4.8,1.4-10,3.5-15.6,6.3c-9.6,4.7-18.1,8.9-25.4,12.5v-6.1l36.8-14.8l0.4-4.9
				l-19.8,4.6l20.1-9.5l8-60.5L166.3,245z"/>
			<path class="st6" d="M194.5,244.5c-4.7-8.9-10.1-15.9-14.9-21.3c-6.6-7.3-14.8-12.8-24-16.2l-16.1-6l-1.9,21.2l-17.9,30.2
				l0.8,73.1l0.8-1.8v-70.9l17.8-30.1l1.8-19.5l13.7,5.1c9.5,3.5,18,9.3,24.7,16.9c14.4,16.4,33.2,48.2,22.4,96
				c-8.5-4-17.6-7.1-27.3-9.3c2.9-15.5,5.4-43-7-66.5l-1.4-2.6l-0.1,2.9c0,1.2-5.3,63.3-5.9,69.9l1.5,0.8l0.1-0.9
				c1.5-17.8,4.8-56.1,5.7-66.9c11.2,23.5,8.1,50.6,5.2,64.9c-0.1,0.4-0.1,0.8-0.2,0.9c-0.4,2.1-4,4.3-6.4,5.8
				c-0.8,0.5-1.5,0.9-2,1.3c-0.4,0.3-0.7,0.8-0.8,1.4c-0.3,2.2,2.6,6,3.7,7.3l-2.6,7.4c-0.5,1.4,0,3,1.3,3.9
				c0.7,0.4,14.2,8.2,23,8.2c1.2,0,2.3-0.1,3.3-0.5c1.7-0.6,3-1.7,3.6-3.4C214.3,299.1,205.3,264.9,194.5,244.5z M194.1,345.4
				c-0.5,1.2-1.4,2-2.7,2.5c-7.5,2.6-24.9-7.5-25-7.5c-0.6-0.4-0.9-1.3-0.7-2l2.5-7.2c0.3-0.8,1.9-4,3.4-6.1
				c-1.5,1.1-3.2,2.6-4.1,3.9c-1.5-1.8-3.1-4.3-2.9-5.6c0-0.2,0.1-0.3,0.1-0.3c0.4-0.3,1.1-0.7,1.9-1.2c2.8-1.7,6.6-4.1,7.1-6.9
				c0-0.2,0.1-0.5,0.2-0.9c0-0.1,0.1-0.3,0.1-0.4c9.6,1.9,18.7,5,27.3,9.2C199.6,330,197.2,337.5,194.1,345.4z"/>
		</g>
		<g>
			<path class="st203" d="M85.3,208.3L74.9,212c0,0-16.7,12.7-26.8,31.5S37,275.9,35.6,286.1c-1.4,10.2,2.2,31.7,2.2,31.7
				s1.9,0.3,4.9-0.9c-0.6-4.4-1-8.6-1.3-12.6c2.2-1,5.5-2.2,10.1-3c-4.8,0.1-8.1,0.4-10.2,0.8c-1.2-22.1,2.7-39.6,8.4-53.1
				c2.5-0.2,6.7-0.6,8.9-0.2c-2.5-1.7-5.5-2.3-7.7-2.5C64,218.3,85.3,208.3,85.3,208.3z"/>
			<path class="st5" d="M67.5,312.6c0.2,1.1,0.4,1.8,0.4,2.2c0.5,3.1,6.6,6.1,8.7,7.6c1.5,1.1-1.1,5-2.5,6.9
				c-0.5,0.7-0.6,1.6-0.4,2.4L76,338c0.4,1.1,0,2.3-0.9,2.9c0,0-25,14.5-28.9,4.7c-3.3-8.2-5.7-16-7.4-23.4
				C51.6,316.9,61.9,314,67.5,312.6z"/>
			<path class="st202" d="M74.9,242.9c0,0-20.6,19.6-15,68.5c-9.4,3.4-22.1,7.9-22.1,7.9l0.9,3l28.8-9.7c0,0-5.8-27.9-1.6-42.1
				C70,256.3,74.9,242.9,74.9,242.9z"/>
			<path class="st6" d="M38.2,318c5.2-2.2,11.4-3.9,19.2-5.7c-7.1,2.7-14.2,5.2-19.2,7.5V318z"/>
			<path class="st6" d="M65.7,297.6c0,0-11.7-1.6-16.6,0.6c9-0.4,16.5,1.3,16.6,1.2C65.7,297.6,65.7,297.6,65.7,297.6z"/>
			<path class="st7" d="M66.8,336c0,0-12.5,3.4-19.8,4.2l-5.1-15.6l-2.4,1.1l5.8,18.5C45.3,344,54.1,343.8,66.8,336z"/>
			<path class="st13" d="M39.5,325.6c6.8-3.3,14.2-5.2,21.3-5.1c1.1,5.2,3.2,10.3,5.9,15.5c0,0-10.1,6.5-21.2,8.3
				c2.9,4.1,2.4,6.6,11.4,4.3c9-2.3,19.1-8.7,19.1-8.7l-1.7-6.1l-1.2-3.4l3.1-4.6l0.5-2.9l-3.8-2.2l-4.2-3.8l-1.4-4.1
				c-9.8,3-19.4,6.3-28.7,10L39.5,325.6z"/>
			<path class="st5" d="M72.5,323.4c-0.3-0.5-0.6-1-1-1.4c-0.4-0.4-0.8-0.7-1.3-1c-0.5-0.3-0.9-0.6-1.4-0.8c-0.5-0.2-1-0.4-1.6-0.5
				l0,0c0.3,0.5,0.7,0.9,1.1,1.3c0.4,0.4,0.8,0.7,1.3,1c0.4,0.3,0.9,0.6,1.4,0.8C71.4,323.1,71.9,323.3,72.5,323.4z"/>
			<path class="st6" d="M45.9,344.5c0,0,10.5-1.9,15-5.4c-8.5,3-15.6,3.9-15.6,3.9L45.9,344.5z"/>
			<polygon class="st6" points="70.2,343.7 67.1,340 68.8,344.1 			"/>
			<polygon class="st6" points="60.7,346.9 57.6,343.3 59.3,347.4 			"/>
			<polygon class="st6" points="53.8,348.7 52,346.6 53,348.9 			"/>
			<path class="st202" d="M74.6,245l4.8,70.4c4.8,1.4,10,3.5,15.6,6.3c9.6,4.7,18.1,8.9,25.4,12.5v-6l-36.8-14.9l-0.8-11.7l8.3,1.4
				l-8.7-6.3l-7.6-53.7L74.6,245z"/>
			<path class="st6" d="M103.4,222.2l-1.9-21.2l-16.1,6c-9.2,3.4-17.5,8.9-24,16.2c-4.8,5.3-10.2,12.4-14.9,21.3
				c-10.8,20.4-19.8,54.6-1.1,101.5c0.7,1.6,1.9,2.8,3.6,3.4c1,0.3,2.1,0.5,3.3,0.5c8.8,0,22.4-7.8,23-8.2c1.3-0.9,1.8-2.5,1.3-3.9
				l-2.6-7.4c1.1-1.3,4-5.1,3.7-7.3c-0.1-0.6-0.3-1-0.8-1.4c-0.5-0.4-1.2-0.8-2-1.3c-2.4-1.5-6-3.7-6.4-5.8c0-0.2-0.1-0.5-0.2-0.9
				c-2.9-14.3-6-41.4,5.2-64.9c0.9,10.8,4.2,49,5.7,66.9l0.1,0.9l1.5-0.2c-0.6-6.6-5.9-69.3-6-70.5l-0.1-2.9l-1.4,2.6
				c-12.3,23.4-9.9,51-7,66.5c-9.7,2.2-18.8,5.2-27.3,9.3c-10.8-47.8,8-79.7,22.4-96c6.7-7.6,15.2-13.4,24.7-16.9l13.7-5.1l1.8,19.5
				l17.8,30.1v81.3l1.1,1.5l0.5-0.4v-83L103.4,222.2z M66.9,313.6c0,0.1,0.1,0.3,0.1,0.4c0.1,0.4,0.1,0.7,0.2,0.9
				c0.5,2.8,4.3,5.1,7.1,6.9c0.8,0.5,1.4,0.9,1.9,1.2c0,0,0.1,0.1,0.1,0.3c0.1,1.3-1.5,3.8-3,5.6c-0.9-1.3-2.5-2.8-4-3.9
				c1.7,2.5,3.1,5.3,3.4,6.1l2.5,7.2c0.3,0.7,0,1.6-0.7,2c-0.1,0.1-17.6,10.1-25,7.5c-1.3-0.4-2.2-1.3-2.7-2.5
				c-3.2-7.9-5.5-15.4-7.2-22.6C48.2,318.5,57.3,315.4,66.9,313.6z"/>
		</g>
		<g>
			<path class="st5" d="M174.7,166.1c3.3,1.1,5,6.6,4.6,11.4c-0.4,4.2-2.5,8.1-5.8,10.7c-3.4,2.8-8.8,4-11,0.5
				c-0.9-1.8-1.2-3.9-0.9-5.9c0.3-3.3,1.5-6.4,3.3-9.1C166.8,170.8,170.7,164.9,174.7,166.1z"/>
			<g>
				<path class="st6" d="M174.7,172.6c-0.6-1-1.6-1.3-2.6-1.3c0.6,0.1,1.2,0.5,1.6,1.2c1,1.7,0.7,4.3,0,6.5c-0.8,2.5-2.6,4.5-5,5.5
					c0.1,0.1,0.1,0.3,0.2,0.4c2.7-0.9,4.9-3,5.8-5.9C175.4,176.9,175.7,174.3,174.7,172.6z"/>
				<path class="st6" d="M175,177.3c-0.1,0.4-2.2,4-2.1,3.6c0.9-2.3,0.8-6.8-2.3-6.7c-0.8,0-0.9-1.5-0.2-2.2
					c0.5-0.6,1.9-0.8,2.6-0.6c0.7,0.3,1.1,0.6,1.4,1c0.2,0.2-0.1,0.6,0,0.9C175.1,174.5,175.3,175.9,175,177.3z"/>
				<path class="st13" d="M169.6,177c1.2,0.5-0.2,1.7,0.7,2.7c0.2,0.2,0.7,0.3,1.4-0.8c0.6-1,0.9-2-0.2-2.8
					c-0.3-0.3-1.1-0.4-1.5-0.3C169.5,176,169.2,176.9,169.6,177z"/>
			</g>
			<g>
				<path class="st13" d="M166.1,187.7C166.1,187.6,166.1,187.7,166.1,187.7c0.1,0,0.2,0,0.3,0c0.2,0,0.4,0,0.6,0
					c0.4,0,0.8-0.1,1.2-0.1c0.8-0.1,1.6-0.4,2.4-0.7c0.8-0.3,1.5-0.7,2.2-1.2c0.7-0.5,1.3-1.1,1.8-1.8c-0.4,0.8-0.9,1.5-1.5,2.1
					c-0.6,0.6-1.3,1.1-2.1,1.6c-0.8,0.5-1.6,0.8-2.4,1.1c-0.4,0.1-0.9,0.3-1.3,0.4c-0.2,0-0.5,0.1-0.7,0.1c-0.1,0-0.2,0-0.4,0
					c-0.1,0-0.3,0-0.6-0.1L166.1,187.7z"/>
			</g>
			<g>
				<g id="Path_349_12_">
					<path class="st5" d="M66.3,166.1c-3.3,1.1-5,6.6-4.6,11.4c0.4,4.2,2.5,8.1,5.8,10.7c3.4,2.8,8.8,4,11,0.5
						c0.9-1.8,1.2-3.9,0.9-5.9c-0.3-3.3-1.5-6.4-3.3-9.1C74.2,170.8,70.3,164.9,66.3,166.1z"/>
					<path class="st6" d="M74.3,191.7c-2.3,0-5.1-1-7.3-2.8c-3.5-2.7-5.7-6.9-6.1-11.3c-0.5-4.9,1.3-10.9,5.1-12.2l0,0
						c4.5-1.4,8.7,4.9,10.6,7.9c1.9,2.8,3.1,6.1,3.4,9.5c0.3,2.2,0,4.4-1,6.4l0,0.1c-0.8,1.3-2,2.1-3.6,2.4
						C75.1,191.6,74.7,191.7,74.3,191.7z M66.5,166.9c-2.9,1-4.5,6.2-4,10.5c0.3,4,2.4,7.7,5.5,10.2c2.3,1.8,5.2,2.8,7.3,2.4
						c1.1-0.2,2-0.7,2.5-1.6c0.8-1.7,1.1-3.6,0.8-5.5c-0.3-3.2-1.4-6.2-3.2-8.8C73.6,171.4,69.9,165.8,66.5,166.9z"/>
				</g>
				<g>
					<path class="st6" d="M72.8,184.8c-2.6-0.9-4.7-3-5.6-5.8c-0.6-2.2-1-4.8,0-6.5c0.4-0.7,1-1,1.6-1.2c-1-0.1-2,0.2-2.6,1.3
						c-1,1.7-0.7,4.3,0,6.5c1,3.1,3.6,5.4,6.8,6.1C72.9,185.1,72.8,185,72.8,184.8z"/>
					<path class="st6" d="M66,177.3c0.1,0.4,2.2,4,2.1,3.6c-0.9-2.3-0.8-6.8,2.3-6.7c0.8,0,0.9-1.5,0.2-2.2
						c-0.5-0.6-1.9-0.8-2.6-0.6c-0.7,0.3-1.1,0.6-1.4,1c-0.2,0.2,0.1,0.6,0,0.9C65.8,174.5,65.6,175.9,66,177.3z"/>
					<path class="st13" d="M71.1,177c-1.2,0.4,0.2,1.7-0.7,2.7c-0.2,0.2-0.7,0.3-1.4-0.8c-0.6-1-0.8-2,0.2-2.8
						c0.3-0.3,1.1-0.4,1.5-0.3C71.2,176,71.5,176.8,71.1,177z"/>
				</g>
				<path class="st13" d="M75.4,189.1c-0.1,0-0.2,0-0.3,0.1c-0.1,0-0.2,0-0.2,0c-0.1,0-0.3,0-0.4,0c-0.2,0-0.5-0.1-0.7-0.1
					c-0.4-0.1-0.9-0.2-1.3-0.4c-0.8-0.3-1.7-0.7-2.4-1.1c-0.8-0.5-1.5-1-2.1-1.6c-0.6-0.6-1.1-1.3-1.5-2.1c0.5,0.7,1.1,1.3,1.8,1.8
					c0.7,0.5,1.4,0.9,2.2,1.2c0.8,0.3,1.6,0.5,2.4,0.7c0.4,0.1,0.8,0.1,1.2,0.1c0.2,0,0.4,0,0.6,0c0.1,0,0.2,0,0.2,0
					c0,0,0.1,0,0.1,0c0,0,0,0,0,0L75.4,189.1z"/>
			</g>
			<path class="st6" d="M166.6,191.7c-0.4,0-0.8,0-1.2-0.1c-1.6-0.3-2.8-1.1-3.6-2.4l0-0.1c-0.9-2-1.3-4.2-1-6.4
				c0.3-3.3,1.5-6.6,3.4-9.4c2-3,6.1-9.3,10.7-7.9l0,0c3.8,1.2,5.6,7.3,5.1,12.2c-0.4,4.4-2.6,8.5-6.1,11.3
				C171.7,190.6,169,191.7,166.6,191.7z M163.2,188.4c0.6,0.9,1.4,1.4,2.5,1.6c2.1,0.4,5-0.6,7.3-2.4c3.2-2.5,5.2-6.2,5.5-10.2
				c0.4-4.3-1.1-9.6-4-10.5c-3.4-1.1-7.1,4.5-8.9,7.2c-1.8,2.6-2.9,5.7-3.2,8.8C162.1,184.8,162.4,186.7,163.2,188.4z"/>
		</g>
		<path class="st5" d="M72.2,142.3l3.5,51.8l27.3,41l17.5,2.7l17.5-2.7l27.3-41l3.5-51.8l-31.3-7.4c-10.7-2.5-21.6-2.6-32.3-0.1
			L72.2,142.3z"/>
		<path class="st204" d="M77.3,147.9c0,0,16.3,12.6,49.2,9.3c3.7-1.2-0.3-4.5-2.8-5.4c13.8,2.7,24.4,3.5,27.3,1.1
			c1.7-0.9,0.3-3.3-0.8-3.7c8.1,3.1,17.7,4.3,17.7,4.3l0.6-6.7l-84.3-3.9L77.3,147.9z"/>
		<path class="st204" d="M167.8,149.8l-9.9,0.1c0,0,8,7.8,8.6,19.3L167.8,149.8z"/>
		<path class="st6" d="M120.5,238.5l-18-2.8l-27.6-41.4l0-0.2l-3.6-52.5L105,134c10.8-2.5,21.8-2.4,32.7,0.1l31.9,7.5l-3.6,52.7
			l-0.1,0.2l-27.5,41.3L120.5,238.5z M103.4,234.3l17.1,2.6l17.1-2.6l27-40.5l3.4-50.9l-30.6-7.2c-10.6-2.5-21.4-2.5-32-0.1
			L73,142.9l3.4,50.9L103.4,234.3z"/>
		<g>
			<path class="st13" d="M99.9,149.5c3.2-0.5,28.3-1.9,40.7-0.1c0,0-11.1-3.4-20.4-2.9s-19.7,2.8-19.7,2.8L99.9,149.5z"/>
			<path class="st7" d="M99.7,149.2c0.8-0.2,3.1-1.3,3.9-1.6l2.3-0.6l2.4-0.5l2.4-0.4c3.2-0.5,6.5-0.8,9.7-0.8
				c3.2,0,6.5,0.4,9.7,0.9l2.4,0.4c0.8,0.2,1.6,0.3,2.4,0.5l2.3,0.6c0.8,0.2,3.1,1.3,3.9,1.5l-1.7-0.4l-2.3-0.5l-2.3-0.5l-2.4-0.4
				l-2.4-0.3c-3.2-0.4-6.4-0.6-9.6-0.6c-3.2,0-6.4,0.1-9.6,0.5l-2.4,0.3l-2.4,0.4l-2.3,0.5l-2.3,0.6L99.7,149.2z"/>
			<path class="st6" d="M99.7,149.2c0.8-0.2,1.6-0.5,2.5-0.7l2.5-0.6l2.6-0.5l2.6-0.4c3.5-0.5,7-0.7,10.5-0.7c3.5,0,7,0.3,10.5,0.8
				l2.6,0.4c0.9,0.2,1.7,0.3,2.6,0.5l2.5,0.6c0.8,0.2,1.7,0.4,2.5,0.7l-0.2,0.4l-2.5-0.5l-2.5-0.5l-2.6-0.4l-2.6-0.3
				c-3.4-0.4-6.9-0.6-10.3-0.6c-3.5,0-6.9,0.1-10.3,0.5l-2.6,0.3l-2.5,0.4l-2.5,0.5l-2.5,0.6L99.7,149.2z"/>
		</g>
		<g>
			<g>
				<path class="st13" d="M89.5,171.1c1.3-0.7,15.5-4.3,23.8-2.5c0.9,0.2,1.8-2.7,1.8-2.7s-8.1-3.3-13.8-1.4
					c-5.7,1.9-11.5,6.2-11.5,6.2L89.5,171.1z"/>
				<path class="st6" d="M89.3,170.7c0.4-0.4,0.9-0.9,1.3-1.3l1.4-1.2l1.5-1l1.5-0.9c2-1.1,4.2-1.8,6.4-2.2c2.2-0.4,4.5-0.5,6.8-0.3
					l1.7,0.2c0.6,0.1,1.2,0.2,1.7,0.3l1.7,0.5c0.6,0.2,1.2,0.4,1.7,0.6l0,0.6l-1.7-0.4l-1.7-0.3L110,165l-1.7-0.1
					c-2.2-0.1-4.5,0-6.6,0.5c-2.2,0.4-4.3,1.1-6.3,2l-1.5,0.8l-1.5,0.9l-1.4,1l-1.4,1.1L89.3,170.7z"/>
			</g>
			<g>
				<path class="st13" d="M152.4,171.1c-1.3-0.7-15.5-4.3-23.8-2.5c-0.9,0.2-1.8-2.7-1.8-2.7s8.1-3.3,13.8-1.4
					c5.7,1.9,11.5,6.2,11.5,6.2L152.4,171.1z"/>
				<path class="st6" d="M152.6,170.7c-0.4-0.4-0.9-0.9-1.3-1.3l-1.4-1.2l-1.5-1l-1.5-0.9c-2-1.1-4.2-1.8-6.4-2.2
					c-2.2-0.4-4.5-0.5-6.8-0.3l-1.7,0.2c-0.6,0.1-1.2,0.2-1.7,0.3l-1.7,0.5c-0.6,0.2-1.2,0.4-1.7,0.6l0,0.6l1.7-0.4l1.7-0.3l1.7-0.2
					l1.7-0.1c2.2-0.1,4.5,0,6.6,0.5c2.2,0.4,4.3,1.1,6.3,2l1.5,0.8l1.5,0.9l1.4,1l1.4,1.1L152.6,170.7z"/>
			</g>
		</g>
		<g>
			<path class="st206" d="M74.9,135.5c0-24.6,20-44.6,44.6-44.6s44.6,20,44.6,44.6H74.9z"/>
			<path class="st203" d="M99.7,96.1c0,0-9.9,6.8-16.5,23c-2.9,2.3-7.4,5.5-7.4,5.5S81.2,103.9,99.7,96.1z"/>
			<path class="st203" d="M139.2,96.1c0,0,9.9,6.8,16.5,23c2.9,2.3,7.4,5.5,7.4,5.5S157.7,103.9,139.2,96.1z"/>
			<path class="st207" d="M115.1,91.2c0,0,6,0.3,13.5,4c-7-0.4-11.6,0.9-19,2.4c16.8,1.4,19,1.2,29.6,5.5c-9-0.4-14.1,0.2-19.7,1.1
				c14.7,2.1,23.6,7.8,23.6,7.8s14,5.6,18.2,9c-0.8-5.2-7.8-16.6-17.5-22.7C134.1,92,121.8,90.5,115.1,91.2z"/>
			<path class="st6" d="M164.8,136.3H74.1v-0.8c0-25,20.3-45.4,45.4-45.4s45.4,20.3,45.4,45.4V136.3z M75.7,134.8h87.6
				c-0.4-23.8-19.9-43-43.8-43S76.1,111,75.7,134.8z"/>
			<path class="st208" d="M141,106.9c-0.9-0.3-1.8-0.7-2.7-1l-2.7-0.8l-2.7-0.7l-2.8-0.5c-3.7-0.6-7.5-0.8-11.2-0.8
				c-3.7,0.1-7.5,0.5-11.2,1.2L105,105c-0.9,0.2-1.8,0.5-2.7,0.7l-2.7,0.8c-0.9,0.3-1.8,0.6-2.7,1l0.2,0.5l2.7-0.8l2.7-0.7l2.7-0.6
				l2.7-0.5c3.7-0.6,7.3-1,11-1c3.7-0.1,7.4,0.1,11,0.6l2.7,0.4l2.7,0.5l2.7,0.6l2.7,0.8L141,106.9z"/>
		</g>
		<g>
			<g>
				<path class="st209" d="M97.6,179.1c2,3,9.8,6.7,13.4,1.2C106.1,181.7,103.5,182.2,97.6,179.1z"/>
				<g>
					<path class="st6" d="M110.5,176.6c-0.6-1.3-1.4-2.3-2.5-2.9c-1.1-0.6-2.5-0.8-3.9-0.6c-1.4,0.2-2.8,0.7-4.1,1.4
						c-1.3,0.7-2.5,1.6-3.7,2.6l0,0c-0.1,0.1-0.3,0.1-0.4,0c-0.1-0.1-0.1-0.3,0-0.4c1-1.2,2.1-2.3,3.5-3.2c1.3-0.9,2.8-1.6,4.4-2
						c1.6-0.4,3.5-0.2,5.1,0.6l0.3,0.1c0.1,0.1,0.2,0.1,0.3,0.2l0.5,0.4c0.3,0.3,0.6,0.6,0.9,0.9c0.3,0.4,0.5,0.7,0.7,1.1
						c0.2,0.4,0.4,0.8,0.5,1.2c0.2,0.5,0,1-0.5,1.2C111.3,177.3,110.7,177.1,110.5,176.6L110.5,176.6z"/>
				</g>
			</g>
			<ellipse class="st6" cx="105.5" cy="175.1" rx="3.5" ry="3.1"/>
			
				<ellipse transform="matrix(0.1996 -0.9799 0.9799 0.1996 -87.7808 241.9216)" class="st7" cx="104.2" cy="174.7" rx="0.7" ry="0.7"/>
		</g>
		<g>
			<g>
				<path class="st209" d="M142.7,178.9c-2,3-9.8,6.7-13.4,1.2C134.1,181.5,136.8,182,142.7,178.9z"/>
				<g>
					<path class="st6" d="M129.8,176.4c0.6-1.3,1.4-2.3,2.5-2.9c1.1-0.6,2.5-0.8,3.9-0.6c1.4,0.2,2.8,0.7,4.1,1.4
						c1.3,0.7,2.5,1.6,3.7,2.6l0,0c0.1,0.1,0.3,0.1,0.4,0c0.1-0.1,0.1-0.3,0-0.4c-1-1.2-2.1-2.3-3.5-3.2c-1.3-0.9-2.8-1.6-4.4-2
						c-1.6-0.4-3.5-0.2-5.1,0.6l-0.3,0.1c-0.1,0.1-0.2,0.1-0.3,0.2l-0.5,0.4c-0.3,0.3-0.6,0.6-0.9,0.9c-0.3,0.4-0.5,0.7-0.7,1.1
						c-0.2,0.4-0.4,0.8-0.5,1.2c-0.2,0.5,0,1,0.5,1.2C129,177.1,129.5,176.9,129.8,176.4L129.8,176.4z"/>
				</g>
			</g>
			<ellipse class="st6" cx="134.8" cy="174.9" rx="3.5" ry="3.1"/>
			
				<ellipse transform="matrix(0.9799 -0.1996 0.1996 0.9799 -32.1375 30.1272)" class="st7" cx="133.4" cy="174.5" rx="0.7" ry="0.7"/>
		</g>
		<g>
			<g>
				<path class="st13" d="M116,206.3c0,0,7.1,2.2,12.5-2.6c0.7,0.3,0.5,1.6,0.5,1.6s-5,4.1-12.8,1.9c-5.6-1.5-2.5-1.2-2.5-1.2
					L116,206.3z"/>
				<path class="st6" d="M129.7,205.2c-0.2-0.6-0.5-1.3-1-1.7c-0.1-0.1-0.2-0.1-0.3-0.1c-0.2,0-0.3,0.2-0.2,0.4l0,0
					c0.1,0.5,0.3,0.9,0.4,1.4c-0.6,0.3-1.1,0.6-1.7,0.8c-0.6,0.2-1.2,0.5-1.9,0.6c-1.3,0.4-2.6,0.5-3.9,0.5c-1.3,0-2.6-0.2-3.9-0.5
					c-0.6-0.2-1.2-0.4-1.8-0.6c-0.6-0.2-1.2-0.5-1.7-0.8l0,0c0,0,0,0-0.1,0c-0.5-0.2-1-0.1-1.3,0.4c-0.2,0.5-0.1,1,0.4,1.3
					c0.7,0.4,1.4,0.6,2,0.8c0.7,0.2,1.4,0.4,2.1,0.5c1.4,0.3,2.8,0.3,4.2,0.2c1.4-0.1,2.8-0.4,4.1-0.9c0.7-0.2,1.3-0.5,1.9-0.8
					c0.5-0.3,1-0.6,1.5-0.9c0.1,0.4,0.1,0.8,0.2,1.2l0,0c0,0.1,0.1,0.2,0.2,0.2c0.2,0.1,0.3,0,0.4-0.1
					C129.8,206.5,129.8,205.8,129.7,205.2z"/>
				<path class="st7" d="M128.2,208.4c-0.6,0.3-1.1,0.4-1.7,0.6c-0.6,0.2-1.1,0.3-1.7,0.4c-1.2,0.2-2.3,0.4-3.5,0.4
					c-0.1,0-0.2-0.1-0.2-0.1c0-0.1,0.1-0.1,0.1-0.2c1.1-0.2,2.3-0.4,3.4-0.7c0.5-0.2,1.1-0.4,1.6-0.6c0.5-0.2,1.5-0.7,1.5-0.7
					c0.3-0.1,0.6-0.1,0.7,0.2C128.6,207.9,128.5,208.2,128.2,208.4C128.2,208.4,128.2,208.4,128.2,208.4z"/>
			</g>
		</g>
		<path class="st13" d="M110.9,194.4c0,0,2.7,7,9.7,7c7.5,0,9.2-7.7,9.2-7.7s-4.3,4.6-8.8,4.7C114.9,198.6,110.9,194.4,110.9,194.4z
			"/>
		<path class="st6" d="M111.5,193.9c1.3,1,2.8,2,4.3,2.6c1.5,0.7,3.1,1.1,4.7,1.1c1.6,0,3.2-0.6,4.6-1.4c1.5-0.8,2.8-1.8,4.1-3l0,0
			c0.2-0.1,0.4-0.1,0.6,0c0.1,0.1,0.1,0.3,0,0.5c-1.1,1.5-2.4,2.8-3.9,3.8c-1.5,1-3.4,1.7-5.3,1.8c-1.9,0.1-3.8-0.5-5.4-1.4
			c-1.6-0.9-3-2-4.2-3.4c-0.1-0.2-0.1-0.4,0-0.6C111.1,193.8,111.3,193.8,111.5,193.9L111.5,193.9z"/>
		<path class="st210" d="M123.4,173.1c0-0.5-0.7-0.6-0.8-0.1c-0.8,4.1-1.7,10.6-0.5,14c1.9,5.2,6.5,3.4,4-0.3
			C124.1,183.5,123.5,179.2,123.4,173.1z"/>
		<g>
			<circle class="st202" cx="115.3" cy="309" r="2.4"/>
			<circle class="st202" cx="115.3" cy="293" r="2.4"/>
			<circle class="st202" cx="115.3" cy="276.9" r="2.4"/>
			<circle class="st202" cx="115.3" cy="260.8" r="2.4"/>
			<path class="st211" d="M115.5,260.6c3.1-0.7,6.5-0.7,10.2,0"/>
			<path class="st211" d="M115.5,276.9c3.3-0.6,6.7-0.6,10.2,0"/>
			<path class="st211" d="M115.5,293c3.4-0.6,6.8-0.6,10.2,0"/>
			<path class="st211" d="M115.5,309c3.3-1,6.7-1,10.2,0"/>
			<circle class="st202" cx="125.9" cy="260.8" r="2.4"/>
			<circle class="st6" cx="125.5" cy="260.4" r="2.4"/>
			<path class="st201" d="M125.5,259.3c0.8,0,1.4,0.6,1.4,1.3c0-0.1,0-0.1,0-0.2c0-0.8-0.7-1.5-1.5-1.5c-0.8,0-1.5,0.7-1.5,1.5
				c0,0.1,0,0.1,0,0.2C124.1,259.8,124.7,259.3,125.5,259.3z"/>
			<g>
				<circle class="st202" cx="125.9" cy="276.9" r="2.4"/>
				<circle class="st6" cx="125.5" cy="276.5" r="2.4"/>
				<path class="st201" d="M125.5,275.3c0.8,0,1.4,0.6,1.4,1.3c0-0.1,0-0.1,0-0.2c0-0.8-0.7-1.5-1.5-1.5c-0.8,0-1.5,0.7-1.5,1.5
					c0,0.1,0,0.1,0,0.2C124.1,275.9,124.7,275.3,125.5,275.3z"/>
			</g>
			<g>
				<circle class="st202" cx="125.9" cy="293" r="2.4"/>
				<circle class="st6" cx="125.5" cy="292.5" r="2.4"/>
				<path class="st201" d="M125.5,291.4c0.8,0,1.4,0.6,1.4,1.3c0-0.1,0-0.1,0-0.2c0-0.8-0.7-1.5-1.5-1.5c-0.8,0-1.5,0.7-1.5,1.5
					c0,0.1,0,0.1,0,0.2C124.1,291.9,124.7,291.4,125.5,291.4z"/>
			</g>
			<g>
				<circle class="st202" cx="125.9" cy="309" r="2.4"/>
				<circle class="st6" cx="125.5" cy="308.6" r="2.4"/>
				<path class="st201" d="M125.5,307.3c0.8,0,1.4,0.4,1.4,1c0,0,0-0.1,0-0.1c0-0.6-0.7-1.1-1.5-1.1c-0.8,0-1.5,0.5-1.5,1.1
					c0,0,0,0.1,0,0.1C124.1,307.7,124.7,307.3,125.5,307.3z"/>
			</g>
			<circle class="st6" cx="114.9" cy="260.4" r="2.4"/>
			<path class="st201" d="M114.9,259.3c0.8,0,1.4,0.6,1.4,1.3c0-0.1,0-0.1,0-0.2c0-0.8-0.7-1.5-1.5-1.5c-0.8,0-1.5,0.7-1.5,1.5
				c0,0.1,0,0.1,0,0.2C113.6,259.8,114.2,259.3,114.9,259.3z"/>
			<circle class="st6" cx="114.9" cy="276.5" r="2.4"/>
			<path class="st201" d="M114.9,275.3c0.8,0,1.4,0.6,1.4,1.3c0-0.1,0-0.1,0-0.2c0-0.8-0.7-1.5-1.5-1.5c-0.8,0-1.5,0.7-1.5,1.5
				c0,0.1,0,0.1,0,0.2C113.6,275.9,114.2,275.3,114.9,275.3z"/>
			<circle class="st6" cx="114.9" cy="292.5" r="2.4"/>
			<path class="st201" d="M114.9,291.4c0.8,0,1.4,0.6,1.4,1.3c0-0.1,0-0.1,0-0.2c0-0.8-0.7-1.5-1.5-1.5c-0.8,0-1.5,0.7-1.5,1.5
				c0,0.1,0,0.1,0,0.2C113.6,291.9,114.2,291.4,114.9,291.4z"/>
			<circle class="st6" cx="114.9" cy="308.6" r="2.4"/>
			<path class="st201" d="M114.9,307.3c0.8,0,1.4,0.4,1.4,1c0,0,0-0.1,0-0.1c0-0.6-0.7-1.1-1.5-1.1c-0.8,0-1.5,0.5-1.5,1.1
				c0,0,0,0.1,0,0.1C113.6,307.7,114.2,307.3,114.9,307.3z"/>
		</g>
		<g>
			<path class="st61" d="M168.7,148.8l-1.7,24l15.7-28.1l-1.2-2.1c-12-20.8-34.3-33.7-58.4-33.7h-4c-23.1,0-44.7,11.9-57,31.4
				l-2.7,4.3L74,172.8l-1.2-21.6l8.3-6.3c9.1,4.8,23.9,10,43.8,8.2c0.5,0,0.6-0.8,0.2-1c-1.3-0.8-3.3-2-5.3-3.6
				c7.8,2,17.2,3.1,28.2,2.1c0.5,0,0.6-0.8,0.2-1c-0.8-0.5-1.9-1.2-3.1-2c7.2,1.6,15.6,2.3,25.2,1.4c0.5,0,0.6-0.8,0.2-1
				c-2.1-1.3-6.4-1.5-9.7-4.8L168.7,148.8z"/>
			<path class="st97" d="M73,165.5l-7.9-20.9c0,0,35.2-44.4,84.3-29.5c0,0-10.6-9.3-38.1-5.6s-41.5,19.2-48.1,29
				c-2.8,4.5-3.6,6.4-3.6,6.4l10.4,20.1l3.6,6.3L73,165.5z"/>
			<path class="st66" d="M148.7,114c0,0-1.9,10.1-20.7,11.1c4.7,2.3,14.2,2.3,18.9,0.9c-14.3,5-18.3,4.1-21.4,5.4
				c7.9,1.8,21.1-0.2,33.9,10.1c4.3,3.9,5.7,5.4,9.1,6.1c3.3,0.8,2.1,1.4,2.1,1.4l-2.4,0.5l-0.6,12.4l-0.5,9.8l6-9.8l9.6-17.1
				l-6.1-9.2c0,0-6.5-7.7-8.1-9c-1.6-1.3-11.1-8.3-13.1-9.3C153.3,116.3,148.7,114,148.7,114z"/>
			<path class="st71" d="M78.2,135.7c2.4,1.1,4.7,2.2,7.1,3.1c2.4,0.9,4.8,1.8,7.2,2.5c0.6,0.2,1.2,0.4,1.8,0.6l1.8,0.5l1.9,0.5
				c0.6,0.2,1.2,0.3,1.9,0.5c2.5,0.6,5,1.2,7.5,1.9l0,0c-2.6,0-5.2-0.2-7.8-0.6c-1.3-0.2-2.6-0.5-3.8-0.7c-1.3-0.3-2.5-0.7-3.8-1
				c-2.5-0.8-4.9-1.7-7.3-2.9C82.4,138.8,80.2,137.4,78.2,135.7L78.2,135.7z"/>
			<path class="st71" d="M111.3,145.4c3,0.7,5.9,1.2,8.9,1.7c3,0.5,6,1,9,1.3c3,0.4,6,0.7,9,1c3,0.3,6,0.5,9.1,0.5l0,0
				c-3,0.4-6.1,0.5-9.1,0.4c-3-0.1-6.1-0.4-9.1-0.8c-3-0.4-6-0.9-9-1.6C117.1,147.3,114.1,146.4,111.3,145.4L111.3,145.4z"/>
			<path class="st71" d="M134.4,143.7c2.9,0.8,5.9,1.4,8.9,1.9c3,0.5,6,1,9,1.4c3,0.4,6,0.7,9,0.9c3,0.2,6,0.4,9.1,0.3l0,0
				c-3,0.5-6.1,0.7-9.1,0.6c-3.1-0.1-6.1-0.3-9.1-0.7c-3-0.4-6-1-9-1.7C140.2,145.8,137.2,144.9,134.4,143.7L134.4,143.7z"/>
			<path class="st71" d="M76.9,140.5c0.8,0.5,1.4,1.1,2.2,1.5c0.4,0.2,0.8,0.5,1.2,0.6l1.2,0.6c1.6,0.8,3.2,1.4,4.9,2
				c3.3,1.2,6.7,2.3,10.1,3.2c1.7,0.5,3.4,0.9,5.1,1.4l2.6,0.6c0.9,0.2,1.7,0.4,2.6,0.6c3.5,0.7,6.9,1.4,10.5,1.7l0,0
				c-3.6,0.6-7.2,0.4-10.8,0c-0.9-0.1-1.8-0.2-2.7-0.4l-2.7-0.5c-1.8-0.4-3.5-0.8-5.3-1.3c-3.5-1-6.9-2.2-10.1-3.8
				c-1.6-0.8-3.2-1.7-4.7-2.7c-0.7-0.5-1.5-1-2.2-1.6C78.1,141.9,77.5,141.2,76.9,140.5L76.9,140.5z"/>
			<g>
				<path class="st6" d="M85.3,146.2c0,0-7.3-3-9-6.6c-0.2,0.8,0.4,4.1,4.2,6.2C80.8,145.3,85.3,146.2,85.3,146.2z"/>
				<path class="st6" d="M107.6,144.3c0,0.1-0.1,0.2-0.2,0.3c8.3,3.7,11.1,4,14.5,6.4c0.2,0.1,2.7-2.2,2.7-2.2
					S113.7,146.2,107.6,144.3z"/>
				<path class="st6" d="M132.9,143.2c0,0.1-0.1,0.2-0.2,0.3c8.3,3.7,11.1,4,14.5,6.4c0.2,0.1,2.7-2.2,2.7-2.2
					S138.9,145.1,132.9,143.2z"/>
				<path class="st6" d="M183.6,144.7l-1.4-2.5c-12.1-21-34.8-34.1-59-34.1h-4c-23.5,0-45.1,11.9-57.7,31.8l-2.9,4.7L75,176.4
					l-1.4-24.8l7.6-5.8c9.1,4.7,23.9,9.8,43.8,8c0.5-0.1,1-0.4,1.1-1c0.1-0.6-0.1-1.1-0.6-1.4c-0.6-0.3-1.3-0.8-2.1-1.3
					c7.9,1.6,16.1,2,24.6,1.3c0.6-0.1,1-0.4,1.1-1c0.1-0.5,0-1-0.4-1.3c6.1,1,12.3,1.3,18.7,0.9l-1.6,26.1L183.6,144.7z
					 M145.3,146.9l-3.9-0.8l3.3,2.2c1,0.7,1.9,1.2,2.6,1.7c-9.5,0.8-18.6,0.1-27.2-2.2l-3.7-1l3.1,2.3c1.8,1.4,3.5,2.5,4.8,3.3
					c-19.5,1.6-33.9-3.5-42.7-8.1l-0.4-0.2l-9.1,6.9l1.1,18.3l-12.7-24.5l2.5-3.9c12.3-19.5,33.3-31.1,56.4-31.1h4
					c23.7,0,45.8,12.8,57.7,33.3l1,1.7L168,169.5l1.2-19.5c0.4,0,0.8-0.1,1.3-0.1c0.6-0.1,1-0.4,1.1-1c0.1-0.6-0.1-1.1-0.6-1.4
					c-2-1.2-5.6-0.6-10.9-5.3c-0.1,0.1-0.5,0.1-0.5,0.1c1.3,1.6,4.4,5.2,10,6.1C161.2,149.1,153,148.6,145.3,146.9z"/>
				<path class="st6" d="M169,147l0.3-0.2c0,0,4.4,1.1,5.7,1.1c-0.2,0.4-1.6,1.8-5.7,2c1.7-1.5,1.1-2.1,1.1-2.1L169,147z"/>
			</g>
		</g>
		<path class="st145" d="M93.8,216.9c0,0,1.1-14.5-4.5-20.7c-4.1-4.5-13.1-7.6-14-19c1,15,1.1,16.6,1.1,16.6l15.1,22.6L93.8,216.9z"
			/>
		<path class="st145" d="M147.2,216.9c0,0-0.9-15.4,4.5-20.7c4.3-4.2,13.1-7.6,14-19c-1,15-1.1,16.6-1.1,16.6l-15.1,22.6
			L147.2,216.9z"/>
		<path class="st145" d="M157.2,195.6c-3.9,1.1-7.6,4.2-6.6,12.5C152.8,203,154.4,200.3,157.2,195.6z"/>
		<path class="st145" d="M83.3,195.6c3.9,1.1,7.6,4.2,6.6,12.5C87.7,203,86.1,200.3,83.3,195.6z"/>
		<path class="st212" d="M81.2,145.9c0,0-3.5,6.9-4,22.2c-0.3,11-0.8,25.7-0.8,25.7l-2.9-42.2L81.2,145.9z"/>
		<path class="st66" d="M166.1,169.3c0,0,0,0.1,0,0.1"/>
		<g>
			<g>
				<g>
					<path class="st61" d="M99.8,231.9l-10.7-17.9l18.7,9.4c1.2-2.1,5-7.8,11.7-7.9l0.1,0c6.6,0,9.9,5.2,11,7.2l20-6.6l-9.8,15.8
						c-2.8,4.3-6.9,7.6-11.7,9.5l-8.8,3.5l-8.8-3.5C106.7,239.5,102.6,236.2,99.8,231.9z"/>
					<path class="st6" d="M92.1,217.3l16,7.3c0,0,3.8-8.2,11.4-8.3c0,0,0.1,0,0.1,0c7.6,0,10.7,7.5,10.7,7.5l17.9-5.2l-7.8,12.8
						c-2.8,4.2-6.8,7.5-11.5,9.4l-8.5,3.5l-8.5-3.5c-4.7-1.9-8.7-5.2-11.5-9.4L92.1,217.3 M148.2,218.6L148.2,218.6 M87.5,213.2
						l3.3,5l9.2,15.2c1.7,2.8,4.2,5,7.1,6.4l12.8,6l0.2,0l0.2,0l11.1-4.6c3.7-1.5,6.7-4.2,8.8-7.6l11.1-17.1l1.6-2.5l-3.7,2.6
						l-18.5,5.3c-1.4-2.4-5-6.9-11.2-6.9l-0.2,0c-6.4,0.1-10.3,5-11.9,7.6L91.2,215L87.5,213.2z M148.2,217.1L148.2,217.1
						L148.2,217.1L148.2,217.1z"/>
				</g>
				<path class="st66" d="M148.2,218.6l-1.5,2.4l-6.4,10.4c-2.8,4.2-6.8,7.5-11.5,9.4l-8.5,3.5l-8.5-3.5c-4.7-1.9-8.7-5.2-11.5-9.4
					l-7-12c2,2.3,11.1,12.5,17.7,16.7l-2.7-4.9l6.5,5.2l-0.2-5.2l5.4,7l4.9-7.5l0.7,5.8l5.6-6.1l0.2,5.1L148.2,218.6z"/>
			</g>
			<path class="st213" d="M110.5,222.5c0,0,2.4-5.2,9-5.3C113.9,219.8,110.5,222.5,110.5,222.5z"/>
			<path class="st66" d="M118.6,233c0,0-3.8-4.4-1.1-10.4C117.5,228.8,118.6,233,118.6,233z"/>
			<path class="st66" d="M128.6,226.2c0,0,0.8,3.3-2.1,7.8C127.4,228.3,128.6,226.2,128.6,226.2z"/>
			<path class="st66" d="M114,234c0,0-5.8-3.6-3.1-9.6C111.7,230.9,114,234,114,234z"/>
			<path class="st214" d="M106.5,237.2c0,0-5.3-3.6-7.8-9.7C102.9,232.3,106.5,237.2,106.5,237.2z"/>
			<path class="st214" d="M142.2,226.7c0,0-2.3,6-7.7,9.8C138.3,231.3,142.2,226.7,142.2,226.7z"/>
		</g>
	</g>
	<g>
		<g>
			<path class="st23" d="M191.1,453.5H45.7c-4,0-7.3-3.3-7.3-7.3v0c0-4,3.3-7.3,7.3-7.3h145.4c4,0,7.3,3.3,7.3,7.3v0
				C198.4,450.3,195.1,453.5,191.1,453.5z"/>
			<g>
				<g>
					<path class="st24" d="M188.7,409.2H48.1c-4.1,0-7.5,3.4-7.5,7.5v27.6c0,4.1,3.4,7.5,7.5,7.5h140.5c4.1,0,7.5-3.4,7.5-7.5v-27.6
						C196.1,412.5,192.8,409.2,188.7,409.2z M194.1,444.2c0,3-2.4,5.5-5.5,5.5H48.1c-3,0-5.5-2.5-5.5-5.5v-27.6c0-3,2.5-5.5,5.5-5.5
						h140.5c3,0,5.5,2.5,5.5,5.5V444.2z"/>
					<path class="st25" d="M194.1,416.6v27.6c0,3-2.4,5.5-5.5,5.5H48.1c-3,0-5.5-2.5-5.5-5.5v-27.6c0-3,2.5-5.5,5.5-5.5h140.5
						C191.7,411.2,194.1,413.6,194.1,416.6z"/>
				</g>
			</g>
		</g>
		<g>
			<g>
				<path class="st24" d="M85,428.2l0.1-1.8h-0.1l-0.7,1.9l-5.2,9.1h-1v-14h1.5v9.3l-0.1,1.8h0.1l0.7-1.9l5.2-9.2h1v14H85V428.2z"/>
				<path class="st24" d="M95.6,431.4l0.1-1.9h-0.1l-0.6,1.7l-1.9,3.8h-0.5l-1.9-3.8l-0.5-1.7h-0.1l0.2,1.9v6H89v-10h1.4l2.2,4.3
					L93,433h0l0.5-1.3l2-4.3H97v10h-1.4V431.4z"/>
				<path class="st24" d="M99.3,428c0.4-0.2,0.9-0.4,1.4-0.6c0.6-0.1,1.1-0.2,1.8-0.2c0.6,0,1,0.1,1.3,0.3s0.6,0.4,0.8,0.7
					c0.2,0.3,0.3,0.6,0.4,1c0.1,0.4,0.1,0.8,0.1,1.1c0,0.8,0,1.6-0.1,2.3c0,0.8-0.1,1.5-0.1,2.2c0,0.5,0,1,0.1,1.4
					c0,0.4,0.1,0.8,0.2,1.2h-1.1l-0.3-1.2h-0.1c-0.2,0.3-0.5,0.6-0.9,0.9s-0.9,0.4-1.5,0.4c-0.7,0-1.3-0.3-1.8-0.8
					c-0.5-0.5-0.7-1.2-0.7-2.1c0-0.6,0.1-1.1,0.3-1.4c0.2-0.4,0.5-0.7,0.8-0.9s0.8-0.4,1.3-0.5c0.5-0.1,1-0.2,1.6-0.2
					c0.1,0,0.3,0,0.4,0c0.1,0,0.3,0,0.4,0c0-0.4,0.1-0.8,0.1-1.1c0-0.8-0.1-1.3-0.3-1.6s-0.6-0.5-1.2-0.5c-0.4,0-0.8,0.1-1.2,0.2
					s-0.8,0.3-1.1,0.4L99.3,428z M103.6,432.8c-0.1,0-0.3,0-0.4,0s-0.3,0-0.4,0c-0.3,0-0.6,0-0.9,0.1c-0.3,0.1-0.6,0.1-0.8,0.3
					c-0.2,0.1-0.4,0.3-0.6,0.5c-0.1,0.2-0.2,0.5-0.2,0.9c0,0.5,0.1,0.9,0.4,1.2c0.3,0.3,0.6,0.4,1,0.4c0.6,0,1-0.1,1.3-0.4
					c0.3-0.3,0.5-0.6,0.6-0.9V432.8z"/>
				<path class="st24" d="M114,431.4l0.1-1.9h-0.1l-0.6,1.7l-1.9,3.8h-0.5l-1.9-3.8l-0.5-1.7h-0.1l0.2,1.9v6h-1.3v-10h1.4l2.2,4.3
					l0.4,1.3h0l0.5-1.3l2-4.3h1.5v10H114V431.4z"/>
				<path class="st24" d="M117.4,436.5c0-0.3,0.1-0.6,0.3-0.8s0.4-0.3,0.8-0.3c0.3,0,0.6,0.1,0.9,0.4c0.2,0.3,0.3,0.7,0.3,1.3
					c0,0.4-0.1,0.8-0.2,1.2s-0.3,0.7-0.4,0.9c-0.2,0.3-0.4,0.5-0.6,0.7c-0.2,0.2-0.4,0.3-0.6,0.4l-0.5-0.7c0.2-0.1,0.3-0.2,0.5-0.4
					c0.2-0.2,0.3-0.3,0.4-0.5c0.1-0.2,0.2-0.4,0.2-0.6c0.1-0.2,0.1-0.4,0.1-0.6c-0.3,0.1-0.5,0-0.7-0.2
					C117.5,437.2,117.4,436.9,117.4,436.5z"/>
				<path class="st24" d="M125.2,435.8c0.3,0.1,0.5,0.3,0.9,0.3c0.3,0.1,0.7,0.1,1.1,0.1c0.4,0,0.7-0.1,1-0.2
					c0.3-0.1,0.6-0.4,0.8-0.6c0.2-0.3,0.4-0.6,0.5-1s0.2-0.8,0.2-1.2c0-1-0.2-1.7-0.7-2.2c-0.4-0.5-1-0.7-1.8-0.7H126v-0.6l2.3-4.5
					l0.8-0.8l-1.1,0.1h-3.1v-1.3h5.8v0.6l-2.6,4.8l-0.6,0.6v0l0.6-0.1c0.4,0,0.8,0.1,1.2,0.3c0.4,0.2,0.7,0.4,1,0.7
					c0.3,0.3,0.5,0.7,0.6,1.2c0.2,0.5,0.2,1,0.2,1.7c0,0.7-0.1,1.4-0.3,1.9c-0.2,0.6-0.5,1-0.8,1.4c-0.4,0.4-0.8,0.7-1.2,0.9
					c-0.5,0.2-1,0.3-1.5,0.3c-0.5,0-0.9,0-1.3-0.1s-0.8-0.2-1.1-0.3L125.2,435.8z"/>
				<path class="st24" d="M140.4,433.1c0,0.7-0.1,1.3-0.2,1.8c-0.2,0.6-0.4,1-0.7,1.4s-0.7,0.7-1.1,0.9c-0.4,0.2-0.9,0.3-1.5,0.3
					c-1.1,0-2-0.4-2.6-1.2c-0.6-0.8-0.9-2.1-0.9-3.7c0-1.4,0.1-2.7,0.4-3.8c0.3-1.1,0.7-2.1,1.2-2.9c0.5-0.8,1.1-1.4,1.7-1.9
					c0.7-0.5,1.4-0.8,2.1-1l0.4,1.2c-0.6,0.2-1.1,0.4-1.6,0.8c-0.5,0.4-0.9,0.8-1.3,1.4s-0.7,1.1-0.9,1.8c-0.2,0.7-0.4,1.4-0.5,2.1
					c0.2-0.4,0.5-0.7,0.9-0.9c0.4-0.3,0.9-0.4,1.5-0.4c1,0,1.7,0.3,2.3,1C140.1,430.7,140.4,431.8,140.4,433.1z M138.9,433.3
					c0-2-0.7-2.9-2.1-2.9c-0.5,0-0.9,0.2-1.3,0.5s-0.6,0.7-0.8,1.1c0,0.2,0,0.3,0,0.5c0,0.2,0,0.3,0,0.5c0,0.4,0,0.9,0.1,1.3
					s0.2,0.8,0.4,1.1c0.2,0.3,0.4,0.6,0.7,0.8c0.3,0.2,0.6,0.3,1,0.3c0.6,0,1.1-0.3,1.5-0.8S138.9,434.2,138.9,433.3z"/>
				<path class="st24" d="M149.4,432.9l-2.2,4.4h-1.6l2.5-4.6l0.5-0.6l-0.8-0.8l-2-4.1h1.5l2.1,4.3h0.8v-4.3h1.4v4.5l0.7-0.3
					l2.1-4.2h1.5l-2.1,4.1l-0.6,0.6l0.8,0.8l2.3,4.5h-1.7l-2.2-4.5h-0.8v4.5h-1.4v-4.7L149.4,432.9z"/>
				<path class="st24" d="M157.1,436.5c0-0.4,0.1-0.7,0.3-0.8c0.2-0.2,0.4-0.3,0.7-0.3c0.3,0,0.5,0.1,0.7,0.3
					c0.2,0.2,0.3,0.5,0.3,0.8c0,0.4-0.1,0.7-0.3,0.9c-0.2,0.2-0.4,0.3-0.7,0.3c-0.3,0-0.5-0.1-0.7-0.3
					C157.1,437.1,157.1,436.8,157.1,436.5z"/>
			</g>
		</g>
	</g>
</g>
</svg>
