<?xml version="1.0" encoding="utf-8"?>
<!-- Generator: Adobe Illustrator 21.0.0, SVG Export Plug-In . SVG Version: 6.00 Build 0)  -->
<svg version="1.1" id="Layer_1" xmlns="http://www.w3.org/2000/svg" xmlns:xlink="http://www.w3.org/1999/xlink" x="0px" y="0px"
	 viewBox="0 0 56.7 56.7" style="enable-background:new 0 0 56.7 56.7;" xml:space="preserve">
<style type="text/css">
	.st0{fill:#AA3939;}
	.st1{fill-rule:evenodd;clip-rule:evenodd;fill:#AA3939;}
</style>
<g>
	<path class="st0" d="M36.8,15.1H19.9c-2.7,0-4.9,2.2-4.9,4.9v16.9c0,2.7,2.2,4.9,4.9,4.9h16.9c2.7,0,4.9-2.2,4.9-4.9V20
		C41.7,17.3,39.5,15.1,36.8,15.1L36.8,15.1z M28.4,37.2c-4.8,0-8.8-3.9-8.8-8.8c0-4.8,3.9-8.8,8.8-8.8c4.8,0,8.8,3.9,8.8,8.8
		C37.1,33.3,33.2,37.2,28.4,37.2L28.4,37.2z M37.4,21.5c-1.1,0-2.1-0.9-2.1-2.1c0-1.1,0.9-2.1,2.1-2.1c1.1,0,2.1,0.9,2.1,2.1
		C39.5,20.5,38.6,21.5,37.4,21.5L37.4,21.5z M37.4,21.5"/>
	<path class="st0" d="M28.4,23.4c-2.8,0-5.1,2.3-5.1,5.1c0,2.8,2.3,5.1,5.1,5.1c2.8,0,5.1-2.3,5.1-5.1
		C33.4,25.6,31.2,23.4,28.4,23.4L28.4,23.4z M28.4,23.4"/>
	<path class="st0" d="M28.4,0C12.7,0,0,12.7,0,28.4C0,44,12.7,56.7,28.4,56.7S56.7,44,56.7,28.4C56.7,12.7,44,0,28.4,0L28.4,0z
		 M45.4,36.9c0,4.7-3.9,8.6-8.6,8.6H19.9c-4.7,0-8.6-3.9-8.6-8.6V20c0-4.7,3.9-8.6,8.6-8.6h16.9c4.7,0,8.6,3.9,8.6,8.6V36.9z
		 M45.4,36.9"/>
</g>
</svg>
