<?xml version="1.0" encoding="utf-8"?>
<!-- Generator: Adobe Illustrator 21.0.0, SVG Export Plug-In . SVG Version: 6.00 Build 0)  -->
<svg version="1.1" id="Layer_1" xmlns="http://www.w3.org/2000/svg" xmlns:xlink="http://www.w3.org/1999/xlink" x="0px" y="0px"
	 viewBox="0 0 240.9 453.5" style="enable-background:new 0 0 240.9 453.5;" xml:space="preserve">
<style type="text/css">
	.st0{fill:#794552;}
	.st1{fill:#C7B89E;}
	.st2{fill:#F9A960;}
	.st3{fill:#D17C32;}
	.st4{fill:#956070;}
	.st5{fill:#FDDCC0;}
	.st6{fill:#501338;}
	.st7{fill:#FFFFFF;}
	.st8{fill:#B38091;}
	.st9{fill:#D1D5DB;}
	.st10{fill:#989A9C;}
	.st11{fill:#937B70;}
	.st12{fill:#E6DEC9;}
	.st13{fill:#F0B39C;}
	.st14{fill:#8E183F;}
	.st15{fill:#F5F5F5;}
	.st16{fill:none;stroke:#462062;stroke-width:0.7554;stroke-linecap:round;stroke-miterlimit:10;}
	.st17{fill:#B5BAC0;}
	.st18{fill:#C71F41;}
	.st19{fill:#EF5784;}
	.st20{fill:#A91D41;}
	.st21{opacity:0.5;fill:#C1C1C1;}
	.st22{opacity:0.27;fill:#E78B6F;}
	.st23{fill:#CB8A43;}
	.st24{fill:#754D24;}
	.st25{fill:#FBBA6C;}
	.st26{fill:#837070;}
	.st27{fill:#866A58;}
	.st28{fill:#9A7E67;}
	.st29{fill:#B39885;}
	.st30{fill:#5B4580;}
	.st31{fill:#E1DFDF;}
	.st32{fill:#C0BEBD;}
	.st33{fill:#D53231;}
	.st34{fill:#E94647;}
	.st35{fill:#797083;}
	.st36{fill:#A9A4B4;}
	.st37{fill:#5B5567;}
	.st38{fill:#CE202B;}
	.st39{fill:#EE3734;}
	.st40{fill:#F49294;}
	.st41{fill:#B89AA6;}
	.st42{fill:#D4907B;}
	.st43{fill:#FAB276;}
	.st44{opacity:0.5;fill:#794552;}
	.st45{fill:#B57D90;}
	.st46{opacity:0.7;fill:#794552;}
	.st47{opacity:0.15;fill:#F2E8A5;}
	.st48{fill:#D67E3A;}
	.st49{fill:#735A99;}
	.st50{fill:#644C88;}
	.st51{fill:#9480B4;}
	.st52{fill:#E4D2A4;}
	.st53{fill:#FAEDD0;}
	.st54{fill:#C4B18B;}
	.st55{fill:#735A99;stroke:#501338;stroke-width:1.571;stroke-miterlimit:10;}
	.st56{fill:#C8BFBF;}
	.st57{fill:#B2ABAB;}
	.st58{fill:#FFE098;}
	.st59{fill:#ECC77E;}
	.st60{fill:#FFEBC7;}
	.st61{fill:#A1675E;}
	.st62{fill:#90564F;}
	.st63{fill:#C07F78;}
	.st64{fill:#68485A;}
	.st65{fill:#FFDD81;}
	.st66{fill:#814945;}
	.st67{fill:#945B58;}
	.st68{fill:#B17977;}
	.st69{fill:#884C4A;}
	.st70{fill-rule:evenodd;clip-rule:evenodd;fill:#989A9C;}
	.st71{fill:#D89E98;}
	.st72{fill:#64445C;}
	.st73{fill:#816474;}
	.st74{fill:#A48390;}
	.st75{fill:#DDAD41;}
	.st76{fill:#F48657;}
	.st77{fill:#D77151;}
	.st78{fill:#F8AB89;}
	.st79{fill:#E9C05B;}
	.st80{fill:#9A8691;}
	.st81{fill:#A28F99;}
	.st82{fill:#8780BC;}
	.st83{fill:#6966AD;}
	.st84{fill:#B2ADD5;}
	.st85{fill:#F48C8C;}
	.st86{fill:#E86363;}
	.st87{fill:#F4876E;}
	.st88{fill:#E56A51;}
	.st89{fill:#80655C;}
	.st90{fill:#C3AC6F;}
	.st91{fill:#9F874A;}
	.st92{fill:#DBC68E;}
	.st93{opacity:0.11;fill:#FFFFFF;}
	.st94{fill:#F7A799;}
	.st95{fill:#FCE5A5;}
	.st96{fill:#DEBB6C;}
	.st97{fill:#B67C76;}
	.st98{fill:none;stroke:#462062;stroke-width:0.843;stroke-linecap:round;stroke-miterlimit:10;}
	.st99{fill:#9D9B86;}
	.st100{fill:#8780BC;stroke:#501338;stroke-width:1.6795;stroke-miterlimit:10;}
	.st101{fill:#C5C4B4;}
	.st102{fill:#E9E9D9;}
	.st103{fill:#E9C15D;}
	.st104{opacity:0.3;}
	.st105{fill:#A27388;}
	.st106{opacity:0.5;fill:#FFFFFF;}
	.st107{fill:#91667A;}
	.st108{opacity:0.4;}
	.st109{opacity:0.5;}
	.st110{opacity:0.5;fill:#A7A7A6;}
	.st111{fill:#C16D34;}
	.st112{opacity:0.4;fill:#FFFFFF;}
	.st113{fill:none;stroke:#501338;stroke-width:1.5687;stroke-linecap:round;stroke-linejoin:round;stroke-miterlimit:10;}
	.st114{opacity:0.27;}
	.st115{fill:#E78B6F;}
	.st116{opacity:0.2;fill:#F48E8E;}
	.st117{fill:#99744B;}
	.st118{fill:#825D38;}
	.st119{fill:#C9CAA6;}
	.st120{fill:#BCBC96;}
	.st121{fill:none;stroke:#462062;stroke-width:0.7845;stroke-linecap:round;stroke-miterlimit:10;}
	.st122{fill:#66402A;}
	.st123{fill:#935C35;}
	.st124{opacity:0.6;fill:#7A4928;}
	.st125{opacity:0.4;fill:#F48E8E;}
	.st126{fill:#E1E1E1;}
	.st127{fill:#C1C1C1;}
	.st128{fill:#52363A;}
	.st129{fill:#C6C5C4;}
	.st130{opacity:0.6;}
	.st131{fill:#888888;}
	.st132{fill:#515252;}
	.st133{opacity:0.6;fill:#888888;}
	.st134{fill:#616160;}
	.st135{fill:#515150;}
	.st136{fill:#957B66;}
	.st137{fill:#B89984;}
	.st138{fill:#787878;}
	.st139{fill:#775F4F;}
	.st140{fill:#D7B9A8;}
	.st141{fill:#99999A;}
	.st142{opacity:0.4;fill:#E6DEC9;}
	.st143{fill:none;stroke:#462062;stroke-width:0.7586;stroke-linecap:round;stroke-miterlimit:10;}
	.st144{fill:#3F4242;}
	.st145{opacity:0.5;fill:#F0B39C;}
	.st146{opacity:0.57;fill:#B89AA6;}
	.st147{fill:#619F7F;}
	.st148{fill:#548E6E;}
	.st149{fill:#C16A2F;}
	.st150{fill:#CE413A;}
	.st151{fill:#B23330;}
	.st152{opacity:0.62;fill:#E48C7D;}
	.st153{fill:#5E3827;}
	.st154{fill:#F48E8E;}
	.st155{fill:#444445;}
	.st156{fill:#353435;}
	.st157{opacity:0.5;fill:#B89AA6;}
	.st158{fill:#4D4C4D;}
	.st159{fill:#444344;}
	.st160{opacity:0.6;fill:#A1A1A1;}
	.st161{fill:#282827;}
	.st162{fill:#636464;}
	.st163{fill:#575959;}
	.st164{fill:#3A3A3A;}
	.st165{opacity:0.5;fill:#787878;}
	.st166{fill:none;stroke:#462062;stroke-width:0.8198;stroke-linecap:round;stroke-miterlimit:10;}
	.st167{fill:#5B5B5C;}
	.st168{fill:#E4E4E4;}
	.st169{fill:#FFF1EA;}
	.st170{fill:#E1CDC5;}
	.st171{opacity:0.4;fill:#F0B39C;}
	.st172{opacity:0.5;fill:#ADADAD;}
	.st173{fill:#B58F5B;}
	.st174{fill:#606060;}
	.st175{fill:#4F5150;}
	.st176{opacity:0.6;fill:#989A9C;}
	.st177{fill:#5D7A6D;}
	.st178{fill:#4C685B;}
	.st179{fill:none;stroke:#462062;stroke-width:0.8057;stroke-linecap:round;stroke-miterlimit:10;}
	.st180{fill:#F7B975;}
	.st181{fill:#8D7449;}
	.st182{opacity:0.35;fill:#F7B975;}
	.st183{fill:#686868;}
	.st184{fill:#959595;}
	.st185{opacity:0.3;fill:#FFFFFF;}
	.st186{fill:#4C4B4C;}
	.st187{fill:#A27F67;}
	.st188{fill:#C6A691;}
	.st189{opacity:0.2;fill:#684D39;}
	.st190{fill:#926E56;}
	.st191{opacity:0.8;fill:#3A3A3A;}
	.st192{fill:#ED3E2B;}
	.st193{fill:#DB2C1F;}
	.st194{opacity:0.7;fill:#989A9C;}
	.st195{fill:#6B4845;}
	.st196{fill:#846363;}
	.st197{fill:#5E3E3C;}
	.st198{fill:none;stroke:#501338;stroke-width:1.6206;stroke-miterlimit:10;}
	.st199{opacity:0.5;fill:#E29780;}
	.st200{opacity:0.6;fill:#FFFFFF;}
	.st201{fill:#ECD8BB;}
	.st202{opacity:0.3;fill:#937B70;}
	.st203{fill:#FCF9F4;}
	.st204{opacity:0.6;fill:#F0B39C;}
	.st205{fill:none;stroke:#462062;stroke-width:0.7828;stroke-linecap:round;stroke-miterlimit:10;}
	.st206{fill:#CDCDCD;}
	.st207{opacity:0.5;fill:#A8A7A7;}
	.st208{fill:#868686;}
	.st209{opacity:0.3;fill:#F0B39C;}
	.st210{opacity:0.7;fill:#F0B39C;}
	.st211{fill:#735A99;stroke:#501338;stroke-width:1.5656;stroke-miterlimit:10;}
	.st212{opacity:0.5;fill:#FCF9F4;}
	.st213{opacity:0.5;fill:#FDDCC0;}
	.st214{fill:#6B3A37;}
	.st215{fill:#92A3D3;}
	.st216{fill:#B0C2E4;}
	.st217{fill:#7790BC;}
	.st218{fill:#7F95C6;}
	.st219{fill:#D0A7C2;}
	.st220{fill:#B7BE79;}
	.st221{fill:#725F82;}
	.st222{fill:#635175;}
	.st223{fill:none;stroke:#501338;stroke-width:1.5843;stroke-miterlimit:10;}
	.st224{fill:#C5B8DA;}
	.st225{fill:#A999C9;}
	.st226{fill:#8B6445;}
	.st227{fill:#7A5439;}
	.st228{fill:none;stroke:#501338;stroke-width:1.5751;stroke-linecap:round;stroke-linejoin:round;stroke-miterlimit:10;}
	.st229{fill:#D9CEB7;}
	.st230{fill:#CCBDA2;}
	.st231{opacity:0.2;fill:#FFFFFF;}
	.st232{fill:#B61F30;}
	.st233{fill:#595B5B;}
</style>
<g>
	<g>
		<g>
			<path class="st99" d="M168.4,202.8c-2.6-1.6-20.6-13.7-22.4-45.5c-0.1-1.4-0.2-2.9-0.4-4.3c-3.5,1.2-6.9,2.4-10.5,3.4
				c-3.3,0.9-6.7,1.8-10,2.6l-2.6,38.7c-1,14.1,6.2,27.9,11.9,35.9c0.2,0.3,0.5,0.5,0.9,0.5c11.6,1.5,19.8-3,25.6-11.9
				c-4.7-7.4-1.2-13.6,7.5-19.1C168.5,203.1,168.5,202.9,168.4,202.8z"/>
			<path class="st6" d="M139.4,235.3c-1.4,0-2.8-0.1-4.3-0.3c-0.6-0.1-1.1-0.4-1.5-0.9c-5-7.1-13.2-21.2-12-36.5l2.6-39.3l0.6-0.2
				c3-0.7,6.4-1.6,10-2.6c3.8-1.1,7.4-2.3,10.4-3.4l1-0.4l0.1,1.1c0.2,1.6,0.3,3,0.4,4.4c1.8,31.6,19.9,43.5,22,44.8
				c0.3,0.2,0.5,0.6,0.5,0.9c0,0.4-0.2,0.8-0.5,1c-5.2,3.2-8.2,6.6-9,10c-0.6,2.5,0,5.1,1.7,7.8l0.3,0.5l-0.3,0.5
				C156.1,231.1,148.7,235.3,139.4,235.3z M125.9,159.7l-2.5,38.1c-1.1,14.7,6.9,28.5,11.7,35.3c0.1,0.1,0.1,0.1,0.3,0.1
				c10.5,1.4,18.5-2.2,24.4-11c-1.7-3-2.3-5.9-1.7-8.7c0.9-3.7,3.8-7.2,8.9-10.6c-4.3-3-20.3-15.8-22-45.6c-0.1-1-0.1-2-0.3-3.2
				c-2.8,1-6.1,2.1-9.5,3C132,158.2,128.7,159,125.9,159.7z M167.9,203.6C167.9,203.6,167.9,203.6,167.9,203.6L167.9,203.6
				C167.9,203.6,167.9,203.6,167.9,203.6z"/>
			<path class="st6" d="M142.8,177.5c0,0,2.5,3.1,6.3,11.3c0.1,0.2,0.4,0.1,0.4-0.1c-2.7-9-5.8-15.7-5.8-15.7L142.8,177.5z"/>
		</g>
		<g>
			<rect x="100.1" y="167" class="st5" width="40.8" height="50.7"/>
			<path class="st13" d="M140.9,174.8v16.5c-20.4,4.8-38.2-0.8-40.8-7.1v-9.5H140.9z"/>
			<path class="st6" d="M141.7,216.6H99.2v-50.4h42.4V216.6z M100.9,214.9H140v-47.1h-39.1V214.9z"/>
		</g>
		<path class="st82" d="M183.6,368.2c-0.1,0.3-0.2,0.7-0.2,1c0,0.1,0,0.1-0.1,0.2c-0.1,0.3-0.2,0.7-0.3,1c-0.3,0.9-0.6,1.7-1,2.5
			c-0.1,0.2-0.2,0.4-0.3,0.6c-0.1,0.2-0.2,0.4-0.3,0.6c-0.1,0.2-0.2,0.4-0.3,0.5c-0.1,0.2-0.2,0.4-0.3,0.5c-0.2,0.3-0.5,0.7-0.7,1
			c-0.3,0.3-0.5,0.6-0.8,0.9c-0.6,0.6-1.2,1.2-1.8,1.7c-0.8,0.7-1.7,1.3-2.6,1.8c0,0,0,0,0,0c-0.4,0.2-0.8,0.4-1.1,0.6
			c-1,0.5-2.1,1-3.3,1.4c-0.2,0.1-0.5,0.2-0.7,0.3c-0.8,0.3-1.6,0.5-2.4,0.8c-0.3,0.1-0.6,0.2-0.9,0.2c-0.1,0-0.3,0.1-0.4,0.1
			c-0.3,0.1-0.7,0.2-1,0.2c-0.5,0.1-0.9,0.2-1.4,0.3c-0.5,0.1-0.9,0.2-1.4,0.3c-0.7,0.1-1.4,0.2-2.1,0.3c-0.9,0.1-1.7,0.2-2.6,0.3
			c-0.1,0-0.1,0-0.2,0c-1,0.1-1.9,0.2-3,0.3c-2,0.2-4.1,0.3-6.3,0.4c-0.4,0-0.7,0-1.1,0.1c-0.7,0-1.5,0.1-2.3,0.1
			c-1.9,0.1-3.9,0.1-6,0.1c-4.9,0.1-7.8-0.6-15-2.6c-2-0.6-4.2-0.6-6.2,0c-7.1,2.1-10.1,2.7-15,2.6c-2.1,0-4-0.1-6-0.1
			c-0.8,0-1.5-0.1-2.3-0.1c-0.4,0-0.7,0-1.1-0.1c-2.2-0.1-4.3-0.2-6.3-0.4c-1-0.1-2-0.2-3-0.3c-0.1,0-0.1,0-0.2,0
			c-0.9-0.1-1.8-0.2-2.6-0.3c-0.7-0.1-1.4-0.2-2.1-0.3c-0.5-0.1-0.9-0.2-1.4-0.3c-0.5-0.1-1-0.2-1.4-0.3c-0.3-0.1-0.7-0.2-1-0.2
			c-0.1,0-0.3-0.1-0.4-0.1c-0.3-0.1-0.6-0.2-0.9-0.2c-0.8-0.2-1.7-0.5-2.4-0.8c-0.2-0.1-0.5-0.2-0.7-0.3c-1.2-0.4-2.3-0.9-3.3-1.4
			c-0.4-0.2-0.8-0.4-1.1-0.6c0,0,0,0,0,0c-0.9-0.6-1.8-1.2-2.6-1.8c-0.7-0.5-1.3-1.1-1.8-1.7c-0.3-0.3-0.5-0.6-0.8-0.9
			c-0.3-0.3-0.5-0.7-0.7-1c-0.1-0.2-0.2-0.3-0.3-0.5c-0.1-0.2-0.2-0.4-0.3-0.5c-0.1-0.2-0.2-0.4-0.3-0.6c-0.1-0.2-0.2-0.4-0.3-0.6
			c-0.4-0.8-0.7-1.6-1-2.5c-0.1-0.3-0.2-0.7-0.3-1c0-0.1,0-0.1-0.1-0.2c-0.1-0.3-0.2-0.7-0.2-1c-0.4-1.7-0.5-3.6-0.4-5.7
			c0.3-11.7,6.9-27.5,12.5-38.7c1.3-2.7,2.6-5.1,3.7-7.1c0.3-0.5,0.5-0.9,0.8-1.3c2.4-3.3,6.6-5,10.7-4.3l34,5.8
			c1.2,0.2,2.5,0.2,3.7,0l34-5.8c4.3-0.7,8.6,1.1,11,4.7c0.2,0.3,0.4,0.6,0.6,1c5.6,10.4,15.3,30.3,16.1,44.8c0,0.3,0,0.7,0,1
			C184.1,364.6,184,366.5,183.6,368.2z"/>
		<g>
			<path class="st83" d="M117.9,337.9c-29-1.4-52-21.2-50.8-23.5c0.3-0.5,0.6-1,0.9-1.5h4.3l21.1,5c0,0,28.3,3.8,29.7,10.4
				C124.4,334.8,121.4,337.9,117.9,337.9z"/>
			<path class="st83" d="M123.1,337.9c29-1.4,52-21.2,50.8-23.5c-0.3-0.5-0.6-1-0.9-1.5h-4.3l-21.1,5c0,0-28.3,3.8-29.7,10.4
				C116.6,334.8,119.5,337.9,123.1,337.9z"/>
		</g>
		<path class="st83" d="M183.4,369.3c-1.8,0.8-11.6-5.3-13.1-5.9c2.7-25.7-4.2-38.6-5.8-39.6c-0.1-0.1-0.2-0.1-0.2-0.1l0.4-6.4
			l2.6-1.4c0.2,0.3,0.4,0.6,0.6,1C173.5,327.2,191.1,341.3,183.4,369.3z"/>
		<path class="st83" d="M57.5,369.3c1.8,0.8,11.6-5.3,13.1-5.9c-2.7-25.7,4.2-38.5,5.8-39.6c0.1-0.1,0.2-0.1,0.2-0.1l-0.4-6.4
			l-2.6-1.4c-0.2,0.3-0.4,0.6-0.6,1C67.4,327.2,49.9,341.3,57.5,369.3z"/>
		<path class="st83" d="M184.1,362.6c-4.1-3.1-12.4-6.1-14.1,2c-3.7,17.6-24.3,20.3-47.7,10.3c-1.1-0.5-2.4-0.5-3.5,0
			c-23.4,10-44,7.3-47.7-10.3c-1.7-8.1-10-5.1-14.1-2c-0.1,2,0.1,3.9,0.4,5.7c0.1,0.3,0.2,0.7,0.2,1c0,0.1,0,0.1,0.1,0.2
			c0.1,0.3,0.2,0.7,0.3,1c0.3,0.9,0.6,1.7,1,2.5c0.1,0.2,0.2,0.4,0.3,0.6l0.3,0.6c0.1,0.1,0.2,0.3,0.2,0.4c0.1,0.2,0.3,0.5,0.4,0.7
			c0.2,0.3,0.5,0.7,0.7,1c0.3,0.3,0.5,0.6,0.8,0.9c0.6,0.6,1.2,1.2,1.8,1.7c0.8,0.7,1.7,1.3,2.6,1.8c0,0,0,0,0,0
			c0.4,0.2,0.8,0.4,1.1,0.6c1,0.5,2.1,1,3.3,1.4c0.2,0.1,0.5,0.2,0.7,0.3c0.8,0.3,1.6,0.5,2.4,0.8c0.3,0.1,0.6,0.2,0.9,0.2
			c0.1,0,0.3,0.1,0.4,0.1c0.3,0.1,0.7,0.2,1,0.2c0.5,0.1,0.9,0.2,1.4,0.3c0.5,0.1,0.9,0.2,1.4,0.3c0.7,0.1,1.4,0.2,2.1,0.3
			c0.9,0.1,1.7,0.2,2.6,0.3c0.1,0,0.1,0,0.2,0c1,0.1,1.9,0.2,3,0.3c2,0.2,4.1,0.3,6.3,0.4c0.4,0,0.7,0,1.1,0.1
			c0.7,0,1.5,0.1,2.3,0.1c1.9,0.1,3.9,0.1,6,0.1c4.9,0.1,7.8-0.6,15-2.6c1-0.3,2-0.4,3.1-0.4c1,0,2.1,0.1,3.1,0.4
			c7.1,2.1,10.1,2.7,15,2.6c2.1,0,4-0.1,6-0.1c0.8,0,1.5-0.1,2.3-0.1c0.4,0,0.7,0,1.1-0.1c2.2-0.1,4.3-0.2,6.3-0.4
			c1-0.1,2-0.2,3-0.3c0.1,0,0.1,0,0.2,0c0.9-0.1,1.8-0.2,2.6-0.3c0.7-0.1,1.4-0.2,2.1-0.3c0.5-0.1,0.9-0.2,1.4-0.3
			c0.5-0.1,1-0.2,1.4-0.3c0.3-0.1,0.7-0.2,1-0.2c0.1,0,0.3-0.1,0.4-0.1c0.3-0.1,0.6-0.2,0.9-0.2c0.8-0.2,1.7-0.5,2.4-0.8
			c0.2-0.1,0.5-0.2,0.7-0.3c1.2-0.4,2.3-0.9,3.3-1.4c0.4-0.2,0.8-0.4,1.1-0.6c0,0,0,0,0,0c0.9-0.6,1.8-1.2,2.6-1.8
			c0.7-0.5,1.2-1.1,1.8-1.7c0.3-0.3,0.5-0.6,0.8-0.9c0.3-0.3,0.5-0.7,0.7-1c0.2-0.2,0.3-0.4,0.4-0.7c0.1-0.1,0.2-0.3,0.2-0.4
			l0.3-0.6c0.1-0.2,0.2-0.4,0.3-0.6c0.4-0.8,0.7-1.6,1-2.5c0.1-0.3,0.2-0.7,0.3-1c0-0.1,0-0.1,0.1-0.2c0.1-0.3,0.2-0.7,0.2-1
			C184,366.5,184.1,364.6,184.1,362.6z"/>
		<path class="st84" d="M67.7,325.4l0.2,0.4c0,0-13.4,22.8-9.6,43.3c-2.6-8.3-4.2-14.6-1.5-23.2s9-18.3,9-18.3l1.5-2L67.7,325.4z"/>
		<path class="st83" d="M112,377.5c1.5-0.9,2.9-1.8,4.2-2.8c1.3-1,2.4-2.2,3.5-3.4c1.1-1.2,2-2.5,2.9-3.9c0.9-1.4,1.7-2.8,2.6-4.2
			c0.1-0.1,0.2-0.1,0.4,0c0.1,0.1,0.2,0.2,0.1,0.3c-0.4,1.7-1,3.2-1.8,4.7c-0.8,1.5-1.7,2.9-2.8,4.2c-1.1,1.3-2.4,2.4-3.9,3.3
			c-1.5,0.9-3.2,1.6-5,2c-0.1,0-0.1,0-0.2-0.1C111.9,377.6,111.9,377.5,112,377.5z"/>
		<path class="st83" d="M106.5,344c2.6,0,5.1-0.1,7.5-0.5c2.4-0.4,4.8-1,7.1-1.7c2.3-0.8,4.5-1.8,6.7-2.8c2.2-1.1,4.3-2.3,6.5-3.5
			c0.2-0.1,0.4,0,0.5,0.2c0.1,0.2,0.1,0.4,0,0.5c-1.8,1.8-3.8,3.4-6,4.8c-2.1,1.4-4.4,2.5-6.8,3.3c-2.4,0.8-5,1.3-7.6,1.4
			c-2.6,0.1-5.3-0.3-7.9-1.3c-0.1,0-0.2-0.2-0.2-0.3C106.3,344.1,106.4,344,106.5,344z"/>
		<path class="st83" d="M132.6,378.5c-1.3-0.3-2.6-0.7-3.7-1.2c-1.1-0.5-2.2-1.1-3.1-1.9c-0.9-0.7-1.8-1.6-2.6-2.5
			c-0.8-0.9-1.5-1.8-2.3-2.8c-0.1-0.1-0.2,0-0.3,0.1c-0.1,0.1-0.1,0.2-0.1,0.3c0.4,1.3,1,2.4,1.7,3.5c0.7,1,1.5,2,2.5,2.7
			c1,0.8,2.1,1.4,3.5,1.7c1.3,0.4,2.8,0.5,4.4,0.3c0.1,0,0.1-0.1,0.2-0.1C132.7,378.6,132.7,378.6,132.6,378.5z"/>
		<path class="st83" d="M158.5,364c-2,1.2-5.2,2.9-11.1,3.6c-5.4,0.8-10.7-0.4-13.6-1.8c-0.1,0.2-0.1,0.4-0.1,0.5
			c0.1,2.9,5.9,9.2,13.5,8.2c11-1.5,11.6-9,11.4-10.2C158.6,364.2,158.6,364.1,158.5,364z"/>
		<path class="st83" d="M82.4,364c2,1.2,5.2,2.9,11.1,3.6c5.4,0.8,10.7-0.4,13.6-1.8c0.1,0.2,0.1,0.4,0.1,0.5
			c-0.1,2.9-5.9,9.2-13.5,8.2c-11-1.5-11.6-9-11.4-10.2C82.3,364.2,82.4,364.1,82.4,364z"/>
		<path class="st6" d="M137.7,387.4c-4.4,0-7.4-0.7-14.4-2.7c-1.9-0.5-3.8-0.5-5.7,0c-7.4,2.1-10.3,2.8-15.2,2.7c-2.1,0-4-0.1-6-0.1
			c-0.8,0-1.5-0.1-2.3-0.1l-1.1,0c-2.4-0.1-4.5-0.3-6.4-0.4c-1-0.1-2-0.2-2.9-0.3c-0.1,0-0.2,0-0.2,0c-0.9-0.1-1.8-0.2-2.6-0.3
			c-0.7-0.1-1.5-0.2-2.2-0.3c-0.5-0.1-1-0.2-1.4-0.3c-0.5-0.1-1-0.2-1.4-0.3c-0.4-0.1-0.7-0.2-1.1-0.2l-0.4-0.1
			c-0.3-0.1-0.6-0.2-0.9-0.2c-0.8-0.2-1.7-0.5-2.5-0.8l-0.7-0.3c-1.2-0.4-2.3-0.9-3.4-1.5c-0.4-0.2-0.7-0.4-1-0.6h0l-0.2-0.1
			c-1-0.6-1.9-1.2-2.7-1.9c-0.7-0.5-1.3-1.2-1.9-1.8c-0.3-0.3-0.6-0.6-0.8-1c-0.2-0.3-0.5-0.6-0.8-1.1c-0.1-0.2-0.2-0.4-0.3-0.5
			c-0.1-0.2-0.2-0.4-0.3-0.6l-0.3-0.6c-0.1-0.2-0.2-0.4-0.3-0.6c-0.4-0.8-0.7-1.6-1-2.6c-0.1-0.3-0.2-0.6-0.3-0.9l0,0l-0.1-0.4
			c-6.2-22.5,3.7-36.2,10.9-46.1c1.9-2.6,3.5-4.9,4.6-7c0.1-0.1,0.1-0.2,0.2-0.3l0.1-0.1c0.1-0.1,0.2-0.3,0.3-0.4
			c0.1-0.1,0.1-0.1,0.1-0.2l0.4-0.6l0,0c2.7-3.5,7-5.2,11.4-4.4l34,5.8c1.1,0.2,2.3,0.2,3.4,0l34-5.8c4.6-0.8,9.2,1.2,11.8,5
			c0.2,0.3,0.4,0.6,0.6,1l0,0c1.1,2.1,2.8,4.4,4.6,7c7.2,10,17.1,23.6,10.9,46.1c0,0.1,0,0.1-0.1,0.2c-0.1,0.3-0.2,0.7-0.3,1
			c-0.3,0.9-0.6,1.8-1,2.6c-0.1,0.2-0.2,0.4-0.3,0.6l-0.3,0.6c-0.1,0.2-0.2,0.4-0.3,0.6c-0.1,0.2-0.2,0.4-0.4,0.6
			c-0.3,0.4-0.5,0.8-0.8,1.1c-0.3,0.3-0.5,0.7-0.8,1c-0.6,0.6-1.2,1.3-1.9,1.8c-0.8,0.7-1.7,1.3-2.7,1.9l-0.2,0.1
			c-0.3,0.2-0.7,0.4-1,0.6c-1,0.5-2.2,1-3.4,1.5l-0.7,0.3c-0.8,0.3-1.7,0.5-2.5,0.8c-0.3,0.1-0.6,0.2-0.9,0.2l-0.4,0.1
			c-0.3,0.1-0.7,0.2-1,0.2c-0.5,0.1-1,0.2-1.5,0.3c-0.4,0.1-0.9,0.2-1.4,0.3c-0.7,0.1-1.4,0.2-2.2,0.3c-0.9,0.1-1.8,0.2-2.7,0.3
			c-0.1,0-0.1,0-0.2,0c-1,0.1-1.9,0.2-2.9,0.3c-1.9,0.2-4,0.3-6.4,0.4l-1.1,0.1c-0.7,0-1.5,0.1-2.3,0.1c-1.9,0.1-3.9,0.1-6,0.1
			C138.2,387.4,137.9,387.4,137.7,387.4z M120.5,382.6c1.1,0,2.2,0.2,3.3,0.5c7.2,2.1,10,2.7,14.7,2.6c2.1,0,4-0.1,6-0.1
			c0.8,0,1.5,0,2.3-0.1l1.1-0.1c2.4-0.1,4.4-0.3,6.3-0.4c1-0.1,2-0.2,2.9-0.3l0.1,0c1-0.1,1.8-0.2,2.7-0.4c0.7-0.1,1.4-0.2,2.1-0.3
			c0.5-0.1,0.9-0.2,1.4-0.3c0.5-0.1,1-0.2,1.4-0.3c0.3-0.1,0.7-0.2,1-0.2l0.4-0.1c0.3-0.1,0.6-0.1,0.9-0.2c0.8-0.2,1.6-0.5,2.4-0.7
			l0.7-0.2c1.1-0.4,2.2-0.9,3.2-1.4c0.3-0.2,0.7-0.4,1-0.6l0.3-0.2c0.8-0.5,1.6-1.1,2.3-1.6c0.6-0.5,1.2-1.1,1.7-1.6
			c0.3-0.3,0.5-0.6,0.8-0.9c0.2-0.3,0.4-0.6,0.7-0.9c0.1-0.2,0.2-0.3,0.3-0.5c0.1-0.2,0.2-0.3,0.3-0.5l0.3-0.6
			c0.1-0.2,0.2-0.3,0.3-0.5c0.4-0.7,0.7-1.5,0.9-2.4c0.1-0.3,0.2-0.6,0.3-1l0-0.1c0,0,0-0.1,0-0.1c6-21.8-3.6-35-10.6-44.7
			c-1.8-2.5-3.6-4.9-4.8-7.2c-0.2-0.3-0.4-0.6-0.5-0.9c-2.2-3.3-6.2-5-10.2-4.3l-34,5.8c-1.3,0.2-2.7,0.2-4,0l-34-5.8
			c-3.8-0.6-7.6,0.9-9.9,4c-0.1,0.1-0.1,0.2-0.2,0.2l-0.2,0.3c-0.1,0.1-0.1,0.2-0.2,0.3l-0.1,0.2c0,0.1-0.1,0.1-0.1,0.2
			c-1.2,2.2-2.9,4.6-4.8,7.1c-7,9.6-16.5,22.8-10.7,44.3l0.1,0.4c0,0,0,0.1,0,0.1l0,0.1c0.1,0.3,0.2,0.6,0.3,1
			c0.3,0.9,0.6,1.6,0.9,2.3c0.1,0.2,0.2,0.4,0.3,0.6l0.3,0.5c0.1,0.2,0.2,0.3,0.3,0.5c0.1,0.2,0.2,0.3,0.3,0.5
			c0.3,0.4,0.5,0.7,0.7,1c0.3,0.3,0.5,0.6,0.8,0.9c0.5,0.6,1.1,1.1,1.7,1.6c0.7,0.6,1.5,1.1,2.3,1.6l0.3,0.2c0.3,0.2,0.7,0.4,1,0.6
			c0.9,0.5,2,0.9,3.2,1.4l0.7,0.2c0.8,0.3,1.6,0.5,2.4,0.7c0.3,0.1,0.6,0.2,0.9,0.2l0.4,0.1c0.3,0.1,0.7,0.2,1,0.2
			c0.5,0.1,0.9,0.2,1.4,0.3c0.5,0.1,0.9,0.2,1.4,0.3c0.7,0.1,1.4,0.2,2.1,0.3c0.9,0.1,1.7,0.2,2.6,0.3l0.2,0c1,0.1,1.9,0.2,2.9,0.3
			c1.9,0.2,4,0.3,6.3,0.4l1.1,0.1c0.7,0,1.5,0.1,2.3,0.1c1.9,0.1,3.9,0.1,5.9,0.1c4.7,0.1,7.5-0.5,14.7-2.6
			C118.2,382.8,119.4,382.6,120.5,382.6z"/>
		<path class="st83" d="M137,333.9c-8.1,0.5-9.6,0.2-16.2-0.7c-0.1,0-0.2,0-0.3,0c0,0,0,0,0,0c0,0,0,0,0,0c-0.1,0-0.2,0-0.3,0
			c-6.6,0.9-8.1,1.1-16.2,0.7c-0.4,0-0.7,0.1-0.5,0.3c6.2,5.2,12.3,8.1,14.6,9.2c0.6,0.3,1.4,0.4,2.3,0.4h0c0.1,0,0.2,0,0.3,0l0,0
			c0.9,0,1.7-0.1,2.3-0.4c2.3-1,8.4-4,14.6-9.2C137.6,334,137.4,333.8,137,333.9z"/>
		<path class="st83" d="M114.3,379.5c3-0.3,3.6-0.2,6,0.5c0,0,0.1,0,0.1,0c0,0,0,0,0,0c0,0,0,0,0,0c0,0,0.1,0,0.1,0
			c2.4-0.7,3-0.8,6-0.5c0.1,0,0.3-0.1,0.2-0.2c-2.3-3.9-4.6-6.1-5.4-6.8c-0.2-0.2-0.5-0.3-0.9-0.3l0,0c0,0-0.1,0-0.1,0l0,0
			c-0.3,0-0.6,0.1-0.9,0.3c-0.9,0.8-3.1,3-5.4,6.8C114.1,379.4,114.2,379.5,114.3,379.5z"/>
		<path class="st6" d="M182.5,370.5c0.3,0.3-3.1,3-7.9,5.1c-0.1,0.1,0,0.3,0.1,0.3c5.4-1.3,8.3-3.1,8.1-3.3L182.5,370.5z"/>
		<path class="st84" d="M62.2,338.1c-0.4,0.1,0.4,3.3,2.6,6.6c0.1,0.1-0.1,0.3-0.2,0.2c-3.3-2.9-4.4-5.4-4.1-5.4L62.2,338.1z"/>
		<path class="st6" d="M60.1,373.8c-0.3,0.3,4,2.8,9.6,4.3c0.1,0,0.1,0.3-0.1,0.3c-6.2-0.5-9.8-2-9.6-2.3L60.1,373.8z"/>
		<polygon class="st100" points="120.5,286 84,286 84.6,305.6 120.5,315.3 156.3,305.6 156.9,286 		"/>
		<path class="st83" d="M120.5,291.8c-27,0-34.2-6-34.2-6l6.7,14.5l27.5,7.3l27.5-7.3l6.7-14.5c0,0-5.3,3.9-21,5.5
			C129.8,291.6,125.5,291.8,120.5,291.8z"/>
		<g>
			<path class="st82" d="M100.4,300.3c0.7,0.3,2.2,1,2.2,1c-4.8,7.1-6.5,16.3-6.9,26.5c-1.7-0.4-3.3-0.8-4.9-1.3
				c-65.5-18.4-65.2-86.7-27.4-117.9c9.7-8,21.8-13.6,36-15.2c0,0,4.6,15.2,21,15.2v79.2H84.1l-2.4-57.9
				C59.7,240.9,49.6,279.9,100.4,300.3z"/>
			<polygon class="st83" points="82.4,228.5 85.2,296.6 91.6,299.6 88.3,272.7 93.3,272.1 88.1,269.9 			"/>
			<path class="st84" d="M66.7,297.5c-10.9,6.5-9.9,8.3-9.9,8.3l1.9,0.7C58.7,306.5,59.3,304.5,66.7,297.5
				C66.8,297.5,66.7,297.5,66.7,297.5z"/>
			<path class="st83" d="M53,274.8c12.5-2.2,12.2-4.2,12.2-4.2l-1.5-1.4C63.7,269.3,62.4,271,53,274.8C53,274.8,53,274.8,53,274.8z"
				/>
			<path class="st83" d="M94.9,304.3c-3.9,13.2-4,22.2-4,22.2c2.8,0.9,1.9,0.6,4.9,1.4l6.9-26.5c-0.7-0.1-1.6-0.7-2.2-1
				c-50.8-20.4-40.8-59.4-18.8-70.5v0l0.8-1.4C68.2,231.4,34,274.7,94.9,304.3z"/>
			<path class="st84" d="M91.2,322.3l-0.3,4.2l0,0.1c-65.5-18.4-65.2-86.7-27.4-117.9C40.7,233.7,17.5,296.6,91.2,322.3z"/>
			<path class="st6" d="M120.5,207.7c-15.5,0-20-14-20.2-14.6l-0.2-0.7l-0.7,0.1c-38.7,4.5-60.7,37-62.3,66.6
				c-1.5,26.7,13.1,58.9,58.6,69.4l1,0.2l0-1c0.4-11.5,2.5-19.8,6.7-26l0.5-0.8l-0.9-0.4c-0.1,0-1.6-0.8-2.3-1h0
				c-30.6-12.3-35.8-29.8-36.2-39.1c-0.5-11.8,6-23.4,16.4-29.2l2.4,57.4l0.1,1.8l1.7,1.4l-0.2-4.9l-2.4-58.4l-1.2,0.6
				c-11.6,5.9-19,18.5-18.4,31.4c0.4,9.7,5.8,28,37.3,40.6c0.3,0.1,0.9,0.4,1.3,0.6c-3.9,6.2-6,14.2-6.4,25.1
				c-43.7-10.6-57.7-41.7-56.3-67.5c1.6-28.8,22.8-60.3,60.2-65c1.1,2.9,6.5,14.6,20.7,15.1V231h1.7v-23.3H120.5z"/>
			<g>
				<g>
					<path class="st5" d="M100.7,300.4c1,0.3,1.6,0.5,1.9,0.6c2.7,1,7.8-2.5,9.9-3.5c1.6-0.7,3.5,3.1,4.3,5.1c0.3,0.7,1,1.2,1.7,1.4
						l6.2,1.1c1,0.2,1.8,1,1.9,2.1c0,0,0.3,26.4-9.2,25.1c-8-1.1-15.3-2.6-22-4.6C97,315,99.3,305.5,100.7,300.4z"/>
					<path class="st13" d="M120.3,303.8c0,0,6.9,0.1,6.8,4.4c-0.1,4.3-1,13.2-2.2,17.1s-3.4,6.5-4,6.9c-0.6,0.5-3.9,0.6-7,0
						c-3-0.6-18.1-3.9-18.1-3.9s-1,0.2-0.8-1.1s3.2-20.4,4.4-23.8c1-3.1,1.3-3.4,1.3-3.4l2.9,0.9c0,0-4.6,14-3.5,18.4
						c6.1,1.3,15.4,3.6,15.4,3.6S120.8,315.4,120.3,303.8z"/>
					<path class="st7" d="M116.6,321.1c0,0,2.8-7.5,2.8-17.3l1.9,0.3C121.3,304.1,121.5,312.5,116.6,321.1z"/>
					<path class="st6" d="M117.3,319.7C117.3,319.7,117.3,319.7,117.3,319.7c3.2-5.1,4.5-15.9,4.5-15.9l-1.5-0.1
						C120.7,305,119.7,313.9,117.3,319.7z"/>
					<path class="st6" d="M126.6,312.2c-1.4,0.5-2.9,0.8-4.3,0.9c1.4,0.5,2.8,0.6,4.1,0.5L126.6,312.2z"/>
					<path class="st6" d="M125.7,319.9c-1.5,0.7-2.9,1-4.3,0.9c1.4,0.5,2.7,0.6,4.1,0.5L125.7,319.9z"/>
					<path class="st6" d="M124,326.2c-0.7,0.4-1.5,0.5-2.5,0.5c0.9,0.3,1.7,0.5,2.3,0.3L124,326.2z"/>
					<path class="st7" d="M111.6,301.3c-0.6,0-1.1,0.1-1.6,0.2c-0.5,0.1-0.9,0.3-1.4,0.6c-0.4,0.2-0.9,0.5-1.3,0.8
						c-0.4,0.3-0.8,0.6-1.1,1.1l0,0c0.5,0,1-0.2,1.5-0.3c0.5-0.1,0.9-0.3,1.4-0.6c0.4-0.2,0.9-0.5,1.3-0.8
						C110.8,302.1,111.2,301.7,111.6,301.3z"/>
				</g>
				<path class="st6" d="M117.3,333.1c-7.7-1-15.2-2.6-22.1-4.6l-0.7-0.2l0.1-0.7c1.5-12.4,3.7-21.7,5.3-27.4l0.2-0.8l1.9,0.6
					c0.4,0.1,0.7,0.2,0.9,0.3c1.8,0.6,5.1-1.2,7.4-2.5c0.7-0.4,1.4-0.8,1.9-1c0.5-0.2,1-0.2,1.5,0c1.3,0.5,2.6,2.4,4,5.5
					c0.2,0.5,0.6,0.8,1.1,0.9l6.2,1.1c1.4,0.3,2.5,1.4,2.6,2.9c0,0.8,0.2,19.3-5.8,24.5c-1.1,1-2.3,1.4-3.6,1.4
					C117.8,333.2,117.6,333.2,117.3,333.1z M112.9,298.3c-0.5,0.2-1.1,0.5-1.8,0.9c-2.7,1.5-6.3,3.5-8.8,2.6
					c-0.2-0.1-0.4-0.1-0.8-0.3l-0.2-0.1c-1.3,4.8-3.5,13.7-4.9,25.6c6.6,1.9,13.7,3.4,21.1,4.4c1.2,0.2,2.2-0.2,3.1-1
					c5.4-4.7,5.2-23.1,5.2-23.2c-0.1-0.7-0.6-1.2-1.2-1.3l-6.2-1.1c-1-0.2-1.9-0.9-2.3-1.9c-1.3-3.1-2.4-4.4-3-4.6
					C113,298.3,113,298.3,112.9,298.3C112.9,298.3,112.9,298.3,112.9,298.3z"/>
			</g>
			<path class="st84" d="M44.1,237.1c0,0,6.9,1.7,9.3,5c0.2,0.2-0.1,0.5-0.3,0.4c-5-2.8-10-3.3-10-3.4L44.1,237.1z"/>
			<path class="st6" d="M89.6,325.8c0.6-6,1.5-10.4,4.5-18.8c-2,8.5-2.5,13.4-2.8,19.2L89.6,325.8z"/>
		</g>
		<g>
			<path class="st82" d="M150,326.5c-1.6,0.5-3.2,0.9-4.9,1.3c-0.3-10.2-2.1-19.4-6.9-26.5c0,0,1.6-0.7,2.2-1
				c50.8-20.4,40.8-59.4,18.8-70.5l-2.4,57.9h-36.4v-79.2c1.8,0,3.5-0.2,5-0.5c12.3-2.6,16-14.7,16-14.7
				c11.8,1.4,22.2,5.5,30.9,11.4c1.8,1.2,3.4,2.5,5.1,3.8C215.2,239.8,215.5,308.1,150,326.5z"/>
			<path class="st83" d="M166.2,201c-6.5,15.6-33.5,12.7-40.7,7c12.3-2.6,16-14.7,16-14.7C153.3,194.8,157.4,195.1,166.2,201z"/>
			<path class="st83" d="M136.1,260.6c0,0,15,9.6,21.6-5.6C159.3,261.6,148.6,270.3,136.1,260.6"/>
			<path class="st83" d="M158.5,228.5l-2.7,68.4h-6.4l3.2-23.2l-11.4,0.7l11.6-4.4l1.2-8.9c1.2-1.8,3.3-4.2,3.8-7.4
				C159.1,246.8,158,237.3,158.5,228.5z"/>
			<path class="st84" d="M189,252.9c11.4-5.7,12.3-3.9,12.3-3.9l-0.4,2C201,251,198.9,250.4,189,252.9
				C189.1,252.9,189.1,252.9,189,252.9z"/>
			<path class="st83" d="M166.6,303.7c-10.1-7.8-8.8-9.4-8.8-9.4l1.9-0.5C159.7,293.8,160.1,295.9,166.6,303.7
				C166.6,303.7,166.6,303.7,166.6,303.7z"/>
			<path class="st83" d="M146,304.3c3.9,13.2,4,22.2,4,22.2c-2.8,0.9-1.9,0.6-4.9,1.4l-6.9-26.5c0.7-0.1,1.6-0.7,2.2-1
				c50.8-20.4,40.8-59.4,18.8-70.5v0l-0.8-1.4C172.8,231.4,207,274.7,146,304.3z"/>
			<path class="st84" d="M149.7,322.3l0.3,4.2l0,0.1c65.5-18.4,65.2-86.7,27.4-117.9C200.3,233.7,223.4,296.6,149.7,322.3z"/>
			<path class="st6" d="M203.9,259.2c-1.7-29.7-23.6-62.1-62.3-66.6l-0.7-0.1l-0.2,0.7c-0.2,0.6-4.6,14.6-20.2,14.6h-0.8V231h1.7
				v-21.6c14.2-0.4,19.6-12.1,20.7-15.1c37.4,4.7,58.6,36.2,60.2,65c1.4,25.8-12.6,56.9-56.3,67.5c-0.5-10.8-2.5-18.8-6.4-25.1
				c0.5-0.2,1-0.5,1.3-0.6c31.5-12.6,36.9-30.9,37.3-40.6c0.6-12.9-6.9-25.6-18.4-31.4l-1.2-0.6l-2.4,58.4l-0.2,4.6
				c0.6-0.3,1.2-0.7,1.7-1.2l0.1-1.7l2.4-57.4c10.3,5.8,16.9,17.4,16.4,29.2c-0.3,8.1-4.3,22.1-24.9,33.7c-0.4,0.2-0.7,0.4-1.1,0.6
				c-3,1.7-6.4,3.2-10.2,4.8h0c-0.7,0.3-2.2,1-2.3,1L137,301l0.5,0.8c4.2,6.2,6.3,14.5,6.7,26l0,1l1-0.2
				C190.8,318.1,205.4,285.8,203.9,259.2z"/>
			<g>
				<g>
					<path class="st5" d="M140.2,300.4c-1,0.3-1.6,0.5-1.9,0.6c-2.7,1-7.8-2.5-9.9-3.5c-1.6-0.7-3.5,3.1-4.3,5.1
						c-0.3,0.7-1,1.2-1.7,1.4l-6.2,1.1c-1,0.2-1.8,1-1.9,2.1c0,0-0.3,26.4,9.2,25.1c8-1.1,15.3-2.6,22-4.6
						C144,315,141.7,305.5,140.2,300.4z"/>
					<path class="st13" d="M120.6,303.8c0,0-6.9,0.1-6.8,4.4c0.1,4.3,1,13.2,2.2,17.1s3.4,6.5,4,6.9c0.6,0.5,3.9,0.6,7,0
						c3-0.6,18.1-3.9,18.1-3.9s1,0.2,0.8-1.1c-0.2-1.3-3.2-20.4-4.4-23.8c-1-3.1-1.3-3.4-1.3-3.4l-2.9,0.9c0,0,4.6,14,3.5,18.4
						c-6.1,1.3-15.4,3.6-15.4,3.6S120.2,315.4,120.6,303.8z"/>
					<path class="st7" d="M124.3,321.1c0,0-2.8-7.5-2.8-17.3l-1.9,0.3C119.6,304.1,119.4,312.5,124.3,321.1z"/>
					<path class="st6" d="M123.6,319.7C123.6,319.7,123.6,319.7,123.6,319.7c-3.2-5.1-4.5-15.9-4.5-15.9l1.5-0.1
						C120.3,305,121.2,313.9,123.6,319.7z"/>
					<path class="st6" d="M114.3,312.2c1.4,0.5,2.9,0.8,4.3,0.9c-1.4,0.5-2.8,0.6-4.1,0.5L114.3,312.2z"/>
					<path class="st6" d="M115.2,319.9c1.5,0.7,2.9,1,4.3,0.9c-1.4,0.5-2.7,0.6-4.1,0.5L115.2,319.9z"/>
					<path class="st6" d="M116.9,326.2c0.7,0.4,1.5,0.5,2.5,0.5c-0.9,0.3-1.7,0.5-2.3,0.3L116.9,326.2z"/>
					<path class="st7" d="M129.4,301.3c0.6,0,1.1,0.1,1.6,0.2c0.5,0.1,0.9,0.3,1.4,0.6c0.4,0.2,0.9,0.5,1.3,0.8
						c0.4,0.3,0.8,0.6,1.1,1.1l0,0c-0.5,0-1-0.2-1.5-0.3c-0.5-0.1-0.9-0.3-1.4-0.6c-0.4-0.2-0.9-0.5-1.3-0.8
						C130.1,302.1,129.7,301.7,129.4,301.3z"/>
				</g>
				<path class="st6" d="M122.8,333.2c-1.3,0-2.6-0.5-3.6-1.4c-5.9-5.2-5.8-23.8-5.8-24.5c0.1-1.5,1.2-2.6,2.6-2.9l6.2-1.1
					c0.5-0.1,0.9-0.4,1.1-0.9c1.4-3.2,2.7-5.1,4-5.5c0.5-0.2,1-0.2,1.5,0c0.5,0.2,1.2,0.6,1.9,1c2.2,1.2,5.6,3.1,7.4,2.5
					c0.2-0.1,0.5-0.2,0.9-0.3l1.9-0.6l0.2,0.8c1.6,5.7,3.8,15,5.3,27.4l0.1,0.7l-0.7,0.2c-6.9,2-14.3,3.6-22.1,4.6
					C123.4,333.2,123.1,333.2,122.8,333.2z M128,298.3c0,0-0.1,0-0.1,0c-0.6,0.2-1.7,1.6-3,4.6c-0.4,1-1.3,1.7-2.3,1.9l-6.2,1.1
					c-0.7,0.1-1.2,0.7-1.2,1.3c0,0.1-0.1,18.5,5.2,23.2c0.9,0.8,1.9,1.1,3.1,1c7.4-1,14.5-2.5,21.1-4.4c-1.4-11.8-3.6-20.8-4.9-25.6
					l-0.2,0.1c-0.4,0.1-0.7,0.2-0.8,0.3c-2.5,0.9-6.1-1.1-8.8-2.6C129.1,298.9,128.5,298.5,128,298.3C128,298.3,128,298.3,128,298.3
					z"/>
			</g>
			<path class="st6" d="M176.6,267.6c1,0.2,7,1.7,9.5,4.3c0.1,0.1,0,0.4-0.2,0.3c-4.6-2.1-8.9-2.8-9.9-3c-0.1,0-0.2-0.1-0.1-0.2
				l0.5-1.3C176.4,267.6,176.5,267.6,176.6,267.6z"/>
			<path class="st6" d="M151.3,325.8c-0.6-6-1.5-10.4-4.5-18.8c2,8.5,2.5,13.4,2.8,19.2L151.3,325.8z"/>
		</g>
		<g>
			<path class="st99" d="M85,156.2l-3.3,23.6c0,6.9,18.1-0.2,18.1-0.2L91,157L85,156.2z"/>
			<path class="st6" d="M86.3,183.6c-1.6,0-3-0.3-4-0.9c-1-0.7-1.5-1.7-1.5-3l0-0.1l3.4-24.4l7.4,1.1l9.3,23.8l-0.8,0.3
				C99.1,180.8,91.6,183.6,86.3,183.6z M82.6,179.8c0,0.7,0.2,1.1,0.7,1.5c2.7,1.8,11.3-0.7,15.3-2.2l-8.3-21.2l-4.6-0.7L82.6,179.8
				z"/>
		</g>
		<g>
			<path class="st6" d="M158.2,244c1.2,3.1,1.3,6.7,0.3,10.1c-1,3.3-3.1,6.4-6.2,8.2c-1.5,0.9-3.3,1.5-5,1.7c-1.8,0.2-3.6,0-5.2-0.4
				c-3.4-0.9-6.4-2.7-8.9-4.9l0.2-0.2c1.5,0.8,2.9,1.6,4.4,2.2c1.5,0.6,3.1,1.1,4.6,1.4c1.6,0.3,3.2,0.4,4.7,0.2
				c1.6-0.2,3-0.7,4.4-1.5c1.4-0.8,2.6-1.8,3.6-3c1-1.2,2.5-3.8,2.6-6.6C158.7,248.3,158.8,247.3,158.2,244z"/>
		</g>
		<g>
			<path class="st6" d="M82.7,244c-0.6,3.3-0.3,6.7,0.8,9.7c0.6,1.5,1.4,2.9,2.4,4.1c1,1.2,2.2,2.3,3.6,3c1.4,0.8,2.9,1.3,4.4,1.5
				c1.6,0.2,3.2,0.1,4.7-0.2c1.6-0.3,3.1-0.8,4.6-1.4c1.5-0.6,3-1.4,4.4-2.2l0.2,0.2c-2.5,2.2-5.5,4-8.9,4.9
				c-1.7,0.4-3.5,0.6-5.2,0.4c-1.8-0.2-3.5-0.8-5-1.7c-3.1-1.8-5.3-4.9-6.2-8.2C81.4,250.8,81.6,247.2,82.7,244z"/>
		</g>
		<path class="st83" d="M134.8,257.3c-0.2,0-0.3,0.2-0.1,0.3c3.2,1.4,13.3,5.4,19.2-1.7c2.8-3.4,2.8-8.8,2.8-11.5
			c0-0.2-0.6-0.1-0.7,0.1C152.2,257.7,141.8,258.1,134.8,257.3z"/>
		<g>
			<circle class="st6" cx="120.5" cy="232.9" r="2.5"/>
			<path class="st82" d="M120.5,231.9c0.8,0,1.4,0.5,1.6,1.3c0-0.1,0-0.2,0-0.4c0-0.9-0.7-1.6-1.6-1.6s-1.6,0.7-1.6,1.6
				c0,0.1,0,0.2,0,0.4C119.1,232.4,119.7,231.9,120.5,231.9z"/>
		</g>
		<path class="st83" d="M100.3,196.5l0.7,1.9c0,0,8.9,59.3-2.7,62.9c-7.6-8.3-5.5-40.6-5.5-40.6l3.4-18.8L100.3,196.5z"/>
		<g>
			<path class="st101" d="M100.1,171.7v79.5c0,0.1,0,13.8-6.8,13.8c-7.6,0-15.6-20.4-15.7-36.3v-0.5c0-0.6,0-1.2,0-1.9
				c0,0,0-0.1,0-0.1c1-25.9,16.9-55.9,16.9-55.9L100.1,171.7z"/>
			<path class="st99" d="M84.5,222.3c0,0-1.9,9.3,3.7,14.8c5.6,5.5,9.3,14.2,9.7,23.2c2.6-8.2,2.5-10.9,2.3-14.4S93,232.1,93,232.1
				L84.5,222.3z"/>
			<path class="st99" d="M94.9,190.8c-6.5,14.4-18.7,25.8-11.2,62.3c-5.7-8.8-8-21.4-3.6-38.2c3.4-6.6,8.8-15,8.8-15L94.9,190.8z"/>
			<path class="st6" d="M85.5,258.5c0,0,0.8-3.9,0.6-12.9c0-0.2,0.3-0.3,0.4,0c1.6,9.3,1.8,16.6,1.8,16.6L85.5,258.5z"/>
			<path class="st6" d="M93.3,265.9c-8.5,0-16.5-21-16.5-37.2v-0.5c0-0.6,0-1.3,0-1.9l0-0.1c1-25.8,16.8-56,17-56.3l0.3-0.6l6.9,1.8
				v80.2C101,251.8,100.9,265.9,93.3,265.9z M78.6,226.4c0,0.6,0,1.2,0,1.8v0.5c0,16.2,8,35.4,14.8,35.4c4.8,0,5.9-9.3,5.9-12.9
				v-78.8l-4.2-1.1c-2.3,4.4-15.5,31.6-16.4,54.9C78.6,226.2,78.6,226.3,78.6,226.4z"/>
			<path class="st102" d="M100.1,251.2c0,0-0.2-10.5-11.9-19.6c-12.7-9.9,10.3-32.4,11.9-47L100.1,251.2z"/>
			<path class="st101" d="M99.4,187.3c0,0-1.5,40.6-7.2,47.9c4.5,5.7,7,12.2,7,12.2l0.9-3.4L99.4,187.3z"/>
			<path class="st7" d="M97.8,193c0,0-13.1,31.3-10.9,36.8c-2.1-3.1-3.4-7.5-1.4-12.5c2-5,9-19.2,9-19.2L97.8,193z"/>
			<path class="st6" d="M99.2,251.2c0-0.1-0.4-10.2-11.6-18.9c-8.6-6.7-2.2-18.3,3.9-29.6c3.5-6.4,7.1-13,7.7-18.3l1.8,0.1l0,66.6
				L99.2,251.2z M99.2,191.3c-1.5,4-3.8,8.2-6.1,12.3c-6,11.1-11.8,21.6-4.4,27.3c5.8,4.5,8.9,9.3,10.5,13.1L99.2,191.3z"/>
			<path class="st102" d="M100.1,171.9l-1.5,3.2c0,0,2.3,6.7-5.4,18.8c-0.9,1.5-2.1,3.1-3.4,4.8c-9.9,12.9-11.8,23.2-12.1,27.5
				c0.5-13.1,4.8-27.3,8.9-38c4-10.5,7.9-17.9,7.9-17.9l5.5,1.5V171.9z"/>
			<path class="st99" d="M100.1,171.9l-1.5,3.2c0,0,2.3,6.7-5.4,18.8c-0.3-0.1-0.5-0.3-0.8-0.4c-2-1.1-3.8-2.6-5.1-4.5
				c-0.2-0.3-0.4-0.6-0.6-0.9c4-10.5,7.9-17.9,7.9-17.9l5.5,1.5V171.9z"/>
			<path class="st6" d="M101,171l-6.9-1.8l-0.3,0.6c-0.1,0.1-3.8,7.2-7.7,17.3c-4.2,11-8.8,25.6-9.3,39l1.8,0.1
				c0.3-3.8,2-14.1,11.9-27c1.3-1.7,2.5-3.4,3.5-5c6.8-10.9,5.9-17.5,5.5-19.1l1.5-3.1V171z M97.6,175l0.1,0.3c0,0.1,2,6.5-5.4,18.1
				c-0.9,1.5-2,3-3.3,4.7c-4.3,5.6-7.1,10.8-8.9,15.1c1.7-8.6,4.4-17.2,7.1-24.3c3.4-9,6.7-15.7,7.8-17.7l3.9,1L97.6,175z"/>
		</g>
		<g>
			<g>
				<g>
					<g>
						<path class="st39" d="M163.6,144.8c-3.4-1.4-5.9-5-5.1-10c0.7-4.5,3.3-8.5,7-11C186.8,116.4,178.5,144,163.6,144.8z"/>
						<path class="st6" d="M163.5,145.7l-0.2-0.1c-4.2-1.7-6.4-6-5.6-10.9c0.8-4.7,3.5-8.9,7.4-11.6l0.2-0.1c7-2.5,10.5-1,12.1,0.7
							c2.1,2.2,2.4,6.1,0.7,10.3c-2.1,5.3-7.5,11.3-14.5,11.7L163.5,145.7z M166,124.6c-3.5,2.4-5.9,6.2-6.6,10.4
							c-0.8,4.9,1.7,7.8,4.4,9c6.1-0.5,10.9-5.8,12.8-10.6c1.4-3.6,1.3-6.8-0.4-8.5C174.4,123,170.9,122.9,166,124.6z"/>
					</g>
					<g>
						<path class="st6" d="M175.5,127.9c-0.4-1-1.1-1.4-1.9-1.5c0.5,0.2,0.9,0.6,1.1,1.2c0.6,1.6-0.1,3.7-1,5.4
							c-1.1,2-2.9,3.3-5,3.8c0,0.1,0.1,0.2,0.1,0.4c2.4-0.3,4.6-1.7,5.8-3.9C175.3,131.5,176,129.4,175.5,127.9z"/>
						<path class="st6" d="M174.9,131.8c-0.2,0.3-2.5,3-2.3,2.7c1.1-1.7,1.8-5.5-0.8-5.9c-0.6-0.1-0.5-1.4,0.2-1.8
							c0.5-0.4,1.7-0.4,2.3-0.1c0.5,0.3,0.8,0.7,1,1.1c0.1,0.2-0.2,0.5-0.1,0.7C175.5,129.5,175.4,130.7,174.9,131.8z"/>
						<path class="st38" d="M169.4,130.9c1.2,0.7-0.5,1.8,0.2,3c0.1,0.2,0.7,0.5,1.6-0.6c0.9-0.9,1.3-1.9,0.4-3
							c-0.3-0.4-1.1-0.7-1.5-0.6C169.5,129.9,169,130.7,169.4,130.9z"/>
					</g>
					<path class="st38" d="M164.4,141.5C164.4,141.5,164.4,141.5,164.4,141.5C164.4,141.5,164.5,141.5,164.4,141.5
						c0.2,0,0.3,0,0.4,0c0.2,0,0.4-0.1,0.7-0.1c0.5-0.1,0.9-0.2,1.4-0.4c0.9-0.3,1.8-0.7,2.6-1.2c0.8-0.5,1.6-1.1,2.3-1.7
						c0.7-0.7,0.9-0.5,0.3,0.3c-0.6,0.8-1.4,1.5-2.2,2.2c-0.8,0.6-1.7,1.2-2.6,1.7c-0.5,0.2-0.9,0.4-1.4,0.6
						c-0.3,0.1-0.5,0.2-0.8,0.2c-0.1,0-0.3,0.1-0.4,0.1c-0.1,0-0.1,0-0.3,0c-0.1,0-0.3,0-0.4,0L164.4,141.5z"/>
				</g>
			</g>
			<g>
				<g>
					<g>
						<path class="st39" d="M77.3,144.8c3.4-1.4,5.9-5,5.1-10c-0.7-4.5-3.3-8.5-7-11C54.2,116.4,62.5,144,77.3,144.8z"/>
						<path class="st6" d="M77.3,145.7c-7-0.4-12.4-6.3-14.5-11.7c-1.7-4.2-1.4-8.1,0.7-10.3c1.6-1.7,5-3.2,12.1-0.7l0.2,0.1
							c4,2.7,6.6,6.9,7.4,11.6c0.8,4.9-1.3,9.2-5.6,10.9l-0.2,0.1L77.3,145.7z M64.7,124.9c-1.7,1.7-1.8,4.9-0.4,8.5
							c1.9,4.8,6.7,10.1,12.8,10.6c2.7-1.2,5.2-4.1,4.4-9c-0.7-4.2-3.1-8-6.6-10.4C70.1,122.9,66.6,123,64.7,124.9z"/>
					</g>
					<g>
						<path class="st6" d="M65.5,127.9c0.4-1,1.1-1.4,1.9-1.5c-0.5,0.2-0.9,0.6-1.1,1.2c-0.6,1.6,0.1,3.7,1,5.4c1.1,2,2.9,3.3,5,3.8
							c0,0.1-0.1,0.2-0.1,0.4c-2.4-0.3-4.6-1.7-5.8-3.9C65.6,131.5,64.9,129.4,65.5,127.9z"/>
						<path class="st6" d="M66,131.8c0.2,0.3,2.5,3,2.3,2.7c-1.1-1.7-1.8-5.5,0.8-5.9c0.6-0.1,0.5-1.4-0.2-1.8
							c-0.5-0.4-1.7-0.4-2.3-0.1c-0.5,0.3-0.8,0.7-1,1.1c-0.1,0.2,0.2,0.5,0.1,0.7C65.4,129.5,65.5,130.7,66,131.8z"/>
						<path class="st38" d="M71.5,130.9c-1.2,0.7,0.5,1.8-0.2,3c-0.1,0.2-0.7,0.5-1.6-0.6c-0.9-0.9-1.3-1.9-0.4-3
							c0.3-0.4,1.1-0.7,1.5-0.6C71.4,129.9,71.9,130.7,71.5,130.9z"/>
					</g>
					<path class="st38" d="M76.5,141.5C76.5,141.5,76.5,141.5,76.5,141.5C76.5,141.5,76.5,141.5,76.5,141.5c-0.2,0-0.3,0-0.4,0
						c-0.2,0-0.4-0.1-0.7-0.1c-0.5-0.1-0.9-0.2-1.4-0.4c-0.9-0.3-1.8-0.7-2.6-1.2c-0.8-0.5-1.6-1.1-2.3-1.7
						c-0.7-0.7-0.9-0.5-0.3,0.3c0.6,0.8,1.4,1.5,2.2,2.2c0.8,0.6,1.7,1.2,2.6,1.7c0.5,0.2,0.9,0.4,1.4,0.6c0.3,0.1,0.5,0.2,0.8,0.2
						c0.1,0,0.3,0.1,0.4,0.1c0.1,0,0.1,0,0.3,0c0.1,0,0.3,0,0.4,0L76.5,141.5z"/>
				</g>
			</g>
		</g>
		<g>
			<g>
				<g>
					<circle class="st65" cx="167.8" cy="143.8" r="4.2"/>
					<path class="st6" d="M171.2,143.8c0,1.9-1.5,3.4-3.4,3.4s-3.4-1.5-3.4-3.4c0-1.9,1.5-3.4,3.4-3.4S171.2,141.9,171.2,143.8
						 M172.9,143.8c0-2.8-2.3-5.1-5.1-5.1s-5.1,2.3-5.1,5.1c0,2.8,2.3,5.1,5.1,5.1S172.9,146.6,172.9,143.8L172.9,143.8z"/>
					<path class="st103" d="M169,146.5c-1.5,0.7-3.3,0-3.9-1.5c-0.7-1.5,0-3.3,1.5-3.9c0.5-0.2,1.1-0.3,1.7-0.2
						c-0.1,0-0.3,0.1-0.4,0.1c-1.3,0.6-1.8,2.1-1.3,3.3c0.6,1.3,2.1,1.8,3.3,1.3c0.1-0.1,0.2-0.1,0.3-0.2
						C170,145.8,169.6,146.2,169,146.5z"/>
					<path class="st7" d="M169.1,144c0-0.1,0-0.3,0-0.4c-0.1-0.4-0.4-0.8-0.8-0.9c0.1-0.4,0.4-0.8,0.9-0.9c0.6-0.1,1.2,0.3,1.3,0.9
						c0.1,0.6-0.3,1.2-0.9,1.3C169.5,144.1,169.3,144,169.1,144z"/>
				</g>
			</g>
			<g>
				<g>
					<circle class="st65" cx="73.1" cy="143.8" r="4.2"/>
					<path class="st6" d="M73.1,140.4c1.9,0,3.4,1.5,3.4,3.4c0,1.9-1.5,3.4-3.4,3.4c-1.9,0-3.4-1.5-3.4-3.4
						C69.7,141.9,71.2,140.4,73.1,140.4 M73.1,138.7c-2.8,0-5.1,2.3-5.1,5.1c0,2.8,2.3,5.1,5.1,5.1c2.8,0,5.1-2.3,5.1-5.1
						C78.2,141,75.9,138.7,73.1,138.7L73.1,138.7z"/>
					<path class="st103" d="M75.8,142.6c0.7,1.5,0,3.3-1.5,3.9c-1.5,0.7-3.3,0-3.9-1.5c-0.2-0.5-0.3-1.1-0.2-1.7
						c0,0.1,0.1,0.3,0.1,0.4c0.6,1.3,2.1,1.8,3.3,1.3c1.3-0.6,1.8-2.1,1.3-3.3c-0.1-0.1-0.1-0.2-0.2-0.3
						C75.2,141.6,75.5,142.1,75.8,142.6z"/>
					<path class="st7" d="M73.3,142.5c-0.1,0-0.3,0-0.4,0c-0.4,0.1-0.8,0.4-0.9,0.8c-0.4-0.1-0.8-0.4-0.9-0.9
						c-0.1-0.6,0.3-1.2,0.9-1.3c0.6-0.1,1.2,0.3,1.3,0.9C73.4,142.2,73.4,142.3,73.3,142.5z"/>
				</g>
			</g>
		</g>
		<path class="st39" d="M170.4,83.1l-49.9-16.5L70.5,83.1c-4,69.8,20.1,103.1,49.9,103.1C150.5,186.2,174.4,152.9,170.4,83.1z"/>
		<path class="st40" d="M71.2,116.9l3.4,10.7l4.5,0.9l-3.8,1.2c1.9,11.7,4.5,22.9,8.6,33C83.2,164.1,72,134.9,72,126
			c0-8-0.9-8.3-0.9-8.3L71.2,116.9z"/>
		<path class="st38" d="M77.6,147.7c0,0,16.2,35.9,41.5,35.9s43.3-26.5,47.1-70.9c2.9,4.7,3.2,9.9,3.2,9.9s-1.3,7.3-2.4,13.1
			c-1.1,5.8-7.5,27-14.5,33.8s-13,14.4-22.5,15.5c-9.5,1.1-22.2,2-28.7-4.1c-6.5-6.1-8.2-4.7-12.6-11.4s-9.2-13.7-9.6-15.9
			C78.7,151.5,77.6,147.7,77.6,147.7z"/>
		<path class="st6" d="M120.5,187c-11.1,0-21.3-4.6-29.4-13.2C74.9,156.7,67.3,124.5,69.7,83l0-0.6l50.7-16.7l50.7,16.7l0,0.6
			c2.4,41.5-5.2,73.7-21.3,90.8C141.8,182.4,131.6,187,120.5,187z M71.3,83.7c-2.2,40.7,5.2,72.3,20.9,89
			c7.8,8.3,17.6,12.7,28.2,12.7c10.7,0,20.4-4.4,28.3-12.7c15.7-16.6,23.1-48.2,20.9-89l-49.1-16.2L71.3,83.7z"/>
		<g>
			<path class="st38" d="M131.7,141.6c2.7,1.6,8.9,3.7,20,0c0.2-0.1,0.2-0.5,0-0.5c-6.2-0.1-14.9,1.4-19.8,0
				C131.6,141.1,131.4,141.5,131.7,141.6z"/>
			<path class="st38" d="M109.3,141.6c-2.7,1.6-8.9,3.7-20,0c-0.2-0.1-0.2-0.5,0-0.5c6.2-0.1,14.9,1.4,19.8,0
				C109.4,141.1,109.5,141.5,109.3,141.6z"/>
		</g>
		<g>
			<g>
				<path class="st38" d="M118,152.8c0,0,4.2,1.2,7.4-0.7C125.5,154.2,120.9,157.4,118,152.8z"/>
				<path class="st38" d="M118.7,125.9c0,0,1.5,15.3-4.9,23.5c-1,1.3-1.3,4.8,4,5.8c-1.2-2-2.3-1.9-1.5-4.1s2-4.9,2.3-5.8
					s1.9-10.7,1.4-14C119.4,127.9,118.7,125.9,118.7,125.9z"/>
				<path class="st40" d="M120,128.7c0,0,1.7,9.4,0.3,16.9l2.9-0.2l-2.3,1.3c0.8,0.3,1.7,1.4,2.3,1.9h-6l1.5-5.4
					c0,0,1.4-9.3,1.3-11.4S120,128.7,120,128.7z"/>
				<path class="st6" d="M118.4,155.4c-0.7-0.1-1.2-0.4-1.8-0.8c-0.6-0.4-1.1-0.8-1.5-1.5c-0.4-0.6-0.6-1.6-0.4-2.4
					c0.2-0.8,0.6-1.5,1.1-2.1c0.6-0.6,1.3-1,2-1.2c0.7-0.2,1.4-0.2,2.1-0.1c1.3,0.2,2.5,0.7,3.6,1.4c0.1,0.1,0.2,0.3,0.1,0.4
					c-0.1,0.1-0.2,0.1-0.3,0.1l0,0c-1.2-0.1-2.3-0.2-3.4-0.1c-1.1,0.1-1.9,0.4-2.4,1c-0.3,0.3-0.5,0.7-0.6,1c-0.1,0.3-0.1,0.7,0,1.1
					c0.3,0.8,1,1.8,1.8,2.6l0,0c0.1,0.1,0.1,0.3,0,0.4C118.6,155.4,118.5,155.4,118.4,155.4z"/>
				<path class="st6" d="M119.6,125.7c0.5,2,0.7,4.1,0.9,6.1c0.2,2.1,0.2,4.1,0.1,6.2c-0.1,2.1-0.4,4.1-0.9,6.2
					c-0.5,2-1.3,4-2.3,5.9c-0.3,0.5-0.9,0.8-1.5,0.5c-0.5-0.3-0.8-0.9-0.5-1.5c0,0,0,0,0,0l0-0.1c1-1.7,1.8-3.4,2.4-5.3
					c0.6-1.9,1-3.8,1.2-5.8c0.2-2,0.3-4,0.3-6c-0.1-2-0.2-4-0.6-6l0,0c0-0.2,0.1-0.5,0.4-0.5C119.3,125.3,119.6,125.5,119.6,125.7z"
					/>
			</g>
		</g>
		<path class="st38" d="M73.5,118.3c0,0,19.4-2.1,26.9-23.4c3.6,0.7,27.4,4,40.2-5.9c0.6,5.1,1.6,12.3,14.6,15.5
			c2.8,0.7,5.5,2,7.6,4.1c2.2,2.2,4.3,5.6,5.3,10.9c0.2-7.5-4.5-19.3-4.5-19.3l-19.5-18.6l-34.7-3.5l-18.7,5.2l-4.5,8.5
			c0,0-6.2,13.6-6.6,14.2C79.2,106.5,73.5,118.3,73.5,118.3z"/>
		<g>
			<g>
				<path class="st38" d="M127.9,118.3c2.2-0.3,4.3-0.9,6.3-1.7c2.1-0.8,4.1-2.1,6.6-3c0.6-0.2,1.2-0.4,1.9-0.5
					c0.6-0.1,1.3-0.1,1.9-0.2c0.6,0,1.3,0,1.9,0.1c0.6,0.1,1.2,0.2,1.8,0.4c2.4,0.6,4.6,1.7,6.8,2.9c0.2,0.1,0.3,0.5,0.2,0.7
					c-0.1,0.3-0.3,0.4-0.5,0.3l0,0c-2.2-0.7-4.5-1.4-6.7-1.6c-0.6,0-1.1,0-1.6-0.1c-0.5,0-1.1,0.1-1.6,0.1c-1,0.2-2.1,0.5-3,1
					c-1.9,1-3.9,2.5-6.2,3.7c-2.2,1.2-4.7,2.1-7.1,2.5c-1.1,0.2-2.1-0.7-2.3-2c-0.2-1.3,0.5-2.5,1.6-2.7
					C127.8,118.3,127.8,118.3,127.9,118.3L127.9,118.3z"/>
			</g>
			<g>
				<path class="st6" d="M126.7,117c2.2-0.2,4.4-0.6,6.6-1.4c2.2-0.7,4.3-1.7,6.9-2.4c0.6-0.2,1.3-0.3,1.9-0.4
					c0.7-0.1,1.3-0.1,2-0.1c0.7,0,1.3,0.1,1.9,0.1c0.6,0.1,1.3,0.2,1.9,0.4c2.5,0.6,4.7,1.6,6.9,2.7c0.2,0.1,0.3,0.4,0.2,0.6
					c-0.1,0.2-0.3,0.3-0.6,0.3l0,0c-2.3-0.7-4.6-1.3-6.9-1.6c-0.6-0.1-1.1-0.1-1.7-0.1c-0.6,0-1.1,0.1-1.7,0.1
					c-1.1,0.2-2.1,0.4-3.2,0.8c-2,0.8-4.1,2.1-6.5,3.1c-2.3,1-4.9,1.7-7.4,2c-1.1,0.2-2.2-0.6-2.3-1.8c-0.2-1.1,0.6-2.2,1.8-2.3
					C126.6,117.1,126.6,117,126.7,117L126.7,117z"/>
			</g>
			<g>
				<path class="st38" d="M113.6,123.1c-2.5-0.5-5-1.4-7.2-2.7c-2.3-1.2-4.3-2.7-6.2-3.7c-1-0.5-2-0.8-3.1-1.1
					c-0.5-0.1-1.1-0.1-1.6-0.2c-0.6,0-1.1,0-1.7,0c-2.3,0.1-4.6,0.7-6.9,1.4l0,0c-0.3,0.1-0.5-0.1-0.6-0.4c-0.1-0.3,0.1-0.5,0.3-0.6
					c2.2-1,4.5-2.1,7-2.6c0.6-0.1,1.2-0.2,1.9-0.3c0.6-0.1,1.3,0,1.9-0.1c0.6,0.1,1.3,0.1,1.9,0.3c0.6,0.2,1.3,0.3,1.9,0.5
					c2.5,0.9,4.6,2.2,6.7,3c2.1,0.9,4.2,1.5,6.4,1.8l0,0c1.1,0.2,1.9,1.4,1.7,2.6C115.9,122.5,114.8,123.3,113.6,123.1
					C113.7,123.1,113.7,123.1,113.6,123.1z"/>
			</g>
			<g>
				<path class="st6" d="M114,121.5c-2.5-0.4-5-1.2-7.3-2.3c-2.3-1.1-4.4-2.4-6.4-3.3c-1-0.5-2.1-0.7-3.1-0.9
					c-0.5,0-1.1-0.1-1.7-0.1c-0.6,0-1.1,0-1.7,0c-2.3,0.2-4.6,0.8-6.9,1.4l0,0c-0.3,0.1-0.5-0.1-0.6-0.3c-0.1-0.2,0.1-0.5,0.3-0.6
					c2.2-1,4.5-2,7-2.5c0.6-0.1,1.3-0.2,1.9-0.3c0.6-0.1,1.3-0.1,1.9-0.1c0.7,0.1,1.3,0.1,2,0.2c0.6,0.1,1.3,0.2,1.9,0.4
					c2.5,0.7,4.7,1.9,6.8,2.6c2.1,0.8,4.3,1.3,6.5,1.5l0,0c1.1,0.1,1.9,1.2,1.8,2.3C116.3,120.9,115.2,121.7,114,121.5
					C114.1,121.5,114,121.5,114,121.5z"/>
			</g>
		</g>
		<path class="st73" d="M173.1,111.8c-2.6-6.8-3.3-14-5.5-20.9c-2.1-6.6-5.9-12.9-10.3-18.1c-2.7-3.2-5.8-5.5-9.2-7.1
			c-1.3-0.2-2.6-0.4-3.6-0.6c-6.7-1.3-13.4-2.5-20.2-3.4c-1.2,0-2.4,0.1-3.6,0.2c-12,0.7-25.2,3.8-35.2,10.6
			c-5,3.4-9.1,8.2-10.6,14.2c-1.1,4.3-1.3,8.8-2,13.2c0.3,4.9-0.6,9.6-5.1,13.3c-0.1,0.1-0.2,0.2-0.4,0.3c1,2.4,2.3,4.7,3.7,6.2
			c0,0,21-5.4,27.6-29.4c21.6,6.1,38.7-1.7,44.9-6.7c0.3,26,17.3,6.7,26.3,36.6c1.5-1.6,2.9-4.2,4-6.9
			C173.6,112.8,173.3,112.3,173.1,111.8z"/>
		<path class="st80" d="M71.2,116.9c0,0,0.1,0,0.3-0.1c2.2-1,17.5-8.4,26.3-25.9c-0.1,4-2.5,12.1-11.7,19.7s-12.6,8.7-13.9,8.7
			c-1.3,0.1-1-1.2-1-1.2V116.9z"/>
		<path class="st80" d="M95.6,88.2c0,0,27.8,4.2,45.3-3.3c-2.6,2.5-13,7.3-22.7,7.5c-9.7,0.2-22.4-3-22.5-3.6
			C95.6,88.2,95.6,88.2,95.6,88.2z"/>
		<path class="st64" d="M144,85.4c0,0,2.3,7.4,11.3,11.1s12.9,17.7,12.9,17.7s0.7-2.9,0.7-3.3c0-0.4-3.6-9.3-3.6-9.3l-5.5-5.9
			l-3.9-4.5l-7.5-4.3L144,85.4z"/>
		<path class="st6" d="M169.6,121.8l-0.4-1.4c-4.4-14.6-10.5-17.1-15.9-19.3c-5.2-2.1-9.8-3.9-10.3-15.9
			c-7.4,5.2-23.4,11.4-43.4,6.1c-6.9,23.4-27.8,29.1-28,29.1l-0.5,0.1l-0.4-0.4c-1.8-1.9-3.1-4.6-3.9-6.4l-0.3-0.6l0.6-0.4
			c0.1-0.1,0.2-0.1,0.3-0.2c3.7-3.1,5.2-7,4.8-12.6l0-0.1l0-0.1c0.2-1.5,0.4-3,0.6-4.5c0.3-2.9,0.7-5.9,1.4-8.8
			c1.8-7.2,7-11.9,11-14.7c8.9-6.1,21.6-9.9,35.6-10.8c1.2-0.1,2.4-0.1,3.6-0.2l0.1,0l0.1,0c6.2,0.8,12.8,1.9,20.3,3.4
			c1,0.2,2.2,0.4,3.5,0.6l0.1,0l0.2,0.1c3.7,1.8,6.9,4.3,9.5,7.4c4.9,5.8,8.5,12.1,10.5,18.4c1,3,1.6,6.2,2.3,9.2
			c0.8,3.9,1.7,7.9,3.2,11.7c0.2,0.5,0.4,0.9,0.7,1.2l0.3,0.4l-0.2,0.5c-0.8,2.1-2.2,5.1-4.1,7.1L169.6,121.8z M68.5,113.7
			c0.9,2,1.9,3.7,3,4.9c3.2-1,20.7-7.5,26.5-28.6l0.2-0.8l0.8,0.2c21.1,5.9,38.1-1.7,44.1-6.6l1.4-1.1l0,1.8c0.2,12.4,4,13.9,9.3,16
			c5.3,2.1,11.9,4.8,16.5,18.8c0.9-1.3,1.8-3,2.6-4.9c-0.3-0.4-0.5-0.8-0.7-1.3v0c-1.5-3.9-2.4-8-3.2-11.9c-0.6-3-1.3-6.1-2.2-9.1
			c-1.9-6.1-5.4-12.2-10.2-17.8c-2.4-2.9-5.4-5.2-8.8-6.9c-1.3-0.2-2.5-0.4-3.5-0.6c-7.4-1.5-14-2.6-20.1-3.3
			c-1.2,0-2.3,0.1-3.5,0.2C107,63.5,94.7,67.2,86,73.1c-3.7,2.6-8.6,7-10.3,13.7c-0.7,2.8-1,5.7-1.4,8.6c-0.2,1.5-0.3,3-0.6,4.5
			C74.2,105.9,72.5,110.3,68.5,113.7z"/>
		<path class="st102" d="M161.5,59.5C149.5,49.8,136.8,45,120.5,45c-15.1,0-29,4.8-41.1,14.5C62.6,73,56,100.6,71,120.1
			c0-0.7,0.2-38.8,49.5-38.8s49.5,38.1,49.5,38.8C184.9,100.6,178.3,73,161.5,59.5z"/>
		<g>
			<g>
				<g>
					<path class="st38" d="M91.7,125.5c0.6,3.8,9.8,12.4,16.8,2.9C98.7,125.5,97.7,124.6,91.7,125.5z"/>
					<path class="st6" d="M106.1,127.5c-0.7,2.6-3.3,4.2-5.9,3.8c-2.7-0.5-4.5-2.9-4.4-5.5L106.1,127.5z"/>
					<g>
						<g>
							<path class="st6" d="M107.3,129.9c-1.1-1-2.5-1.8-4.1-2.4c-1.5-0.6-3.2-1-4.9-1.3c-3.4-0.5-6.9-0.4-10.5,0
								c-0.2,0-0.4-0.1-0.4-0.4c0-0.2,0.1-0.4,0.3-0.4c3.5-1.1,7.1-1.6,10.8-1.4c1.9,0.1,3.7,0.4,5.6,1c1.8,0.7,3.6,1.6,5,3.1
								c0.5,0.5,0.4,1.3-0.1,1.8C108.5,130.4,107.8,130.4,107.3,129.9L107.3,129.9z"/>
						</g>
					</g>
					
						<ellipse transform="matrix(0.3018 -0.9534 0.9534 0.3018 -53.8188 183.3826)" class="st7" cx="98.3" cy="128.4" rx="1" ry="1"/>
				</g>
			</g>
			<g>
				<path class="st38" d="M148.7,125.5c-0.6,3.8-9.8,12.4-16.8,2.9C141.7,125.5,142.7,124.6,148.7,125.5z"/>
				<path class="st6" d="M134.3,127.5c0.7,2.6,3.3,4.2,5.9,3.8s4.5-2.9,4.4-5.5L134.3,127.5z"/>
				<g>
					<g>
						<path class="st6" d="M131.3,128.1c1.4-1.6,3.2-2.5,5-3.1c1.8-0.6,3.7-0.9,5.6-1c3.7-0.2,7.4,0.4,10.8,1.4
							c0.2,0.1,0.3,0.3,0.3,0.5c-0.1,0.2-0.2,0.3-0.4,0.3c-3.5-0.4-7.1-0.5-10.5,0c-1.7,0.3-3.3,0.6-4.9,1.3c-1.5,0.6-3,1.4-4.1,2.4
							l0,0c-0.5,0.5-1.3,0.5-1.8-0.1C130.9,129.4,130.9,128.6,131.3,128.1z"/>
					</g>
				</g>
				<ellipse transform="matrix(0.9534 -0.3018 0.3018 0.9534 -32.3047 47.7767)" class="st7" cx="138.5" cy="128.4" rx="1" ry="1"/>
			</g>
		</g>
		<path class="st101" d="M145.8,85.3c0,0-2.6-8.2,5-8.9c9.8-0.8,16.5-8.8,9.2-17.1c6.9,4.9,12.3,9.3,16.4,22.9s0,25.7,0,25.7
			l-5.5,11.1l-0.9,0.1c0,0,0.2-3-1.9-8.8c-2.1-5.8-4.5-11.2-9.2-15.8S145.8,85.3,145.8,85.3z"/>
		<path class="st7" d="M62.6,100.8c0,0-0.5-34,35.4-51c-8.9,2.9-12.2,2.7-23.4,13.7S62.2,96.2,62.2,96.2L62.6,100.8z"/>
		<path class="st7" d="M87.9,61.6c9-5.9,27.8-14.5,52.8-5.9c0.5,0.2,0.8-0.5,0.4-0.7c-4.2-2.9-9.6-6.1-23.6-5.8
			c-13.3,0.2-24,6.8-30,11.8C87,61.3,87.4,61.9,87.9,61.6z"/>
		<path class="st101" d="M71.6,86.6c9.5-8.5,30-22.1,60.9-16.5c0.6,0.1,0.8-0.7,0.3-0.9c-5.5-2.7-12.4-5.4-28.8-2.6
			c-15.6,2.7-27,12.3-33.2,19.3C70.5,86.4,71.2,87,71.6,86.6z"/>
		<path class="st101" d="M115,60.3c8.3-1.5,24.7-2,40.3,12c0.3,0.3,0.7-0.1,0.5-0.4c-2.2-3.4-5.1-7.4-15.4-11.5
			c-9.8-3.9-19.6-2.5-25.5-0.6C114.5,59.8,114.6,60.4,115,60.3z"/>
		<path class="st101" d="M62.9,90c1,6.1,1.9,11.3,2.9,13.2l3.5-1.5l-2.6,3.6l2.1,4.1c0,0,8-31.2,49.1-28.9
			c-8.9,1.7-31.7,4.1-40.1,18.8s-6.8,18.4-6.8,18.4l-0.6,1.1l-2.7-3.4c0,0-4.8-9-4.9-12.9c-0.2-3.9-0.7-9.2-0.7-9.3
			C62.2,93.2,62.9,90,62.9,90"/>
		<path class="st64" d="M71.2,118.6c0,0,1.2-21.1,20.8-30.4c-6.6,3.3-17.4,17.5-20.8,30.7"/>
		<path class="st64" d="M93.2,87c0,0,23.4-6.3,48.1-2.2c-2.5-1.8-11.8-3.6-16.4-3.6c-4.6,0-18.7,0-24.5,2.1
			C94.7,85.4,93.2,87,93.2,87z"/>
		<path class="st6" d="M169.2,122.6v-2.5c0-1.6-0.6-38-48.7-38c-48.1,0-48.7,36.4-48.7,38v2.5l-1.5-2c-15.6-20.3-8.1-48.4,8.6-61.8
			C91,49.1,105,44.2,120.5,44.2c16.1,0,29,4.5,41.6,14.7l0,0c16.7,13.4,24.2,41.5,8.6,61.8L169.2,122.6z M120.5,80.5
			c43.2,0,49.3,28.6,50.2,37.3c13.2-19.4,5.9-45.1-9.7-57.6c-12.3-9.9-24.8-14.3-40.5-14.3c-15.1,0-28.7,4.8-40.5,14.3
			c-15.6,12.5-22.8,38.2-9.7,57.6C71.1,109.1,77.3,80.5,120.5,80.5z"/>
		<path class="st6" d="M174.8,110.7c-0.3-1.5-1.3-5.6-3.4-10.3c-0.1-0.3,0.2-0.5,0.4-0.3c2.2,2.5,4.5,6.9,4.4,8.2
			c0,0.9-0.6,1.9-1,2.4C175.1,111,174.8,111,174.8,110.7z"/>
		<path class="st6" d="M63.4,97.4c0.4-1.2,1.6-4.4,3.9-8c0.1-0.2-0.1-0.5-0.3-0.3c-2.2,1.8-4.6,5.2-4.6,6.3c0,0.7,0.4,1.6,0.7,2.1
			C63.1,97.6,63.4,97.6,63.4,97.4z"/>
		<path class="st6" d="M102.6,90.3c-1.1-0.2-4.3-0.9-8-2.6c-0.2-0.1-0.4,0.2-0.2,0.3c2,1.8,5.5,3.5,6.6,3.4c0.7-0.1,1.4-0.6,1.8-0.9
			C102.9,90.4,102.8,90.3,102.6,90.3z"/>
		<path class="st38" d="M128.3,162.2c-6.7,7.9-15.2,2.3-15.2,2.3S121.1,165,128.3,162.2z"/>
		<path class="st38" d="M128.3,162.2c-7.2,2.9-15.2,2.3-15.2,2.3s2.3-6.8,7.3-3.1C121.9,159.4,124.7,157.3,128.3,162.2z"/>
	</g>
	<g>
		<g>
			<path class="st23" d="M193.9,453.5H48.4c-4,0-7.3-3.3-7.3-7.3v0c0-4,3.3-7.3,7.3-7.3h145.4c4,0,7.3,3.3,7.3,7.3v0
				C201.2,450.3,197.9,453.5,193.9,453.5z"/>
			<g>
				<g>
					<path class="st24" d="M191.4,409.2H50.9c-4.1,0-7.5,3.4-7.5,7.5v27.6c0,4.1,3.4,7.5,7.5,7.5h140.5c4.1,0,7.5-3.4,7.5-7.5v-27.6
						C198.9,412.5,195.5,409.2,191.4,409.2z M196.9,444.2c0,3-2.4,5.5-5.5,5.5H50.9c-3,0-5.5-2.5-5.5-5.5v-27.6c0-3,2.5-5.5,5.5-5.5
						h140.5c3,0,5.5,2.5,5.5,5.5V444.2z"/>
					<path class="st25" d="M196.9,416.6v27.6c0,3-2.4,5.5-5.5,5.5H50.9c-3,0-5.5-2.5-5.5-5.5v-27.6c0-3,2.5-5.5,5.5-5.5h140.5
						C194.4,411.2,196.9,413.6,196.9,416.6z"/>
				</g>
			</g>
		</g>
		<g>
			<path class="st24" d="M101,430.2h-0.8v7.1h-1.6V422h1.6v7.2l0.8-0.3l4-6.9h1.9l-4,6.6l-0.8,0.7l0.9,0.9l4.5,7.2h-2.1L101,430.2z"
				/>
			<path class="st24" d="M114.8,436.6c-0.4,0.3-0.8,0.6-1.3,0.7c-0.5,0.2-1.1,0.3-1.7,0.3c-0.7,0-1.3-0.1-1.8-0.4
				c-0.5-0.3-0.9-0.7-1.3-1.2c-0.3-0.5-0.6-1.1-0.7-1.8s-0.2-1.5-0.2-2.4c0-1.9,0.3-3.3,1-4.3s1.7-1.5,2.9-1.5
				c0.4,0,0.8,0.1,1.2,0.2s0.8,0.3,1.1,0.6c0.3,0.3,0.6,0.7,0.8,1.3s0.3,1.3,0.3,2.2c0,0.3,0,0.5,0,0.8c0,0.3,0,0.6-0.1,0.9h-5.6
				c0,0.6,0.1,1.2,0.2,1.7c0.1,0.5,0.3,1,0.5,1.3c0.2,0.4,0.5,0.6,0.8,0.8c0.3,0.2,0.8,0.3,1.3,0.3c0.4,0,0.8-0.1,1.2-0.2
				c0.4-0.1,0.7-0.3,0.9-0.5L114.8,436.6z M113.6,430.7c0-1.1-0.1-1.9-0.5-2.4c-0.3-0.5-0.8-0.8-1.4-0.8c-0.7,0-1.2,0.3-1.6,0.8
				c-0.4,0.5-0.6,1.3-0.7,2.4H113.6z"/>
			<path class="st24" d="M121.7,427.8h-2.4c0,1.2-0.1,2.5-0.2,3.6s-0.2,2.2-0.4,3.1c-0.2,0.9-0.4,1.6-0.8,2.1
				c-0.3,0.5-0.8,0.8-1.3,0.8c-0.3,0-0.5,0-0.6,0c-0.2,0-0.3-0.1-0.5-0.2l0.2-1.4c0.3,0.1,0.6,0.1,0.8-0.1c0.2-0.1,0.5-0.5,0.6-1.1
				c0.2-0.6,0.3-1.6,0.4-2.9c0.1-1.3,0.2-3.1,0.2-5.4h5.4v11h-1.6V427.8z"/>
			<path class="st24" d="M131.4,431l0.1-1.7h-0.1l-0.8,1.8l-3.7,6.2h-1v-11h1.6v6.5l-0.1,1.6h0.1l0.7-1.8l3.8-6.3h1v11h-1.6V431z"/>
			<path class="st24" d="M141,432.5h-3.8v4.9h-1.6v-11h1.6v4.7h3.8v-4.7h1.6v11H141V432.5z"/>
		</g>
	</g>
</g>
</svg>
