<?xml version="1.0" encoding="utf-8"?>
<!-- Generator: Adobe Illustrator 21.0.0, SVG Export Plug-In . SVG Version: 6.00 Build 0)  -->
<svg version="1.1" id="Layer_1" xmlns="http://www.w3.org/2000/svg" xmlns:xlink="http://www.w3.org/1999/xlink" x="0px" y="0px"
	 viewBox="0 0 100 100" style="enable-background:new 0 0 100 100;" xml:space="preserve">
<style type="text/css">
	.st0{fill:#BE4E2A;}
	.st1{fill:#CD5F37;}
	.st2{fill:#501338;}
	.st3{fill:#DF7758;}
	.st4{fill:#FFFFFF;}
	.st5{fill:#CECBCA;}
	.st6{fill:#F05B3D;}
</style>
<g>
	<g>
		<g>
			<path class="st5" d="M92.6,33.4C92.6,33.4,92.6,33.4,92.6,33.4c-0.1-0.5-0.3-1-0.7-1.5c-1.2-1.6-3.8-1.8-5.3-0.5
				c-0.5,0.4-0.9,0.9-1.4,1.2c-0.9,0.4-2,0-2.9-0.6c-1.6-1.1-2.8-2.6-4.3-3.8c-1.5-1.2-3.6-1.9-5.3-1c-2.3,1.2-2.5,4.2-3.1,6.7
				c-0.8,3-2.8,5.8-5.4,7.4c-4,2.6-9.2,2.7-13.9,2.1s-9.5-1.8-14.2-1.4c-0.9,0.1-1.9,0.2-2.8-0.1c-1.8-0.5-3.1-2.2-4.9-2.3
				c-1.6,0-3,1.3-4.6,1.4c-2.4,0.2-5-2.3-7-0.9c-1.1,0.8-1.2,2.3-1.9,3.4c-0.7,1-1.7,1.6-2.7,2.3c-3.4,2.6-5.1,6.8-5.8,11.1
				c-0.1,0.6-4.9,24.7,2.4,27.5c11,4.3,5.9,14.7,25,9.9c15.5-3.8,21.1-7.8,23-17.1c1.7-8,1.5-23.5,32-29.6c1.8-0.4,1.1-3.6,1.1-3.6
				c0,0,0,0,0,0c0-0.2,0-0.5-0.1-0.9c-0.1-0.3-0.2-0.7-0.4-1C91.1,41.4,93.9,37.9,92.6,33.4z"/>
		</g>
		<path class="st0" d="M6.2,57c0,0-5,24.7,2.4,27.6c11,4.3,5.9,14.7,25,9.9c15.5-3.8,21.1-7.8,23-17.1c1.7-8,1.5-23.5,32-29.6
			c1.8-0.4,1.1-3.6,1.1-3.6c0.1-0.4-1.5-1.6-1-1.7c1.9-0.5,5.3-4.2,4-9.1C79,34.3,50.2,50.6,50.2,50.6l-27,7.3L6.2,57z"/>
		<path class="st1" d="M88.6,39.2c0.5-1,1.7-1.3,2.7-2c1.6-1.2,2-3.7,0.7-5.3c-1.2-1.6-3.8-1.8-5.3-0.5c-0.5,0.4-0.9,0.9-1.4,1.2
			c-0.9,0.4-2,0-2.9-0.6c-1.6-1.1-2.8-2.6-4.3-3.8s-3.6-1.9-5.3-1c-2.3,1.2-2.5,4.2-3.1,6.7c-0.8,3-2.8,5.8-5.4,7.4
			c-4,2.6-9.2,2.7-13.9,2.1s-9.5-1.8-14.2-1.4c-0.9,0.1-1.9,0.2-2.8-0.1c-1.8-0.5-3.1-2.2-4.9-2.3c-1.6,0-3,1.3-4.6,1.4
			c-2.4,0.2-5-2.3-7-0.9c-1.1,0.8-1.2,2.3-1.9,3.4c-0.7,1-1.7,1.6-2.7,2.3C8.1,48.9,6.4,54,6,58.9c-0.1,1.5-0.2,3.1,0.3,4.6
			C6.8,65,8,66.3,9.5,66.6c1.2,0.3,2.4,0,3.5,0.5c1.3,0.7,1.7,2.5,1.4,4c-0.3,1.5-1,2.9-1.2,4.4c-0.3,2.9,1.7,5.7,4.3,7
			c2.6,1.3,5.7,1.1,8.5,0.3c3.6-1.1,7.1-3.6,7.9-7.3c0.2-1.1,0.6-2.5,1.7-2.5c0.9,0,1.4,1.1,2,1.8c1.2,1.3,3.3,1.2,5,0.5
			c3.5-1.4,5.9-4.5,7.8-7.7c1.8-3.2,3.3-6.7,5.5-9.7c3.4-4.5,8.4-7.5,13.7-9.4c4.1-1.5,8.4-2.3,12.7-2.9c1.4-0.2,2.9-0.6,4.3-0.7
			c0.8,0,1.7,0.2,2.5,0.1c0.9-0.2,0.9-0.7,0.7-1.6C89.3,42,88,40.6,88.6,39.2z"/>
		<path class="st0" d="M36.9,58.8c0,0,0.9,1.8,0.7,3.1c0,0,0.4,1.2,0,2c-0.4,0.8-0.2,2.4,1.2,2.7c1.4,0.4,1.6,5.3,5.7,2.2
			S54,58.2,58.4,53.8s15.3-8.7,23.4-9.4c8.1-0.7,6.1-4.1,4.7-5.1c-1.4-0.9-2.9-2-3.1-2.1c-0.2-0.1-3.7,1.5-3.7,1.5L58.5,50.6
			l-16,9.4L36.9,58.8z"/>
		<path class="st4" d="M86.6,42.1c-0.2,0.2-0.5,0.3-0.8,0.4c-8.2,2.4-18.6,3.4-25.3,8.7c-2.6,2-3.1,2.5-7.1,7.2
			c-3.3,4-6.3,7.3-10.8,9.9c-0.2,0.1-0.5,0.2-0.7,0.2c-0.5-0.1-0.6-0.6-0.8-1.1c-0.2-0.6-0.6-1.2-1.2-1.4c-0.5-0.2-1.1,0-1.6,0
			c-0.9-0.1-1.6-1.2-1.3-2.1c0.3-0.8,1.1-1.3,1.3-2.1c0.3-1.2-0.7-2.1-1.5-3.1c-0.3-0.4-0.6-0.8-0.7-1.3c-0.3-1.5,1-2.9,2.5-3.3
			c1.2-0.4,2.8,0,2.9,1.2c0.1,0.5-0.2,1-0.1,1.4c0.6,4.1,9.4-3.1,10.4-3.9c3-2.3,6.3-4.3,9.7-6c5.6-2.7,11.9-4.6,16-9.2
			c0.6-0.7,1.2-1.5,1.9-2.1c0.7-0.6,1.7-1,2.6-0.8c0.8,0.1,1.6,0.9,1.6,1.7c0,0.1,0,0.2,0,0.3c-0.1,0.6-0.5,1.1-0.5,1.7
			c0.1,0.6,0.6,1,1.2,1.3c0.6,0.2,1.2,0.4,1.7,0.8C86.8,40.9,87,41.6,86.6,42.1z"/>
		<path class="st0" d="M74.8,31.3c0,0,4.3,1.4,3.4,3.1s-3.1,4.6-6.1,4.8c1.8-3,2.4-5.4,2.4-5.4L74.8,31.3z"/>
		<path class="st4" d="M77.2,34.5c-0.8,1-1.6,1.9-2.5,2.9c-0.7,0.7-1.4,1.4-2.2,1.8c-0.2,0.1-0.5,0.3-0.7,0.2
			c-0.1,0-0.1-0.1-0.2-0.1c-0.1-0.2,0.2-0.9,0.3-1.1C72.5,36,73.2,34,74,32c0.1-0.3,0.3-0.7,0.6-0.7c0.2,0,0.3,0.1,0.5,0.2
			c0.5,0.3,1,0.7,1.5,1.1c0.2,0.2,0.4,0.3,0.6,0.5c0.2,0.1,0.3,0.3,0.3,0.5C77.6,33.9,77.4,34.2,77.2,34.5z"/>
		<g>
			<path class="st2" d="M21.2,24.8l-0.2-0.2l-0.1-0.4l-0.5-1.9l-0.1-0.5l-0.1-0.3l-0.2-0.9L20,20.3l0-0.3l-0.1-0.3l0-0.3l-0.1-0.3
				l0-0.2l-0.1-0.3l-0.2-0.9l-0.2-0.3l-0.4-0.2l-0.3-0.1l-0.3-0.1L18.1,17l-0.3-0.1l-0.3,0l-0.2-0.2l-0.5-0.3l-0.2-0.1l-0.3-0.2
				l-0.2-0.1l-0.2-0.2l-0.2-0.2l-0.2-0.2l-0.2-0.2L15,14.9l-0.4-0.3l-0.1-0.3l0.1-0.3l0.2-0.2l0.4,0l0.3,0.1l0.3,0.2l0.2,0.2
				l0.3,0.2l0.2,0.2l1.1,0.9l0.5,0.3l0.3,0.1l0.2,0.1l0.6,0.2l0.6,0l0.3,0l0.3,0.1l0.2-0.2l0-0.3l-0.2-0.2L19,14.1l-0.1-0.3
				l-0.2-0.2l-0.3-0.5L18,12.7l-0.1-0.2l-0.2-0.2L17.6,12l0.3-0.4l0.5-0.2l0.3,0.1l0.2,0.2l0.3,0.4l0.2,0.2l0.2,0.2l0.1,0.2l0.2,0.2
				l0.1,0.3l0.2,0.3l0.3,0.5l0.2,0.2l0.2,0.2l0.2,0.3l0.4,0.5l0.2,0.1l0.2-0.1l0.1-0.3l0.1-0.2l0.1-0.3l0-0.3l0.1-0.3l0-0.3l0-0.3
				L22,13l0-0.3l-0.3-0.8l-0.1-0.3l-0.1-0.3L21.4,11l-0.1-0.3l-0.4-0.8l0-0.3L21,9.3l0.3-0.2l0.3,0l0.2,0.2l0.5,1l0.1,0.3l0.1,0.2
				l0.1,0.3l0.1,0.3l0.1,0.2l0,0.3l0.2,0.6l0.1,0.3l0,0.2l0.1,0.3l0,0.6l0,0.2l0.1,0.4l0.3,0.3l1,0.7l0.3,0.1l0.2,0.1l0.5,0.3
				l0.2,0.2l0.5,0.3l0.3,0.2l0.2,0.1l0.3,0.2l0.2,0.1l0.2,0.2l0.2,0.2l0.3,0.2l0.3,0.1l0.3,0.1l1,0.6l0.1,0.2l-0.1,0.2L29,19.2
				l-0.4,0.1l-0.3-0.1l-0.8-0.4l-0.5-0.3l-0.5-0.3l-0.5-0.3l-0.7-0.5l-0.3-0.1L25,17.1l-1.5-0.9l-0.2-0.2L23,16l-0.3,0l-0.2,0.2
				l-0.1,0.3l0.1,0.3l0.3,0.4l0.2,0.2l1.2,1.7l0.2,0.2l0.9,1.2l0.2,0.2l0.3,0.4l0.1,0.4l-0.2,0.4L25,22l-0.3-0.2l-0.8-1.1l-0.4-0.4
				L23.4,20l-0.2-0.3L23,19.5l-0.1-0.2l-0.2-0.2l-0.2-0.2l-0.2-0.3l-0.2-0.2L22,18.1l-0.5-0.7l-0.4-0.2l-0.3-0.1l-0.2,0.2l0,0.3
				l0.1,0.3l0.2,0.6l0.1,0.3l0.1,0.2l0.1,0.6l0.1,0.3l0,0.3l0.2,0.6l0.1,0.6l0.4,1.4l0,0.3l0.2,0.6l0,0.3l-0.2,0.3l-0.2,0.2
				l-0.2,0.2L21.2,24.8z"/>
			<path class="st2" d="M32.6,17.8l-0.2,0.1l-0.5,0l-0.3,0l-0.3,0L31,17.6l-0.2-0.1l-0.4-0.3L30,16.8l-0.3-0.4l-0.4-0.7l-0.3-0.5
				l-0.4-0.9l-0.2-0.5l-0.2-0.5l-0.1-0.3L28,12.3l0-0.2l0-0.5l0-0.3l0.1-0.5l0.1-0.3l0.1-0.2l0.2-0.3l0.3-0.3l0.3-0.2l0.5-0.2
				L30,9.2l0.2-0.1l0.5,0l0.2,0l0.2,0l0.5,0.1l0.4,0.2l0.4,0.3l0.2,0.2l0.2,0.1l0.2,0.2l0.2,0.2l0.1,0.2l0.2,0.2l0.2,0.5l0.3,0.4
				l0.3,0.7l0.1,0.3l0.1,0.2l0.2,0.8l0,0.2l0.1,0.8l0,0.3l0,0.2l0,0.3l-0.1,0.2l-0.1,0.2l-0.1,0.2l-0.1,0.2L34.2,17l-0.4,0.3
				l-0.2,0.2l-0.7,0.3L32.6,17.8z M33.2,16.5l0.2-0.2l0.2-0.2l0.1-0.2l0.1-0.2l0-0.3l0-0.3l0-0.3l0-0.3l-0.1-0.3l-0.1-0.2l-0.1-0.3
				l-0.1-0.2l-0.1-0.3l-0.1-0.3l-0.2-0.4L33,12.4l-0.3-0.7l-0.3-0.4l-0.2-0.2l-0.1-0.2l-0.4-0.4l-0.2-0.2l-0.2-0.1l-0.2-0.1
				l-0.5-0.1l-0.2,0.1L30,10.3l-0.3,0.2l-0.4,0.3l-0.1,0.3l-0.1,0.4l-0.1,0.5l0.1,0.2l0,0.3l0.1,0.5l0.1,0.3l0.1,0.2l0.2,0.5
				l0.3,0.7l0.2,0.5l0.1,0.3l0.1,0.2l0.5,0.6l0.2,0.2l0.2,0.1l0.2,0.1l0.2,0.1l0.3,0.1l0.2,0l0.3,0L33.2,16.5z"/>
			<path class="st2" d="M39,15.2l-0.2-0.1l-0.2-0.7l-0.1-0.2l-0.1-0.5l-0.1-0.2l-0.1-0.3L38,12.7L37.8,12l-0.1-0.3l-0.1-0.6
				l-0.1-0.2l-0.1-0.4l-0.1-0.4l-0.2-0.7L37,9.1l-0.2-0.6l-0.2-0.4l-0.3,0l-0.3,0l-0.2,0.1l-0.2,0.1l-0.3,0.1l-0.2,0.1l-0.3,0
				l-0.2-0.2L34.5,8l0.1-0.3l0.2-0.2L35,7.5l0.4-0.1l0.7-0.3L36.7,7L37,6.9l0.3,0l0.2-0.1l0.2-0.1l0.2-0.1l0.3,0l0.2-0.1l0.2-0.1
				l0.4-0.1l0.4,0l0.2,0.2l0.1,0.2l0,0.3l-0.2,0.2l-0.8,0.2l-0.3,0.1l-0.2,0.1L38,7.7L37.9,8l0.2,0.6l0.2,0.9l0.1,0.3l0.8,3l0.1,0.2
				l0.1,0.3l0.1,0.2l0.1,0.2l0.1,0.5l0.2,0.5l0,0.3l-0.1,0.1l-0.5,0.1L39,15.2z"/>
			<path class="st2" d="M45.4,13.9l-0.2,0l-0.5-0.1l-0.2-0.1l-0.3-0.1l-0.4-0.3l-0.2-0.2l-0.3-0.4L43,12.3l-0.2-0.4l-0.3-0.7
				l-0.1-0.5l-0.2-1l0-0.5l0-0.5l0-0.3l0.1-0.8l0.1-0.2l0.1-0.5l0.1-0.3l0.2-0.4L43,5.9l0.2-0.2l0.3-0.2l0.3-0.2l0.3-0.1l0.5-0.1
				L45,5l0.3,0l0.5,0.1L46,5.1l0.2,0.1l0.4,0.2L47,5.8l0.3,0.4l0.1,0.2l0.1,0.2l0.1,0.2l0.1,0.3l0.1,0.2L48,7.6l0.1,0.5l0.2,0.5
				l0.1,0.7l0.1,0.3l0,0.3l0,0.8l0,0.2l-0.1,0.8l-0.1,0.3l-0.1,0.2l-0.1,0.3L48,12.6l-0.2,0.2l-0.2,0.2l-0.2,0.2l-0.4,0.3l-0.4,0.2
				l-0.3,0.1L45.6,14L45.4,13.9z M46.2,12.9l0.2-0.1l0.2-0.1l0.2-0.2l0.1-0.2l0.1-0.3l0.1-0.3l0.1-0.2l0-0.3l0-0.3l0-0.2l0-0.3
				l0-0.2l0-0.3l-0.1-0.3l-0.1-0.4l0-0.3l-0.2-0.7l-0.2-0.5l-0.1-0.2l-0.1-0.2l-0.3-0.4l-0.1-0.2L46,6.3l-0.2-0.2L45.3,6l-0.2,0
				l-0.3,0l-0.4,0.1L44,6.3l-0.2,0.3l-0.2,0.3l-0.2,0.4l0,0.3l0,0.3l0,0.5l0,0.3l0,0.2l0,0.5l0.2,0.7l0.1,0.5l0.1,0.3l0.1,0.2
				l0.3,0.7l0.1,0.3l0.1,0.2l0.2,0.2l0.2,0.2l0.2,0.1l0.2,0.1l0.3,0L46.2,12.9z"/>
			<path class="st2" d="M62,13.2l-0.3-0.1l-0.2-0.3l-0.1-0.2l-0.1-0.2l-0.5-0.9l-0.1-0.2l-0.3-0.5l-0.1-0.3l-0.6-1.4l-0.1-0.2
				l-0.2-0.2l-0.3,0l-0.2,0.2l-0.1,0.4l0,1l0,0.3l0,0.2l0,0.2l-0.1,1.6L58.5,13L58.1,13l-0.4-0.1l-0.1-0.4l0-0.2l0-0.2l0-0.9l0-0.3
				l0-0.4l0-0.3l0-0.9l0-0.2l-0.1-0.3l-0.2-0.2l-0.2,0l-0.3,0.2l-0.5,0.8L56.2,10l-0.1,0.2L56,10.4l-0.1,0.2l-0.2,0.5l-0.1,0.2
				l-0.2,0.2L55,12.2l-0.1,0.2l-0.1,0.3l-0.3,0.2l-0.3,0.1l-0.3,0l-0.3,0l-0.2-0.1l0.1-0.3l0.2-0.3l0.2-0.2l0.1-0.3l0.1-0.2l0.1-0.2
				l0.3-0.5l0.3-0.5l0.1-0.2l0.2-0.2l0.2-0.4l0.4-0.5L56,8.3L56.1,8L56,7.7l-0.2-0.2L55.3,7l-0.1-0.2l-0.1-0.2l-0.2-0.2l-0.2-0.4
				l-0.1-0.3l-0.1-0.2l-0.1-0.3l-0.1-0.2l-0.1-0.2l0-0.3l0.3-0.1l0.3,0l0.4,0.1l0.2,0.3l0,0.2l0.1,0.3l0.1,0.2l0.1,0.2l0.2,0.5
				l0.4,0.7L56.6,7l0.2,0.2L57,7.4l0.4,0.3l0.2,0l0.2-0.3l0-0.2l0-1.1l0-0.3l0-0.5l0-0.2l0-0.2L58,4.6l0.3-0.2l0.3,0l0.3,0.2L59,4.9
				l-0.1,1.4l0,0.3l0,0.2l0,0.5l0,0.2L59,7.8l0.2,0l0.2-0.2l0.2-0.1l0.2-0.2l0.5-0.6l0.1-0.2l0.3-0.5l0.1-0.3l0.1-0.2l0.2-0.4
				l0.1-0.3l0.2-0.2l0.3-0.1l0.3,0l0.3,0l0.2,0.2l0,0.2l-0.2,0.5l-0.2,0.4l-0.8,1.3l-0.2,0.2L61,7.6l-0.4,0.3l-0.2,0.3l0,0.3
				l0.6,1.2l0.1,0.2l0.1,0.3l0.1,0.2l0.1,0.2l0.1,0.2l0.1,0.2l0.5,0.9l0.1,0.2l0.1,0.3l0.2,0.2l0.1,0.3l0,0.2l-0.2,0.1l-0.3,0
				L62,13.2z"/>
			<path class="st2" d="M64.6,13.6l-0.2-0.2l-0.1-0.2l0.1-0.2l0-0.3l0-0.2l0.1-0.3l0.1-0.4l0-0.2L65,9.7l0-0.3L65,9.1l0.4-2.2l0-0.2
				l0.1-0.3l0-0.3l0.1-0.5l0-0.3l0.1-0.2L66,5.1l0.2,0.1l0.3,0l0.2,0.1l0.1,0.2l0,0.5l0,0.3l-0.1,0.2L66.4,8l-0.1,0.4L66.3,9
				l-0.2,0.7l0,0.3l-0.2,1.2l0,0.2l-0.1,0.5l0,0.2l0.1,0l0.1-0.2l0.1-0.2l0.1-0.2l0.2-0.5l0.3-0.5l0.2-0.3L67,10l0.3-0.4l0.1-0.2
				l0.2-0.2L67.7,9l0.1-0.2L68,8.6l1-1.5l0.1-0.2l0.2-0.2l0.1-0.2l0.1-0.2l0.1-0.2l0.3-0.2l0.3,0L70.8,6L71,6.1l0.1,0.3l-0.1,0.2
				l0,0.3l-0.1,0.5l0,0.3l-0.5,2.7l-0.1,0.3l-0.1,0.5l0,0.2l-0.2,0.8l0,0.2L70,12.6l-0.1,0.5l0,0.3l0,0.3l0,0.2l0,0.3l-0.1,0.2
				l-0.3,0.1l-0.3,0l-0.2-0.1L68.7,14l0-0.2l0-0.2l0.1-0.3l0.1-0.2l0.1-0.8L69,12l0.1-0.7l0-0.3l0.1-0.2l0-0.2l0-0.3l0.1-0.2l0-0.2
				l0-0.3l0.1-0.3l0.1-0.4l0.1-0.5l0-0.3l0.1-0.3l0-0.2l-0.1,0l-0.2,0.2l-0.1,0.3l-0.1,0.2l-0.2,0.3l-0.5,0.8l-0.1,0.2l-0.2,0.2
				L68.1,10l-0.3,0.6l-0.4,0.5l-0.3,0.3l-1.3,1.8l-0.1,0.2l-0.3,0.2l-0.3,0l-0.2,0L64.6,13.6z"/>
			<path class="st2" d="M71.4,14.7l0-0.2l0.1-0.2l0.2-0.2l0.4-0.2l0.2-0.2l0.2-0.1l0.2-0.2l0.2-0.2l0.6-0.8l0.1-0.3l0.1-0.2l0.1-0.3
				l0.1-0.2l0.3-0.8l0.1-0.2l0.3-0.9l0.1-0.4l0.1-0.3l0.1-0.2l0.1-0.3l0.2-0.7l0.1-0.3l0.2-0.2l0.4,0l0.2,0.1l1.5,0.5l0.2,0l0.2,0.1
				l0.3,0.1L78.6,8l0.3,0l0.3,0.1l0.3,0.2l0,0.3l0,0.2l-0.1,0.4l-0.2,0.6l-0.1,0.2l-0.2,0.6l-0.1,0.4l-0.7,2.2l0,0.3l-0.1,0.2
				l-0.2,0.5l-0.1,0.4l-0.1,0.2l-0.1,0.3l-0.1,0.2l0,0.3l-0.1,0.4l-0.2,0.3l-0.3,0.1l-0.2-0.1l-0.2,0l-0.2-0.2l0-0.2l0-0.2l0.1-0.5
				l0.1-0.2l0.2-0.6l0.2-0.6l0-0.2l0.4-1.3l0.1-0.2l0.1-0.3l0.1-0.3l0.3-1l0.1-0.2l0.2-0.8l0-0.4l-0.2-0.2l-0.4-0.1l-0.4-0.1L77,8.5
				l-0.2-0.1l-0.3-0.1l-0.2,0.1L76,8.6l-0.1,0.2l-0.1,0.2l-0.1,0.2l-0.1,0.3l-0.1,0.2L75.1,11L75,11.2l-0.2,0.5L74.7,12l-0.1,0.3
				l-0.1,0.2l-0.1,0.2l-0.1,0.3l-0.4,0.7L73.6,14l-0.4,0.4L73,14.6l-0.4,0.3L72,15l-0.4,0L71.4,14.7z"/>
			<path class="st2" d="M79.8,17.5l-0.2-0.2L79.6,17l0.1-0.2l0.1-0.3l0.1-0.2l0.1-0.3l0.2-0.4l0.1-0.2l0.7-1.8l0.1-0.2l0.1-0.2
				l0.9-2.1l0.1-0.2l0.1-0.3l0.1-0.3l0.2-0.4l0.1-0.3l0.2-0.2l0.3-0.1l0.2,0.1l0.2,0.1l0.2,0.2l0.1,0.2l-0.1,0.5l-0.1,0.3L83.3,11
				l-0.5,1.4l-0.2,0.4l-0.2,0.6L82.1,14L82,14.2l-0.5,1.1l-0.1,0.2L81.2,16l-0.1,0.2l0.1,0l0.2-0.1l0.2-0.2l0.1-0.2l0.3-0.4l0.4-0.4
				l0.3-0.3l0.2-0.2l0.4-0.4l0.2-0.1l0.2-0.1l0.2-0.2l0.2-0.2l0.2-0.2l1.3-1.2l0.2-0.2l0.2-0.1l0.2-0.2l0.2-0.2l0.2-0.2l0.3-0.1
				l0.3,0l0.4,0.2l0.2,0.2l0,0.3l-0.1,0.2l-0.1,0.2l-0.2,0.5L87.2,13l-1,2.6L86,15.9l-0.2,0.5l-0.1,0.2l-0.3,0.7l-0.1,0.2l-0.1,0.2
				l-0.2,0.5L85,18.4l-0.1,0.2l-0.1,0.2l-0.1,0.3l-0.2,0.2l-0.3,0l-0.3-0.1L83.7,19l0-0.3l0.1-0.2l0-0.2l0.1-0.3l0.1-0.2l0.3-0.7
				l0.1-0.3l0.3-0.7l0.1-0.3l0.1-0.2l0.1-0.2l0.1-0.3l0.1-0.2l0-0.2l0.1-0.2l0.1-0.3l0.2-0.4l0.2-0.4l0.1-0.3L86,13l0.1-0.2l0,0
				l-0.2,0.2l-0.2,0.2l-0.2,0.2l-0.3,0.2l-0.7,0.7l-0.2,0.1l-0.2,0.2l-0.3,0.2l-0.5,0.5L83,15.7l-0.3,0.2l-1.6,1.5l-0.2,0.1
				l-0.3,0.2l-0.3,0l-0.2,0L79.8,17.5z"/>
			<path class="st2" d="M87,20.5l0-0.3l0.1-0.3l0.4-0.7l0.1-0.2l0.1-0.3l0.7-1.2l0.1-0.3l0.6-1l0.1-0.2l0.1-0.2l0.3-0.7l0.4-0.7
				l0.4-0.9l0.1-0.3l0.2-0.2l0.2,0l0.2,0.1l0.2,0.1l0.2,0.2l0,0.2l-0.2,0.4l-0.7,1.4l-0.1,0.3l-0.2,0.3l0,0.3l0.2,0.1l0.3,0l0.5,0
				l0.5-0.1l0.5-0.1L93,16l0.2-0.1l0.2-0.1l0.2-0.2l0.2-0.1l0.2-0.2l0.2-0.2l0.3-0.1l0.3,0l0.2,0.1l0.2,0.1l0.1,0.2l-0.1,0.2
				l-0.6,0.5l-0.2,0.2l-0.2,0.1l-0.2,0.1L94,16.7l-0.2,0.2l-0.2,0.1l-0.2,0.1l-0.2,0.1l-0.7,0.2l-0.3,0.1l-0.2,0.2l-0.1,0.2l0,0.3
				l0.1,0.3l0,0.4l0,0.3l0,0.3l0,0.3l0,0.2l0,0.5l0,0.2l0.1,0.8l0,0.2l0,0.5l0.1,0.8L92,23.1l-0.2,0L91.6,23l-0.2-0.2l-0.3-0.2
				l-0.2-0.3l0-0.2l0-0.6L90.8,21l0-0.3l-0.1-0.5l0-0.5l-0.1-1l0-0.8l-0.2-0.3l-0.3-0.1l-0.3,0l-0.3,0.2l-0.3,0.7l-0.2,0.3L89,18.9
				l-0.1,0.2l-0.1,0.2l-0.1,0.3l-0.1,0.2l-0.2,0.3l-0.3,0.6l-0.2,0.2l-0.3,0l-0.2-0.1l-0.2-0.1L87,20.5z"/>
		</g>
		<path class="st3" d="M17.6,55.2c-1.4,0.2-2.4-1.4-1.5-2.5c1.9-2.2,5.6-5.7,10.2-5.1C31.5,48.2,22.5,54.3,17.6,55.2z"/>
		<path class="st1" d="M9.4,74.4c0.4-1.9,0.5-3.9,0.8-5.8c0.3-2.1,0.8-4.4-0.2-6.3c0-0.1-0.1-0.2-0.2-0.2c-0.7-0.3-2.3,1.1-2.5,1.6
			c-0.4,1.1,0.1,4,0,5.1C7.2,72.2,8.8,77.4,9.4,74.4z"/>
		<path class="st1" d="M38.7,85.9c-0.1,1.1-1.2-1.5-1.4-3.8c-0.1-1.5,0-2.9,0-4.4c0-1.6-0.1-3.3,0.8-4.6c0-0.1,0.1-0.1,0.2-0.2
			c0.5-0.2,2.2,0,2.3,0.4C40.6,74.2,38.9,83.3,38.7,85.9z"/>
		<path class="st5" d="M86.6,42.1c-0.2,0.2-0.5,0.3-0.8,0.4c-8.2,2.4-18.6,3.4-25.3,8.7c-2.6,2-3.1,2.5-7.1,7.2
			c-3.3,4-6.3,7.3-10.8,9.9c-0.2,0.1-0.5,0.2-0.7,0.2c-0.5-0.1-0.6-0.6-0.8-1.1c-0.2-0.6-0.6-1.2-1.2-1.4c-0.5-0.2-1.1,0-1.6,0
			c-0.9-0.1-1.6-1.2-1.3-2.1c0.3-0.8,1.1-1.3,1.3-2.1c0.3-1.2-0.7-2.1-1.5-3.1c1.2,0.4,2.7,0.5,3,2.5c0.4,2.4,1.3,1.8,2.3,2.4
			c1,0.6-0.3,2.6,0.9,2.5c1.2-0.1,8.6-8.2,10.6-10.3c2.1-2.1,8.6-9,17.8-10.7c9.2-1.8,13.2-3,12.7-3.9c-0.4-0.9-2.7-1.5-2.2-3
			c0.4-1,1.1-1.6,1.7-2c0,0.1,0,0.2,0,0.3c-0.1,0.6-0.5,1.1-0.5,1.7c0.1,0.6,0.6,1,1.2,1.3c0.6,0.2,1.2,0.4,1.7,0.8
			C86.8,40.9,87,41.6,86.6,42.1z"/>
		<path class="st5" d="M77.2,34.5c-0.8,1-1.6,1.9-2.5,2.9c-0.7,0.7-1.4,1.4-2.2,1.8c-0.2,0.1-0.5,0.3-0.7,0.2
			c0.1-0.3,2.5-5.6,4.8-6.7c0.2,0.2,0.4,0.3,0.6,0.5c0.2,0.1,0.3,0.3,0.3,0.5C77.6,33.9,77.4,34.2,77.2,34.5z"/>
	</g>
</g>
</svg>
