<?xml version="1.0" encoding="utf-8"?>
<!-- Generator: Adobe Illustrator 21.0.0, SVG Export Plug-In . SVG Version: 6.00 Build 0)  -->
<svg version="1.1" id="Layer_1" xmlns="http://www.w3.org/2000/svg" xmlns:xlink="http://www.w3.org/1999/xlink" x="0px" y="0px"
	 viewBox="0 0 100 100" style="enable-background:new 0 0 100 100;" xml:space="preserve">
<style type="text/css">
	.st0{fill:#BE4E2A;}
	.st1{fill:#CD5F37;}
	.st2{fill:#501338;}
	.st3{fill:#DF7758;}
	.st4{fill:#FFFFFF;}
	.st5{fill:#CECBCA;}
	.st6{fill:#F05B3D;}
</style>
<g>
	<g>
		<path class="st0" d="M17.7,38.5c0,0-2.4,8,1.1,13.2s3.5,31.8,19.3,40.4c7.9,4.3,16.7,7.8,23,6.3s9.9-7.7,12.9-13
			c4.9-8.8,9.4-16.5,8.8-24.4c-0.2-2.4-0.1-4.6,0.1-6.5c0.6-5.6-0.2-11.1-2.3-16.3l-0.1-0.3l-31.3,3.7L17.7,38.5z"/>
		<path class="st1" d="M20.5,32.8c-1.2,0.7-1.9,2.1-2.3,3.5c-0.5,1.6-0.8,3.3-0.2,4.9c0.7,1.9,2.6,3.1,4.1,4.4
			c6.4,5.5,8,14.7,12.6,21.8c1.4,2.1,3,4.1,4.6,6c1.9,2.2,3.7,4.4,6,6.3c2,1.7,4.3,3,6.8,3.6c2.5,0.6,5.3,0.3,7.4-1.2
			c1.4-0.9,2.4-2.3,3.5-3.7c1.8-2.4,3.7-4.8,5.5-7.2c3.5-4.6,7-9.4,8-15c0.2-1.4,0.3-2.9,0.7-4.2c0.4-1.2,1-2.2,1.6-3.3
			c0.9-1.8,1.6-3.8,1.9-5.9c0.4-2.5,0.3-5.3-1.6-7c-1.7-1.5-4.3-1.5-6.5-1.2c-2.9,0.4-5.8,1.1-8.7,1.1s-6-0.8-8.1-2.9
			c-1.2-1.3-2.3-3-4-3.2c-0.6-0.1-1.3,0.1-1.9-0.1c-0.8-0.2-1.2-1-1.8-1.5c-1.4-1.5-3.8-2.1-5.8-1.5c-2.1,0.6-3.6,2.4-5.5,3.4
			c-3.1,1.6-6,0.5-9.1,1c-1.2,0.2-2.1,0.9-3.3,1.1C23,32.2,21.6,32.1,20.5,32.8z"/>
		<path class="st0" d="M24.9,39.2c0,0-3.7,4.1-0.2,7.2s2.1-2.6,6.5,7.5c3.3,7.7,6.1,19.1,19.6,25.5c1.7,0.4,3.6-2,6.2-6.2
			c2.5-4.1,6.4-11.7,6-18.4c-0.3-6.7-25.3-6.5-25.3-6.5L24.9,39.2z"/>
		<path class="st4" d="M63.3,53.7c-0.1,0.7-0.3,1.4-0.5,2.1c-1.9,7.4-5,14.5-9.2,20.8c-0.4,0.6-0.9,1.3-1.7,1.4
			c-0.5,0.1-1.1-0.2-1.5-0.5c-5.2-3.1-9.1-7.8-12.2-13c-3.1-5.2-5.4-10.7-7.9-16.2c-0.5-1-0.9-2.3-1.9-2.9c-1-0.7-2.3-0.4-3.4-1
			c-1.1-0.6-1.3-2.2-0.9-3.4c0.1-0.4,0.3-0.7,0.5-1.1c0.4-0.8,0.9-1.5,1.3-2.3c0.4-0.8,0.8-1.8,1.7-1.9c0.7-0.1,1.3,0.4,1.7,1
			c0.3,0.6,0.4,1.3,0.6,2c0.4,1.4,1.5,2.7,3,3.1c1.9,0.4,3.7-0.9,5.6-0.9c2,0,3.7,1.4,5.5,2.1c1.1,0.4,2.2,0.6,3.3,0.8
			c5.4,0.9,11.3,1.5,15.6,5c0.2,0.2,0.5,0.4,0.6,0.6c0.2,0.4,0.3,0.8,0.3,1.2C63.7,51.7,63.5,52.7,63.3,53.7z"/>
		<g>
			<path class="st2" d="M45.9,15.6l-0.2-0.3l-0.2-0.7l-0.1-0.6l-0.2-0.2l-0.3-0.1l-0.5,0.2l-0.6,0l-0.2,0.1L43.2,14l-0.8,0.1
				l-0.2,0.1l-0.3,0.1l-0.3,0l-0.3,0.1L41,14.5l-1.3,0.2l-0.4,0.1l-0.2,0l-0.2,0.2l-0.1,0.3l0.1,0.3l0.2,0.5l0.1,0.3l0.1,0.2
				l-0.1,0.3l-0.2,0.2l-0.3-0.1L38.1,17L38,16.4l-0.1-0.2l-0.1-0.6l-0.1-0.4l-0.1-0.5l0-0.4l0.2-0.2l0.3-0.1l0.2-0.2l0.2-0.5
				l0.1-0.2l0-0.3l0.1-0.3l0-0.3l0-0.3l0.1-0.6l-0.1-1.2L38.5,10l0-0.3l0-0.3l0-0.4l0-0.3l-0.1-0.3l0-0.3l0-0.3l-0.1-0.3l0-0.5
				L38,6.6l0-0.3L37.9,6l-0.1-0.7l-0.3-1.4l0-0.3l-0.1-0.3l-0.1-0.5l0.1-0.3l0.2-0.2l0.3,0l0.3-0.1l0.3,0l0.5-0.2l0.3,0l0.2-0.1
				L40,1.7l0.3,0l0.4-0.1l0.5,0l0.3-0.1l0.3,0L42,1.2l0.3,0.1l0.2,0.4l0.2,0.7l0.1,0.2l0,0.2l0.1,0.3l0.2,0.9l0.1,0.2l0.1,0.7
				l0.2,0.8l0,0.3l0.1,0.3l0.1,0.6l0.2,0.9L44,8.2L44.1,9l0.1,0.3l0.1,0.2l0,0.3l0.2,0.9l0.1,0.3l0.1,0.3l0.1,0.5l0,0.3l0.2,0.2
				l0.3,0.1l0.3-0.1l0.3,0.1l0.2,0.3l0.2,0.9l0.1,0.6l0,0.4l0.1,0.4l-0.1,0.3l-0.2,0.2L45.9,15.6z M41.6,13.3l0.4,0l1.3-0.4l0.3-0.2
				l0.1-0.3l-0.1-0.2l0-0.3l-0.1-0.4L43.4,11l0-0.3l-0.1-0.4l-0.1-0.7l-0.1-0.4l-0.2-1.1l-0.1-0.3l0-0.3l0-0.3L42,4.8l-0.1-0.2
				l-0.1-0.3l0-0.3l-0.2-0.9l0-0.3l-0.2-0.2L41,2.5l-0.3,0l-0.3,0.1l-0.3,0.1l-0.6,0.1l-0.3,0.1L39,3l-0.2,0.2l-0.1,0.3l0,0.3
				l0.1,0.3l0,0.3l0.4,2.4l0,0.3l0.1,0.6l0.3,2.1l0.1,0.3l0,0.3l0,0.3l0.1,1.8l-0.1,0.6l0,0.3l-0.1,0.3l0.1,0.2l0.3,0l0.3,0l0.2-0.1
				l0.4,0l0.3,0L41.6,13.3z"/>
			<path class="st2" d="M49.2,13.3l-0.3,0l-0.2-0.1l-0.2-0.1L48.3,13l-0.2-0.1l-0.2-0.1l-0.3-0.4l-0.1-0.3l-0.2-0.4l0-0.3l-0.1-0.8
				l0-0.3l0-0.2l0.1-0.3l0.1-0.2l0.1-0.3l0.1-0.2L47.7,9l0.1-0.2L48,8.6l0.2-0.2l0.2-0.1l0.7-0.4l0.3-0.1l0.5-0.1l0.4,0l0.3-0.1
				l0.2,0l0.2-0.1l0.1-0.2l-0.1-0.5L51,6.4L51,6.2l-0.1-0.3l-0.1-0.2l-0.2-0.2l-0.2-0.1l-0.2-0.1l-0.2,0l-0.4,0l-0.4,0l-0.4,0.1
				l-0.3,0.2L48,5.9L47.8,6l-0.2-0.1l-0.1-0.1l-0.1-0.3l0.1-0.3L47.6,5l0.2-0.1l0.2-0.1l0.5-0.2l0.2,0L49,4.3l0.3,0l0.7,0l0.3,0.1
				l0.4,0.1L51,4.5l0.2,0.1l0.2,0.1l0.3,0.4l0.1,0.2L52,5.7l0.1,0.5l0.1,0.5l0,0.4l0.1,0.4l0,0.5l0,0.2l0,0.3l0.1,0.8l0,0.5l0.1,0.2
				l0,0.9l0.1,0.6l0,0.3l0,0.3l0.1,0.5l0,0.3l-0.4,0.2l-0.5-0.1l-0.2-0.2l-0.1-0.3l-0.1-0.1l-0.1,0.1l-0.3,0.3l-0.2,0.2l-0.4,0.2
				L50,13.3L49.2,13.3z M50.1,12.2l0.2-0.1l0.4-0.3l0.4-0.3l0.2-0.2l0.1-0.3l0.1-0.3l0-0.2l0-0.3L51.3,9l0-0.2l-0.2-0.3l-0.2-0.1
				l-0.9,0l-0.2,0.1l-0.4,0.2l-0.4,0.3l-0.1,0.2l-0.1,0.2l-0.1,0.2L48.4,10l0,0.2l0,0.7l0,0.4l0.1,0.2l0.2,0.4l0.2,0.2l0.2,0.1
				l0.3,0.1l0.4,0L50.1,12.2z"/>
			<path class="st2" d="M54.5,12.6l-0.1-0.2l0-0.3l0.2-0.2l0.4-0.3l0.2-0.2l0.1-0.2l0.1-0.2l0.1-0.3l0.3-1l0-0.3l0-0.3l0-0.3L56,8.7
				l0.1-0.8l0-0.3l0.1-0.9l0-0.4l0-0.3l0-0.2l0-0.3l0.1-0.7l0-0.3l0.2-0.2l0.4-0.1l0.3,0l1.6,0.1l0.2,0l0.3,0l0.3,0l0.3,0.1l0.3,0
				l0.3,0l0.4,0.1l0.1,0.3l0,0.2l0,0.4l0,0.6l0,0.2l0,0.7l0,0.4l-0.1,2.2l0,0.3l0,0.2l0,0.5l0,0.4l0,0.3l0,0.3l0,0.3l0,0.3l0,0.4
				l-0.1,0.4L60.3,13L60,13l-0.2,0l-0.2-0.2l-0.1-0.2l0-0.2l0-0.6l0-0.2l0-0.6l0.1-0.7l0-0.2l0-1.4l0-0.2l0-0.3l0-0.3l0.1-1l0-0.3
				l0-0.8l-0.1-0.4l-0.2-0.2l-0.4,0l-0.4,0l-0.2,0l-0.3,0l-0.3,0l-0.2,0.1l-0.2,0.3l0,0.3l0,0.2l0,0.2l0,0.3l0,0.3l-0.1,1.3l0,0.2
				l0,0.5L57,9.1l0,0.3l0,0.3l-0.1,0.2l0,0.3l-0.2,0.7l-0.2,0.5l-0.3,0.4L56,12l-0.4,0.4l-0.5,0.3l-0.4,0.1L54.5,12.6z"/>
			<path class="st2" d="M63.2,13.2L63,13.1l-0.1-0.3l0-0.3l0-0.2l0.1-0.8l0.1-0.4l0-0.3l0.1-0.3l0-0.3l0.1-0.2l0-0.4l0.1-0.3l0.2-1
				L63.7,8l0-0.2l0.1-0.4L63.9,7L64,6.3L64,6l0.1-0.2l0-0.2l0-0.3l0-0.3l0.1-0.2l0.2-0.1l0.2,0l0.2,0.1l0.2,0.2l0.1,0.2l-0.1,1
				l0,0.3l0,0.3L65,7.2l0,0.3l0.1,0.3l0.2,0.1l0.3,0l0.2,0l0.6,0.1l1.1,0.3L68,8.7l0.2,0.2L68.4,9l0.3,0.4l0.1,0.2l0.1,0.3l0.1,0.2
				l0,0.2l0,0.5l0,0.4l-0.1,0.6l-0.1,0.3l-0.1,0.2l-0.3,0.4L68.1,13l-0.3,0.2l-0.2,0.1l-0.5,0.2l-0.2,0l-0.3,0.1l-0.2,0l-0.3,0
				l-0.3,0l-0.3,0l-0.4,0l-0.9-0.2l-0.5,0l-0.3,0L63.2,13.2z M65.1,12.6l0.4,0.1l0.2,0l0.8-0.1l0.2-0.1l0.3-0.1l0.2-0.2l0.1-0.2
				l0.3-0.4l0.1-0.3l0.1-0.8l0-0.3l-0.1-0.2l-0.1-0.3l-0.1-0.2l-0.2-0.2l-0.3-0.1l-0.7-0.2L65.9,9l-0.8-0.1l-0.3,0.1l-0.1,0.2
				l-0.2,0.9l0,0.3l-0.1,0.4L64.4,11l0,0.3l-0.1,0.2L64.2,12l0.1,0.3l0.2,0.2l0.2,0.1L65.1,12.6z M69.6,13.7l0.1-1.3l0.1-0.2
				l0.3-1.4l0-0.3l0.1-0.3l0-0.2l0-0.3l0.1-0.3l0-0.2l0.1-0.4l0-0.4l0.1-0.4l0-0.3l0.1-0.2l0.1-0.5l0.1-0.2l0-0.2l0.1-0.5l0.1-0.3
				l0.2-0.1l0.4,0.1l0.3,0.2l0.1,0.2l0,0.5l0,0.3l0,0.3l0,0.3l-0.1,0.2l-0.1,0.9l-0.1,0.6l-0.1,0.9l-0.1,0.3l-0.3,2l-0.1,0.2l0,0.3
				l-0.1,0.2l0,0.3l-0.1,0.5l-0.1,0.3l-0.3,0l-0.4,0l-0.2-0.1L69.5,14L69.6,13.7z"/>
		</g>
		<path class="st3" d="M39.5,33.5c-1.1-0.4-1.1-1.6-0.2-2.4c1.8-1.6,5.5-2.8,9,0.5C51.4,34.6,43.4,34.9,39.5,33.5z"/>
		<path class="st3" d="M72.8,41.4C72,41.1,72,40,72.7,39.7c1.5-0.6,2.1-2.2,4.3-0.6C79.5,40.8,75.6,42.3,72.8,41.4z"/>
		<path class="st1" d="M57.7,89.7c-0.2-1.5-0.1-2.9-0.1-4.4c-0.1-1.6-0.2-3.3,0.6-4.6c0-0.1,0.1-0.1,0.2-0.2
			c0.5-0.2,2.3-1.1,2.4-0.7C61,80.6,57.9,92,57.7,89.7z"/>
		<path class="st1" d="M25.5,58.2c-0.3-3.7-0.6-5-0.2-6.4c0.5-1.5-0.2-2.3,1.1-3.2c0.1,0,0.6,1.4,0.7,1.4c0.5,0,1,0.3,0.9,0.8
			C28,51.5,25.7,60.5,25.5,58.2z"/>
		<path class="st0" d="M56.7,78.8c0.6-0.1,1.1-0.3,1.6-0.6c0.5-0.2,0.9-0.5,1.4-0.7c0.7-0.4,1.4-0.7,2-1.3c0.8-0.7,1.5-1.6,2-2.6
			c0.3-0.5,0.6-1.1,0.8-1.7c0.2-0.5,0.3-0.9,0.5-1.4c1.3-4.3,2.3-8.6,2.8-13.1c0.1-1.3-0.4-2.4-0.4-3c-0.2-1.9-0.7,0.8-0.8,0.7
			c-0.2-0.1,0.4,0.5,0.3,0.6c-1.1,1.5-1.4,3.3-1.9,5.1c-0.7,2.3-1.4,4.6-2.1,6.9c-0.7,2.4-2.2,4.6-3.6,6.7c-0.6,1-1.3,2-2.3,2.7
			c-0.3,0.2-1.3,0.6-1.4,0.9C55.3,78.7,56.4,78.8,56.7,78.8z"/>
		<path class="st4" d="M67,59.3c-0.2,1.2-0.6,2.3-0.9,3.5c-1.1,3.7-2.2,7.5-3.9,10.9c-0.3,0.5-1.9,2.2-2.4,2.5
			c-0.8,0.5-1.6,1-2.5,1.5c-0.3,0.2-1.7,1-2,0.5c-0.1-0.1,0-0.2,0-0.3c0.1-0.5,0.9-1.1,1.1-1.4c1.1-1.3,2-2.7,2.8-4.3
			c0.4-0.8,0.8-1.6,1.2-2.4c0.5-1.2,1.1-2.3,1.6-3.5c0.6-1.4,1.1-2.8,1.6-4.2c0.8-2.3,1.6-6.8,2.4-9c0.1-0.4,0.3-0.7,0.5-1
			c0.1-0.1,0.2-0.2,0.3-0.1c0.1,0,0.1,0.1,0.2,0.1c0.3,0.5,0.4,1.1,0.4,1.6c0,0.6,0.1,1.1,0,1.7c0,0,0,0,0,0
			C67.3,56.8,67.2,58.1,67,59.3z"/>
		<path class="st5" d="M62.8,55.8c-1.9,7.4-5,14.5-9.2,20.8c-0.4,0.6-0.9,1.3-1.7,1.4c-0.5,0.1-1.1-0.2-1.5-0.5
			c-5.2-3.1-9.1-7.8-12.2-13c-3.1-5.2-5.4-10.7-7.9-16.2c-0.5-1-0.9-2.3-1.9-2.9c-1-0.7-2.3-0.4-3.4-1c-1.1-0.6-1.3-2.2-0.9-3.4
			c0.1-0.4,0.3-0.7,0.5-1.1c-0.3,1.1-0.4,2.5,0.7,3.1c1.9,1.1,4,0,5.5,2.8c1.5,2.8,10.7,19.7,13.7,22.5
			C47.3,71.2,56.1,72.6,62.8,55.8z"/>
		<path class="st5" d="M67,59.3c-0.2,1.2-0.6,2.3-0.9,3.5c-1.1,3.7-2.2,7.5-3.9,10.9c-0.3,0.5-1.9,2.2-2.4,2.5
			c-0.8,0.5-1.6,1-2.5,1.5c-0.3,0.2-1.7,1-2,0.5c-0.1-0.1,0-0.2,0-0.3c0.2,0,2.6-0.5,5.1-4c1-1.4,4.5-7.3,7-18.3
			C67.3,56.8,67.2,58.1,67,59.3z"/>
	</g>
</g>
</svg>
