<?xml version="1.0" encoding="utf-8"?>
<!-- Generator: Adobe Illustrator 21.0.0, SVG Export Plug-In . SVG Version: 6.00 Build 0)  -->
<svg version="1.1" id="Layer_1" xmlns="http://www.w3.org/2000/svg" xmlns:xlink="http://www.w3.org/1999/xlink" x="0px" y="0px"
	 viewBox="0 0 100 100" style="enable-background:new 0 0 100 100;" xml:space="preserve">
<style type="text/css">
	.st0{fill:#BE4E2A;}
	.st1{fill:#CD5F37;}
	.st2{fill:#501338;}
	.st3{fill:#DF7758;}
	.st4{fill:#FFFFFF;}
	.st5{fill:#CECBCA;}
	.st6{fill:#F05B3D;}
</style>
<g>
	<g>
		<g>
			<path class="st2" d="M22.8,22l-0.3-0.1l-0.2-0.2L22,21.6l-0.2-0.2l-0.3-0.2L21.3,21L21,20.8l-0.2-0.1l-0.3-0.1l-0.3-0.2l-0.2-0.2
				l-0.7-0.4l-0.2-0.2l-0.5-0.3L18.2,19l-0.5-0.3l-0.2-0.2l-0.3-0.2l-0.4,0l-0.3,0.2l-0.2,0.3l-0.1,0.4l0,0.4l0.4,0.5l1.3,2l0.2,0.2
				l0.1,0.2l0.5,0.7l0.3,0.5l0.2,0.2l0,0.3l-0.2,0.3l-0.2,0.2l-0.3,0.1l-0.3-0.2l-0.2-0.3l-0.2-0.2l-0.1-0.2l-0.2-0.3l-1.2-1.7
				l-0.3-0.5l-0.3-0.4l-0.1-0.2l-0.4-0.6l-0.4-0.8l-0.2-0.2l-0.3-0.4l-0.2-0.2l-0.2-0.3L13.9,18l-0.1-0.2l-0.3-0.4L13,16.7l-0.4-0.6
				l-0.1-0.2l-0.2-0.3l-0.1-0.3L12,15.2l-0.2-0.2l-0.2-0.2l-0.1-0.3l0.2-0.3L12,14l0.4-0.1l0.3,0.1l0.1,0.1l0.2,0.3l0.2,0.2l0.2,0.3
				l0.2,0.2l0.1,0.3l0.5,0.6l0.2,0.4l0.6,0.9l0.2,0.2l0.1,0.2l0.2,0.2l0.2,0.1l0.3-0.1l0.4-0.8l0.1-0.3l0.1-0.3l0.1-0.3l0.1-0.8
				l0-0.3l0-0.6L16.2,14l0-0.3L15.9,13l0-0.2l-0.3-0.6l0-0.4l0.2-0.3l0.3-0.2l0.3,0l0.2,0.2l0.4,1.1l0.1,0.2l0.2,0.5l0.1,0.3
				l0.1,0.6l0,0.3l0.1,0.9l-0.1,0.3l0,0.3l-0.1,0.6l0,0.4l0.2,0.3l0.3,0.2l0.2,0.1l0.2,0.2l1,0.6l0.2,0.2l0.3,0.1l0.2,0.2l0.3,0.2
				l0.2,0.2l0.3,0.2l0.2,0.2l0.2,0.1l0.3,0.2l0.5,0.3l0.3,0.1l0.7,0.6l0.3,0.1l0.2,0.1l0.2,0.3l-0.1,0.2l-0.2,0.1l-0.2,0.1L22.8,22z
				"/>
			<path class="st2" d="M26.4,20.4l-0.2,0.1l-0.3,0l-0.2,0l-0.2,0l-0.2-0.1L25,20.4l-0.4-0.3l-0.2-0.2l-0.3-0.4l-0.1-0.2l-0.3-0.7
				l-0.1-0.2l-0.1-0.2l0-0.3l0-0.2l0-0.3l0.1-0.3l0-0.2l0.1-0.2l0.1-0.2l0.1-0.3l0.1-0.2l0.5-0.6l0.2-0.2l0.4-0.3l0.4-0.1l0.3-0.2
				l0.2-0.1l0.2-0.2l0-0.3L26,13.6l-0.1-0.2l-0.1-0.2l-0.2-0.2l-0.2-0.1l-0.2-0.1l-0.2-0.1l-0.2-0.1l-0.2,0l-0.3,0.2l-0.4,0.1
				l-0.3,0.2l-0.3,0.3l-0.3,0.5L22.6,14l-0.3,0l-0.2-0.1L22,13.6l0-0.3l0.1-0.2l0.2-0.2l0.1-0.2l0.3-0.4l0.2-0.1l0.2-0.2l0.2-0.1
				l0.7-0.3l0.3,0l0.4-0.1l0.4,0l0.2,0l0.2,0.1l0.5,0.3l0.2,0.2l0.2,0.2l0.3,0.4l0.3,0.4l0.2,0.4l0.2,0.3l0.2,0.5l0.1,0.2l0.1,0.2
				l0.3,0.7l0.2,0.5l0.1,0.2l0.3,0.8l0.3,0.5l0.1,0.3l0.1,0.2l0.2,0.4l0.1,0.3L29.3,19l-0.5,0.1L28.5,19l-0.1-0.2l-0.1,0l-0.1,0.1
				L28,19.3l-0.1,0.2l-0.3,0.3l-0.4,0.3L26.4,20.4z M26.9,19.1l0.2-0.2l0.3-0.4l0.3-0.4l0.1-0.3l0-0.3l-0.1-0.3l-0.1-0.2l-0.1-0.2
				L27,15.7l-0.1-0.2l-0.2-0.2l-0.2,0l-0.9,0.4l-0.2,0.2L25,16.2l-0.3,0.4l-0.1,0.2l-0.1,0.3l0,0.2l0,0.3l0.1,0.2l0.2,0.6l0.2,0.4
				l0.1,0.2l0.4,0.3l0.2,0.1l0.3,0l0.3,0l0.3-0.1L26.9,19.1z"/>
			<path class="st2" d="M33.4,22.2L33.2,22L33,21.6L33,21.3l-0.1-0.3l0-0.2l-0.1-0.2l-0.1-0.3L32.6,20l-0.2-0.8l0-0.2l-0.6-2.2
				l-0.1-0.2l0-0.2l-0.1-0.3l-0.2-0.7l-0.1-0.3l0-0.2l-0.1-0.2L31,14.4l-0.1-0.2l0-0.3l-0.3-1.1l0-0.2l-0.1-0.4L30.3,12l-0.3-1.2
				L29.7,10l0-0.3l0.2-0.2l0.3-0.1l0.3,0l0.3,0.2l0.1,0.2l0.1,0.1l0.2-0.1l0.2-0.2l0.2-0.2l0.2-0.2l0.8-0.6l0.4-0.1l0.2-0.1l0.4-0.1
				l0.5,0l0.2,0l0.4,0.2l0.2,0.1L35,8.9L35.2,9l0.2,0.2l0.1,0.2l0.2,0.3l0.2,0.5l0.3,0.8l0.2,0.5l0.1,0.2l0.2,0.7l0,0.3l0,0.2
				l0.1,0.8l0,0.5L36.8,15l-0.1,0.5l-0.1,0.3l-0.2,0.4l-0.2,0.3L36,16.6l-0.2,0.1L35.7,17l-0.3,0.2l-0.9,0.3l-0.2,0l-0.8,0l-0.2,0.1
				l-0.1,0.2l0.1,0.5l0.1,0.3l0.1,0.2l0.2,0.6l0.1,0.4l0.1,0.2l0.2,0.9l0.3,0.7l0,0.3l-0.2,0.1l-0.4,0.1L33.4,22.2z M34.3,16.5
				l0.3-0.1l0.3-0.2l0.2-0.1l0.2-0.2l0.1-0.2l0.1-0.2l0.1-0.5l0-0.5l0-0.6l-0.2-1l-0.3-1.2L35,11.2L34.9,11l-0.1-0.2l-0.1-0.2
				L34.5,10l-0.3-0.4l-0.2-0.2l-0.2-0.1l-0.6,0.1l-0.4,0.1l-0.2,0.1l-0.2,0.2l-0.4,0.3l-0.2,0.2l-0.3,0.5l-0.1,0.3l0,0.4l0.9,3.1
				l0.1,0.3l0.1,0.3l0.1,0.3l0.1,0.4l0.2,0.4l0.3,0.2l0.2,0.1l0.2,0l0.2,0l0.3,0L34.3,16.5z"/>
			<path class="st2" d="M50.7,14.9l-0.3-0.1l-0.3-0.2L50,14.4l-0.1-0.2l-0.5-0.9l-0.1-0.2l-0.3-0.4l-0.1-0.2L48,11.1l-0.1-0.2
				l-0.2-0.1l-0.3,0L47.2,11l-0.1,0.4l0.1,1l0,0.3l0,0.2l0,0.2l0.1,1.6L47.2,15l-0.4,0.1l-0.4-0.1l-0.2-0.4l0-0.2l0-0.2l-0.1-0.9
				l0-0.3l0-0.4l0-0.3L46,11.6l0-0.2l-0.1-0.2l-0.2-0.2L45.3,11l-0.2,0.2L44.7,12l-0.2,0.4l-0.1,0.2l-0.1,0.2L44.3,13l-0.2,0.5
				L44,13.7l-0.1,0.2l-0.3,0.7l-0.1,0.2l-0.1,0.3l-0.3,0.2l-0.3,0.1l-0.3,0l-0.3,0.1l-0.2-0.1l0.1-0.3l0.1-0.4l0.1-0.2l0.1-0.3
				l0.1-0.2l0.1-0.2l0.3-0.5l0.2-0.5l0.1-0.2l0.1-0.2l0.2-0.4l0.3-0.6l0.3-0.6l0-0.3l-0.2-0.2l-0.2-0.2l-0.5-0.5l-0.2-0.2L43.1,9
				l-0.2-0.2l-0.3-0.4l-0.1-0.3l-0.1-0.2l-0.1-0.3l-0.1-0.2l-0.1-0.2l0-0.3l0.3-0.1l0.3-0.1l0.4,0.1l0.2,0.3l0.1,0.2l0.1,0.2
				l0.1,0.2L43.7,8L44,8.5l0.5,0.6l0.2,0.2l0.2,0.2l0.2,0.1l0.5,0.3l0.2-0.1l0.1-0.3l0-0.2l-0.1-1.1l0-0.3l-0.1-0.5l0-0.2l0-0.2
				l0.1-0.3l0.3-0.2l0.3,0l0.3,0.2L46.8,7l0.1,1.4l0,0.3l0.1,0.2l0,0.5l0,0.2l0.1,0.2l0.2,0l0.2-0.2l0.2-0.2l0.2-0.2l0.5-0.6
				l0.1-0.2L48.7,8l0.1-0.3l0.1-0.2L49.1,7l0.1-0.3l0.2-0.3l0.3-0.2l0.3,0l0.3-0.1l0.2,0.1l0.1,0.2l-0.1,0.5l-0.2,0.5L49.4,9
				l-0.2,0.2l-0.1,0.2l-0.3,0.3l-0.1,0.3l0,0.3l0.7,1.1l0.1,0.2l0.1,0.2l0.2,0.2l0.1,0.2l0.1,0.2l0.2,0.2l0.6,0.9l0.2,0.2l0.1,0.3
				l0.2,0.2l0.1,0.2l0,0.2l-0.2,0.1L51,14.9L50.7,14.9z"/>
			<path class="st2" d="M53.3,15l-0.2-0.2l-0.1-0.2l0.1-0.3l0-0.3l0-0.2l0-0.3l0-0.4l0-0.2l0.1-1.9l0-0.3l0-0.3l0.2-2.3l0-0.2l0-0.3
				l0-0.3l0-0.5l0-0.3l0.1-0.2l0.2-0.1l0.2,0l0.3,0l0.2,0.1l0.1,0.2l0,0.5l0,0.3l0,0.3l-0.1,1.5l0,0.4l0,0.6l-0.1,0.7l0,0.3
				l-0.1,1.2l0,0.2l-0.1,0.5l0,0.2l0.1,0l0.1-0.2l0.1-0.2l0.1-0.2l0.2-0.5l0.3-0.5l0.2-0.4l0.1-0.2l0.2-0.5l0.1-0.2l0.1-0.2l0.1-0.2
				L56,9.9l0.1-0.2L57,8.1l0.1-0.2l0.2-0.2l0.1-0.2l0.1-0.2L57.6,7l0.3-0.2l0.3-0.1l0.5,0l0.2,0.2L59,7.2l0,0.3l0,0.3l-0.1,0.5
				l0,0.3l-0.2,2.8l-0.1,0.3l0,0.5l0,0.2L58.6,13l0,0.2l0,0.2L58.5,14l0,0.3l0,0.3l0,0.2l0,0.3l-0.1,0.2l-0.3,0.1l-0.3,0l-0.2-0.1
				L57.4,15l0-0.2l0-0.2l0-0.3l0-0.3l0-0.8l0-0.3l0-0.7l0-0.3l0-0.2l0-0.2l0-0.3l0.1-0.3l0-0.2l0-0.3l0-0.3l0-0.4l0.1-0.5l0-0.3
				l0-0.3l0-0.2l-0.1,0l-0.2,0.3L57.5,9l-0.1,0.2l-0.2,0.3l-0.4,0.8l-0.1,0.2l-0.1,0.2l-0.2,0.3l-0.3,0.6l-0.3,0.5l-0.2,0.3l-1.1,2
				l-0.1,0.2L54.1,15L53.8,15l-0.2,0L53.3,15z"/>
			<path class="st2" d="M60.2,15.4l-0.1-0.2l0-0.2l0.2-0.2l0.4-0.3l0.2-0.2l0.2-0.2l0.1-0.2l0.2-0.2l0.5-0.9l0.1-0.3l0-0.3l0.1-0.3
				l0.1-0.2l0.2-0.8l0-0.3l0.3-0.9l0.1-0.4l0.1-0.3L62.9,9L63,8.7L63.1,8l0.1-0.3l0.2-0.2l0.4-0.1l0.3,0l1.6,0.3l0.2,0l0.2,0l0.3,0
				L66.6,8l0.3,0l0.3,0.1l0.4,0.2l0.1,0.3l0,0.2l-0.1,0.4l-0.1,0.6L67.4,10l-0.1,0.6l0,0.4l-0.4,2.2l0,0.3l0,0.2l-0.1,0.5l-0.1,0.4
				l-0.1,0.2l0,0.3l-0.1,0.2l0,0.3l-0.1,0.4l-0.2,0.4l-0.2,0.1l-0.2-0.1l-0.2,0l-0.2-0.2l-0.1-0.2l0-0.2l0.1-0.6l0.1-0.2l0.1-0.6
				l0.2-0.7l0-0.2l0.2-1.4l0.1-0.2l0.1-0.3l0-0.3l0.2-1l0-0.3l0.1-0.8L66.2,9L66,8.8l-0.4-0.1l-0.4,0l-0.2-0.1l-0.3,0l-0.3,0
				l-0.2,0.1l-0.2,0.2L64,9.1L64,9.3l-0.1,0.2l-0.1,0.3l0,0.2l-0.3,1.3l-0.1,0.2l-0.1,0.5l-0.1,0.2l-0.1,0.3L63,12.8L62.9,13
				l-0.1,0.3L62.5,14l-0.3,0.4l-0.4,0.4l-0.1,0.2l-0.4,0.3l-0.6,0.2l-0.4,0L60.2,15.4z"/>
			<path class="st2" d="M68.8,17.3l-0.2-0.2l-0.1-0.2l0.1-0.2l0.1-0.3l0-0.2l0.1-0.3l0.1-0.4l0-0.2l0.5-1.8l0.1-0.2l0.1-0.3l0.7-2.2
				l0-0.2l0.1-0.3l0.1-0.3l0.1-0.4l0-0.3l0.1-0.2L71.1,9l0.2,0.1l0.2,0.1l0.2,0.2l0.1,0.2L71.7,10l-0.1,0.3l-0.1,0.2l-0.4,1.4
				l-0.1,0.4l-0.1,0.6l-0.2,0.7l-0.1,0.2L70.3,15l-0.1,0.2L70,15.7l0,0.2l0.1,0l0.2-0.1l0.1-0.2l0.1-0.2l0.3-0.4l0.4-0.4l0.2-0.3
				l0.2-0.2l0.3-0.4l0.2-0.2l0.2-0.2l0.2-0.2l0.2-0.2l0.2-0.2l1.2-1.3l0.2-0.2l0.2-0.2l0.2-0.2l0.1-0.2l0.2-0.2l0.3-0.2l0.3,0
				l0.4,0.1l0.2,0.2l0.1,0.3L76,11.1l-0.1,0.2l-0.2,0.5l-0.1,0.2l-0.8,2.7L74.8,15l-0.1,0.5l0,0.2l-0.2,0.7l0,0.2L74.2,17l-0.2,0.5
				l0,0.3L74,18l0,0.2l-0.1,0.3l-0.1,0.2l-0.3,0L73,18.6l-0.2-0.2l-0.1-0.3l0-0.2l0-0.2l0.1-0.3l0.1-0.2l0.2-0.8l0.1-0.3l0.2-0.7
				l0.1-0.3l0.1-0.2l0.1-0.2l0.1-0.3l0.1-0.2l0-0.2l0.1-0.2l0.1-0.3l0.1-0.4l0.2-0.4l0.1-0.3l0.1-0.3l0.1-0.2l0,0l-0.2,0.2l-0.2,0.3
				L74,12.6l-0.3,0.3l-0.6,0.7L73,13.7l-0.2,0.2l-0.3,0.2l-0.4,0.5l-0.4,0.5l-0.3,0.3L70,17.1l-0.2,0.2l-0.3,0.2l-0.3,0l-0.2,0
				L68.8,17.3z"/>
			<path class="st2" d="M76.3,19.6l0-0.3l0.1-0.4l0.3-0.7l0.1-0.2l0.1-0.3l0.5-1.3l0.1-0.3l0.5-1.1l0.1-0.2l0.1-0.2l0.3-0.7l0.3-0.7
				l0.3-0.9l0.1-0.3l0.2-0.2l0.2,0l0.2,0l0.2,0.1l0.2,0.2l0.1,0.2l-0.1,0.4l-0.6,1.5l-0.1,0.4l-0.2,0.3l0,0.3l0.2,0.1l0.3,0l0.5-0.1
				l0.5-0.1l0.4-0.2l0.7-0.4l0.2-0.1l0.2-0.1l0.2-0.2l0.2-0.1l0.2-0.2l0.2-0.2l0.3-0.1l0.3,0l0.2,0.1l0.2,0.1l0.1,0.2l-0.1,0.2
				l-0.5,0.5l-0.2,0.2l-0.2,0.1L83,15l-0.2,0.1l-0.2,0.2l-0.2,0.1l-0.2,0.1L82,15.7l-0.7,0.3L81.1,16l-0.2,0.2l-0.1,0.2l0,0.3
				l0.1,0.3l0.1,0.4l0,0.2l0,0.3l0,0.2l0.1,0.2l0.1,0.5l0.1,0.2l0.1,0.8l0.1,0.2l0.1,0.5l0.1,0.8l-0.1,0.2l-0.2,0l-0.3-0.1l-0.3-0.1
				l-0.3-0.2L80.3,21l-0.1-0.2l0-0.6l-0.1-0.5l0-0.3L80,18.9l-0.1-0.5l-0.2-1l-0.1-0.8l-0.2-0.3l-0.3-0.1l-0.3,0l-0.3,0.2l-0.3,0.7
				l-0.1,0.3l-0.1,0.2L78,18l-0.1,0.2l-0.1,0.3l-0.1,0.2l-0.2,0.3l-0.2,0.6l-0.2,0.2l-0.3,0l-0.2-0.1l-0.2-0.1L76.3,19.6z"/>
		</g>
		<g>
			<path class="st0" d="M91.6,45.6c0,0-2,5.9-6.7,5.5S74,50.5,71.6,51.8c-2.4,1.3-6.3,5.3-9.2,5.9s-7.3,1.3-6.3,3.7
				c1,2.5-2,2.1-1.6,6.2c0.6,7.1-8.2,21.7-13.5,24.2c-5.3,2.4-18.4,2.5-22.2,0.5c-3.9-2-17.6-12.2-5.5-30.8c3.1,2.5,1.9-12.8,3.9-14
				c3.4-2.3,12.2-2.8,12.2-2.8l36.6-3.2L77.8,44L91.6,45.6z"/>
			<path class="st1" d="M75.9,44.8c-1.2,0.2-2.3,0.4-3.5,0.2c-1-0.2-1.9-0.8-2.9-0.7c-1.6,0.2-2.4,2-3.7,2.8
				c-1.5,0.9-3.4,0.3-5.1,0.9c-1.3,0.4-2.3,1.5-3.5,2.1c-1.2,0.7-2.9,0.9-3.8-0.1c-2.1,1.4-4.6,2.3-7.2,2.3
				c-2.7,0.1-3.7,0.5-6.3-0.3c-1.5-0.4-3-0.8-4.5-1.2c-0.7-0.2-1.5-0.4-2.3-0.2c-1.4,0.5-1.9,2.4-1.3,3.8c0.6,1.4,1.9,2.3,3.1,3.2
				c1.8,1.3,1.9,1.4,3.7,2.7c0.7,0.5,1.4,0.9,2.2,1c0.8,0,1.6-0.4,2.4-0.2c0.9,0.2,1.4,1.2,1.7,2c0.8,1.8,1.6,3.6,2.4,5.4
				c0.2,0.4,0.4,0.9,0.4,1.4c0,0.6-0.3,1.1-0.6,1.5c-2.7,4.1-5.6,8.4-10.1,10.4c-3.7,1.6-8,1.4-12,1c-1.5-0.1-3-0.3-4.4-0.8
				c-3.5-1.3-5.6-4.9-7.1-8.4c-1.3-3.1-2.3-6.6-1.4-9.8c0.3-1.2,1.1-2.5,2.4-2.7c0.4-0.1,0.8,0,1.2-0.1c0.7-0.2,1.1-1,1.5-1.7
				c1.2-2.7,2.5-5.9,1.2-8.6c-0.4-0.9-1.1-1.7-1.1-2.7c0-0.6,0.4-1.1,0.7-1.6c1.2-1.8,2.6-3.4,4.1-4.9c0.3-0.3,0.7-0.7,1.2-0.6
				c0.4,0,0.7,0.3,1.1,0.4c1.8,0.7,3.4-1.4,3.7-3.2s0-3.9,1.1-5.5c1.1-1.7,3.4-2.1,5.4-2.3c8.2-0.6,16.2,1.8,24.2,3.5
				c8.8,1.9,17.8,3,26.9,3.6c0.8,0.1,1.6,0.1,2.2,0.7c0.4,0.3,0.6,0.8,0.8,1.3c1,2.2,2,4.3,3,6.5c0.4,0.9-3.5,1.2-3.9,1.1
				c-1-0.2-1.8-0.8-2.7-1.1C82.2,44.8,78.8,44.4,75.9,44.8z"/>
			<path class="st3" d="M35.4,70.9c1.7,0.4,1.9,2.2,0.8,3.5c-2.4,2.6-7.7,5.1-13.4,0.8C17.5,71.3,29.4,69.6,35.4,70.9z"/>
			<path class="st1" d="M16.3,86.8c0-1.5,0.3-2.9,0.4-4.4c0.1-1.6,0.2-3.3,1.2-4.5c0.1-0.1,0.1-0.1,0.2-0.1c0.5-0.1,2.4-0.8,2.5-0.4
				C20.6,78.2,16.2,89.1,16.3,86.8z"/>
			<path class="st1" d="M52.5,54.3c0-1.2,0.2-2.4,0.3-3.6c0.1-1.3,0.1-2.7,1.1-3.7c0.1,0,0.1-0.1,0.2-0.1c0.5-0.1,2.4-0.6,2.5-0.3
				C56.7,47.3,52.5,56.2,52.5,54.3z"/>
			<path class="st1" d="M43.4,79.4c0-1.5,0.3-2.9,0.4-4.4c0.1-1.6,0.2-3.3,1.2-4.5c0.1-0.1,0.1-0.1,0.2-0.1c0.5-0.1,2.4-0.8,2.5-0.4
				C47.7,70.8,43.4,81.7,43.4,79.4z"/>
			<path class="st1" d="M70.5,50c0-0.9,0.2-1.9,0.2-2.8c0.1-1,0.1-2.1,0.7-2.9c0,0,0.1-0.1,0.1-0.1c0.3-0.1,1.5-0.6,1.5-0.3
				C73.2,44.4,70.4,51.5,70.5,50z"/>
			<path class="st0" d="M33.8,36.5c0,0,0,3.3-1.2,5.3c-0.3,0.8-1.2,3.4,4.1,1.7c5.3-1.7,10.9-4.5,18.4-4.7c7.6-0.2,18.2,2.4,21,3.1
				c2.8,0.7,3.7,0.7,7,2.2s6.9,2.9,7,0.9c0-0.9-0.6-1.6-1.1-1.8c-0.7-0.4-1.1-1.2-1.2-2c-0.1-0.7-0.2-1.4-0.5-1.5
				c-0.6-0.2-4.7,2.7-4.7,2.7s-16.3-5.1-19.8-5.2c-3.5-0.2-18-0.4-21.2,0.6s-5,0.8-5,0.8L33.8,36.5z"/>
			<path class="st4" d="M89.5,45.2c-0.2,0.3-0.7,0.4-1,0.3c-2.8-0.2-5.2-2.1-7.8-3.1c-1.4-0.6-2.9-0.9-4.5-1.2
				c-2.9-0.6-5.8-1.2-8.7-1.7c-5.3-1-10.6-2-15.9-1.2c-3.3,0.5-6.4,1.6-9.5,2.7c-1.6,0.6-3.1,1.1-4.7,1.7c-1.4,0.5-2.9,1-4.3,0.8
				c-0.2,0-0.5-0.1-0.6-0.3c-0.5-0.5,0.1-1.3,0.5-1.8c1-1.3,1.3-3,0.9-4.6c0-0.1-0.1-0.2-0.1-0.3c-0.1-0.2-0.1-0.4,0-0.7
				c0.2-0.5,0.9-0.4,1.4-0.3c1.3,0.3,2.8,1,4.2,0.8c1.7-0.2,3.3-0.5,5-0.6c3.3-0.4,6.6-0.5,9.9-0.3c2.5,0.2,5,0.7,7.4,0.9
				c3.9,0.3,19.2,3.5,22.9,2.5c0.7-0.2,1.4-0.4,2.1-0.1c0.4,0.2,0.6,0.7,0.7,1.2c0.1,1-0.2,2.4,0.5,3.2c0.3,0.4,0.8,0.5,1.2,0.9
				C89.5,44.2,89.8,44.8,89.5,45.2z"/>
			<path class="st5" d="M89.5,45.2c-0.2,0.3-0.7,0.4-1,0.3c-2.8-0.2-5.2-2.1-7.8-3.1c-1.4-0.6-2.9-0.9-4.5-1.2
				c-2.9-0.6-5.8-1.2-8.7-1.7c-5.3-1-10.6-2-15.9-1.2c-3.3,0.5-6.4,1.6-9.5,2.7c-1.6,0.6-3.1,1.1-4.7,1.7c-1.4,0.5-2.9,1-4.3,0.8
				c-0.2,0-0.5-0.1-0.6-0.3c-0.5-0.5,0.1-1.3,0.5-1.8c1-1.3,1.3-3,0.9-4.6c0-0.1-0.1-0.2-0.1-0.3c0.2,0.2,0.5,0.6,0.6,1.4
				c0.1,1.2-0.3,2.8-0.7,3.5c-0.4,0.7-1.1,1.5,0,1.7c1.1,0.1,5.6-1.6,6-1.8s7.9-3.7,15.5-3.8c7.6,0,9.6,0.8,23.2,3.7
				c2.8,0.6,4.6,1.6,7.1,3.2c1,0.7,2.3,0.6,2.5-0.1c0.1-0.7-1.3-1.3-0.9-3.1c0.2-0.8,0.3-1.2,0.3-1.3c0.1,1-0.2,2.4,0.5,3.2
				c0.3,0.4,0.8,0.5,1.2,0.9C89.5,44.2,89.8,44.8,89.5,45.2z"/>
			<path class="st0" d="M31.1,40.1c0,0,0.4,0.2,0.4,1.1c0,0.9-0.2,1.5,0,2.4c0.2,0.9-3,0.5-3.3-2c0.9-1.6,1.9-0.7,1.9-0.7L31.1,40.1
				z"/>
			<path class="st4" d="M31.2,43.4c0,0-0.1,0.1-0.1,0.1c-0.2,0.2-0.6,0.2-0.8,0.1c-0.3-0.1-0.5-0.3-0.7-0.5c-0.4-0.3-0.7-0.6-1-1
				c-0.1-0.2-0.3-0.4-0.3-0.6c0,0,0,0,0,0c-0.1-0.2-0.1-0.4-0.1-0.7c0-0.3,0.5-1.8,1-1.7c0.1,0,0.1,0.2,0.2,0.2
				c0.1,0.1,0.2,0.2,0.4,0.2c0.4,0.2,0.8,0.3,1.3,0.5c0.1,0,0.2,0.1,0.2,0.1c0,0.1,0.1,0.1,0.1,0.2c0.1,1-0.2,1.9,0,2.9
				C31.2,43.3,31.3,43.3,31.2,43.4z"/>
			<path class="st5" d="M31.2,43.4c0,0-0.1,0.1-0.1,0.1c-0.2,0.2-0.6,0.2-0.8,0.1c-0.3-0.1-0.5-0.3-0.7-0.5c-0.4-0.3-0.7-0.6-1-1
				c-0.1-0.2-0.3-0.4-0.3-0.6c0.1,0.1,1,1.1,1.5,1.3c0.6,0.3,1,0.2,1.1-0.3c0.1-0.6,0.4-2.1,0.4-2.1c0.1,1-0.2,1.9,0,2.9
				C31.2,43.3,31.3,43.3,31.2,43.4z"/>
		</g>
	</g>
</g>
</svg>
