<?xml version="1.0" encoding="utf-8"?>
<!-- Generator: Adobe Illustrator 21.0.0, SVG Export Plug-In . SVG Version: 6.00 Build 0)  -->
<svg version="1.1" id="Layer_1" xmlns="http://www.w3.org/2000/svg" xmlns:xlink="http://www.w3.org/1999/xlink" x="0px" y="0px"
	 viewBox="0 0 100 100" style="enable-background:new 0 0 100 100;" xml:space="preserve">
<style type="text/css">
	.st0{fill:#BE4E2A;}
	.st1{fill:#CD5F37;}
	.st2{fill:#501338;}
	.st3{fill:#DF7758;}
	.st4{fill:#FFFFFF;}
	.st5{fill:#CECBCA;}
	.st6{fill:#F05B3D;}
</style>
<g>
	<g>
		<g>
			<g>
				<polygon class="st0" points="85.6,31.2 86,47.4 85.8,61.5 72.1,66.2 65,52.8 79.7,35.7 				"/>
				<path class="st0" d="M36.9,35.6c0,0-0.3,6.2-1,10.8c-0.1,1-1.6,0.7-1.6,1.3c0.1,5.7-2.2,9.8-0.3,15.6c2.1,6.9-8.1,5-1.6,7.7
					c4.1,1.7-14.4-0.2-14.4-0.2l-2.3-0.1c0,0-1.7,10.9,0.8,13.3c4.5,4.3,3.6,11.1,9.1,11.5c5.5,0.4,11-4.5,21.6-9.4
					c10.7-4.9,27.1,12.5,27.9,3.5c0.8-10.3,0-14.6,0-14.6L50.4,44.7L36.9,35.6z"/>
				<path class="st1" d="M18.6,67.2c1.6-0.9,3.4-1.2,5.1-1.7c3.2-0.8,6.4-1.9,9.5-3.2c1.4-0.6,2.9-1.4,3.7-2.7
					c1.4-2.7-0.9-5.8-1.8-8.7c-1.3-4.2-1.2-3.6,2.7-5.7c0.5-0.3,1-0.5,1.4-1c1-1.4-0.5-3.2-1.4-4.7c-1.9-3.3-0.2-7.6,2.1-10.6
					c0.8-1,1.8-2.1,3.2-2.1c2.3-0.1,3.6,2.5,5.6,3.7c1.8,1.1,4.1,0.9,6,0.1c1.9-0.8,3.6-2.1,5.3-3.3c4.3-3.1,9.3-5.6,14.5-5.3
					s10.6,4,11.2,9.2c0.4,3.7-1.5,7.2-1.8,10.9c-0.1,1.4,0,2.8-0.4,4.1c-0.3,1.1-1,2-1.4,3.1c-0.5,1.6-0.3,3.4-0.3,5.1
					c-0.1,8.1-4.9,9.2-6,17.2c-0.3,2.6-0.2,5.5-2.1,7.2c-2,1.8-5.3,1.2-7.6-0.2c-2.3-1.4-4.2-3.5-6.6-4.8c-5-2.6-11.1-0.9-15.9,2
					s-8.9,6.9-13.8,9.5c-1.1,0.6-2.2,1.1-3.4,1s-2.4-0.8-2.7-2c-0.2-1.2,0.6-2.4,0.6-3.7c-0.1-1.2-1-2.3-2.1-2.9
					c-1.1-0.6-2.3-1-3.4-1.6C14.8,73.8,14.5,69.4,18.6,67.2z"/>
				<path class="st3" d="M65.8,29.4c-0.3-1.2,6.6-2.4,8.3-2.5c3.6-0.2,6,0.1,6.3,4.1C80.6,35.3,67,34.5,65.8,29.4z"/>
				<path class="st1" d="M55.1,83.2c-0.1,1.1-1.3-1.6-1.5-4c-0.1-1.5,0-3,0-4.5c0-1.6-0.1-3.4,0.8-4.8c0-0.1,0.1-0.1,0.2-0.2
					c0.5-0.2,1.1,2.4,1.2,2.9c0.2,0.9,0.1,1.7,0,2.5C55.6,77.8,55.4,80.5,55.1,83.2z"/>
				<path class="st1" d="M24.6,91.3c-0.1,0.8-1-1.3-1-3.1c0-1.2,0-3.3,0-4.4c0.1-1.2,0.3-1.6,1.2-2.6c0,0,0.1-0.1,0.2-0.1
					c0.5-0.1,0.8,1.9,0.9,2.2c0.1,0.7,0,1.3-0.1,1.9C25.3,87.3,25,89.3,24.6,91.3z"/>
				<path class="st3" d="M42.5,31.5c0.6-0.7,1.5-0.4,1.9,0.2c1.2,1.9,1.6,3.4-1,5.2C40.4,39,40.3,33.9,42.5,31.5z"/>
				<path class="st3" d="M71.3,72.9c0.8,0.2,1,0.9,0.7,1.5c-0.9,1.7-1.8,2.7-4.3,1.6C64.8,74.7,68.5,72.3,71.3,72.9z"/>
			</g>
			<g>
				<path class="st0" d="M76.1,44.3c0.6,1,0.8,2.2,0.8,3.3S76.4,49.9,76,51c-0.5,1.2-1.3,2.5-2.5,2.8c-0.4,0.1-0.7,0.1-1.1,0.1
					c-0.7,0-1.4-0.2-2.1-0.4c-0.4-0.2-0.8-0.4-1.2-0.5c-1.1-0.4-2.3-0.3-3.3,0.2c-0.5,0.2-1,0.6-1.4,0.9c-3.1,2.3-6.2,4.6-9.3,6.9
					c-2.1,1.6-4.3,3.2-6.3,5c-1,0.8-1.9,1.7-2.9,2.5c-3.3,2.6-7.1,4.6-10.2,7.4c-2,1.7-3.7,3.7-6,5c-0.7,0.4-1.5,0.7-2.3,0.5
					c-0.8-0.2-1.4-1.1-1.1-1.8c0.1-0.3,0.3-0.5,0.6-0.6c3.1-2.6,6.1-5.3,9.4-7.5c1.6-1.1,3.3-2.1,4.8-3.2c1.7-1.2,3.2-2.5,4.8-3.8
					c3.3-2.6,6.8-5,10.4-7.3c0.6-0.4,1.1-1.1,1.6-1.6c1.5-1.6,3.1-3.1,4.6-4.7c1.4-1.3,2.8-2.7,4.5-3.4c1.8-0.7,3.8-0.7,5.6-1.3
					C73.8,45.7,75,45,76.1,44.3z"/>
				<path class="st4" d="M75.9,49c-0.5,1.2-1.3,2.3-2.4,3c-1.1,0.6-2.7,0.6-3.5-0.4c-0.3-0.3-0.4-0.7-0.7-1.1
					c-0.8-1-2.3-1.2-3.5-0.8c-1.2,0.4-2.2,1.4-3.1,2.3C56.3,58.3,50,64.7,42.5,69.6c-4.8,3.1-10,5.6-14,9.6
					c-0.4,0.4-0.8,0.9-1.4,1.1c-0.6,0.2-1.3,0.1-1.6-0.4c-0.3-0.5-0.1-1.1-0.3-1.6c0,0,0,0,0-0.1c-0.3-0.5-0.8-0.6-1.3-0.8
					c-1-0.5-1.7-1.4-2-2.5c-0.3-1.3-0.1-2.8,0.9-3.8c0.5-0.5,1.1-0.9,1.2-1.6c0-0.3-0.1-0.7-0.1-1c-0.1-1.2,0.9-2.2,2.1-2.4
					c1.2-0.1,2.3,0.5,3.1,1.3c0.6,0.6,1.1,1.3,1.8,1.5c0.4,0.1,0.9,0,1.3-0.1c5-1.2,8.9-5,13.1-8c3.3-2.3,6.9-4.3,10.1-6.7
					c2.4-1.8,4.6-3.9,6.1-6.4c1.5-2.5,2.4-5.3,3.6-7.9c0.8-1.8,2-3.6,3.7-4.6c1.7-1,4.2-1,5.5,0.5c1.6,1.8,1,4.7,0.1,7
					c0.9,0.1,1.6,0.8,2,1.7c0.1,0.3,0.2,0.6,0.3,1C76.8,46.6,76.4,47.8,75.9,49z"/>
				<path class="st1" d="M75,41.9c0.1-0.1,0.6-0.8,0.2-0.7c-0.1,0-0.2,0.1-0.3,0.2c-0.6,0.9-1.3,1.8-2.1,2.5
					c-0.1,0.1-0.1,0.1-0.2,0.2c-0.1,0-0.2,0-0.3,0c-0.4-0.1-0.9-0.2-1.3-0.2c-0.1,0-0.2,0-0.3,0c0.1,0.1,0.1,0.2,0.1,0.3
					c0.4,0,0.8,0.1,1.2,0.2c0.4,0.2,0.8,0.4,1.2,0.2c0.1-0.1,0.2-0.2,0.3-0.3c0.4-0.4,1.4-1.1,1.7-1.6C75.4,42.3,74.8,42.2,75,41.9z
					"/>
				<path class="st1" d="M26.4,76c-0.3,0.1-0.6,0.3-0.9,0.2c-0.2-0.1-0.3-0.3-0.4-0.4c-0.2-0.2-0.5-0.3-0.8-0.4
					c-1-0.3-2.5-0.1-2.8-1.1c0-0.1-0.2,0.9-0.2,0.9c0,0.2,0,0.4,0.2,0.5c0.4,0.2,1,0.2,1.4,0.2c0.5,0,1.1-0.2,1.6,0.1
					c0.2,0.1,0.4,0.3,0.6,0.5c0.2,0.2,0.5,0.3,0.7,0.2c0.2-0.1,0.4-0.3,0.6-0.4c0.3-0.2,0.6-0.4,0.9-0.4c0,0,0,0,0,0
					C27.3,75.9,26.7,75.9,26.4,76z"/>
				<path class="st5" d="M75.9,49c-0.5,1.2-1.3,2.3-2.4,3c-1.1,0.6-2.7,0.6-3.5-0.4c-0.3-0.3-0.4-0.7-0.7-1.1
					c-0.8-1-2.3-1.2-3.5-0.8c-1.2,0.4-2.2,1.4-3.1,2.3C56.3,58.3,50,64.7,42.5,69.6c-4.8,3.1-10,5.6-14,9.6
					c-0.4,0.4-0.8,0.9-1.4,1.1c-0.6,0.2-1.3,0.1-1.6-0.4c-0.3-0.5-0.1-1.1-0.3-1.6c0.2-0.1,0.5-0.2,0.8-0.3c0.7,0,1.3,0.3,1.9,0.1
					c0.3-0.1,0.6-0.3,0.8-0.5c5.4-4,10.8-7.8,16.4-11.5c1.6-1,3.2-2.1,4.7-3.2c2-1.6,3.8-3.3,5.7-5.1c2.1-2.1,4.4-4.2,6.4-6.4
					c1-1.1,2.2-2.2,3.7-2.7c1.5-0.5,3.2-0.4,4.3,0.7c0.6,0.5,1,1.2,1.8,1.3c0.7,0.1,1.5-0.2,2-0.7c1.1-1.2,2.8-2.9,2.7-5.7
					c0.1,0.3,0.2,0.6,0.3,1C76.8,46.6,76.4,47.8,75.9,49z"/>
			</g>
		</g>
		<g>
			<polygon class="st2" points="31.7,26.6 31.5,26.3 31.4,26.1 31.2,25.9 30.9,25.4 30.7,25.2 30.6,24.9 30.3,24.5 29.2,22.8 
				29.1,22.4 28.9,21.9 28.9,21.6 28.7,21.1 28.6,20.6 28.5,20.3 28.4,20 28.4,19.7 28.2,19 28,17.9 27.9,17.7 27.9,17.4 27.5,16.1 
				27.3,15.9 27,15.9 26.8,16.1 26.6,16.4 26.6,16.8 26.6,17 26.8,17.5 26.8,17.9 26.9,18.1 27,18.6 27.2,19.2 27.2,19.5 27.4,20.1 
				27.7,21.1 27.7,21.3 27.9,21.8 27.8,21.8 27.5,21.7 27.3,21.5 26.7,21.1 26.1,20.6 24.5,19.5 24.2,19.2 24,19.1 23.6,18.7 
				23.2,18.6 22.9,18.8 22.6,18.9 22.5,19.2 22.6,19.4 22.8,19.6 23.2,19.9 23.9,20.4 24.4,20.7 24.6,20.8 24.8,20.9 25.2,21.3 
				25.4,21.4 25.6,21.6 26.1,21.9 26.4,22.1 26.9,22.5 27.2,22.7 27.4,22.8 27.7,23 28.2,23.4 28.9,24.4 29.3,25.1 29.6,25.4 
				29.8,25.8 29.9,26 30.2,26.5 30.9,27.4 31.1,27.5 31.4,27.4 31.7,27.3 31.8,27.1 31.8,26.8 			"/>
			<polygon class="st2" points="26.3,25.9 26.1,25.8 25.3,25.3 25,25.2 24.5,25 24.2,24.8 24,24.6 23.8,24.5 23.4,24.3 23.2,24.2 
				22.9,24 22.7,23.9 22.4,23.8 22.2,23.6 21.2,23 20.9,22.9 20.6,22.7 20.4,22.6 20.1,22.3 20.1,21.9 20.1,21.3 20,21.1 20.1,20.8 
				19.9,19.9 19.8,19.6 19.7,19 19.6,18.8 19.3,18.2 19.3,18 18.8,16.9 18.5,16.7 18.2,16.8 17.9,16.9 17.8,17.3 17.8,17.6 
				18.1,18.2 18.2,18.4 18.6,19.2 18.6,19.5 18.8,20.1 18.9,20.7 19,21 19,21.8 18.9,22.1 18.9,22.4 18.9,22.7 18.5,23.5 18.2,23.6 
				18,23.5 17.8,23.3 17.7,23.1 17.5,22.9 16.8,22 16.6,21.6 16.1,21.1 15.9,20.8 15.7,20.6 15.5,20.4 15.3,20.2 15.1,19.9 15,19.8 
				14.7,19.7 14.3,19.8 14.1,20 14,20.2 14,20.6 14.2,20.7 14.4,21 14.6,21.1 14.8,21.4 15,21.6 15.1,21.8 15.6,22.4 16.1,23.1 
				16.4,23.4 16.5,23.7 16.7,23.9 16.9,24.2 17.1,24.3 17.4,24.7 17.6,25 18.1,25.7 18.6,26.3 18.8,26.5 19.1,26.9 19.5,27.4 
				20.8,29 21,29.3 21.1,29.5 21.4,29.7 21.5,30 21.9,30.2 22.2,30.1 22.4,29.9 22.6,29.5 22.5,29.3 22.3,29 21.9,28.5 21.3,27.8 
				21.2,27.6 21,27.4 19.5,25.4 19.1,25 19.1,24.6 19.2,24.2 19.3,23.9 19.6,23.7 20,23.7 20.2,23.9 20.5,24.1 21,24.3 21.5,24.6 
				22,24.9 22.2,25.1 23,25.4 23.3,25.6 23.5,25.8 23.8,25.9 24,26 24.3,26.2 24.5,26.3 24.8,26.5 25,26.6 25.3,26.7 25.5,26.9 
				25.9,27 26.3,26.9 26.4,26.7 26.7,26.6 26.7,26.3 26.6,26.1 			"/>
			<polygon class="st2" points="50.3,14.3 50.1,14.2 49.9,14 49.7,13.8 48.9,13.1 48.7,12.9 48.5,12.8 48.3,12.6 48.1,12.4 
				47.9,12.2 47.7,12.1 46.7,11.2 46.6,10.9 46.7,10.6 46.9,10.1 47,9.9 47.1,9.6 47.3,8.1 47.4,7.6 47.4,7 47.3,6.9 47,6.8 
				46.8,6.9 46.5,6.9 46.3,7.2 46.2,7.5 46.2,7.8 46.2,8.3 46.1,8.5 46.1,8.8 46,9.4 46,9.6 45.7,10.3 45.6,10.5 45.4,10.8 45.3,11 
				45,11 44.8,10.9 44.8,10.7 44.6,10.2 44.5,10 44.4,9.7 44,8.4 43.7,8.1 43.4,8 43.1,8.1 42.9,8.4 42.9,8.7 42.9,8.9 43,9.1 
				43.2,9.6 43.3,9.9 43.7,11 43.7,11.2 43.7,11.5 43.5,11.6 43,11.4 42.7,11.4 42.5,11.2 42.3,11.1 41.7,10.6 41.3,10.2 41.1,10.1 
				40.9,9.9 40.7,9.7 40.6,9.5 40.3,9.2 39.9,9.2 39.6,9.4 39.3,9.6 39.4,9.9 39.6,10.1 39.7,10.2 39.9,10.5 40.1,10.6 40.2,10.9 
				40.6,11.2 40.9,11.3 41,11.5 41.3,11.7 41.9,12.1 42.1,12.1 42.4,12.3 42.4,12.7 42.3,13.3 42.2,14 42.1,14.5 42.1,14.8 42,15 
				42,15.6 41.9,16.1 41.8,16.3 41.7,16.6 41.7,16.9 41.7,17.1 41.6,17.5 41.7,17.8 41.9,17.9 42.1,17.8 42.4,17.7 42.6,17.5 
				42.8,17.2 42.8,16.9 42.9,16.7 43,15.9 43,15.7 43.1,15.5 43.1,14.9 43.2,14.7 43.2,14.4 43.2,14.2 43.3,13.8 43.4,12.9 
				43.6,12.6 43.8,12.5 44.1,12.6 44.3,12.8 44.4,13.1 44.7,13.9 44.8,14.2 44.9,14.5 45,14.8 45.3,15.6 45.4,15.9 45.5,16.1 
				45.7,16.4 46.2,16.4 46.5,16.1 46.6,15.8 46,14.3 46,14 45.9,13.8 45.8,13.5 45.4,12.6 45.4,12.2 45.5,11.9 45.8,11.8 46.1,11.9 
				46.2,12.1 47.4,13.1 47.5,13.3 48,13.7 48.1,13.9 48.9,14.5 49.1,14.7 49.3,14.9 49.6,15.1 49.9,15.1 50.2,15 50.4,14.9 
				50.6,14.8 50.5,14.5 			"/>
			<polygon class="st2" points="57.1,12.7 57.1,12.4 57,12.2 56.9,11.6 56.9,11.4 56.8,11.2 56.7,10.4 56.6,10.2 56.5,9.6 56.5,9.4 
				55.9,6.6 55.8,6.3 55.8,5.8 55.7,5.6 55.7,5.3 55.5,5.1 55.2,5 54.7,5.1 54.5,5.2 54.3,5.6 54.2,5.8 54.1,6 54.1,6.3 54,6.5 
				54,6.8 53.5,8.5 53.4,8.8 53.4,9 53.3,9.3 53.3,9.5 53.2,9.7 53.1,10.2 53,10.5 52.9,10.9 52.8,11.5 52.7,12 52.7,12.2 
				52.7,12.5 52.6,12.7 52.5,12.7 52.5,12.5 52.4,11.9 52.4,11.7 52.2,10.5 52.1,10.3 52,9.6 51.8,8.9 51.8,8.5 51.5,7.1 51.4,6.8 
				51.4,6.6 51.2,6.1 51,5.9 50.8,5.9 50.5,5.9 50.3,6 50.1,6.2 50.1,6.4 50.2,6.7 50.3,7.1 50.3,7.4 50.4,7.7 50.5,7.9 50.9,10.2 
				50.9,10.4 51,10.7 51.4,12.6 51.4,12.8 51.5,13.2 51.5,13.5 51.6,13.7 51.7,14 51.7,14.3 51.9,14.5 52.2,14.6 52.4,14.5 
				52.6,14.4 52.9,14.3 53.1,14 53.2,13.8 53.7,11.6 53.8,11.2 54,10.6 54.1,9.9 54.2,9.6 54.3,9.3 54.3,9.1 54.5,8.2 54.6,7.8 
				54.7,7.6 54.7,7.3 54.8,7 54.9,7 54.9,7.2 54.9,7.5 55,7.7 55,8.2 55.1,8.6 55.2,9 55.2,9.2 55.3,9.4 55.3,9.7 55.4,9.9 
				55.4,10.2 55.4,10.4 55.5,10.7 55.7,11.4 55.7,11.7 55.9,12.5 55.9,12.7 56,13 56.1,13.2 56.1,13.4 56.3,13.6 56.6,13.7 
				56.9,13.6 57.2,13.4 57.3,13.2 57.2,12.9 			"/>
			<polygon class="st2" points="64.7,11.8 64.7,11.5 64.6,11.2 64.6,10.9 64.6,10.5 64.6,10 64.6,9.7 64.5,9.5 64.4,7.2 64.4,6.8 
				64.3,6.1 64.4,5.9 64.3,5.3 64.3,4.9 64.3,4.6 64.1,4.3 63.7,4.2 63.4,4.2 63.1,4.3 62.8,4.2 62.6,4.3 62.3,4.3 62.1,4.3 
				60.5,4.4 60.2,4.5 59.8,4.6 59.7,4.8 59.7,5.1 59.7,5.9 59.7,6.2 59.7,6.4 59.7,6.7 59.7,7 59.7,8 59.7,8.2 59.7,9.1 59.7,9.3 
				59.6,9.6 59.6,9.9 59.6,10.1 59.4,11.1 59.3,11.4 59.2,11.6 59.1,11.8 58.9,12.1 58.6,12.4 58.4,12.7 58.4,12.9 58.5,13.2 
				58.8,13.3 59.2,13.2 59.7,12.8 60,12.4 60.1,12.2 60.4,11.7 60.5,11.2 60.6,10.4 60.7,10.2 60.7,9.9 60.7,9.7 60.7,9.4 60.8,9.1 
				60.8,8.6 60.8,8.3 60.8,7 60.8,6.8 60.8,6.5 60.8,6.3 60.8,6 60.8,5.8 61,5.5 61.2,5.3 61.5,5.3 61.7,5.3 62,5.3 62.4,5.2 
				62.7,5.2 63,5.4 63.1,5.7 63.2,6.5 63.2,6.8 63.2,7.8 63.3,8.1 63.3,8.4 63.3,8.6 63.4,10 63.4,10.3 63.4,11 63.5,11.6 
				63.5,11.8 63.5,12.4 63.6,12.6 63.7,12.9 63.9,13 64.2,13 64.4,13 64.6,12.8 64.7,12.4 64.7,12.1 			"/>
			<polygon class="st2" points="72.6,4.7 72.2,4.7 71.9,4.8 71.6,5 71.4,5.2 71.3,5.4 71.2,5.6 71,5.9 70.9,6.1 70,7.6 69.9,7.9 
				69.8,8.1 69.6,8.3 69.5,8.5 69.4,8.7 69.1,9.2 69,9.4 68.8,9.7 68.5,10.2 68.3,10.7 68.2,10.9 68.1,11.2 68,11.3 67.9,11.4 
				67.9,11.1 68,10.6 68,10.4 68.2,9.1 68.2,8.9 68.3,8.2 68.3,7.6 68.4,7.1 68.5,5.7 68.5,5.4 68.5,5.1 68.5,4.7 68.4,4.4 
				68.1,4.3 67.9,4.3 67.7,4.3 67.4,4.4 67.3,4.6 67.3,4.9 67.3,5.4 67.3,5.6 67.3,5.9 67.3,6.1 67,8.4 67,8.7 67,9 66.8,10.9 
				66.8,11.1 66.8,11.6 66.7,11.8 66.7,12.1 66.7,12.4 66.6,12.6 66.8,12.8 67,13 67.3,13.1 67.5,13 67.8,13 68.1,12.7 68.2,12.6 
				69.3,10.6 69.6,10.3 69.9,9.7 70.2,9.1 70.4,8.8 70.5,8.6 70.6,8.4 71.1,7.6 71.3,7.2 71.4,7 71.5,6.7 71.7,6.5 71.7,6.5 
				71.7,6.7 71.7,7 71.7,7.3 71.6,7.8 71.5,8.2 71.5,8.5 71.4,8.8 71.5,9 71.4,9.2 71.4,9.5 71.4,9.8 71.3,10 71.3,10.3 71.3,11 
				71.2,11.3 71.2,12.1 71.1,12.3 71.1,12.6 71.1,12.8 71.1,13 71.3,13.3 71.5,13.4 71.9,13.5 72.2,13.4 72.3,13.2 72.3,12.9 
				72.3,12.6 72.3,12.4 72.3,12.1 72.4,11.6 72.4,11.3 72.4,11.1 72.5,10.3 72.5,10.1 72.6,9.5 72.6,9.3 72.9,6.5 72.9,6.2 
				72.9,5.7 72.9,5.4 73,5.2 72.9,4.9 			"/>
			<polygon class="st2" points="81.3,6.6 81.1,6.5 80.8,6.5 80.5,6.5 80.2,6.7 80.1,6.9 79.9,7.1 79.8,7.3 79.6,7.5 79.4,7.7 
				79.3,7.9 78.6,8.4 78.2,8.7 77.7,8.8 77.3,9 77,9 76.8,9 76.7,8.7 76.8,8.3 76.9,8 77.3,6.4 77.3,5.9 77.3,5.7 77,5.5 76.8,5.5 
				76.6,5.4 76.3,5.5 76.2,5.7 76.2,6 76,6.9 75.7,7.7 75.6,8.5 75.5,8.7 75.4,9 75.1,10.1 75.1,10.5 74.7,11.8 74.6,12.1 
				74.6,12.3 74.4,13.1 74.3,13.4 74.4,13.8 74.5,13.9 74.8,14 75,14 75.3,14 75.4,13.8 75.6,13.1 75.7,12.7 75.8,12.5 75.8,12.2 
				75.9,12 76,11.7 76,11.5 76.1,11.2 76.3,10.4 76.5,10.1 76.8,10.1 77.1,10.1 77.4,10.4 77.6,11.2 77.9,12.1 78.1,12.6 78.2,13.1 
				78.3,13.4 78.5,13.8 78.6,14.4 78.7,14.7 78.9,14.9 79.2,15.1 79.5,15.2 79.7,15.3 80,15.2 80,15 79.8,14.2 79.6,13.7 79.6,13.5 
				79.3,12.8 79.2,12.5 79.1,12 79,11.8 78.9,11.6 78.9,11.3 78.8,11 78.7,10.7 78.6,10.4 78.5,10.1 78.5,9.8 78.7,9.6 78.9,9.4 
				79.6,9.1 79.8,8.9 80,8.7 80.2,8.6 80.3,8.4 80.5,8.2 80.7,8 80.9,7.9 81,7.6 81.5,7 81.5,6.8 			"/>
			<polygon class="st2" points="38.7,19.4 38.3,18.7 38.3,18.6 38.1,18.5 37.8,18.5 37.6,18.6 37.3,18.8 37.2,18.6 37.1,18.3 
				37,18.1 36.8,18 36.7,17.7 36.4,17 36.2,16.8 35.4,15.2 35.2,15 35.1,14.7 35,14.5 34.6,13.7 34.5,13.5 34.3,13.3 33.9,12.5 
				33.7,12.3 33.4,12.3 33.1,12.5 32.8,12.7 32.9,13 33,13.3 33.5,14.2 33.6,14.4 33.7,14.7 33.8,14.9 34.1,15.4 34.2,15.6 
				34.2,15.9 34,16.2 33.7,16.4 33.4,16.5 32.7,16.9 32.4,17 32,17.2 31.7,17.3 31.4,17.1 30.8,16 30.6,15.7 30.5,15.4 30.4,15.2 
				30,14.5 29.7,14.4 29.4,14.4 29.2,14.5 29,14.7 28.9,14.9 28.9,15.1 29,15.3 29.2,15.5 29.6,16.2 29.7,16.4 29.8,16.7 29.9,16.9 
				30.2,17.2 30.3,17.6 30.4,17.8 30.8,18.5 30.9,18.7 31.1,19 32.2,21 32.3,21.4 32.5,21.6 32.7,21.9 32.8,22.1 33,22.3 33.3,22.3 
				33.6,22.1 33.9,21.8 33.8,21.5 33.6,21.2 33.5,20.9 33.3,20.7 33.2,20.4 32.8,19.6 32.6,19.3 32.5,19.1 32.2,18.6 32.3,18.4 
				32.4,18.1 32.7,18 32.9,17.8 33.9,17.3 34.3,17 34.5,16.9 34.8,16.9 35.1,17.1 35.7,18.3 35.8,18.5 35.9,18.8 36.1,19 36.3,19.4 
				36.5,19.7 36.8,20.1 37,20.2 37.3,20.1 37.5,20 37.7,19.9 37.9,20.3 38.1,20.4 38.4,20.3 38.6,20.2 38.8,20.1 38.9,19.9 
				38.9,19.7 			"/>
		</g>
	</g>
</g>
</svg>
