<?xml version="1.0" encoding="utf-8"?>
<!-- Generator: Adobe Illustrator 21.0.0, SVG Export Plug-In . SVG Version: 6.00 Build 0)  -->
<svg version="1.1" id="Layer_1" xmlns="http://www.w3.org/2000/svg" xmlns:xlink="http://www.w3.org/1999/xlink" x="0px" y="0px"
	 viewBox="0 0 240.9 453.5" style="enable-background:new 0 0 240.9 453.5;" xml:space="preserve">
<style type="text/css">
	.st0{fill:#C7B89E;}
	.st1{fill:#794552;}
	.st2{fill:#937B70;}
	.st3{fill:#E6DEC9;}
	.st4{fill:#501338;}
	.st5{fill:#F9A960;}
	.st6{fill:#D17C32;}
	.st7{fill:#F4876E;}
	.st8{fill:#E56A51;}
	.st9{fill:#80655C;}
	.st10{fill:#F0B39C;}
	.st11{fill:#D4907B;}
	.st12{fill:#D1D5DB;}
	.st13{fill:#989A9C;}
	.st14{fill:#C3AC6F;}
	.st15{fill:#FDDCC0;}
	.st16{fill:#9F874A;}
	.st17{fill:#DBC68E;}
	.st18{fill:#FFFFFF;}
	.st19{fill:#64445C;}
	.st20{fill:#816474;}
	.st21{fill:#EE3734;}
	.st22{fill:#CE202B;}
	.st23{opacity:0.3;}
	.st24{fill:#F49294;}
	.st25{fill:#814945;}
	.st26{fill:#A1675E;}
	.st27{fill:#D89E98;}
	.st28{opacity:0.11;fill:#FFFFFF;enable-background:new    ;}
	.st29{fill:#A48390;}
	.st30{fill:#CB8A43;}
	.st31{fill:#754D24;}
	.st32{fill:#FBBA6C;}
</style>
<g>
	<g>
		<polygon class="st0" points="120.5,317.3 76.6,313.9 67.1,324 120.5,343.7 173.8,324 164.3,313.9 		"/>
		<ellipse class="st1" cx="120.5" cy="366" rx="53.7" ry="18.7"/>
		<g>
			<g>
				<path class="st0" d="M162.4,354.2c-5.9,6-9.1,11.5-11.2,19.1c-0.5,2-1,4.2-1.4,6.6c-2.7-0.6-5.4-1.3-8.1-1.9
					c-15.8-3.8-31.6-7.7-39.6-9.7c-3.4-0.9-5.4-1.4-5.4-1.4s-66.3-15.4-59-40.6c0,0,7.2-30.3,56-6.3c24.7,12.2,42.1,20.8,53.2,26.4
					C156.3,351.1,161.2,353.6,162.4,354.2z"/>
				<path class="st2" d="M37.1,334.5c2,5.4,14.3,17.9,30.4,22.9c9.5,2.9,18.2,6.3,30,9.8c-2.1-0.9,52.4,12.1,52.4,12.1l1.5-6.6
					l-55.2-15.5c-15.9-5.1-29.1-9.6-33.7-11.6c-21.3-9.2-23.1-13.4-21.2-26.5C40.7,320,36,331.5,37.1,334.5z"/>
				<path class="st3" d="M49,313.3c13-0.5,33.7,6.9,56.3,17.1l48.2,22.3c0,0-4.5-4.6,1.5-1.7C126.5,335.7,65.3,300.9,49,313.3z"/>
				<path class="st4" d="M95.8,353.8c0.1,0.1,0.2,0.1,0.2,0.1c-3,8-3.9,11.7-3.9,11.7l-2-0.8C90.1,364.8,93.8,357,95.8,353.8z"/>
				<path class="st4" d="M79,327.3c-0.1,0-0.2-0.1-0.3-0.1c1.6-8.4,1.9-12.2,1.9-12.2l2.1,0.5C82.8,315.5,80.4,323.9,79,327.3z"/>
				<path class="st2" d="M86.5,343.7c0.1,0,0.1,0,0.2,0.1c-2.6,7.3-3.3,10.8-3.3,10.8l-2.1-0.6C81.3,353.9,84.9,346.2,86.5,343.7z"
					/>
				<path class="st5" d="M205.7,363.9c-0.1-1.1-0.6-2.1-1.6-2.9c-0.4-0.3-1-0.5-1.9-0.5l0,0c-2.6-0.1-7,0.8-11,1c-0.3,0-0.6,0-0.9,0
					c-0.4,0-0.7,0-1.1,0c-0.6,0-1.3-0.1-1.8-0.1c-0.4-0.1-0.9-0.1-1.4-0.2l0,0c-0.2,0-0.4-0.1-0.5-0.1c-1-0.2-2.1-0.5-3.3-0.8
					c-2.1-0.6-4.4-1.3-6.8-2c-0.2-0.1-0.3-0.1-0.5-0.1c-5.4-1.7-10.5-3.4-11.5-3.8c-0.1,0-0.2-0.1-0.2-0.1c-0.1,0.1-0.1,0.1-0.2,0.2
					c-1,1-2,2.1-2.8,3.1c-3.2,3.8-5.3,7.5-6.9,12c-0.1,0.4-0.3,0.7-0.4,1.1c-0.1,0.3-0.2,0.5-0.3,0.8c-0.1,0.1-0.1,0.3-0.1,0.4
					c-0.1,0.3-0.2,0.6-0.2,0.8v0.1c0,0.1,0,0.1-0.1,0.2c-0.1,0.4-0.2,0.8-0.3,1.2c0,0.1-0.1,0.3-0.1,0.4c-0.4,1.4-0.7,2.9-0.9,4.4
					c0,0.1,0,0.2,0,0.3c0,0.1,0,0.1,0,0.2s0,0.2,0,0.2c0,0.1,0,0.2-0.1,0.3c0.2,0.1,0.8,0.2,1.5,0.4l0,0c5.6,1.3,23.9,5.4,26.8,5.6
					c0,0,0,0,0.1,0s0.1,0,0.2,0c4.6,0,8.7-1.4,12-3.3c0.4-0.2,0.9-0.5,1.3-0.7c3.6-2.2,6.1-4.7,7-5.7c1.7-2,4.3-5.3,5.5-8.5
					c0.1-0.2,0.2-0.4,0.2-0.6c0-0.1,0.1-0.2,0.1-0.4c0-0.1,0.1-0.2,0.1-0.3v-0.1v-0.1c0-0.1,0.1-0.2,0.1-0.3
					c0.1-0.4,0.1-0.7,0.2-1.1l0,0c0-0.1,0-0.1,0-0.2c0-0.2,0-0.4,0-0.6c0,0,0,0,0-0.1l0,0v-0.1C205.7,364.1,205.7,364,205.7,363.9z"
					/>
				<path class="st6" d="M165.7,355.9c0,0-5.9,3.7-8.6,18c6.2,1.3,19,8,31,2.7c1.3,2.4,4,4.9,2.8,5.9c-1.2,0.9-9.7,3.8-13.2,3.5
					c-3.6-0.3-24.3-5.1-24.3-5.1l-3.7-1.6l1.3-6.4l4.1-9.8l3.9-5.7l2.9-3.4l3.7,1.6L165.7,355.9z"/>
				<path class="st7" d="M191.6,381.9c3.6-2.2,6.1-4.7,7-5.7c3.1-3.7,9.1-11.6,4.7-15.3c-1.5-1.3-7.5,0.3-12.9,0.6
					C188.9,363.1,182.5,371.5,191.6,381.9z"/>
				<path class="st8" d="M202.3,360.9c0,0,2,7.9-13.4,15.5c-0.8,0.9,0.2,2.6,0.2,2.6l2.5,2.5c0,0,5.1-3.1,5.3-3.4s5.4-7,5.4-7
					l2.5-4.6v-3.6l-0.6-1.4L202.3,360.9z"/>
				<path class="st4" d="M205.7,363.9c0-0.2,0-0.3-0.1-0.4c0-0.3-0.1-0.6-0.2-0.9c0-0.1-0.1-0.3-0.2-0.4c-0.2-0.5-0.5-1-1-1.5
					c-0.1-0.2-0.3-0.3-0.5-0.5c-0.1-0.1-0.2-0.1-0.2-0.2l0,0c-0.2-0.1-0.4-0.2-0.6-0.3c-0.2-0.1-0.5-0.1-0.7-0.2c-0.1,0-0.2,0-0.4,0
					c-0.1,0-0.2,0-0.3,0c-0.8-0.1-1.8,0-3.1,0.1c-0.4,0-0.7,0.1-1.1,0.1c-0.5,0.1-1,0.1-1.5,0.2c-1.2,0.2-2.4,0.3-3.6,0.4
					c-0.5,0.1-1,0.1-1.4,0.1c-0.1,0-0.2,0-0.4,0c-0.1,0-0.1,0-0.2,0h-0.4l-0.2,0.3c-0.1,0.2-0.3,0.4-0.5,0.7
					c-0.2,0.2-0.4,0.5-0.5,0.8c-1.7,2.6-4.2,8-1.3,14.6c0.7,1.5,1.6,3.1,3,4.8c0.2,0.3,0.4,0.5,0.6,0.8l0.2,0.3l0.2,0.3l0,0l0.6-0.4
					c0.1-0.1,0.3-0.2,0.4-0.2c0.2-0.1,0.4-0.3,0.6-0.4c0.2-0.1,0.4-0.3,0.6-0.4c0.7-0.5,1.4-1,2-1.5c0.4-0.3,0.8-0.6,1.1-0.9
					c0.1-0.1,0.2-0.2,0.3-0.3c0.3-0.2,0.5-0.5,0.7-0.7l0,0c0.2-0.2,0.4-0.4,0.6-0.6c0-0.1,0.1-0.1,0.1-0.1c0.3-0.3,0.5-0.6,0.7-0.8
					l0,0c0.6-0.8,1.6-1.9,2.6-3.3c0.2-0.2,0.4-0.5,0.5-0.8c0.5-0.8,1.1-1.6,1.5-2.5c0.5-1,1-2,1.3-3c0-0.1,0-0.1,0.1-0.2l0,0
					c0-0.1,0-0.1,0.1-0.2c0-0.1,0.1-0.2,0.1-0.3v-0.1c0-0.1,0.1-0.2,0.1-0.3v-0.1v-0.1v-0.1c0-0.2,0.1-0.4,0.1-0.5s0-0.3,0-0.4
					c0-0.2,0-0.4,0-0.6v-0.1V364C205.7,364.1,205.7,364,205.7,363.9z M191.1,362.3c0.1,0,0.2,0,0.3,0s0.2,0,0.3,0
					c0.3,0,0.5-0.1,0.8-0.1c0.6-0.1,1.2-0.1,1.8-0.2c0.3,0,0.6-0.1,0.9-0.1c0.3,0,0.6-0.1,0.9-0.1c1.7-0.2,3.7-0.5,5-0.5
					c0.5,0,1,0,1.3,0.1c0.1,0,0.3,0.1,0.3,0.2c0.1,0.1,0.2,0.2,0.3,0.3c0.4,0.4,0.7,0.9,0.8,1.5c0.3,1,0.2,2.2-0.3,3.6
					c-0.3,0.9-0.8,1.9-1.4,3c-0.3,0.5-0.6,1-0.9,1.5c-0.4,0.5-0.7,1.1-1.1,1.6c-0.2,0.3-0.4,0.6-0.6,0.8c-0.4,0.6-0.9,1.2-1.4,1.8
					c-0.1,0.1-0.1,0.1-0.2,0.2c-0.2,0.2-0.4,0.4-0.6,0.6c-0.1,0.1-0.1,0.1-0.2,0.2c-0.2,0.1-0.3,0.3-0.5,0.5s-0.4,0.3-0.6,0.5
					c-0.2,0.2-0.4,0.4-0.6,0.5c-0.3,0.3-0.7,0.6-1,0.8c-0.8,0.6-1.6,1.2-2.5,1.7c-1.3-1.5-2.2-3-2.8-4.4c-3.2-7.1,0.5-12.5,1.8-14.1
					C190.9,362.3,191,362.3,191.1,362.3z"/>
				<path class="st4" d="M184.3,369.7c0.1,0,0.1,0,0.2,0.1c1.2-6,2.4-8.2,2.6-8.1l-1.7-0.8C185.4,360.9,184.4,367,184.3,369.7z"/>
				<path class="st6" d="M179.4,371.2c0.1,0,0.2,0,0.3-0.1c1.2,7.9,2.8,10.9,3,10.8l-2.2,0.8C180.5,382.6,179.5,374.7,179.4,371.2z"
					/>
				<path class="st6" d="M165,369c0.1,0,0.2,0.1,0.3,0.1c-2.8,7.4-2.9,10.8-2.7,10.8l-2.3-0.4C160.3,379.4,163.3,372,165,369z"/>
				<path class="st4" d="M150.7,362.7c0.1,0.1,0.2,0.1,0.4,0.2c-4.2,11.2-4.6,16.4-4.3,16.4l-2.8-1
					C143.8,378.3,148.3,367.2,150.7,362.7z"/>
				<path class="st6" d="M175.3,358.2c-3.5,3.8-13.7,14.6-24.6,21.2c0-0.1,0-0.1,0-0.2s0-0.2,0-0.3c0.3-1.6,0.6-3,0.9-4.4
					c0-0.1,0.1-0.3,0.1-0.4c0.1-0.4,0.2-0.8,0.3-1.2c0-0.1,0-0.1,0.1-0.2v-0.1c0.1-0.3,0.2-0.6,0.2-0.8c0-0.1,0.1-0.3,0.1-0.4
					c0.1-0.3,0.2-0.5,0.3-0.8c0.1-0.4,0.3-0.8,0.4-1.1c1.6-4.4,3.8-8.2,6.9-12c0.9-1,1.8-2.1,2.8-3.1c0.1-0.1,0.1-0.1,0.2-0.2
					c0,0,0.1,0,0.2,0.1c1,0.4,6.1,2.1,11.5,3.8C175,358.1,175.2,358.2,175.3,358.2z"/>
				<path class="st9" d="M162.4,354.2c-5.9,6-9.1,11.5-11.2,19.1c-0.5,2-1,4.2-1.4,6.6c-2.7-0.6-5.4-1.3-8.1-1.9
					c-15.8-3.8-31.6-7.7-39.6-9.7l14.5-19.9l30.4-2C156.3,351.1,161.2,353.6,162.4,354.2z"/>
				<path class="st4" d="M158.5,359.9c0.5-0.6,0.9-1.2,1.5-1.8C159.4,358.7,159,359.3,158.5,359.9z M205.7,364.3c0-0.1,0-0.3,0-0.4
					c0-0.2,0-0.3-0.1-0.4c-0.1-0.3-0.1-0.6-0.2-0.9c0-0.1-0.1-0.3-0.2-0.4c-0.2-0.5-0.6-1-1-1.5c-0.2-0.2-0.3-0.3-0.5-0.4
					c-0.1-0.1-0.2-0.1-0.2-0.2l0,0c-0.2-0.1-0.4-0.2-0.6-0.3c-0.2-0.1-0.5-0.1-0.7-0.2c-0.1,0-0.2,0-0.4,0c-0.1,0-0.2,0-0.3,0
					c-0.8-0.1-1.8,0-3.1,0.1c-0.4,0-0.7,0.1-1.1,0.1c-0.5,0.1-1,0.1-1.5,0.2c-1.2,0.2-2.4,0.3-3.6,0.4c-0.5,0.1-1,0.1-1.4,0.1
					c-0.1,0-0.2,0-0.4,0c-1.4,0.1-2.7,0.1-3.9-0.1c-0.9-0.1-2.3-0.4-3.9-0.8c-5.6-1.5-14.2-4.3-18.1-5.6c-0.9-0.3-1.5-0.5-1.8-0.6
					l0,0c-0.1,0-0.1,0-0.1,0l-0.5-0.2l-0.4,0.4c-0.1,0.1-0.1,0.1-0.2,0.2l-0.1,0.1c-0.2,0.2-0.3,0.4-0.5,0.5
					c-0.3,0.3-0.6,0.6-0.8,0.9c-0.3,0.3-0.5,0.6-0.8,0.8c-0.3,0.3-0.5,0.6-0.7,0.8l0,0c-1.1,1.3-2,2.5-2.9,3.8c-0.6,1-1.2,2-1.8,3
					c-0.2,0.3-0.4,0.7-0.5,1c-0.2,0.3-0.3,0.7-0.5,1c-0.2,0.4-0.3,0.7-0.5,1.1c-0.1,0.3-0.3,0.6-0.4,0.9c-0.2,0.4-0.3,0.8-0.5,1.3
					c-0.1,0.4-0.3,0.8-0.4,1.1c-0.2,0.7-0.5,1.4-0.7,2.2c0,0.1,0,0.1-0.1,0.2c-0.1,0.4-0.2,0.8-0.3,1.3c0,0.1-0.1,0.3-0.1,0.4
					c-0.1,0.2-0.1,0.5-0.2,0.7c0,0.1,0,0.1,0,0.2l0,0c-0.1,0.2-0.1,0.5-0.2,0.7c-0.1,0.4-0.2,0.7-0.2,1.1c-0.1,0.3-0.1,0.6-0.2,1
					c-0.1,0.3-0.1,0.5-0.1,0.8v0.1v0.2v0.1c0,0.2-0.1,0.4-0.1,0.5v0.1l-0.1,0.7l0.7,0.2l0,0l0.3,0.1c3.4,0.9,26,6,28.4,6
					c5,0,9.5-1.7,13.1-3.8c0.3-0.2,0.7-0.4,1-0.6c0.2-0.1,0.4-0.3,0.6-0.4c0.2-0.1,0.4-0.3,0.6-0.4c0.7-0.5,1.4-1,2-1.5
					c0.4-0.3,0.8-0.6,1.1-0.9c0.1-0.1,0.2-0.2,0.3-0.3c0.3-0.2,0.5-0.5,0.7-0.7l0,0c0.2-0.2,0.4-0.4,0.6-0.6c0-0.1,0.1-0.1,0.1-0.1
					c0.3-0.3,0.5-0.6,0.7-0.8l0,0c0.6-0.8,1.6-1.9,2.6-3.3c0.2-0.2,0.4-0.5,0.5-0.8c0.5-0.8,1.1-1.6,1.5-2.5
					c0.4-0.8,0.8-1.5,1.1-2.3c0.1-0.2,0.2-0.4,0.2-0.6c0-0.1,0-0.1,0.1-0.2l0,0c0-0.1,0-0.1,0.1-0.2c0-0.1,0.1-0.2,0.1-0.3
					c0.1-0.2,0.1-0.4,0.1-0.6v-0.1v-0.1c0-0.2,0.1-0.4,0.1-0.5s0-0.1,0-0.2l0,0c0-0.1,0-0.1,0-0.2v-0.1
					C205.7,364.6,205.7,364.4,205.7,364.3L205.7,364.3z M150.8,379.3L150.8,379.3v-0.2c0.1-0.7,0.3-1.5,0.4-2.1
					c0.1-0.7,0.3-1.3,0.4-1.9c0-0.2,0.1-0.3,0.1-0.4s0-0.2,0.1-0.3c0.1-0.5,0.2-0.9,0.4-1.3c0-0.1,0-0.1,0.1-0.2
					c0.1-0.3,0.1-0.5,0.2-0.7v-0.1c0,0,0,0,0-0.1s0.1-0.3,0.1-0.4c0.1-0.3,0.2-0.5,0.3-0.8c0.1-0.4,0.3-0.8,0.4-1.1
					c0.1-0.2,0.2-0.4,0.2-0.6c0.1-0.3,0.2-0.5,0.3-0.8c0.2-0.5,0.4-1,0.7-1.5c0.2-0.4,0.4-0.8,0.6-1.2c0.1-0.3,0.3-0.6,0.4-0.8
					c0.4-0.7,0.8-1.4,1.2-2c0.2-0.3,0.4-0.6,0.6-0.9c0.2-0.3,0.4-0.6,0.6-0.8c0-0.1,0.1-0.1,0.1-0.2c0.2-0.3,0.4-0.5,0.6-0.8
					c0.5-0.6,0.9-1.2,1.5-1.8c0.7-0.9,1.5-1.7,2.3-2.6c0.1-0.1,0.2-0.2,0.3-0.3l0,0c0.6,0.2,1.5,0.5,2.8,0.9l0,0
					c4,1.3,10.8,3.6,15.8,4.9c1.6,0.4,2.9,0.8,4,1c0.4,0.1,0.8,0.2,1.1,0.2c0.1,0,0.2,0,0.3,0l0,0c0.6,0.1,1.3,0.1,1.9,0.1
					c0.3,0,0.7,0,1,0c0.5,0,0.9,0,1.4-0.1c0.1,0,0.2,0,0.3,0s0.2,0,0.3,0c0.3,0,0.5-0.1,0.8-0.1c0.6-0.1,1.2-0.1,1.8-0.2
					c0.3,0,0.6-0.1,0.9-0.1c0.3,0,0.6-0.1,0.9-0.1c1.7-0.2,3.7-0.5,5-0.5c0.5,0,1,0,1.3,0.1c0.1,0,0.3,0.1,0.3,0.2
					c0.1,0.1,0.2,0.2,0.3,0.3c0.4,0.4,0.7,0.9,0.8,1.5c0.3,1,0.2,2.2-0.3,3.6c-0.3,0.9-0.8,1.9-1.4,3c-0.3,0.5-0.6,1-0.9,1.5
					c-0.4,0.5-0.7,1.1-1.1,1.6c-0.2,0.3-0.4,0.6-0.6,0.8c-0.4,0.6-0.9,1.2-1.4,1.8c-0.1,0.1-0.1,0.1-0.2,0.2
					c-0.2,0.2-0.4,0.4-0.6,0.6c-0.1,0.1-0.1,0.1-0.2,0.2c-0.2,0.2-0.3,0.3-0.5,0.5s-0.4,0.3-0.6,0.5c-0.2,0.2-0.4,0.4-0.6,0.5
					c-0.3,0.3-0.7,0.6-1,0.8c-0.8,0.6-1.6,1.2-2.5,1.7c-0.2,0.1-0.3,0.2-0.5,0.3c-0.1,0-0.1,0.1-0.2,0.1c0,0,0,0-0.1,0
					c-0.2,0.1-0.5,0.3-0.7,0.4c-3.3,1.9-7.5,3.4-12,3.4C176.3,385.1,155.4,380.4,150.8,379.3L150.8,379.3z M158.5,359.9
					c0.5-0.6,0.9-1.2,1.5-1.8C159.4,358.7,159,359.3,158.5,359.9z"/>
				<path class="st4" d="M162.8,353.5C162.8,353.5,162.8,353.4,162.8,353.5c-2.2-1.1-22.9-11.7-68.7-34.2
					c-19.4-9.5-34.7-11.8-45.4-6.7c-9.4,4.5-11.7,13-11.8,13.6c-1.2,4-0.6,8.1,1.7,12c10.8,18.4,56,29.1,57.9,29.6c0,0,0,0,0.1,0
					c1.4,0.4,20.1,5.1,39.9,9.9c4.4,1,8.8,2.1,13.1,3.1l0,0l0.3,0.1l0.6,0.1l0.1-0.9c0-0.1,0-0.2,0.1-0.3c0-0.1,0.1-0.3,0.1-0.4
					s0-0.1,0-0.2c0.1-0.7,0.3-1.5,0.4-2.1c0.1-0.7,0.3-1.3,0.4-1.9c0-0.2,0.1-0.3,0.1-0.4s0-0.2,0.1-0.3c0.1-0.5,0.2-0.9,0.4-1.3
					c0-0.1,0-0.1,0.1-0.2c0.1-0.3,0.1-0.5,0.2-0.7v-0.1c0,0,0,0,0-0.1s0.1-0.3,0.1-0.4c0.1-0.3,0.2-0.5,0.3-0.8
					c0.1-0.4,0.3-0.8,0.4-1.1c0.1-0.2,0.2-0.4,0.2-0.6c0.1-0.3,0.2-0.5,0.3-0.8c0.2-0.5,0.4-1,0.7-1.5c0.2-0.4,0.4-0.8,0.6-1.2
					c0.1-0.3,0.3-0.6,0.4-0.8c0.4-0.7,0.8-1.4,1.2-2c0.2-0.3,0.4-0.6,0.6-0.9c0.2-0.3,0.4-0.6,0.6-0.8c0-0.1,0.1-0.1,0.1-0.2
					c0.2-0.3,0.4-0.6,0.6-0.8c0.5-0.6,0.9-1.2,1.5-1.8c0.7-0.9,1.5-1.7,2.3-2.6c0.1-0.1,0.2-0.2,0.3-0.3c0.1-0.1,0.2-0.3,0.4-0.4
					l0.2-0.2l0.2-0.2l0.3-0.3l0.1-0.1L162.8,353.5z M151.2,370.3c-0.2,0.7-0.5,1.4-0.7,2.2c0,0.1,0,0.1-0.1,0.2
					c-0.1,0.4-0.2,0.8-0.3,1.3c0,0.1-0.1,0.3-0.1,0.4c-0.1,0.2-0.1,0.5-0.2,0.7c0,0.1,0,0.1,0,0.2c-0.1,0.3-0.1,0.5-0.2,0.8
					c-0.1,0.4-0.2,0.7-0.2,1.1c-0.1,0.3-0.1,0.6-0.2,1c-0.1,0.3-0.1,0.6-0.2,0.8c-0.8-0.2-1.7-0.4-2.5-0.6s-1.7-0.4-2.6-0.6
					c-0.8-0.2-1.7-0.4-2.5-0.6c-18.4-4.4-36.8-9-42.7-10.5c-1.2-0.3-1.9-0.5-2-0.5s-1.8-0.4-4.6-1.2c-0.6-0.2-1.3-0.4-2-0.6
					c-13.2-3.8-42.2-13.4-50.3-27.1c-2.1-3.5-2.6-7.1-1.5-10.7l0,0c0,0,0.6-2.4,2.5-5.2l0,0l0,0c1.7-2.5,4.3-5.3,8.5-7.3
					c0.5-0.2,1-0.5,1.6-0.7l0,0c10.2-3.9,24.4-1.4,42.3,7.4c3.2,1.6,6.2,3.1,9.2,4.5c0.7,0.3,1.3,0.6,2,1
					c23.2,11.4,38.7,19.2,47.8,23.8c3.4,1.7,5.9,3,7.5,3.8c0.5,0.2,0.8,0.4,1.2,0.6c-0.3,0.3-0.6,0.6-0.8,0.9
					c-0.3,0.3-0.5,0.6-0.8,0.8c-0.3,0.3-0.5,0.6-0.7,0.8l0,0c-1.1,1.3-2,2.5-2.9,3.8c-0.7,1-1.2,2-1.8,3c-0.2,0.3-0.4,0.7-0.5,1
					c-0.2,0.3-0.3,0.7-0.5,1c-0.2,0.4-0.3,0.7-0.5,1.1c-0.1,0.3-0.3,0.6-0.4,0.9c-0.2,0.4-0.3,0.8-0.5,1.3
					C151.5,369.5,151.3,369.9,151.2,370.3z"/>
			</g>
		</g>
		<g>
			<path class="st0" d="M204.1,326.3c0,0-7.2-30.3-56-6.3c-45.6,22.4-66.1,32.9-68.6,34.2c7.5,7.6,10.7,14.4,12.5,25.7
				c24.9-5.8,53.1-13,53.1-13S211.4,351.5,204.1,326.3z"/>
			<path class="st2" d="M204.6,334.5c-2,5.4-14.3,17.9-30.4,22.9c-9.5,2.9-18.2,6.3-30,9.8c2.1-0.9-52.4,12.1-52.4,12.1l-1.5-6.6
				l55.2-15.5c15.9-5.1,29.1-9.6,33.7-11.6c21.3-9.2,23.1-13.4,21.2-26.5C201.1,320,205.8,331.5,204.6,334.5z"/>
			<path class="st3" d="M192.8,313.3c-13-0.5-33.7,6.9-56.3,17.1l-48.2,22.3c0,0,4.5-4.6-1.5-1.7
				C115.3,335.7,176.4,300.9,192.8,313.3z"/>
			<path class="st4" d="M91.3,380.9l-0.1-0.9c-1.9-11.4-5.1-18-12.3-25.2L78,354l1-0.5c2.2-1.1,22.9-11.7,68.6-34.2
				c19.4-9.5,34.7-11.8,45.4-6.7c9.4,4.5,11.7,13,11.8,13.6c1.2,4,0.6,8.1-1.7,12c-10.8,18.4-56,29.1-57.9,29.6
				c-0.3,0.1-28.5,7.2-53.1,13L91.3,380.9z M80.8,354.4c6.7,7,9.9,13.7,11.8,24.5c24.4-5.7,52-12.7,52.2-12.8
				c0.5-0.1,46.4-11,56.8-28.8c2.1-3.5,2.6-7.1,1.5-10.7l0,0c0-0.1-2.1-8.3-11-12.5c-10.2-4.8-25-2.5-43.9,6.7
				C106.7,341.2,85.8,351.9,80.8,354.4z"/>
			<path class="st4" d="M146,353.8c-0.1,0.1-0.2,0.1-0.2,0.1c3,8,3.9,11.7,3.9,11.7l2-0.8C151.7,364.8,147.9,357,146,353.8z"/>
			<path class="st4" d="M91.1,362.7c-0.1,0.1-0.2,0.1-0.4,0.2c4.2,11.2,4.6,16.4,4.3,16.4l2.8-1C97.9,378.3,93.5,367.2,91.1,362.7z"
				/>
			<path class="st4" d="M140.9,337.4c0.1,0,0.2-0.1,0.3-0.1c-1.6-8.4-1.9-12.2-1.9-12.2l-2.1,0.5C137.1,325.6,139.5,334,140.9,337.4
				z"/>
			<path class="st2" d="M155.3,343.7c-0.1,0-0.1,0-0.2,0.1c2.6,7.3,3.3,10.8,3.3,10.8l2.1-0.6C160.5,353.9,156.9,346.2,155.3,343.7z
				"/>
			<path class="st5" d="M90.9,379c-0.3-1.7-0.6-3.3-1-4.8c-1.6-6.6-4.1-11.6-8.3-16.6c-0.9-1.1-1.9-2.2-3-3.3c0,0-19,6.5-24.1,7.2
				c-1.2,0.2-2.5,0.2-3.9,0.1c-5.4-0.3-11.4-1.8-12.9-0.6c-4.5,3.7,1.6,11.6,4.7,15.3c0.9,1,3.4,3.5,7,5.7c3.5,2.1,8.1,4,13.3,4
				c2.3,0,26.3-5.4,28.5-6C91.1,379.8,91,379.2,90.9,379z"/>
			<path class="st6" d="M76,355.9c0,0,5.9,3.7,8.6,18c-6.2,1.3-19,8-31,2.7c-1.3,2.4-4,4.9-2.8,5.9c1.2,0.9,9.7,3.8,13.2,3.5
				c3.6-0.3,24.3-5.1,24.3-5.1l3.7-1.6l-1.3-6.4l-4.1-9.8l-3.9-5.7l-2.9-3.4l-3.7,1.6L76,355.9z"/>
			<path class="st4" d="M63.5,386.7c-10.2,0-18.6-7.2-20.9-10c-2.5-3-10-12-4.6-16.5c1.3-1.1,4.1-0.7,7.9-0.2
				c3.1,0.4,6.6,0.8,9.3,0.5c5-0.6,23.8-7.1,24-7.1l0.5-0.2l0.4,0.4c1.1,1.1,2.2,2.3,3.1,3.4c4.3,5.1,6.8,10.1,8.5,17
				c0.4,1.5,0.7,3.1,1,4.9l0.1,0.4c0,0.2,0.1,0.5,0.1,0.6l0.1,0.7l-0.7,0.2C90.1,381.2,65.9,386.7,63.5,386.7z M40.7,361.2
				c-0.8,0-1.4,0.1-1.6,0.3c-2.7,2.3-1.1,7,4.8,14.1c2.2,2.6,10,9.4,19.6,9.4c2,0,23-4.7,27.6-5.8V379c-0.3-1.7-0.6-3.3-1-4.8
				c-1.6-6.6-4.1-11.4-8.2-16.3c-0.8-1-1.7-1.9-2.6-2.9c-3.1,1.1-19,6.4-23.8,7c-2.9,0.4-6.5-0.1-9.7-0.5
				C43.9,361.5,42,361.2,40.7,361.2z"/>
			<path class="st7" d="M50.2,381.9c-3.6-2.2-6.1-4.7-7-5.7c-3.1-3.7-9.1-11.6-4.7-15.3c1.5-1.3,7.5,0.3,12.9,0.6
				C52.9,363.1,59.2,371.5,50.2,381.9z"/>
			<path class="st8" d="M39.4,360.9c0,0-2,7.9,13.4,15.5c0.8,0.9-0.2,2.6-0.2,2.6l-2.5,2.5c0,0-5.1-3.1-5.3-3.4s-5.4-7-5.4-7
				l-2.5-4.6v-3.6l0.6-1.4L39.4,360.9z"/>
			<path class="st4" d="M50.4,383l-0.6-0.4c-3.6-2.2-6.2-4.7-7.2-5.9c-2.5-3-10-12-4.6-16.5c1.2-1,3.7-0.8,7.9-0.2
				c1.8,0.2,3.7,0.5,5.6,0.6h0.4l0.2,0.3c1.5,1.7,8.3,10.6-1.2,21.6L50.4,383z M40.7,361.2c-0.8,0-1.4,0.1-1.6,0.3
				c-2.7,2.3-1.1,7,4.8,14.1c0.8,1,3,3.1,6.2,5.1c7.5-9.2,2.6-16.6,1-18.5c-1.8-0.1-3.6-0.3-5.3-0.6C43.9,361.5,42,361.2,40.7,361.2
				z"/>
			<path class="st4" d="M57.5,369.7c-0.1,0-0.1,0-0.2,0.1c-1.2-6-2.4-8.2-2.6-8.1l1.7-0.8C56.4,360.9,57.4,367,57.5,369.7z"/>
			<path class="st6" d="M62.4,371.2c-0.1,0-0.2,0-0.3-0.1c-1.2,7.9-2.8,10.9-3,10.8l2.2,0.8C61.3,382.6,62.3,374.7,62.4,371.2z"/>
			<path class="st6" d="M76.8,369c-0.1,0-0.2,0.1-0.3,0.1c2.8,7.4,2.9,10.8,2.7,10.8l2.3-0.4C81.5,379.4,78.5,372,76.8,369z"/>
		</g>
		<path class="st2" d="M73.9,322.8c0,0,2.8,2.2,2,3.7s-3.3,4.3-3.3,4.3s3.8,6.6,3,9.8c-0.8,3.2-13.7,8.1-13.7,8.1l-4.4-3.6l-0.3-8.9
			l8.7-9.2L73.9,322.8"/>
		<path class="st2" d="M168.9,323.2c0,0-2.8,2.2-2,3.7s3.3,4.3,3.3,4.3s-3.8,6.6-3,9.8c0.8,3.2,13.7,8.1,13.7,8.1l4.4-3.6l0.3-8.9
			l-8.7-9.2L168.9,323.2"/>
		<polygon class="st10" points="147,212 93.9,212 102.2,188.3 104.6,181.4 104.8,181 103.4,159.9 137.5,159.9 136.4,177.2 
			136.2,181 140.7,193.9 		"/>
		<path class="st11" d="M141.3,196.4c-5.6-1.8-15.3,0.5-19.4,0.5c-12.7,0-14.3-6.4-17.9-10c-0.8-0.8,0.8-0.2,0.8-1.1
			c0-1.6-2.6-3.1-0.3-4.4c4.8-2.7,14-4.5,24.5-4.5c2.5,0,4.9,0.1,7.2,0.3l-0.2,3.9L141.3,196.4z"/>
		<path class="st4" d="M148.2,212.9H92.8L104,181l-1.4-21.9h35.9l-1.4,21.9L148.2,212.9z M95.1,211.2h50.7l-10.5-30l1.3-20.4h-32.3
			l1.3,20.4L95.1,211.2z"/>
		<g>
			<g>
				<polygon class="st12" points="134.1,214.7 131.7,209.2 125.4,204.6 124.9,205 123.1,206.5 122.6,206.9 120.5,213.2 118.3,206.9 
					117.8,206.5 116,205 115.6,204.6 109.3,209.2 106.8,214.7 104.1,221.9 106.8,229.6 120.5,246 134.1,229.6 136.8,221.9 				"/>
				<path class="st4" d="M120.5,247.2L106.1,230l-2.8-8.1l2.8-7.4l2.6-5.8l7-5l3.4,2.8l1.5,4.4l1.5-4.4l3.4-2.8l7,5l2.6,5.8l2.8,7.4
					l-2.8,8.1L120.5,247.2z M107.5,229.2l13,15.6l13-15.6l2.6-7.3l-2.6-6.9l-2.4-5.4l-5.7-4.1l0,0l-2.1,1.8l-2.8,8.2l-2.8-8.2
					l-2.1-1.8l-5.7,4.1l-2.4,5.4l-2.6,6.9L107.5,229.2z"/>
			</g>
			<path class="st13" d="M123.3,207.1c0,0,6.4,5.7,8.5,13.5c0.3,1.1,0.5,2.3,0.6,3.5c1.4-3,2.4-5.6,3.2-7.8
				c-0.4-0.5-0.9-1.1-1.4-1.6c-2.8-3.1-6.4-5.8-11-8.2L123.3,207.1z"/>
			<path class="st13" d="M117.7,207.1c0,0-6.4,5.7-8.5,13.5c-0.3,1.1-0.5,2.3-0.6,3.5c-1.4-3-2.4-5.6-3.2-7.8
				c0.4-0.5,0.9-1.1,1.4-1.6c2.8-3.1,6.4-5.8,11-8.2L117.7,207.1z"/>
			<g>
				<circle class="st4" cx="120.5" cy="215.3" r="1.9"/>
				<path class="st12" d="M120.8,214.8c0.1,0,0.2,0,0.4,0.1c-0.1-0.3-0.4-0.5-0.7-0.5c-0.4,0-0.8,0.4-0.8,0.8c0,0.2,0,0.3,0.1,0.4
					C119.8,215.2,120.2,214.8,120.8,214.8z"/>
			</g>
		</g>
		<g>
			<path class="st14" d="M199.9,345c-4.2,10.5-30.9-5-30.9-5c-1-0.7-1.4-2-1-3.1l2.9-8.4c0,0-5.8-6.8-3.6-8.5
				c2.2-1.6,8.7-4.7,9.3-8.1c0.6-3.2,10-41.8-6.7-73.6c0,0.4-1.6,19.1-3.2,37.8c-1.4,16-2.7,31.8-3.1,36.1c-0.1,0.7-0.5,0.6-0.5,0.6
				l-42.7,13.5v-80.7l19.1-32.2l2-21.7l9.7,3.9l8.8,3.5l2.9,1.1l5.1,2c0,0,1.5,1,3.8,2.9c3.4,2.8,8.7,7.6,14.4,14.4
				C204,240.7,225,282.3,199.9,345z"/>
			<path class="st15" d="M177.1,309.6c-0.2,1.2-0.4,2-0.5,2.3c-0.6,3.4-7.1,6.5-9.3,8.1c-1.6,1.2,1.2,5.3,2.7,7.3
				c0.6,0.7,0.7,1.7,0.4,2.5l-2.4,6.9c-0.4,1.2,0,2.4,1,3.1c0,0,26.7,15.5,30.9,5c3.5-8.7,6.1-17.1,8-25
				C194.1,314.2,183.1,311.1,177.1,309.6z"/>
			<path class="st16" d="M169.2,235.1c0,0,22,20.9,16,73.2c10,3.6,23.7,8.4,23.7,8.4l-1,3.2l-30.8-10.4c0,0,6.1-29.8,1.8-45
				C174.5,249.5,169.2,235.1,169.2,235.1z"/>
			<path class="st17" d="M168.4,202.3c0,0,49.7,44.9,35.2,111.9c3.3,1.3,5.3,1,5.3,1s3.8-23,2.3-33.9s-2.6-25.5-13.4-45.6
				c-10.8-20.1-28.6-33.3-28.6-33.3L168.4,202.3z"/>
			<path class="st4" d="M208.4,315.4c-5.5-2.3-12.2-4.2-20.5-6.1c7.5,2.9,15.2,5.5,20.5,8V315.4z"/>
			<path class="st17" d="M208.5,300.9c0,0-4.3-1.6-14.3-3.4c13.1,0.3,15.3,2.1,15.3,2.1L208.5,300.9z"/>
			<path class="st16" d="M179,293.6c0,0,12.6-1.7,17.8,0.6c-9.6-0.4-17.7,1.4-17.7,1.3C179,293.6,179,293.6,179,293.6z"/>
			<path class="st4" d="M205,250.8c0,0-8,0.9-10.6,3.9c5.7-2.2,11.1-2.1,11.1-2.2C205,250.8,205,250.8,205,250.8z"/>
			<path class="st18" d="M177.9,334.6c0,0,13.4,3.7,21.1,4.4l5.4-16.7l2.6,1.2l-6.2,19.7C200.8,343.2,191.5,342.9,177.9,334.6z"/>
			<path class="st10" d="M207,323.4c-7.3-3.5-15.2-5.6-22.8-5.5c-1.2,5.5-3.4,11.1-6.3,16.6c0,0,10.8,7,22.6,8.9
				c-3.1,4.4-2.5,7-12.2,4.6s-20.4-9.4-20.4-9.4l1.8-6.6l1.2-3.7l-3.3-5l-0.6-3.1l4-2.4l4.5-4l1.5-4.4c10.5,3.2,20.7,6.7,30.7,10.7
				L207,323.4z"/>
			<path class="st15" d="M171.8,321.2c0.3-0.6,0.7-1,1.1-1.5c0.4-0.4,0.9-0.8,1.4-1.1c0.5-0.3,1-0.6,1.5-0.8
				c0.5-0.2,1.1-0.4,1.7-0.5l0,0c-0.3,0.5-0.8,1-1.2,1.4s-0.9,0.8-1.4,1.1c-0.5,0.3-1,0.6-1.5,0.9
				C172.9,320.9,172.4,321.1,171.8,321.2z"/>
			<path class="st4" d="M200.2,343.7c0,0-11.2-2-16.1-5.8c9.1,3.2,16.7,4.1,16.7,4.1L200.2,343.7z"/>
			<polygon class="st4" points="174.2,342.8 177.5,338.9 175.7,343.3 			"/>
			<polygon class="st4" points="182.5,346.3 185.9,342.4 184,346.8 			"/>
			<polygon class="st4" points="189.9,348.2 191.9,345.9 190.8,348.5 			"/>
			<path class="st16" d="M169.5,237.3l-5.2,75.2c-5.2,1.5-10.7,3.8-16.7,6.7c-10.3,5.1-19.3,9.5-27.2,13.4v-6.5l39.4-15.9l0.4-5.3
				l-21.2,4.9l21.5-10.1l8.5-64.6L169.5,237.3z"/>
			<path class="st16" d="M171.4,204.1c0,0.1,0,0.2-0.1,0.3c0,0.2-0.1,0.4-0.1,0.6c-0.1,0.2-0.1,0.4-0.1,0.6c0,0.1-0.1,0.2-0.1,0.3
				c-4.1,16.5-22.7,16.7-22.7,16.7h-15l5.4-9.1l2-12.7l0.8-8.8l0.5,0.2l0.1-0.9l15.8,5.9c3.9,1.4,7.2,3.5,10.7,5.6l0.2,0.8
				c0,0,0.2-0.7,0.4-0.5l0.3,0.2C170.2,203.8,170.8,203.7,171.4,204.1z"/>
			<path class="st4" d="M199.6,236.8c-5-9.5-10.8-17-15.9-22.7c-7-7.8-15.9-13.7-25.7-17.3l-15.8-5.9l-3.5,22.1l-19.1,32.3l0.8,78.2
				l0.8-1.9v-75.8l19.1-32.2l1.9-20.8l14.6,5.4c10.2,3.8,19.2,10,26.4,18.1c15.4,17.5,35.5,51.6,24,102.7
				c-9.1-4.3-18.8-7.6-29.2-9.9c3.1-16.6,5.7-46-7.4-71.1l-1.5-2.8l-0.1,3.1c0,1.3-5.7,67.7-6.3,74.8l1.6,0.8l0.1-1
				c1.6-19.1,5.1-60,6.1-71.5c11.9,25.1,8.6,54,5.5,69.4c-0.1,0.5-0.2,0.8-0.2,1c-0.4,2.2-4.3,4.6-6.8,6.2c-0.8,0.5-1.6,1-2.1,1.4
				c-0.5,0.3-0.7,0.8-0.8,1.5c-0.3,2.4,2.8,6.4,4,7.8l-2.8,7.9c-0.5,1.5,0,3.2,1.4,4.1c0.7,0.4,15.2,8.8,24.6,8.8
				c1.3,0,2.5-0.2,3.6-0.5c1.9-0.6,3.2-1.9,3.9-3.6C220.8,295.2,211.2,258.6,199.6,236.8z M199.2,344.7c-0.5,1.3-1.5,2.2-2.9,2.7
				c-8,2.8-26.6-8-26.8-8.1c-0.7-0.5-1-1.4-0.7-2.2l2.7-7.7c0.3-0.9,2.1-4.3,3.7-6.5c-1.6,1.2-3.4,2.8-4.3,4.1c-1.6-2-3.3-4.6-3.1-6
				c0-0.2,0.1-0.3,0.2-0.3c0.5-0.4,1.2-0.8,2-1.3c3-1.8,7.1-4.4,7.6-7.3c0-0.2,0.1-0.5,0.2-1c0-0.1,0.1-0.3,0.1-0.5
				c10.3,2,20,5.3,29.2,9.9C205.1,328.2,202.5,336.2,199.2,344.7z"/>
		</g>
		<g>
			<path class="st14" d="M120.5,245.5v81.6l-43.1-15.2c0,0-0.1-0.2-0.4-2.8c-0.6-6.5-1.7-19.7-2.8-33c-1.6-18.6-3.2-37.3-3.2-37.8
				c-16.7,31.8-7.3,70.4-6.7,73.6c0.6,3.4,7.1,6.5,9.3,8.1c2.2,1.6-3.6,8.4-3.6,8.5l2.9,8.4c0.4,1.2,0,2.4-1,3.1
				c0,0-26.7,15.5-30.9,5C2.5,248.6,72.7,202.1,72.9,202l10.1-4l16.5-6.5l2,21.7L120.5,245.5z"/>
			<path class="st15" d="M63.8,309.6c0.2,1.2,0.4,2,0.5,2.3c0.6,3.4,7.1,6.5,9.3,8.1c1.6,1.2-1.2,5.3-2.7,7.3
				c-0.6,0.7-0.7,1.7-0.4,2.5l2.4,6.9c0.4,1.2,0,2.4-1,3.1c0,0-26.7,15.5-30.9,5c-3.5-8.7-6.1-17.1-8-25
				C46.9,314.2,57.9,311.1,63.8,309.6z"/>
			<path class="st16" d="M71.8,235.1c0,0-22,20.9-16,73.2c-10,3.6-23.7,8.4-23.7,8.4l1,3.2l30.8-10.4c0,0-6.1-29.8-1.8-45
				C66.5,249.5,71.8,235.1,71.8,235.1z"/>
			<path class="st17" d="M82.9,198c0,0-58,27.3-45.5,116.1c-3.3,1.3-5.3,1-5.3,1s-3.8-23-2.3-33.9s2.6-25.5,13.4-45.6
				S72,202.2,72,202.2L82.9,198z"/>
			<path class="st4" d="M32.5,315.4c5.5-2.3,12.2-4.2,20.5-6.1c-7.5,2.9-15.2,5.5-20.5,8V315.4z"/>
			<path class="st17" d="M32.5,302.6c0,0,4.3-3.3,14.2-5.1c-13.1,0.3-15.3,2.1-15.3,2.1L32.5,302.6z"/>
			<path class="st17" d="M42.8,241.8c0,0,8-1,11.6-0.5c-4.9-3.3-11.6-2.7-11.6-2.7L42.8,241.8z"/>
			<path class="st16" d="M61.9,293.6c0,0-12.6-1.7-17.8,0.6c9.6-0.4,17.7,1.4,17.7,1.3C61.9,293.6,61.9,293.6,61.9,293.6z"/>
			<path class="st18" d="M63,334.6c0,0-13.4,3.7-21.1,4.4l-5.4-16.7l-2.6,1.2l6.2,19.7C40.1,343.2,49.5,342.9,63,334.6z"/>
			<path class="st10" d="M33.9,323.4c7.3-3.5,15.2-5.6,22.8-5.5c1.2,5.5,3.4,11.1,6.3,16.6c0,0-10.8,7-22.6,8.9
				c3.1,4.4,2.5,7,12.2,4.6s20.4-9.4,20.4-9.4l-1.8-6.6l-1.2-3.7l3.3-5l0.6-3.1l-4-2.4l-4.5-4l-1.5-4.4
				c-10.5,3.2-20.7,6.7-30.7,10.7L33.9,323.4z"/>
			<path class="st15" d="M69.2,321.2c-0.3-0.6-0.7-1-1.1-1.5c-0.4-0.4-0.9-0.8-1.4-1.1c-0.5-0.3-1-0.6-1.5-0.8
				c-0.5-0.2-1.1-0.4-1.7-0.5l0,0c0.3,0.5,0.8,1,1.2,1.4s0.9,0.8,1.4,1.1c0.5,0.3,1,0.6,1.5,0.9C68,320.9,68.5,321.1,69.2,321.2z"/>
			<path class="st4" d="M40.8,343.7c0,0,11.2-2,16.1-5.8c-9.1,3.2-16.7,4.1-16.7,4.1L40.8,343.7z"/>
			<polygon class="st4" points="66.7,342.8 63.4,338.9 65.2,343.3 			"/>
			<polygon class="st4" points="56.6,346.3 53.2,342.4 55.1,346.8 			"/>
			<polygon class="st4" points="49.2,348.2 47.3,345.9 48.3,348.5 			"/>
			<path class="st16" d="M71.5,237.3l5.2,75.2c5.2,1.5,10.7,3.8,16.7,6.7c10.3,5.1,19.3,9.5,27.2,13.4v-6.5l-39.4-15.9l-0.8-12.5
				l8.9,1.5l-9.3-6.8L71.9,235L71.5,237.3z"/>
			<path class="st4" d="M102.2,213l-3.9-22L83,196.7c-9.8,3.7-18.7,9.6-25.7,17.3c-5.1,5.7-10.9,13.3-15.9,22.7
				c-11.6,21.9-21.2,58.4-1.1,108.5c0.7,1.8,2,3,3.9,3.6c1.1,0.4,2.3,0.5,3.6,0.5c9.4,0,23.9-8.4,24.6-8.8c1.4-0.9,1.9-2.6,1.4-4.1
				l-2.8-7.9c1.2-1.4,4.2-5.5,4-7.8c-0.1-0.6-0.4-1.1-0.8-1.5c-0.5-0.4-1.3-0.8-2.1-1.4c-2.6-1.6-6.4-4-6.8-6.2c0-0.2-0.1-0.5-0.2-1
				c-3.1-15.3-6.4-44.3,5.5-69.4c0.9,11.5,4.5,52.4,6.1,71.5l0.1,1l1.7-0.2c-0.6-7.1-6.4-74.1-6.4-75.4L72,235l-1.5,2.8
				C57.1,263,59.8,292.4,62.9,309c-10.4,2.3-20.1,5.6-29.2,9.9c-11.6-51.1,8.6-85.2,24-102.7c7.2-8.1,16.2-14.3,26.4-18.1l14.6-5.4
				l1.9,20.8l19.1,32.2v87l1.2,1.6l0.5-0.4v-88.7L102.2,213z M63.2,310.6c0,0.2,0.1,0.3,0.1,0.5c0.1,0.5,0.2,0.8,0.2,1
				c0.5,3,4.6,5.5,7.6,7.3c0.8,0.5,1.5,0.9,2,1.3c0,0,0.1,0.1,0.2,0.3c0.2,1.4-1.6,4.1-3.2,6c-0.9-1.4-2.7-3-4.3-4.2
				c1.8,2.6,3.3,5.6,3.7,6.5l2.7,7.7c0.3,0.8,0,1.7-0.7,2.2c-0.1,0.1-18.8,10.8-26.8,8.1c-1.4-0.5-2.3-1.3-2.9-2.7
				c-3.4-8.4-5.9-16.5-7.7-24.2C43.2,315.9,52.9,312.6,63.2,310.6z"/>
		</g>
		<g>
			<path class="st14" d="M121,246.2l-25.2-57.8c0,0-14.1,2.2-12.8,25.5l10.5,2.6l-3.1,10.9c-1,2.9-0.5,2.9,1.3,3.8L121,246.2z"/>
			<path class="st17" d="M83.4,213.6c0,0,0.8-20.1,12.3-23.3c0-1.1-0.2-2.3-2.5-1c-2.2,1.3-6,3.5-7.6,7.7s-2.6,9.4-2.7,11.7
				s0.1,5.1,0.1,5.1L83.4,213.6z"/>
			<path class="st17" d="M95.5,211.4l-3.1,17.5l27.7,16.3l-29.6-14.4c0,0-0.8-0.3-0.3-3s4.3-13.4,4.3-13.4L95.5,211.4z"/>
			<path class="st4" d="M95.7,210.4l-2.6,6.2l0.4,2.3l2.4-8.2C95.9,210.7,95.8,210.5,95.7,210.4z"/>
			<path class="st4" d="M96.2,187.6l-0.5,0.1c-0.2,0-14.8,2.5-13.4,26.3v0.5l10.3,2.5l-2.9,10.2c-1,2.9-0.6,3.6,1.4,4.6l29.3,14.9
				l1.3-0.8l-1.3-2.9L96.2,187.6z M91.7,230.5c-1.4-0.7-1.4-0.7-0.7-2.9l3.3-11.6l-10.7-2.6c-1-19.6,9.2-23.5,11.7-24.1l24.2,55.4
				L91.7,230.5z"/>
		</g>
		<g>
			<path class="st14" d="M120.7,245.5v-1l24.5-56.1c0,0,14.1,2.2,12.8,25.5l-10.5,2.6l3.1,10.9c1,2.9,0.5,2.9-1.3,3.8l-28.2,14.3
				H120.7z"/>
			<path class="st16" d="M158,214.3l-10.5,2.6l0.8,2.8c-5.3,3-15.4,2.4-15.4,2.4l-1.2-0.8l-0.2-1l13.7-31.4
				C145.2,188.8,159.4,190.9,158,214.3z"/>
			<path class="st14" d="M155.4,197c-0.1-0.2-0.2-0.4-0.2-0.5c-0.6,0.3-1.2,0.7-1.8,1c3.8,7,4.2,16.2,4.2,16.2l0.4,0.2
				c0,0,0.1-2.7,0.1-5.1C158,206.3,157,201.2,155.4,197z"/>
			<path class="st17" d="M145.5,211.4l3.3,17.4l-27.9,16.4l29.6-14.4c0,0,0.8-0.3,0.3-3s-4.3-13.4-4.3-13.4L145.5,211.4z"/>
			<path class="st4" d="M145.2,210.4l2.6,6.2l-0.5,2.1l-0.8-2.7l-1.6-5.5C145.1,210.5,145.1,210.5,145.2,210.4z"/>
			<path class="st4" d="M145.3,187.7l-0.5-0.1l-24.4,55.9v3.3l29.5-15c2-1,2.4-1.7,1.4-4.6l-2.9-10.2l10.3-2.5V214
				C160.1,190.3,145.5,187.7,145.3,187.7z M157.3,213.4l-10.7,2.6l3.3,11.6c0.7,2.2,0.7,2.2-0.7,2.9l-27.8,14.1l24.2-55.4
				C148.1,189.9,158.3,193.8,157.3,213.4z"/>
			<polygon class="st17" points="132.9,222.1 121.4,244.6 131.7,221.2 			"/>
		</g>
		<g>
			<g>
				<path class="st13" d="M122.7,206.7c6.5,3.4,11.2,7.6,14.1,12.3c0.3,0.5,1,0.3,1.1-0.2l3.4-17.1l2.5-12.3L122.7,206.7z"/>
				<path class="st12" d="M136.6,215.9c0,0-3.9-5.4-11.7-8.2c3.2,2.7,6.8,4.9,8.4,6.8c1.8,2.1,3.7,4.7,3.7,4.7s0.6,0.8,1.1-1.4
					s3.2-17.9,3.2-17.9L136.6,215.9z"/>
				<path class="st4" d="M136.2,219.4c-2.9-4.7-7.6-8.7-13.9-12.1l-0.4-0.9l22.8-18.8l-6.2,31.3c-0.1,0.5-0.5,0.9-1,1
					c-0.1,0-0.2,0-0.2,0C136.9,220,136.5,219.8,136.2,219.4z M123.9,206.6c6,3.3,10.5,7.3,13.4,11.9l5.4-27.4L123.9,206.6z"/>
			</g>
			<g>
				<path class="st12" d="M118.2,206.7c-6.5,3.4-11.2,7.6-14.1,12.3c-0.3,0.5-1,0.3-1.1-0.2l-3.4-17.1l-2.5-12.3L118.2,206.7z"/>
				<path class="st18" d="M104.3,215.9c0,0,3.9-5.4,11.7-8.2c-3.2,2.7-6.8,4.9-8.4,6.8c-1.8,2.1-3.7,4.7-3.7,4.7s-0.6,0.8-1.1-1.4
					s-3.2-17.9-3.2-17.9L104.3,215.9z"/>
				<path class="st4" d="M103.6,220c-0.1,0-0.2,0-0.2,0c-0.5-0.1-0.9-0.5-1-1l-6.2-31.3l22.8,18.8l-0.4,0.9
					c-6.3,3.3-10.9,7.4-13.9,12.1C104.5,219.8,104.1,220,103.6,220z M98.2,191.1l5.4,27.4c2.9-4.6,7.4-8.6,13.4-11.9L98.2,191.1z"/>
			</g>
		</g>
		<g>
			<path class="st19" d="M178.8,121.6c0,0-2.9,4.3-12.6,4c-9.7-0.3-4.3-11.3-4.3-11.3l16.2-3.4L178.8,121.6z"/>
			<path class="st4" d="M167,126.5c-0.3,0-0.6,0-0.8,0c-2.8-0.1-4.7-1-5.7-2.7c-2.2-3.7,0.6-9.6,0.7-9.8l0.2-0.4l17.6-3.7l0.7,11.9
				l-0.2,0.2C179.3,122.3,176.4,126.5,167,126.5z M162.5,115c-0.5,1.3-2.1,5.4-0.6,7.9c0.7,1.2,2.2,1.8,4.4,1.9
				c7.8,0.2,11-2.7,11.7-3.5l-0.6-9.4L162.5,115z"/>
			<path class="st20" d="M177.3,119.6c0,0-2.9,4.3-12.6,4s-4.3-11.3-4.3-11.3l16.2-3.4L177.3,119.6z"/>
			<path class="st19" d="M62.2,121.6c0,0,2.9,4.3,12.6,4s4.3-11.3,4.3-11.3l-16.2-3.4L62.2,121.6z"/>
			<path class="st4" d="M73.9,126.5c-9.3,0-12.3-4.2-12.4-4.4l-0.2-0.2L62,110l17.6,3.7l0.2,0.4c0.1,0.2,2.9,6.2,0.7,9.8
				c-1.1,1.7-3,2.6-5.7,2.7C74.5,126.5,74.2,126.5,73.9,126.5z M63,121.3c0.7,0.8,3.9,3.7,11.7,3.5c2.2-0.1,3.6-0.7,4.4-1.9
				c1.4-2.2,0.1-6.1-0.6-7.9l-14.9-3.1L63,121.3z"/>
			<path class="st20" d="M63.7,119.6c0,0,2.9,4.3,12.6,4s4.3-11.3,4.3-11.3L64.3,109L63.7,119.6z"/>
		</g>
		<g>
			<g>
				<g>
					<path class="st21" d="M172.3,130.5c3.6,0.7,6.2,6.3,6.4,11.5c0.2,4.5-1.5,8.9-4.7,12.2c-3.3,3.4-8.8,5.5-11.5,2
						c-1.2-1.8-1.8-4-1.7-6.2c-0.1-3.5,0.7-7,2.3-10.1C164.6,136.5,167.9,129.7,172.3,130.5z"/>
					<g>
						<path class="st4" d="M173.2,137.4c-0.8-1-1.9-1.2-2.9-1c0.7,0.1,1.3,0.4,1.8,1c1.3,1.7,1.3,4.5,0.9,6.9
							c-0.5,2.8-2.2,5.1-4.6,6.5c0.1,0.1,0.2,0.3,0.2,0.4c2.8-1.3,4.8-3.9,5.4-7C174.5,141.8,174.5,139,173.2,137.4z"/>
						<path class="st4" d="M174.1,142.3c-0.1,0.5-1.9,4.6-1.7,4.1c0.7-2.5-0.1-7.4-3.3-6.8c-0.8,0.1-1.1-1.4-0.5-2.3
							c0.5-0.7,1.9-1.1,2.7-1c0.8,0.2,1.2,0.5,1.6,0.9c0.2,0.2,0,0.7,0.2,0.9C173.9,139.3,174.3,140.8,174.1,142.3z"/>
						<path class="st22" d="M168.4,142.7c1.3,0.3,0.1,1.9,1.1,2.8c0.2,0.2,0.8,0.2,1.4-1c0.5-1.1,0.6-2.2-0.6-3
							c-0.4-0.2-1.2-0.3-1.6-0.1C168.2,141.7,168,142.6,168.4,142.7z"/>
					</g>
					<path class="st22" d="M166.1,154.4L166.1,154.4C166.1,154.5,166.2,154.5,166.1,154.4c0.2,0,0.2,0,0.4,0s0.4-0.1,0.6-0.1
						c0.4-0.1,0.8-0.2,1.2-0.3c0.8-0.3,1.6-0.6,2.4-1c0.8-0.4,1.5-0.9,2.2-1.6c0.6-0.6,1.2-1.3,1.7-2.1c-0.3,0.9-0.8,1.7-1.3,2.4
						c-0.6,0.7-1.3,1.4-2,2s-1.6,1.1-2.4,1.5c-0.4,0.2-0.9,0.4-1.3,0.6c-0.2,0.1-0.5,0.2-0.7,0.2c-0.1,0-0.3,0.1-0.4,0.1
						c-0.1,0-0.1,0-0.2,0c-0.1,0-0.2,0-0.3,0L166.1,154.4z"/>
					<path class="st4" d="M167.2,158.6c-0.4,0.1-0.9,0.1-1.3,0.1c-1.7-0.1-3.1-0.8-4.1-2.1l-0.1-0.1c-1.3-2-1.9-4.3-1.9-6.7
						c-0.1-3.6,0.8-7.2,2.4-10.5c1.7-3.5,5.3-10.7,10.3-9.8l0,0c4.2,0.8,6.9,7,7,12.3c0.2,4.7-1.6,9.4-5,12.8
						C172.4,156.9,169.6,158.3,167.2,158.6z M163.1,155.6c0.7,0.9,1.7,1.4,2.9,1.4c2.3,0.1,5.2-1.3,7.4-3.5c3-3.1,4.7-7.3,4.5-11.5
						c-0.1-4.6-2.4-10-5.7-10.7c-3.8-0.7-6.9,5.8-8.5,8.8c-1.5,3-2.3,6.4-2.2,9.8C161.5,151.9,162,153.9,163.1,155.6z"/>
				</g>
			</g>
			<g>
				<g>
					<path class="st21" d="M68.6,130.5c-3.6,0.7-6.2,6.3-6.4,11.5c-0.2,4.5,1.5,8.9,4.7,12.2c3.3,3.4,8.8,5.5,11.5,2
						c1.2-1.8,1.8-4,1.7-6.2c0.1-3.5-0.7-7-2.3-10.1C76.4,136.5,73,129.7,68.6,130.5z"/>
					<g>
						<path class="st4" d="M67.7,137.4c0.8-1,1.9-1.2,2.9-1c-0.7,0.1-1.3,0.4-1.8,1c-1.3,1.7-1.3,4.5-0.9,6.9
							c0.5,2.8,2.2,5.1,4.6,6.5c-0.1,0.1-0.2,0.3-0.2,0.4c-2.8-1.3-4.8-3.9-5.4-7C66.4,141.8,66.4,139,67.7,137.4z"/>
						<path class="st4" d="M66.8,142.3c0.1,0.5,1.9,4.6,1.7,4.1c-0.7-2.5,0.1-7.4,3.3-6.8c0.8,0.1,1.1-1.4,0.5-2.3
							c-0.5-0.7-1.9-1.1-2.7-1c-0.8,0.2-1.2,0.5-1.6,0.9c-0.2,0.2,0,0.7-0.2,0.9C67,139.3,66.6,140.8,66.8,142.3z"/>
						<path class="st22" d="M72.5,142.7c-1.3,0.3-0.1,1.9-1.1,2.8c-0.2,0.2-0.8,0.2-1.4-1c-0.5-1.1-0.6-2.2,0.6-3
							c0.4-0.2,1.2-0.3,1.6-0.1C72.7,141.7,73,142.6,72.5,142.7z"/>
					</g>
					<path class="st22" d="M75.2,156.1c-0.1,0-0.2,0-0.3,0c-0.1,0-0.2,0-0.2,0c-0.2,0-0.3,0-0.4-0.1c-0.3-0.1-0.5-0.1-0.7-0.2
						c-0.5-0.2-0.9-0.4-1.3-0.6c-0.9-0.4-1.7-0.9-2.4-1.5c-0.7-0.6-1.4-1.2-2-2c-0.6-0.7-1-1.6-1.3-2.4c0.5,0.8,1,1.5,1.7,2.1
						s1.4,1.1,2.2,1.6c0.8,0.4,1.6,0.8,2.4,1c0.4,0.1,0.8,0.2,1.2,0.3c0.2,0,0.4,0.1,0.6,0.1c0.1,0,0.2,0,0.3,0h0.1l0,0L75.2,156.1z
						"/>
					<path class="st4" d="M66.4,154.7c-3.3-3.4-5.2-8-5-12.8c0.1-5.3,2.9-11.4,7-12.3l0,0c5-0.9,8.6,6.3,10.3,9.8
						c1.6,3.2,2.4,6.9,2.4,10.5c0.1,2.4-0.6,4.7-1.9,6.7l-0.1,0.1c-1,1.3-2.4,2-4.1,2.1c-0.4,0-0.8,0-1.3-0.1
						C71.3,158.3,68.5,156.9,66.4,154.7z M79.4,149.9c0.1-3.4-0.7-6.7-2.2-9.8s-4.7-9.5-8.5-8.8c-3.2,0.6-5.6,6-5.7,10.7
						c-0.2,4.3,1.5,8.5,4.5,11.5c2.2,2.2,5.1,3.6,7.4,3.5c1.2-0.1,2.2-0.5,2.9-1.4C78.9,153.9,79.5,151.9,79.4,149.9z"/>
				</g>
			</g>
		</g>
		<path class="st21" d="M68.8,109l7.6,52.7c0.5,9.7,7.2,18,16.5,20.7c3.3,0.9,15.1,8.3,27.1,8.3c12.3,0,24.6-7.3,28-8.3
			c9.4-2.7,16-11,16.5-20.7l7.6-52.7l-33.4-7.9c-11.4-2.7-23.2-2.7-34.6-0.1L68.8,109z"/>
		<g>
			<polygon class="st18" points="76.9,159.1 72.5,112.9 70.1,115.4 74,144.8 75.3,156.1 76.2,157.9 			"/>
			<path class="st22" d="M164.4,120.8c3.5,34.1-8.7,53-22.7,64.4l10.8-4.7l9.5-7.7l3.2-16.2l4.4-33.6L164.4,120.8z"/>
		</g>
		<path class="st22" d="M75,149.3c0,0-0.5,23,17.4,30.7s22.9,8.8,28.3,8.8c8.7,0,21.5-6.2,29.5-11.9c-2.6,3.6-3.6,6.5-10.4,9.1
			c-6.8,2.6-15.2,7.6-32.4,2.5c-4.7-1.8-12.7-5.5-12.7-5.5s-5.5-1.8-5.6-1.9c-0.1-0.1-8.1-6.5-8.1-6.5s-4.8-8.5-4.8-10.4
			s-0.4-6.5-0.4-6.7S75,149.3,75,149.3z"/>
		<path class="st4" d="M120.1,191.6L120.1,191.6c-9.3,0-18.3-4.2-23.7-6.7c-1.7-0.8-3-1.4-3.7-1.6c-9.7-2.8-16.6-11.4-17.1-21.5
			l-7.7-53.3l36-8.2c11.4-2.6,23.5-2.6,34.9,0.1l34.2,8.1l-7.7,53.4c-0.5,10-7.4,18.6-17.1,21.4c-0.7,0.2-2.1,0.8-3.7,1.6
			C138.9,187.3,129.6,191.6,120.1,191.6z M69.8,109.7l7.5,51.9c0.5,9.4,6.9,17.4,15.9,20c0.9,0.2,2.2,0.9,3.9,1.7
			c5.3,2.5,14.1,6.6,22.9,6.6l0,0c9.1,0,18.3-4.2,23.7-6.6c1.8-0.8,3.1-1.4,3.9-1.6c9-2.6,15.4-10.6,15.9-20l7.5-52l-32.7-7.7
			c-11.2-2.6-23-2.7-34.2-0.1L69.8,109.7z"/>
		<g class="st23">
			<path class="st24" d="M92.9,147.9c0.6-2.4,14-2.4,14.6,0.1c0.3,1.4-3.3,2.6-7,2.8C96.3,151.1,92.6,149.3,92.9,147.9z"/>
			<path class="st24" d="M133.4,147.9c0.6-2.4,14-2.4,14.6,0.1c0.3,1.4-3.3,2.6-7,2.8C136.7,151.1,133,149.3,133.4,147.9z"/>
		</g>
		<g>
			<g>
				<path class="st22" d="M151.8,162.7c2.3,2.8-6,12.3-9.2,10.2c-1.8-1.1-0.9-4.9,1.1-7.7C146.1,161.9,150.4,161.1,151.8,162.7z"/>
			</g>
			<g>
				<path class="st22" d="M89.2,162.7c-2.3,2.8,6,12.3,9.2,10.2c1.8-1.1,0.9-4.9-1.1-7.7C94.8,161.9,90.6,161.1,89.2,162.7z"/>
			</g>
		</g>
		<g>
			<path class="st22" d="M73.5,111.9c0,0,29.6,6.4,59.3-6c5.6,5,20.8,14.7,36.5,16.7c2.3-6.9,2.9-8.7,2.9-8.7l-14.6-9.7l-20.7-3.7
				L123.4,99c0,0-26.1,3.3-26.6,3.7c-0.5,0.3-19.4,4.2-19.4,4.2L73.5,111.9z"/>
			<g>
				<path class="st25" d="M66.8,109.4c0,0,16.6,7.4,67.1-6.5c0,0,26.2,15,36.7,11c-14.1-10.2-61.5-21.2-61.5-21.2l-27.6,1.6
					L66.8,109.4z"/>
				<path class="st4" d="M166.2,115.3c-11.5,0-29.7-10.1-32.4-11.6c-49.9,13.7-66.6,6.7-67.3,6.4l-1.1-0.5L81,93.4l28-1.6h0.1
					c1.9,0.5,47.7,11.2,61.8,21.3l1.3,0.9l-1.4,0.6C169.4,115.1,167.9,115.3,166.2,115.3z M133.9,101.9l0.3,0.2
					c0.2,0.1,23.3,13.3,34.2,11.4c-15-9.4-57.1-19.4-59.6-20l-27,1.5l-13.5,14c4.6,1.3,23.1,4.7,65.3-7L133.9,101.9z"/>
			</g>
			<path class="st26" d="M77.5,107c0,0,28.6,2.1,46-5.6C106,101.2,77.5,107,77.5,107z"/>
		</g>
		<path class="st26" d="M139.5,100.6c0,0,9,11.5,28,12.1C151.9,104.9,139.5,100.6,139.5,100.6z"/>
		<g>
			<g>
				<g>
					<path class="st22" d="M150.6,127.9c-2.8,0.5-8.3,1.6-13.2,3.5c-2,0.8-3.8,1.7-5.1,2.6l-0.1,0.1l-0.2,0.1
						c-0.6,0.3-1.6,0.2-3.6-2.4c-0.5-0.6-0.4-1.5,0.2-2c0.4-0.3,0.7-0.6,1.1-0.9l1.6-1.2l0.4-0.3c0.4-0.3,0.8-0.5,1.2-0.8l1.7-0.9
						c0.9-0.5,1.8-0.9,2.7-1.3c7.3-2.9,10.2-3.9,10.4-3.9l2.4,0.5c0,0,1,4.8,1.2,5.8l0.2,0.8L150.6,127.9z"/>
					<path class="st26" d="M147.1,126.2c-2.8,0.6-8.2,1.9-12.9,4.1c-1.3,0.6-2.4,1.2-3.4,1.8c-0.5,0.3-1,0.6-1.4,1l-0.1,0.1
						l-0.2,0.1c-1.3,0.6-2.7-0.1-4.8-2.4c-0.8-0.9-0.7-2.3,0.2-3.1c0.4-0.3,0.7-0.7,1.1-1l1.6-1.3l0.5-0.3c0.4-0.3,0.8-0.6,1.2-0.8
						l1.7-1c0.9-0.5,1.8-1,2.8-1.4c7.4-3.3,13-2,13.3-1.9l1,0.2l0.2,1c0.3,1,0.5,2.1,0.7,3.1l0.4,1.7L147.1,126.2z"/>
					<path class="st25" d="M144.5,123.6c0,0-9.8,2.4-18.3,8.6c0.5,0.7,1.7,1.1,4.5-0.4s10.2-4.2,10.2-4.2l7.4-2.3l-1.1-2.9l-0.1-1.8
						l-1.4-0.5h-1.8L144.5,123.6z"/>
					<path class="st27" d="M126.1,132v-3c6.6-6.1,13-8.2,13-8.2c-4.3,0.2-8.1,3-8.1,3l-3.2,2l-3.1,2.5l-0.2,0.8l1.1,2.4L126.1,132z"
						/>
					<path class="st4" d="M129.2,124.9l1.6-1c0.9-0.5,1.8-1,2.7-1.4c7.2-3.2,12.5-2,12.7-1.9l0.5,0.1l0.1,0.5c0.3,1,0.5,2.1,0.7,3.1
						l0.2,0.8l-0.8,0.2c-2.8,0.6-8.3,2-13.1,4.1c-1.3,0.6-2.5,1.2-3.5,1.8c-0.5,0.3-1,0.7-1.5,1l-0.1,0.1l-0.1,0.1
						c-0.6,0.3-1.6,0.2-3.7-2.2c-0.5-0.6-0.5-1.4,0.1-2c0.3-0.3,0.7-0.7,1.1-1l1.5-1.2l0.4-0.3C128.4,125.5,128.8,125.2,129.2,124.9
						 M128.3,123.5L128.3,123.5c-0.4,0.3-0.9,0.6-1.3,0.9l-0.4,0.3l0,0l0,0L125,126l0,0l0,0c-0.4,0.3-0.7,0.7-1.1,1
						c-1.2,1.1-1.3,3-0.2,4.3c1.6,1.8,3.6,3.6,5.7,2.7l0,0l0,0l0.1-0.1l0.1-0.1l0.1-0.1l0.1-0.1c0.4-0.3,0.9-0.6,1.4-0.9
						c1-0.6,2.1-1.2,3.3-1.7c4.7-2.1,10-3.4,12.7-4l0.8-0.2l1.7-0.4l-0.4-1.7l-0.2-0.8c-0.2-1-0.5-2.1-0.8-3.1l-0.1-0.5l-0.2-1
						l-1-0.2l-0.5-0.1c-0.6-0.2-6.3-1.4-13.8,2c-0.9,0.4-1.9,0.9-2.8,1.5L128.3,123.5L128.3,123.5L128.3,123.5z"/>
				</g>
			</g>
			<g>
				<g>
					<path class="st22" d="M93.7,129c2.8,0.6,8.3,2,13.1,4.2c2,0.9,3.7,1.9,5,2.8l0.1,0.1l0.1,0.1c0.6,0.3,1.6,0.2,3.8-2.2
						c0.5-0.6,0.5-1.4-0.1-2c-0.3-0.3-0.7-0.7-1.1-1l-1.5-1.2l-0.4-0.3c-0.4-0.3-0.8-0.6-1.2-0.8l-1.6-1c-0.9-0.5-1.8-1-2.7-1.4
						c-7.2-3.2-10-4.4-10.2-4.4l-2.5,0.4c0,0-1.2,4.7-1.4,5.8l-0.2,0.8L93.7,129z"/>
					<path class="st26" d="M93.3,127.1c2.8,0.5,8.2,1.6,13,3.6c1.3,0.5,2.5,1.1,3.5,1.6c0.5,0.3,1,0.6,1.5,0.9l0.1,0.1l0.2,0.1
						c1.4,0.6,2.7-0.2,4.7-2.6c0.8-0.9,0.7-2.3-0.3-3.1c-0.4-0.3-0.7-0.6-1.1-1l-1.6-1.2l-0.5-0.3c-0.4-0.3-0.8-0.5-1.3-0.8
						l-1.7-0.9c-0.9-0.5-1.9-0.9-2.8-1.3c-7.5-3.1-13.1-1.5-13.3-1.5l-1,0.3l-0.2,1c-0.2,1-0.4,2.1-0.6,3.2l-0.3,1.7L93.3,127.1z"/>
					<path class="st25" d="M112.3,130.8c0,0-9.5-4.8-20-5.8c-0.1,0.9-0.5,1.9,4.2,2.8c3.1,0.6,10.6,3,10.6,3l6.5,2.7l1.5-1.8
						l1.1-1.4l-0.1-2.3l-0.8-0.5L112.3,130.8z"/>
					<path class="st27" d="M92.9,124.8l1.6-2.2c8-1.1,15.2,1.5,15.2,1.5c-3.4-2.7-8.4-3.2-8.4-3.2l-3.7-0.1l-4-0.1l-0.7,0.4
						l-0.8,2.5L92.9,124.8z"/>
					<path class="st4" d="M111.2,125.2c0.4,0.3,0.8,0.5,1.2,0.8l0.4,0.3l1.6,1.2c0.4,0.3,0.7,0.6,1.1,0.9c0.6,0.5,0.7,1.4,0.2,2
						c-2.1,2.6-3,2.6-3.7,2.4l-0.2-0.1l-0.1-0.1c-0.5-0.3-1-0.6-1.5-1c-1-0.6-2.2-1.1-3.6-1.7c-4.9-2-10.4-3.1-13.2-3.6l-0.8-0.2
						l0.2-0.8c0.2-1,0.4-2.1,0.6-3.1l0.1-0.5l0.5-0.1c0.2-0.1,5.5-1.5,12.8,1.4c0.9,0.4,1.8,0.8,2.7,1.3L111.2,125.2 M112,123.7
						L112,123.7l-1.7-1c-0.9-0.5-1.9-1-2.9-1.4c-7.7-3.1-13.3-1.7-13.9-1.5l-0.5,0.1l-1,0.3l-0.2,1l-0.1,0.5
						c-0.2,1.1-0.4,2.1-0.6,3.2l-0.2,0.8l-0.3,1.7l1.7,0.3l0.8,0.2c2.8,0.5,8.1,1.6,12.9,3.6c1.3,0.5,2.4,1,3.4,1.6
						c0.5,0.3,1,0.6,1.4,0.9l0.1,0.1l0.1,0.1l0.1,0.1l0.2,0.1l0,0l0,0c2.1,0.9,4-1,5.6-2.9c1.1-1.3,0.9-3.2-0.4-4.3
						c-0.4-0.3-0.8-0.7-1.1-1l0,0l0,0l-1.6-1.2l0,0l0,0l-0.4-0.3C112.9,124.3,112.5,124,112,123.7L112,123.7L112,123.7z"/>
				</g>
			</g>
		</g>
		<g>
			<g>
				<g>
					<path class="st19" d="M77.9,83.2c-0.4,0-0.7-0.2-0.9-0.5s-0.1-0.7,0.1-1C89.3,66,104.5,48,114.1,48c1.8,0,3.4,0.6,4.7,1.8
						c0.3,0.3,1,0.5,1.7,0.5s1.3-0.2,1.6-0.4c1.8-1.4,3.6-2.1,5.6-2.1c7.6,0,16.1,10.3,31.7,29c1.3,1.5,2.6,3.1,4,4.8
						c0.2,0.3,0.3,0.7,0.1,1s-0.5,0.6-0.9,0.6H77.9z"/>
					<path class="st4" d="M162.7,84.2H77.9c-0.7,0-1.4-0.4-1.8-1.1c-0.3-0.7-0.2-1.5,0.2-2.1c13.1-16.8,27.8-34,37.9-34
						c2.1,0,3.9,0.7,5.3,2.1c0.1,0.1,0.5,0.2,1,0.2l0,0c0.5,0,0.9-0.1,1-0.2c2-1.5,4-2.3,6.2-2.3c8,0,16.7,10.4,32.4,29.4l0.1,0.1
						c1.3,1.5,2.6,3.1,3.9,4.7c0.5,0.6,0.6,1.4,0.3,2.1C164.1,83.7,163.4,84.2,162.7,84.2z M77.9,82.2h84.8
						c-1.3-1.6-2.6-3.2-3.9-4.7l-0.1-0.1c-15.4-18.5-23.8-28.7-30.9-28.7c-1.7,0-3.3,0.6-5,1.9c-0.5,0.4-1.3,0.6-2.2,0.6l0,0
						c-1,0-1.8-0.3-2.4-0.8c-1.1-1-2.5-1.6-4-1.6C104.8,48.9,89,67.9,77.9,82.2L77.9,82.2z"/>
				</g>
			</g>
			<path class="st28" d="M113.9,50.2c0,0,1.8-0.3,3.9,1.6c2.1,1.9,4.3,1.3,5.7,0c1.1-1,3.4-2.2,5.1-1.8c3.3,0.8,6.8,4.2,6.8,4.2
				s-7.9-1-15.3,1.3c-8.7,2.7-15.4,0-15.4,0S109.3,50.6,113.9,50.2z"/>
			<path class="st20" d="M179.4,120.9c-0.4,0.8-1.3,1-1.9,0.4l0,0c-7.8-8.6-20.5-14.4-34.7-17.3c-28.5-5.9-63.5-0.4-79.3,17.3l0,0
				c-0.6,0.6-1.5,0.4-1.9-0.4c-2-4.3-8-18.8-8.7-27.8c-0.3-3.1,0.1-5.6,1.4-6.7c0.6-0.4,1.2-0.8,1.8-1.2c30.1-12,69.2-14.3,103-7.3
				c9.6,2,18.8,4.7,27.2,8.2c0.1,0.1,0.2,0.2,0.4,0.2C191.9,90.9,182.1,115.1,179.4,120.9z"/>
			<path class="st19" d="M151.8,101.5c-3,1-6,1.9-9,2.7c-28.5-5.6-63.5-0.4-79.3,16.3l0,0c-0.6,0.6-1.5,0.4-1.9-0.4
				c-2-4.1-8-17.8-8.7-26.3c0.9,0.8,1.6,1.4,2,1.7c3.4,3.2,6.2,6.9,8.2,11.1C85.5,98.5,109.9,95,134,96.5
				C140.3,97,146.9,97.8,151.8,101.5z"/>
			<path class="st29" d="M151.2,76.7c0,0,40.2,12.1,32.7,21.3c3.5-6.3,4-7.8,4-7.8l-0.6-2.4l-1.1-1.3l-4.9-2.1l-10.1-3.2l-15.4-3.9
				L151.2,76.7z"/>
			<path class="st19" d="M88.9,101.5c3,1,6,1.9,9,2.7c28.5-5.6,63.5-0.4,79.3,16.3l0,0c0.6,0.6,1.5,0.4,1.9-0.4
				c1.3-2.6,5.3-10.5,7.3-18.4c1.1-4.5,2.1-9.4,1-12.2c-0.9,0.8-1.6,1.4-2,1.7c-3.4,3.2-8.5,8.7-10.5,12.8
				c-22.5-8.2-44.2-9.1-68.2-7.6C100.5,97,93.9,97.8,88.9,101.5z"/>
			<path class="st4" d="M182.2,114.8c-1.2-1.3-6.6-3.4-10.8-3.9c4.1,2.1,8.6,5.1,8.9,7.8l1-2.3L182.2,114.8z"/>
			<path class="st4" d="M187.5,98.6c-1.1-0.9-3.1-1.3-5.4-1.5c2.1,0.9,3.8,1.9,4.6,3.2L187.5,98.6L187.5,98.6z"/>
			<polyline class="st4" points="59.2,116.1 63.6,114.7 60,117.9 59.2,116.1 			"/>
			<path class="st29" d="M54.4,97.9c0,0-3.8-10.5,0.9-12.2s22.4-7.5,32.5-9.1s21.9-2.9,27.2-2.5c5,0.4-24.4,1.7-52,11.8
				C53.6,89.5,54.3,91.4,54.4,97.9z"/>
			<path class="st4" d="M62.7,122.5c-0.1,0-0.2,0-0.3,0c-0.7-0.1-1.2-0.6-1.5-1.2c-2-4.3-8-18.8-8.8-28.1c-0.3-3.7,0.2-6.2,1.7-7.4
				l0.1-0.1c0.6-0.5,1.2-0.9,1.8-1.2l0.1-0.1c29.7-11.9,68.4-14.6,103.5-7.3c9.8,2,19,4.8,27.3,8.2l0.3,0.2c0.1,0.1,0.2,0.1,0.3,0.2
				c6.5,5.7-6.8,35.1-7,35.6c-0.3,0.6-0.9,1.1-1.5,1.2c-0.5,0.1-1,0-1.4-0.3h-0.1l-0.2-0.3c-7.2-7.9-19.4-14-34.2-17.1
				c-26.6-5.5-62-1.4-78.5,17l-0.3,0.3C63.5,122.3,63.1,122.5,62.7,122.5z M177.9,120.4L177.9,120.4l0.3,0.3c0,0,0.1,0.1,0.2,0.1
				c0.1,0,0.2-0.1,0.3-0.2l0,0c3.6-7.6,12-29.7,7.5-33.6c0,0-0.1-0.1-0.2-0.1l0,0c-8.2-3.4-17.3-6.1-27-8.1
				c-34.8-7.2-73.1-4.5-102.5,7.2c-0.5,0.3-1.1,0.7-1.6,1.1c-1,0.9-1.4,3-1.1,6c0.8,9.2,7,24,8.7,27.5c0.1,0.1,0.2,0.2,0.3,0.2
				s0.2,0,0.2-0.1l0.2-0.2c17-18.7,53-22.9,79.9-17.3C158.2,106.3,170.3,112.3,177.9,120.4z"/>
		</g>
		<g>
			<path class="st22" d="M113.3,184.3c3,3,7.1,3.8,13.3,1.3c0.6-0.2,0.4-1.1-0.2-1c-6.7,0.3-9.4-0.4-12.5-1.2
				C113.3,183.3,112.9,183.9,113.3,184.3z"/>
			<polygon class="st24" points="122.9,146 121.2,136 122.3,148.2 125.7,147.1 			"/>
			<g>
				<g>
					<g>
						<g>
							<path class="st22" d="M132.8,137.5c-0.4,6.6,14.8,8.3,15.2,0c-2.3-0.7-7.6-1.6-8.3-1.8C136.9,135.2,132.8,137.5,132.8,137.5z
								"/>
							<path class="st4" d="M131.4,138.6c0,0,4.1-6.3,17.8-0.7C135.7,135.6,131.4,138.6,131.4,138.6z"/>
							<path class="st4" d="M143.4,136.9c-0.5,2.4-2.2,4.7-5,4.7c-2.7,0-5.2-2.1-5.2-4.5l4.7-0.7L143.4,136.9z"/>
							
								<ellipse transform="matrix(2.275207e-02 -0.9997 0.9997 2.275207e-02 -5.2821 272.1706)" class="st18" cx="136.6" cy="138.8" rx="1.2" ry="1.2"/>
						</g>
					</g>
				</g>
				<g>
					<g>
						<g>
							<path class="st22" d="M108.1,137.5c0.4,6.6-14.8,8.3-15.2,0c2.3-0.7,7.6-1.6,8.3-1.8C104,135.2,108.1,137.5,108.1,137.5z"/>
							<path class="st4" d="M109.6,138.6c0,0-4.1-6.3-17.8-0.7C105.2,135.6,109.6,138.6,109.6,138.6z"/>
							<path class="st4" d="M97.6,136.9c0.5,2.4,2.2,4.7,5,4.7c2.7,0,5.2-2.1,5.2-4.5l-4.7-0.7L97.6,136.9z"/>
							
								<ellipse transform="matrix(0.9997 -2.275207e-02 2.275207e-02 0.9997 -3.1293 2.3497)" class="st18" cx="101.7" cy="138.7" rx="1.2" ry="1.2"/>
						</g>
					</g>
				</g>
			</g>
			<path class="st24" d="M116.6,153.8l0.3,4.9l5.5,1.2C118.4,157.1,117.9,156.6,116.6,153.8z"/>
			<polygon class="st22" points="120.6,135.9 117.7,137.2 116.6,148.5 111.2,152.8 111.6,161.4 120.9,161.1 115.3,160 114.8,152.8 
				120.5,149.9 			"/>
			<polygon class="st4" points="116.1,159.3 115.8,153.3 122.5,149.9 121.2,136 120.6,135.9 120,149 114,153 114.8,160.5 124,161.4 
				124,160.7 			"/>
			<polygon class="st4" points="125.2,148.6 122.5,149.9 122.3,148.2 125.7,147.1 			"/>
		</g>
		<g>
			<path class="st22" d="M114.2,168.5c0,0,10-5.6,19.2,0c0.9-0.6,0.2-1.9,0.2-1.9s-8.4-4.8-19.4,0.4c-7.8,3.7-3.4,2.3-3.4,2.3
				L114.2,168.5z"/>
			<path class="st4" d="M134.6,166.7c-0.1,1-0.4,2-1,2.7c-0.1,0.1-0.2,0.2-0.4,0.2c-0.3,0-0.4-0.2-0.4-0.5l0,0
				c0.1-0.7,0.1-1.4,0.2-2.1c-0.9-0.3-1.8-0.6-2.7-0.8c-1-0.2-1.9-0.4-2.9-0.5c-2-0.2-3.9-0.1-5.9,0.2c-1.9,0.3-3.8,0.9-5.6,1.7
				c-0.9,0.4-1.7,0.9-2.5,1.4s-1.6,1.1-2.2,1.6h-0.1c0,0-0.1,0-0.1,0.1c-0.6,0.5-1.5,0.3-1.9-0.3c-0.5-0.6-0.3-1.5,0.3-1.9
				c1-0.7,1.8-1.2,2.8-1.8c1-0.5,1.9-0.9,2.9-1.3c2-0.7,4.1-1.2,6.2-1.4s4.2-0.1,6.3,0.3c1,0.1,2,0.5,3,0.7c0.8,0.2,1.6,0.6,2.4,0.9
				c0-0.6,0-1.2,0-1.9l0,0c0-0.1,0.1-0.3,0.2-0.3c0.2-0.2,0.5-0.1,0.7,0.1C134.4,164.6,134.6,165.7,134.6,166.7z"/>
			<path class="st24" d="M131.6,162.8c-0.8-0.2-1.6-0.3-2.4-0.4c-0.8-0.1-1.6-0.2-2.4-0.2c-1.6-0.1-3.2,0.1-4.8,0.3
				c-0.1,0-0.2,0.1-0.2,0.2c0,0.1,0.1,0.2,0.2,0.2c1.6-0.1,3.2,0,4.7,0.2c0.8,0.1,1.5,0.2,2.3,0.4c0.7,0.2,2.2,0.6,2.2,0.6
				c0.4,0.1,0.8,0,0.9-0.4C132.2,163.4,132,163,131.6,162.8L131.6,162.8z"/>
		</g>
	</g>
	<g>
		<g>
			<path class="st30" d="M193.2,453.5H47.8c-4,0-7.3-3.3-7.3-7.3l0,0c0-4,3.3-7.3,7.3-7.3h145.4c4,0,7.3,3.3,7.3,7.3l0,0
				C200.5,450.3,197.2,453.5,193.2,453.5z"/>
			<g>
				<g>
					<path class="st31" d="M190.7,409.2H50.2c-4.1,0-7.5,3.4-7.5,7.5v27.6c0,4.1,3.4,7.5,7.5,7.5h140.5c4.1,0,7.5-3.4,7.5-7.5v-27.6
						C198.2,412.5,194.9,409.2,190.7,409.2z M196.2,444.2c0,3-2.4,5.5-5.5,5.5H50.2c-3,0-5.5-2.5-5.5-5.5v-27.6c0-3,2.5-5.5,5.5-5.5
						h140.5c3,0,5.5,2.5,5.5,5.5V444.2z"/>
					<path class="st32" d="M196.2,416.6v27.6c0,3-2.4,5.5-5.5,5.5H50.2c-3,0-5.5-2.5-5.5-5.5v-27.6c0-3,2.5-5.5,5.5-5.5h140.5
						C193.8,411.2,196.2,413.6,196.2,416.6z"/>
				</g>
			</g>
		</g>
		<g>
			<path class="st31" d="M113.1,427.3l0.1-2h-0.1l-0.8,2.1l-5.7,10h-1.1V422h1.6v10.2l-0.2,2h0.1l0.8-2.1l5.7-10.1h1.1v15.4H113
				L113.1,427.3L113.1,427.3z"/>
			<path class="st31" d="M122.9,432.5H119v4.9h-1.6v-11h1.6v4.7h3.8v-4.7h1.6v11h-1.6L122.9,432.5L122.9,432.5z"/>
			<path class="st31" d="M132.5,431l0.1-1.7h-0.1l-0.8,1.8l-3.7,6.2h-1v-11h1.6v6.5l-0.1,1.6h0.1l0.7-1.8l3.8-6.3h1v11h-1.6V431z"/>
		</g>
	</g>
</g>
</svg>
