<?xml version="1.0" encoding="utf-8"?>
<!-- Generator: Adobe Illustrator 21.0.0, SVG Export Plug-In . SVG Version: 6.00 Build 0)  -->
<svg version="1.1" id="Layer_1" xmlns="http://www.w3.org/2000/svg" xmlns:xlink="http://www.w3.org/1999/xlink" x="0px" y="0px"
	 viewBox="0 0 240.9 453.5" style="enable-background:new 0 0 240.9 453.5;" xml:space="preserve">
<style type="text/css">
	.st0{fill:#794552;}
	.st1{fill:#C7B89E;}
	.st2{fill:#F9A960;}
	.st3{fill:#D17C32;}
	.st4{fill:#956070;}
	.st5{fill:#FDDCC0;}
	.st6{fill:#501338;}
	.st7{fill:#FFFFFF;}
	.st8{fill:#B38091;}
	.st9{fill:#D1D5DB;}
	.st10{fill:#989A9C;}
	.st11{fill:#937B70;}
	.st12{fill:#E6DEC9;}
	.st13{fill:#F0B39C;}
	.st14{fill:#8E183F;}
	.st15{fill:#F5F5F5;}
	.st16{fill:none;stroke:#462062;stroke-width:0.7554;stroke-linecap:round;stroke-miterlimit:10;}
	.st17{fill:#B5BAC0;}
	.st18{fill:#C71F41;}
	.st19{fill:#EF5784;}
	.st20{fill:#A91D41;}
	.st21{opacity:0.5;fill:#C1C1C1;}
	.st22{opacity:0.27;fill:#E78B6F;}
	.st23{fill:#CB8A43;}
	.st24{fill:#754D24;}
	.st25{fill:#FBBA6C;}
	.st26{fill:#837070;}
	.st27{fill:#866A58;}
	.st28{fill:#9A7E67;}
	.st29{fill:#B39885;}
	.st30{fill:#5B4580;}
	.st31{fill:#E1DFDF;}
	.st32{fill:#C0BEBD;}
	.st33{fill:#D53231;}
	.st34{fill:#E94647;}
	.st35{fill:#797083;}
	.st36{fill:#A9A4B4;}
	.st37{fill:#5B5567;}
	.st38{fill:#CE202B;}
	.st39{fill:#EE3734;}
	.st40{fill:#F49294;}
	.st41{fill:#B89AA6;}
	.st42{fill:#D4907B;}
	.st43{fill:#FAB276;}
	.st44{opacity:0.5;fill:#794552;}
	.st45{fill:#B57D90;}
	.st46{opacity:0.7;fill:#794552;}
	.st47{opacity:0.15;fill:#F2E8A5;}
	.st48{fill:#D67E3A;}
	.st49{fill:#735A99;}
	.st50{fill:#644C88;}
	.st51{fill:#9480B4;}
	.st52{fill:#E4D2A4;}
	.st53{fill:#FAEDD0;}
	.st54{fill:#C4B18B;}
	.st55{fill:#735A99;stroke:#501338;stroke-width:1.571;stroke-miterlimit:10;}
	.st56{fill:#C8BFBF;}
	.st57{fill:#B2ABAB;}
	.st58{fill:#FFE098;}
	.st59{fill:#ECC77E;}
	.st60{fill:#FFEBC7;}
	.st61{fill:#A1675E;}
	.st62{fill:#90564F;}
	.st63{fill:#C07F78;}
	.st64{fill:#68485A;}
	.st65{fill:#FFDD81;}
	.st66{fill:#814945;}
	.st67{fill:#945B58;}
	.st68{fill:#B17977;}
	.st69{fill:#884C4A;}
	.st70{fill-rule:evenodd;clip-rule:evenodd;fill:#989A9C;}
	.st71{fill:#D89E98;}
	.st72{fill:#64445C;}
	.st73{fill:#816474;}
	.st74{fill:#A48390;}
	.st75{fill:#DDAD41;}
	.st76{fill:#F48657;}
	.st77{fill:#D77151;}
	.st78{fill:#F8AB89;}
	.st79{fill:#E9C05B;}
	.st80{fill:#9A8691;}
	.st81{fill:#A28F99;}
	.st82{fill:#8780BC;}
	.st83{fill:#6966AD;}
	.st84{fill:#B2ADD5;}
	.st85{fill:#F48C8C;}
	.st86{fill:#E86363;}
	.st87{fill:#F4876E;}
	.st88{fill:#E56A51;}
	.st89{fill:#80655C;}
	.st90{fill:#C3AC6F;}
	.st91{fill:#9F874A;}
	.st92{fill:#DBC68E;}
	.st93{opacity:0.11;fill:#FFFFFF;}
	.st94{fill:#F7A799;}
	.st95{fill:#FCE5A5;}
	.st96{fill:#DEBB6C;}
	.st97{fill:#B67C76;}
	.st98{fill:none;stroke:#462062;stroke-width:0.843;stroke-linecap:round;stroke-miterlimit:10;}
	.st99{fill:#9D9B86;}
	.st100{fill:#8780BC;stroke:#501338;stroke-width:1.6795;stroke-miterlimit:10;}
	.st101{fill:#C5C4B4;}
	.st102{fill:#E9E9D9;}
	.st103{fill:#E9C15D;}
	.st104{opacity:0.3;}
	.st105{fill:#A27388;}
	.st106{opacity:0.5;fill:#FFFFFF;}
	.st107{fill:#91667A;}
	.st108{opacity:0.4;}
	.st109{opacity:0.5;}
	.st110{opacity:0.5;fill:#A7A7A6;}
	.st111{fill:#C16D34;}
	.st112{opacity:0.4;fill:#FFFFFF;}
	.st113{fill:none;stroke:#501338;stroke-width:1.5687;stroke-linecap:round;stroke-linejoin:round;stroke-miterlimit:10;}
	.st114{opacity:0.27;}
	.st115{fill:#E78B6F;}
	.st116{opacity:0.2;fill:#F48E8E;}
	.st117{fill:#99744B;}
	.st118{fill:#825D38;}
	.st119{fill:#C9CAA6;}
	.st120{fill:#BCBC96;}
	.st121{fill:none;stroke:#462062;stroke-width:0.7845;stroke-linecap:round;stroke-miterlimit:10;}
	.st122{fill:#66402A;}
	.st123{fill:#935C35;}
	.st124{opacity:0.6;fill:#7A4928;}
	.st125{opacity:0.4;fill:#F48E8E;}
	.st126{fill:#E1E1E1;}
	.st127{fill:#C1C1C1;}
	.st128{fill:#52363A;}
	.st129{fill:#C6C5C4;}
	.st130{opacity:0.6;}
	.st131{fill:#888888;}
	.st132{fill:#515252;}
	.st133{opacity:0.6;fill:#888888;}
	.st134{fill:#616160;}
	.st135{fill:#515150;}
	.st136{fill:#957B66;}
	.st137{fill:#B89984;}
	.st138{fill:#787878;}
	.st139{fill:#775F4F;}
	.st140{fill:#D7B9A8;}
	.st141{fill:#99999A;}
	.st142{opacity:0.4;fill:#E6DEC9;}
	.st143{fill:none;stroke:#462062;stroke-width:0.7586;stroke-linecap:round;stroke-miterlimit:10;}
	.st144{fill:#3F4242;}
	.st145{opacity:0.5;fill:#F0B39C;}
	.st146{opacity:0.57;fill:#B89AA6;}
	.st147{fill:#619F7F;}
	.st148{fill:#548E6E;}
	.st149{fill:#C16A2F;}
	.st150{fill:#CE413A;}
	.st151{fill:#B23330;}
	.st152{opacity:0.62;fill:#E48C7D;}
	.st153{fill:#5E3827;}
	.st154{fill:#F48E8E;}
	.st155{fill:#444445;}
	.st156{fill:#353435;}
	.st157{opacity:0.5;fill:#B89AA6;}
	.st158{fill:#4D4C4D;}
	.st159{fill:#444344;}
	.st160{opacity:0.6;fill:#A1A1A1;}
	.st161{fill:#282827;}
	.st162{fill:#636464;}
	.st163{fill:#575959;}
	.st164{fill:#3A3A3A;}
	.st165{opacity:0.5;fill:#787878;}
	.st166{fill:none;stroke:#462062;stroke-width:0.8198;stroke-linecap:round;stroke-miterlimit:10;}
	.st167{fill:#5B5B5C;}
	.st168{fill:#E4E4E4;}
	.st169{fill:#FFF1EA;}
	.st170{fill:#E1CDC5;}
	.st171{opacity:0.4;fill:#F0B39C;}
	.st172{opacity:0.5;fill:#ADADAD;}
	.st173{fill:#B58F5B;}
	.st174{fill:#606060;}
	.st175{fill:#4F5150;}
	.st176{opacity:0.6;fill:#989A9C;}
	.st177{fill:#5D7A6D;}
	.st178{fill:#4C685B;}
	.st179{fill:none;stroke:#462062;stroke-width:0.8057;stroke-linecap:round;stroke-miterlimit:10;}
	.st180{fill:#F7B975;}
	.st181{fill:#8D7449;}
	.st182{opacity:0.35;fill:#F7B975;}
	.st183{fill:#686868;}
	.st184{fill:#959595;}
	.st185{opacity:0.3;fill:#FFFFFF;}
	.st186{fill:#4C4B4C;}
	.st187{fill:#A27F67;}
	.st188{fill:#C6A691;}
	.st189{opacity:0.2;fill:#684D39;}
	.st190{fill:#926E56;}
	.st191{opacity:0.8;fill:#3A3A3A;}
	.st192{fill:#ED3E2B;}
	.st193{fill:#DB2C1F;}
	.st194{opacity:0.7;fill:#989A9C;}
	.st195{fill:#6B4845;}
	.st196{fill:#846363;}
	.st197{fill:#5E3E3C;}
	.st198{fill:none;stroke:#501338;stroke-width:1.6206;stroke-miterlimit:10;}
	.st199{opacity:0.5;fill:#E29780;}
	.st200{opacity:0.6;fill:#FFFFFF;}
	.st201{fill:#ECD8BB;}
	.st202{opacity:0.3;fill:#937B70;}
	.st203{fill:#FCF9F4;}
	.st204{opacity:0.6;fill:#F0B39C;}
	.st205{fill:none;stroke:#462062;stroke-width:0.7828;stroke-linecap:round;stroke-miterlimit:10;}
	.st206{fill:#CDCDCD;}
	.st207{opacity:0.5;fill:#A8A7A7;}
	.st208{fill:#868686;}
	.st209{opacity:0.3;fill:#F0B39C;}
	.st210{opacity:0.7;fill:#F0B39C;}
	.st211{fill:#735A99;stroke:#501338;stroke-width:1.5656;stroke-miterlimit:10;}
	.st212{opacity:0.5;fill:#FCF9F4;}
	.st213{opacity:0.5;fill:#FDDCC0;}
	.st214{fill:#6B3A37;}
	.st215{fill:#92A3D3;}
	.st216{fill:#B0C2E4;}
	.st217{fill:#7790BC;}
	.st218{fill:#7F95C6;}
	.st219{fill:#D0A7C2;}
	.st220{fill:#B7BE79;}
	.st221{fill:#725F82;}
	.st222{fill:#635175;}
	.st223{fill:none;stroke:#501338;stroke-width:1.5843;stroke-miterlimit:10;}
	.st224{fill:#C5B8DA;}
	.st225{fill:#A999C9;}
	.st226{fill:#8B6445;}
	.st227{fill:#7A5439;}
	.st228{fill:none;stroke:#501338;stroke-width:1.5751;stroke-linecap:round;stroke-linejoin:round;stroke-miterlimit:10;}
	.st229{fill:#D9CEB7;}
	.st230{fill:#CCBDA2;}
	.st231{opacity:0.2;fill:#FFFFFF;}
	.st232{fill:#B61F30;}
	.st233{fill:#595B5B;}
</style>
<g>
	<g>
		<path class="st66" d="M79.8,312.1l0.2,2.5l40.1,18.8c0,0,28.6-14.7,32.4-15.4c3.8-0.7,8.5-4.1,8.5-4.1l0.2-1.9l-33.3,4.9
			l-29.1-3.2L82.4,312L79.8,312.1"/>
		<g>
			<path class="st67" d="M164.7,306.3c-3.2,1-24.4,7.5-44.3,7.5s-41.1-6.5-44.3-7.5c-0.2-0.1-0.4,0.1-0.3,0.3l1.5,10.2
				c8.2,2.3,25.8,6.7,43.1,6.7s34.9-4.4,43.1-6.7l1.5-10.2C165.1,306.4,164.9,306.2,164.7,306.3z"/>
			<path class="st68" d="M120.5,313.8c-17.2,0-34.7-4.1-43.8-6.6l0.2,1.5c8.2,2.3,26.1,6.7,43.6,6.7s35.3-4.4,43.6-6.7l0.2-1.5
				C155.2,309.8,137.7,313.8,120.5,313.8z"/>
			<path class="st69" d="M76.3,313.4l0.6,3.9c8.2,2.3,26.1,6.7,43.6,6.7s35.3-4.4,43.6-6.7l0.6-3.9c-4.7,1.4-25,7.3-44.1,7.3
				S81,314.8,76.3,313.4z"/>
			<path class="st6" d="M120.5,324.2c-17.2,0-34.5-4.2-43.3-6.7l-0.5-0.1l-1.6-10.7c-0.1-0.4,0.1-0.7,0.4-1c0.3-0.2,0.7-0.3,1-0.2
				c3.9,1.2,24.5,7.4,44,7.4c19.5,0,40.1-6.2,44-7.4c0.4-0.1,0.7,0,1,0.2c0.3,0.2,0.4,0.6,0.4,1l-1.6,10.7l-0.5,0.1
				C155,320,137.7,324.2,120.5,324.2z M78.1,316.1c8.9,2.5,25.7,6.5,42.4,6.5c16.7,0,33.5-4,42.4-6.5l1.3-8.8
				c-5.5,1.7-25.1,7.3-43.7,7.3c-18.6,0-38.2-5.6-43.7-7.3L78.1,316.1z"/>
			<g>
				<g>
					<circle class="st6" cx="155.8" cy="313.8" r="1.3"/>
					<path class="st68" d="M155.8,314.7c-0.6,0-1.1-0.4-1.3-0.9c0,0,0,0,0,0c0,0.7,0.6,1.2,1.3,1.2c0.7,0,1.3-0.5,1.3-1.2
						c0,0,0,0,0,0C156.9,314.4,156.4,314.7,155.8,314.7z"/>
				</g>
				<g>
					<circle class="st6" cx="85.2" cy="313.8" r="1.3"/>
					<path class="st68" d="M85.2,314.7c-0.6,0-1.1-0.4-1.3-0.9c0,0,0,0,0,0c0,0.7,0.6,1.2,1.3,1.2s1.3-0.5,1.3-1.2c0,0,0,0,0,0
						C86.3,314.4,85.8,314.7,85.2,314.7z"/>
				</g>
			</g>
			<g>
				<g>
					<circle class="st6" cx="142.1" cy="316.6" r="1.3"/>
					<path class="st68" d="M142.1,317.5c-0.6,0-1.1-0.4-1.3-0.9c0,0,0,0,0,0c0,0.7,0.6,1.2,1.3,1.2c0.7,0,1.3-0.5,1.3-1.2
						c0,0,0,0,0,0C143.2,317.1,142.7,317.5,142.1,317.5z"/>
				</g>
				<g>
					<circle class="st6" cx="98.8" cy="316.6" r="1.3"/>
					<path class="st68" d="M98.8,317.5c-0.6,0-1.1-0.4-1.3-0.9c0,0,0,0,0,0c0,0.7,0.6,1.2,1.3,1.2s1.3-0.5,1.3-1.2c0,0,0,0,0,0
						C99.9,317.1,99.4,317.5,98.8,317.5z"/>
				</g>
			</g>
			<g>
				<circle class="st9" cx="120.5" cy="318.4" r="8.8"/>
				<path class="st10" d="M120.5,324.4c-4,0-7.3-2.1-8.2-5c-0.1,0.4-0.2,0.9-0.2,1.4c0,3.5,3.7,6.4,8.4,6.4c4.6,0,8.4-2.9,8.4-6.4
					c0-0.5-0.1-0.9-0.2-1.4C127.8,322.3,124.5,324.4,120.5,324.4z"/>
				<path class="st6" d="M120.5,328c-5.3,0-9.6-4.3-9.6-9.6c0-5.3,4.3-9.6,9.6-9.6c5.3,0,9.6,4.3,9.6,9.6
					C130.1,323.7,125.8,328,120.5,328z M120.5,310.4c-4.4,0-8,3.6-8,8s3.6,8,8,8c4.4,0,8-3.6,8-8S124.9,310.4,120.5,310.4z"/>
				<g>
					<path class="st70" d="M120.6,322.2h2v-0.4c0,0-1.4-0.1-1.4-1.5v-0.6c0-0.3,0.3-1.2,0.9-1.3c-0.6-0.1-1-0.7-0.9-1.3
						c0,0,0-0.1,0-0.6c0-1.6,1.8-1.6,1.9-1.6h0c1.6,0,1.7,1.2,1.7,1.3h0.3l-0.1-2.3l0-0.5l-0.2,0c0,0-0.1,0.4-1,0.4
						c-2.2,0-4.5,0-6.7,0c-0.9,0-1-0.4-1-0.4h-0.2l0,0.5l-0.1,2.3h0.3c0-0.1,0.2-1.3,1.7-1.3c0,0,0,0,0,0c0.1,0,1.9,0,1.9,1.6
						c0,0.5,0,0.6,0,0.6c0,0.6-0.4,1.2-0.9,1.3c0.7,0.1,0.9,0.9,0.9,1.3l0,0.6c-0.1,1.4-1.4,1.5-1.4,1.5v0.4H120.6z"/>
					<path class="st70" d="M126.2,318.5c-0.2-0.3-0.9-0.4-1.1-0.3c0.2-0.2,0.2-0.7,0.1-1c-0.1-0.3-0.3-0.4-0.3,0c0,0.6-0.6,1-1.3,1
						c-0.5,0-0.8-0.4-0.8-0.8c-0.1-0.4,0-0.7,0.4-0.8c0.3-0.1,0.6,0.1,0.6,0.3c0,0.4-0.3,0.2-0.3,0.5c0,0.2,0.1,0.3,0.2,0.3
						c0.6,0,0.8-0.6,0.7-1c-0.1-0.4-0.4-0.9-1.1-0.9c-0.7,0-1.4,0.5-1.4,1.4c0,1,0.8,1.4,0.8,1.4s-0.8,0.4-0.8,1.4
						c0,1,0.7,1.4,1.4,1.4c0.7,0,1-0.5,1.1-0.9c0.1-0.4-0.1-1-0.7-1c-0.1,0-0.3,0.1-0.2,0.3c0,0.2,0.4,0.1,0.3,0.5
						c0,0.2-0.2,0.4-0.6,0.3c-0.4-0.1-0.5-0.5-0.4-0.8c0.1-0.4,0.3-0.7,0.8-0.8c0.7-0.1,1.3,0.3,1.3,1c0,0.3,0.2,0.3,0.3,0
						c0.1-0.3,0.1-0.7-0.1-1C125.4,318.9,126.1,318.8,126.2,318.5"/>
					<path class="st70" d="M114.7,318.5c0.2-0.3,0.9-0.4,1.1-0.3c-0.2-0.2-0.2-0.7-0.1-1c0.1-0.3,0.3-0.4,0.3,0c0,0.6,0.6,1,1.3,1
						c0.5-0.1,0.8-0.4,0.8-0.8c0.1-0.4,0-0.7-0.4-0.8c-0.3-0.1-0.6,0.1-0.6,0.3c0,0.4,0.3,0.2,0.3,0.5c0,0.2-0.1,0.3-0.2,0.3
						c-0.6,0-0.8-0.6-0.7-1c0.1-0.4,0.4-0.9,1.1-0.9c0.7,0,1.4,0.5,1.4,1.4c0,1-0.8,1.4-0.8,1.4s0.8,0.4,0.8,1.4
						c0,1-0.7,1.4-1.4,1.4c-0.7,0-1-0.5-1.1-0.9c-0.1-0.4,0.1-1,0.7-1c0.1,0,0.3,0.1,0.2,0.3c0,0.2-0.4,0.1-0.3,0.5
						c0,0.2,0.2,0.4,0.6,0.3c0.4-0.1,0.5-0.5,0.4-0.8c-0.1-0.4-0.3-0.7-0.8-0.8c-0.7-0.1-1.3,0.3-1.3,1c0,0.3-0.2,0.3-0.3,0
						c-0.1-0.3-0.1-0.7,0.1-1C115.6,318.9,114.9,318.8,114.7,318.5"/>
				</g>
			</g>
			<g>
				<path class="st6" d="M89.7,307.3c0,0-0.2,2.4-0.5,5.3c-0.3,2.7-0.6,5.8-0.9,8.1c-0.1,0.8-0.2,1.5-0.3,2.1
					C84.6,312.8,89.3,307.8,89.7,307.3C89.7,307.3,89.7,307.3,89.7,307.3z"/>
				<path class="st6" d="M94.9,308.8c-0.8,4.5-1.3,9.7-1.5,15.3c0,0,0,0,0,0l-0.7-2.4l-1.6-5.7l0.5-2.8l0.2-1.5l1.2-2.4L94.9,308.8z
					"/>
				<path class="st61" d="M93.1,321.7c0.1,1.3,0.3,2.1,0.3,2.4l-0.7-2.4c-1.5-0.3-3.2-0.7-4.4-0.9c-0.1,0.8-0.2,1.5-0.3,2.1
					c-0.1-0.8-0.2-1.5-0.3-2.2c-0.4-3.5-0.2-6.2,0.2-8.3c0.6-3.2,1.7-4.7,1.8-5c0,0,0,0,0,0s0.3,0,5.2,1.5c-0.9,1.3-1.4,3-1.7,4.7
					C92.8,316.5,92.9,319.6,93.1,321.7z"/>
				<path class="st71" d="M94.9,308.8c-0.9,1.3-1.4,3-1.7,4.7l-5.4-1.2c0.6-3.5,1.9-5,1.9-5S90,307.3,94.9,308.8z"/>
				<path class="st72" d="M87.7,320.6c0.2,0,0.4,0.1,0.6,0.1c-0.1,0.8-0.2,1.5-0.3,2.1C87.8,322,87.7,321.3,87.7,320.6z"/>
				<path class="st72" d="M93.4,324l-0.7-2.4c0.1,0,0.3,0.1,0.4,0.1C93.2,323,93.4,323.8,93.4,324z"/>
			</g>
			<g>
				<path class="st6" d="M151.4,322.8c-0.1-0.6-0.2-1.3-0.3-2.1c-0.3-2.3-0.7-5.5-0.9-8.1c-0.3-3-0.5-5.3-0.5-5.3s0,0,0,0
					C150.1,307.8,154.8,312.8,151.4,322.8z"/>
				<path class="st6" d="M148.3,315.9l-1.6,5.7L146,324c0,0,0,0,0,0.1l0,0c-0.2-5.6-0.7-10.8-1.5-15.3l1.9,0.5l1.2,2.4l0.2,1.5
					L148.3,315.9z"/>
				<path class="st61" d="M151.7,320.6c-0.1,0.7-0.2,1.5-0.3,2.2c-0.1-0.6-0.2-1.3-0.3-2.1c-1.3,0.3-2.9,0.6-4.4,0.9L146,324
					c0-0.3,0.2-1.1,0.3-2.3c0.2-2.1,0.3-5.2-0.2-8.2c-0.3-1.7-0.8-3.4-1.7-4.7c4.9-1.5,5.2-1.5,5.2-1.5s0,0,0,0
					c0.2,0.2,1.2,1.8,1.8,5C151.9,314.3,152.1,317.1,151.7,320.6z"/>
				<path class="st71" d="M144.4,308.8c0.9,1.3,1.4,3,1.7,4.7l5.4-1.2c-0.6-3.5-1.9-5-1.9-5S149.4,307.3,144.4,308.8z"/>
				<path class="st72" d="M146.2,321.7c0.1,0,0.3-0.1,0.4-0.1L146,324C146,323.7,146.1,322.9,146.2,321.7z"/>
				<path class="st72" d="M151.7,320.6c-0.1,0.7-0.2,1.5-0.3,2.2c-0.1-0.6-0.2-1.3-0.3-2.1C151.3,320.6,151.5,320.6,151.7,320.6z"/>
			</g>
		</g>
		<ellipse class="st0" cx="120.5" cy="368.8" rx="51.5" ry="17.9"/>
		<g>
			<path class="st61" d="M41.2,326.8c0,0,6.9-29.1,53.7-6.1s66,32.9,66,32.9s44,1.6,40,9.3c-4,7.7-10.1,21.6-17.2,22.2
				c-7.1,0.6-86-19.4-86-19.4S34.2,350.9,41.2,326.8z"/>
			<path class="st3" d="M175.9,383.9c-2.2-0.4-13.1-2.7-21.5-4.6c8.9,2.6,14.2,4.5,21.4,5c1.3,0.1,2.5,0.2,3.5,0.2
				C178,384.4,176.8,384.1,175.9,383.9z"/>
			<path class="st3" d="M121.4,371.7c-6.5-1.5-12.9-3.1-16.7-4C109.6,369,115.1,370.3,121.4,371.7z"/>
			<path class="st66" d="M40.6,334.6c1.9,5.2,13.7,17.2,29.2,21.9c9.1,2.8,17.4,6,28.7,9.4c-2-0.8-3.8-1.8-3.8-1.8l2.6-7.7
				c-15.2-4.9-27.9-9.2-32.3-11.1c-20.4-8.8-22.1-12.9-20.3-25.4C44,320.7,39.5,331.7,40.6,334.6z"/>
			<path class="st0" d="M160.9,353.6c1.6,0,3.1,0.1,4.5,0.1c-1.8-0.1-2.9-0.2-3.2-0.2c-0.6,0-5-2.1-9.7-4.4
				C155.8,351,158.6,352.5,160.9,353.6z"/>
			<path class="st0" d="M127.4,372.9c-2.1-0.4-4.1-0.8-6-1.2c11.2,2.7,22.8,5.4,22.8,5.4s4.5,1,10.2,2.2
				C148,377.5,139.7,375.2,127.4,372.9z"/>
			<path class="st0" d="M104.7,367.7c-2.2-0.6-4.2-1.2-6.2-1.7c0.9,0.4,1.8,0.7,2.7,0.9C101.6,367,102.9,367.3,104.7,367.7z"/>
			<path class="st0" d="M172.9,382c7.1,0.6,16,0.1,16,0.1c-1.9,1.7-1,2.9-9.6,2.5c3.7,0.7,8.5,0.8,11.7-4.1
				c4.3-6.7,10.1-17.3,10-18.6c-0.1-1.3-0.9-0.5-0.9-0.4c-2.6-1-5.4-2.8-9.3-3.4c-8.6-1.4-20.2-1.1-29.8-0.5l-5.4,8.3l2.1-9.1
				c-16.3-8.7-35.1-18.4-52-26.1l-2.7,13.3l-5.9,12.4C98.8,365.7,158.8,380.8,172.9,382z"/>
			<path class="st4" d="M157.8,356.8l-3.7,11.8l7.4-10.4c14-1,38.4,4.1,35.4,10.7c0-0.1,5.6-6.8,2.9-8.9c-1.9-1.5-8.1-3.1-13.7-3.9
				c-6.6-0.8-15.5-2-20.7-2.3h0c-1.4,0-2.9-0.1-4.5-0.1c-2.3-1.1-5.1-2.6-8.4-4.4c-0.1,0-0.1-0.1-0.2-0.1
				c-5.7-2.8-11.7-5.9-11.7-5.9l-30.5-15l-3.2-0.7l-1.1,3.2C122.8,338.4,141.6,348.1,157.8,356.8z"/>
			<path class="st71" d="M51.9,314.3c12.5-0.4,32.3,6.6,53.9,16.4l1.1-3.2l3.2,0.7l30.5,15c0,0,7.1,4.4,12.8,7.2
				C126.2,335.8,67.6,302.5,51.9,314.3z"/>
			<path class="st6" d="M94.7,364.1c0,0,1.8,1,3.8,1.8c0,0,0,0,0,0c2,0.6,4,1.2,6.2,1.7c3.8,0.9,10.2,2.4,16.7,4
				c1.9,0.4,3.9,0.8,6,1.2c12.2,2.4,20.5,4.6,27,6.4c8.4,1.9,19.3,4.2,21.5,4.6c0.9,0.2,3.9,1,5.2,1.2c8.6,0.4,12.4-7.9,14.1-11.9
				c0,0-4,5.1-13,6.1c-6.4,0.8-17.8-3.4-29.4-8.5c0,0-43.7-3.1-54.3-14.4L94.7,364.1z"/>
			<path class="st6" d="M96.8,353.1c0.1,0.1,0.2,0.1,0.2,0.1c-2.8,7.6-3.7,11.2-3.7,11.2l-1.9-0.8C91.4,363.7,94.9,356.2,96.8,353.1
				z"/>
			<path class="st6" d="M101.7,337.4c-0.1,0-0.2-0.1-0.3-0.1c1.5-8,1.8-11.7,1.8-11.7l2,0.5C105.3,326.1,103,334.1,101.7,337.4z"/>
			<polygon class="st6" points="154.2,368.5 159.1,352.9 160.7,354.4 			"/>
			<path class="st66" d="M87.9,343.4c0.1,0,0.1,0,0.2,0.1c-2.5,7-3.2,10.3-3.2,10.3l-2-0.5C82.9,353.3,86.3,345.9,87.9,343.4z"/>
			
				<ellipse transform="matrix(0.3854 -0.9228 0.9228 0.3854 -219.1754 399.1803)" class="st4" cx="190.1" cy="364.1" rx="0.4" ry="4.5"/>
			
				<ellipse transform="matrix(0.4045 -0.9145 0.9145 0.4045 -238.5267 337.4457)" class="st7" cx="139.9" cy="351.9" rx="0.6" ry="13.3"/>
			<path class="st8" d="M196.6,369.4c0.9-2.6,2.5-5.9,2.5-7.1l-1.5,0.1l1.2-0.8c-0.3-1.5-8.3-4.4-13.1-5c0,0,10.5,1.1,12.8,3
				c2.4,1.9,2.9,1.4,2.1,3.6C200,365.3,196.6,369.4,196.6,369.4z"/>
			<path class="st8" d="M105.4,340l2.3-12l17.9,8.8c-5.1-1.7-17-6.9-17-6.9L105.4,340z"/>
			<path class="st6" d="M182.4,354.6c-0.1,0.4-0.3,0.9-0.6,1.4c-4.9,7.8-29,14.8-29,14.8l-8.4,0.9l-28.3-6.8l11.1-6l29.8-6.2
				l2.5-0.5c0.8,0.4,1.3,0.7,1.5,0.8C163.5,352.9,173.1,353.3,182.4,354.6z"/>
			<path class="st6" d="M201.5,360.6c-1.7-2.9-10.3-4.8-19.1-6c-9.3-1.3-18.9-1.7-21.3-1.8c-0.2-0.1-0.7-0.4-1.5-0.8
				c-5.6-2.9-25.6-13-64.3-32.1c-18.6-9.1-33.2-11.3-43.5-6.4c-9.1,4.3-11.2,12.4-11.3,13c-1.1,3.9-0.6,7.7,1.6,11.5
				c10.3,17.7,53.6,27.9,55.5,28.4c3.2,0.8,76.8,19.5,85.9,19.5c0.1,0,0.3,0,0.4,0c6.6-0.6,11.8-10.9,16.2-19.5
				c0.6-1.1,1.1-2.2,1.6-3.1C202,362.4,202,361.5,201.5,360.6z M43.4,337.3c-2-3.4-2.5-6.8-1.5-10.3l0,0c0-0.1,2-8,10.5-12
				c3.3-1.6,7.2-2.4,11.5-2.4c8.4,0,18.6,2.9,30.6,8.8c4.1,2,8,3.9,11.7,5.8c-1.6,13.5-5.1,22-12.8,36.5
				C81.8,360.6,51.5,351.1,43.4,337.3z M200.2,362.5c-0.5,0.9-1,2-1.6,3.1c-4,7.8-9.2,18.2-14.9,18.7c-5.5,0.5-58.5-12.5-85.7-19.4
				c-0.1,0-1.1-0.3-2.9-0.7c7.4-14,11.1-23,12.8-36.2c27.1,13.4,42.9,21.3,49.3,24.6c2.3,1.2,3.4,1.7,3.5,1.8l0.2,0.1h0.2
				c6.4,0,14.1,0.6,21,1.5c9.2,1.3,17,3.2,18.3,5.5C200.4,361.8,200.4,362.1,200.2,362.5z"/>
		</g>
		<g>
			<path class="st61" d="M200.6,326.8c0,0-6.9-29.1-53.7-6.1s-66,32.9-66,32.9s-44,1.6-40,9.3c4,7.7,10.1,21.6,17.2,22.2
				s86-19.4,86-19.4S207.6,350.9,200.6,326.8z"/>
			<path class="st3" d="M65.8,383.9c2.2-0.4,13.1-2.7,21.5-4.6c-8.9,2.6-14.2,4.5-21.4,5c-1.3,0.1-2.5,0.2-3.5,0.2
				C63.7,384.4,64.9,384.1,65.8,383.9z"/>
			<path class="st3" d="M120.3,371.7c6.5-1.5,12.9-3.1,16.7-4C132.1,369,126.6,370.3,120.3,371.7z"/>
			<path class="st66" d="M201.1,334.6c-1.9,5.2-13.7,17.2-29.2,21.9c-9.1,2.8-17.4,6-28.7,9.4c2-0.8,3.8-1.8,3.8-1.8l-2.6-7.7
				c15.2-4.9,27.9-9.2,32.3-11.1c20.4-8.8,22.1-12.9,20.3-25.4C197.7,320.7,202.2,331.7,201.1,334.6z"/>
			<path class="st0" d="M80.9,353.6c-1.6,0-3.1,0.1-4.5,0.1c1.8-0.1,2.9-0.2,3.2-0.2c0.6,0,5-2.1,9.7-4.4
				C86,351,83.1,352.5,80.9,353.6z"/>
			<path class="st0" d="M114.3,372.9c2.1-0.4,4.1-0.8,6-1.2c-11.2,2.7-22.8,5.4-22.8,5.4s-4.5,1-10.2,2.2
				C93.8,377.5,102.1,375.2,114.3,372.9z"/>
			<path class="st0" d="M137,367.7c2.2-0.6,4.2-1.2,6.2-1.7c-0.9,0.4-1.8,0.7-2.7,0.9C140.1,367,138.9,367.3,137,367.7z"/>
			<path class="st0" d="M68.8,382c-7.1,0.6-16,0.1-16,0.1c1.9,1.7,1,2.9,9.6,2.5c-3.7,0.7-8.5,0.8-11.7-4.1
				c-4.3-6.7-10.1-17.3-10-18.6c0.1-1.3,0.9-0.5,0.9-0.4c2.6-1,5.4-2.8,9.3-3.4c8.6-1.4,20.2-1.1,29.8-0.5l5.4,8.3l-2.1-9.1
				c16.3-8.7,35.1-18.4,52-26.1l2.7,13.3l5.9,12.4C142.9,365.7,82.9,380.8,68.8,382z"/>
			<path class="st4" d="M83.9,356.8l3.7,11.8l-7.4-10.4c-14-1-38.4,4.1-35.4,10.7c0-0.1-5.6-6.8-2.9-8.9c1.9-1.5,8.1-3.1,13.7-3.9
				c6.6-0.8,15.5-2,20.7-2.3h0c1.4,0,2.9-0.1,4.5-0.1c2.3-1.1,5.1-2.6,8.4-4.4c0.1,0,0.1-0.1,0.2-0.1c5.7-2.8,11.7-5.9,11.7-5.9
				l30.5-15l3.2-0.7l1.1,3.2C119,338.4,100.2,348.1,83.9,356.8z"/>
			<path class="st71" d="M189.8,314.3c-12.5-0.4-32.3,6.6-53.9,16.4l-1.1-3.2l-3.2,0.7l-30.5,15c0,0-7.1,4.4-12.8,7.2
				C115.5,335.8,174.1,302.5,189.8,314.3z"/>
			<path class="st6" d="M147.1,364.1c0,0-1.8,1-3.8,1.8c0,0,0,0,0,0c-2,0.6-4,1.2-6.2,1.7c-3.8,0.9-10.2,2.4-16.7,4
				c-1.9,0.4-3.9,0.8-6,1.2c-12.2,2.4-20.5,4.6-27,6.4c-8.4,1.9-19.3,4.2-21.5,4.6c-0.9,0.2-3.9,1-5.2,1.2
				c-8.6,0.4-12.4-7.9-14.1-11.9c0,0,5.2,6.7,14.1,7.7c6.4,0.8,17-2.8,28.6-8c0,0,43.4-5.3,54-16.6L147.1,364.1z"/>
			<path class="st6" d="M145,353.1c-0.1,0.1-0.2,0.1-0.2,0.1c2.8,7.6,3.7,11.2,3.7,11.2l1.9-0.8C150.4,363.7,146.8,356.2,145,353.1z
				"/>
			<path class="st6" d="M140,337.4c0.1,0,0.2-0.1,0.3-0.1c-1.5-8-1.8-11.7-1.8-11.7l-2,0.5C136.4,326.1,138.7,334.1,140,337.4z"/>
			<polygon class="st6" points="87.6,368.5 82.7,352.9 81.1,354.4 			"/>
			<path class="st66" d="M153.8,343.4c-0.1,0-0.1,0-0.2,0.1c2.5,7,3.2,10.3,3.2,10.3l2-0.5C158.8,353.3,155.4,345.9,153.8,343.4z"/>
			
				<ellipse transform="matrix(0.9228 -0.3854 0.3854 0.9228 -136.3395 48.0408)" class="st7" cx="51.7" cy="364.1" rx="4.5" ry="0.4"/>
			
				<ellipse transform="matrix(0.9145 -0.4045 0.4045 0.9145 -133.6443 71.292)" class="st7" cx="101.9" cy="351.9" rx="13.3" ry="0.6"/>
			<path class="st7" d="M45.1,369.4c-0.9-2.6-2.5-5.9-2.5-7.1l1.5,0.1l-1.2-0.8c0.3-1.5,8.3-4.4,13.1-5c0,0-10.5,1.1-12.8,3
				c-2.4,1.9-2.9,1.4-2.1,3.6C41.8,365.3,45.1,369.4,45.1,369.4z"/>
			<path class="st7" d="M136.3,340l-2.3-12l-17.9,8.8c5.1-1.7,17-6.9,17-6.9L136.3,340z"/>
			<path class="st6" d="M201.4,326.6c-0.1-0.6-2.3-8.8-11.3-13c-10.3-4.9-24.9-2.7-43.5,6.5c-44,21.6-63.8,31.8-65.9,32.8
				c-4.7,0-36.9,1.8-40.5,7.8c-0.5,0.8-0.5,1.7,0,2.6c0.5,0.9,1,2,1.6,3.1c4.4,8.6,9.6,19,16.2,19.5c0.1,0,0.2,0,0.4,0
				c9.1,0,82.7-18.7,85.9-19.5c1.8-0.4,45.1-10.7,55.5-28.4C201.9,334.3,202.5,330.5,201.4,326.6z M143.9,364.9
				c-27.3,6.9-80.3,19.9-85.7,19.4c-5.8-0.5-10.9-10.9-14.9-18.7c-0.6-1.1-1.1-2.2-1.6-3.1c-0.2-0.4-0.2-0.7,0-1.1
				c2.4-4,24.5-6.9,39.3-7l0.2,0l0.2-0.1c0.2-0.1,16-8.2,52.8-26.4c1.6,13.2,5.3,22.2,12.7,36.2C145,364.6,143.9,364.9,143.9,364.9z
				 M198.3,337.3c-8.1,13.8-38.4,23.3-50,26.4c-7.7-14.5-11.3-23-12.8-36.5c3.7-1.8,7.6-3.7,11.7-5.8c11.9-5.9,22.2-8.8,30.6-8.8
				c4.3,0,8.2,0.8,11.5,2.4c8.5,4,10.5,11.9,10.5,12l0,0C200.8,330.5,200.3,333.9,198.3,337.3z"/>
		</g>
		<path class="st66" d="M75.8,323.4c0,0,2.7,2.1,1.9,3.5c-0.7,1.5-3.1,4.1-3.1,4.1s3.6,6.4,2.8,9.4c-0.8,3-13.1,7.8-13.1,7.8
			l-4.3-3.5l-0.3-8.6l8.4-8.8L75.8,323.4"/>
		<path class="st66" d="M166.9,323.8c0,0-2.7,2.1-1.9,3.5c0.7,1.5,3.1,4.1,3.1,4.1s-3.6,6.4-2.8,9.4c0.8,3,13.1,7.8,13.1,7.8
			l4.3-3.5l0.3-8.6l-8.4-8.8L166.9,323.8"/>
		<g>
			<rect x="101" y="169.7" class="st13" width="39" height="34.2"/>
			<path class="st42" d="M140,169.7v15.8c-2.8,0.3-5.7,0.4-8.7,0.4c-13.6,0-25.3-3-30.3-7.2v-9H140z"/>
			<path class="st6" d="M140.8,204.7h-40.6v-35.8h40.6V204.7z M101.8,203.1h37.4v-32.6h-37.4V203.1z"/>
		</g>
		<path class="st72" d="M140.4,254.4h-39.8c-1.7,0-3.1-5.5-3.1-12.2v-34.4c0-6.8,1.4-12.2,3.1-12.2h39.8c1.7,0,3.1,5.5,3.1,12.2V225
			v17.2C143.4,248.9,142.1,254.4,140.4,254.4z"/>
		<g>
			<path class="st58" d="M207.7,291.3L207.7,291.3c0,8.2-0.8,16.9-2.8,26.2c-0.2,1-0.4,2.1-0.7,3.1v0c-0.1,0.3-0.1,0.6-0.2,0.9
				c-0.1,0.4-0.2,0.8-0.3,1.1c-0.1,0.4-0.2,0.8-0.3,1.1l0,0c0,0.1,0,0.1,0,0.2c0,0,0,0.1,0,0.1l0,0c-0.1,0.3-0.1,0.5-0.2,0.8
				c-0.1,0.6-0.3,1.1-0.5,1.7c-0.2,0.6-0.3,1.2-0.5,1.7c-0.2,0.6-0.3,1.2-0.5,1.7c-0.2,0.6-0.4,1.2-0.5,1.8
				c-0.4,1.1-0.7,2.3-1.1,3.5c-0.2,0.7-0.5,1.4-0.7,2.1c-0.2,0.5-0.4,1.1-0.6,1.6c-0.1,0.4-0.3,0.7-0.4,1.1l-0.1,0.2
				c-0.1,0.1-0.1,0.3-0.2,0.4c-0.1,0.3-0.2,0.5-0.3,0.8c-0.2,0.4-0.3,0.8-0.5,1.3v0c0,0,0,0.1-0.1,0.1c0,0,0,0.1,0,0.1c0,0,0,0,0,0
				c0,0,0,0,0,0c-0.2,0.5-0.4,0.9-0.6,1.4c-0.1,0.2-0.1,0.3-0.2,0.5c0,0.1-0.1,0.1-0.1,0.2c-0.1,0.2-0.2,0.4-0.4,0.5
				c-0.1,0.1-0.2,0.2-0.3,0.3c-0.1,0.1-0.2,0.2-0.3,0.3c-0.1,0.1-0.2,0.2-0.3,0.3c-0.1,0.1-0.2,0.1-0.3,0.2
				c-0.1,0.1-0.2,0.1-0.3,0.2c0,0,0,0,0,0l0,0c-0.1,0.1-0.3,0.2-0.4,0.2c-0.2,0.1-0.3,0.1-0.5,0.2c-0.2,0.1-0.3,0.1-0.5,0.2
				c-0.2,0-0.3,0.1-0.5,0.1c-0.2,0-0.4,0.1-0.6,0.1c-0.2,0-0.4,0.1-0.6,0.1c-0.6,0.1-1.2,0.1-1.8,0c-0.2,0-0.4,0-0.6,0
				c-0.4,0-0.8-0.1-1.2-0.1c-0.1,0-0.2,0-0.2,0h0c-1.5-0.2-3.1-0.6-4.8-1.1c0,0,0,0,0,0c-0.5-0.1-0.9-0.3-1.4-0.4
				c-0.5-0.2-0.9-0.3-1.4-0.5c-1.6-0.6-3.2-1.3-4.7-1.9c-0.7-0.3-1.5-0.7-2.1-1l-0.1,0c-0.4-0.2-0.7-0.3-1-0.5
				c-1.1-0.6-2.1-1.1-2.9-1.5c-0.2-0.1-0.3-0.2-0.5-0.3c-0.2-0.1-0.3-0.2-0.4-0.2c-0.3-0.1-0.5-0.3-0.7-0.4c-0.1,0-0.2-0.1-0.2-0.1
				c0,0-0.1,0-0.1,0c0,0-0.1,0-0.1,0c-0.1,0-0.1-0.1-0.1-0.1v0c-0.1-0.1-0.2-0.1-0.3-0.2c-0.2-0.2-0.4-0.4-0.5-0.7
				c0-0.1-0.1-0.1-0.1-0.2v0c-0.1-0.1-0.1-0.3-0.2-0.4c-0.1-0.5-0.1-1,0.1-1.5l2.3-6.6l0.5-1.4l0-0.1c-0.1-0.1-0.4-0.5-0.8-1
				c0,0,0,0-0.1-0.1c-0.1-0.1-0.1-0.2-0.2-0.3c-0.1-0.1-0.2-0.3-0.3-0.4c-0.4-0.6-0.9-1.3-1.3-2c-0.1-0.2-0.2-0.3-0.3-0.5
				c0-0.1-0.1-0.2-0.2-0.3c-0.1-0.1-0.1-0.3-0.2-0.4c-0.1-0.1-0.1-0.3-0.2-0.4c0-0.1-0.1-0.2-0.1-0.3c-0.1-0.2-0.1-0.4-0.2-0.6
				c0-0.1-0.1-0.2-0.1-0.3c0-0.2,0-0.4,0-0.6c0-0.2,0.1-0.4,0.2-0.5c0-0.1,0.1-0.1,0.2-0.2c0,0,0.1-0.1,0.1-0.1
				c0.3-0.2,0.6-0.4,1-0.6c0.2-0.1,0.4-0.2,0.6-0.4c0.1-0.1,0.2-0.1,0.3-0.2c0.1-0.1,0.2-0.1,0.3-0.2c0.3-0.2,0.7-0.4,1-0.6
				c0.5-0.3,1-0.6,1.4-0.9c0.2-0.1,0.4-0.3,0.6-0.4c0.4-0.3,0.8-0.6,1.1-0.9c0.1-0.1,0.2-0.2,0.3-0.3c0.4-0.4,0.8-0.8,1.2-1.2l0,0
				l0,0c0.1-0.2,0.2-0.3,0.4-0.5c0.2-0.4,0.4-0.7,0.5-1.1c0-0.1,0-0.1,0.1-0.2c0-0.1,0-0.2,0.1-0.2c0.1-0.3,0.2-1.1,0.4-2.2
				c0,0,0,0,0,0c0,0,0,0,0-0.1c0,0,0-0.1,0-0.1c0-0.1,0-0.3,0.1-0.5c0-0.1,0-0.2,0.1-0.4c0,0,0-0.1,0-0.1c0-0.1,0-0.1,0-0.2
				c0.1-0.4,0.2-0.8,0.2-1.3c0.5-2.7,1.1-6.4,1.5-10.8v0c0.1-0.6,0.1-1.2,0.2-1.9v0c0.7-8.8,0.7-20-1.6-31.5c0,0,0,0,0,0
				c-1.3-6.2-3.2-12.6-6.1-18.7c-0.4-0.9-0.9-1.8-1.3-2.7c0,0.4-1.5,18.3-3,36.2c-0.9,10.4-1.8,20.7-2.4,27.5
				c-0.2,0.1-0.5,0.1-0.8,0.2c-2.5,0.7-6.2,1.7-10.7,2.8c-0.6-1.1-1.1-1.7-1.3-1.8c0,0,0,0,0,0s-0.3,0-5.2,1.5
				c0.1,0.5,0.2,1.1,0.3,1.6c-5.1,1-10.8,1.8-16.5,2.2c-1.5-2-3.8-3.4-6.4-3.7h0c-0.2,0-0.3,0-0.5-0.1c-0.3,0-0.5,0-0.8,0v-59.5
				l0.5-0.8l17.8-30.1l1.9-20.8l9.3,3.7l8.4,3.4l2.7,1.1l4.9,1.9c0,0,0.1,0.1,0.4,0.3c0.6,0.4,1.7,1.2,3.3,2.5
				c3.3,2.7,8.4,7.2,13.8,13.8c6.2,7.5,12.8,17.6,17.6,30.3c0.2,0.4,0.3,0.8,0.4,1.2c0,0.1,0.1,0.2,0.1,0.4c0.1,0.1,0.1,0.3,0.2,0.4
				c2.8,8,4.9,17.1,5.6,27.1v0c0,0,0,0.1,0,0.2C207.6,286.2,207.7,288.8,207.7,291.3z"/>
			<path class="st5" d="M174.7,310.8c-0.2,1.1-0.4,1.9-0.4,2.2c-0.6,3.2-6.8,6.2-8.9,7.8c-1.6,1.2,1.1,5.1,2.6,7
				c0.5,0.7,0.7,1.6,0.4,2.4l-2.3,6.7c-0.4,1.1,0,2.3,1,3c0,0,25.6,14.9,29.6,4.8c3.4-8.4,5.9-16.4,7.6-24
				C191,315.1,180.5,312.2,174.7,310.8z"/>
			<path class="st59" d="M167.1,239.4c0,0,21.1,20.1,15.4,70.2c9.6,3.5,22.7,8.1,22.7,8.1l-0.9,3l-29.5-9.9c0,0,5.9-28.6,1.7-43.1
				C172.2,253.1,167.1,239.4,167.1,239.4z"/>
			<path class="st60" d="M166.4,208c0,0,47.6,43,33.8,107.2c3.1,1.2,5.1,0.9,5.1,0.9s3.6-22.1,2.2-32.5s-2.5-24.5-12.8-43.7
				c-10.3-19.3-27.4-32.2-27.4-32.2L166.4,208z"/>
			<path class="st6" d="M204.8,316.3c-5.3-2.2-11.7-4-19.6-5.8c7.2,2.8,14.6,5.3,19.6,7.7V316.3z"/>
			<path class="st60" d="M204.8,302.4c0,0-4.2-1.5-13.7-3.3c12.5,0.3,14.7,2,14.7,2L204.8,302.4z"/>
			<path class="st59" d="M176.6,295.4c0,0,12-1.6,17,0.6c-9.2-0.4-16.9,1.4-17,1.2C176.6,295.4,176.6,295.4,176.6,295.4z"/>
			<path class="st6" d="M201.5,254.4c0,0-7.7,0.9-10.2,3.7c5.5-2.1,10.6-2,10.6-2.2C201.5,254.4,201.5,254.4,201.5,254.4z"/>
			<path class="st7" d="M175.5,334.7c0,0,12.8,3.5,20.3,4.3l5.2-16l2.5,1.1l-5.9,18.9C197.5,343,188.5,342.7,175.5,334.7z"/>
			<path class="st13" d="M203.4,324c-7-3.3-14.5-5.3-21.9-5.2c-1.1,5.3-3.3,10.6-6.1,15.9c0,0,10.4,6.7,21.7,8.5
				c-2.9,4.2-2.4,6.7-11.7,4.4c-9.3-2.3-19.6-9-19.6-9l1.7-6.3l1.2-3.5l-3.2-4.8l-0.5-3l3.9-2.3l4.3-3.9l1.4-4.2
				c10.1,3.1,19.9,6.5,29.4,10.2L203.4,324z"/>
			<path class="st5" d="M169.6,321.9c0.3-0.6,0.7-1,1.1-1.4c0.4-0.4,0.9-0.7,1.3-1c0.5-0.3,1-0.6,1.5-0.8c0.5-0.2,1.1-0.4,1.7-0.5
				l0,0c-0.3,0.5-0.7,0.9-1.1,1.3c-0.4,0.4-0.9,0.7-1.3,1c-0.5,0.3-0.9,0.6-1.4,0.8C170.8,321.6,170.2,321.8,169.6,321.9z"/>
			<path class="st6" d="M196.8,343.5c0,0-10.7-2-15.4-5.5c8.7,3.1,16,4,16,4L196.8,343.5z"/>
			<polygon class="st6" points="172,342.6 175.2,338.9 173.4,343.1 			"/>
			<polygon class="st6" points="180,345.9 183.2,342.2 181.4,346.4 			"/>
			<polygon class="st6" points="187,347.7 188.9,345.6 187.9,348 			"/>
			<path class="st59" d="M167.4,241.5l-4.9,57.5c-0.1,0-0.8,7.4-0.9,7.4c0,0.1-10.7,2.9-10.7,2.8c0,0-0.2-0.5-1.3-1.8l-5.2,1.5
				c0,0.2,0.3,1.6,0.3,1.6l-16.5,2.2h0c-1.5-2-3.8-3.4-6.3-3.7c-0.3,0-0.6-0.1-0.8-0.1c-0.2,0-0.3,0-0.5,0l0-2.6c0.3,0,3.1,0,3.3,0
				c10.9-0.1,20.4-0.4,33.9-4.3l0.3-4.6l-18.9,0.9l19.3-5.9l8.8-53L167.4,241.5z"/>
			<path class="st59" d="M169.2,209.7c0,0.1,0,0.2,0,0.3c0,0.2-0.1,0.4-0.1,0.6c0,0.2-0.1,0.4-0.1,0.6c0,0.1,0,0.2-0.1,0.3
				c-3.9,15.8-21.7,16-21.7,16h-14.3l5.2-8.7l1.9-12.2l0.8-8.4l0.5,0.2l0.1-0.8l15.1,5.6c3.7,1.4,6.9,3.3,10.3,5.4l0.2,0.8
				c0,0,0.1-0.7,0.4-0.5c0,0,0.3,0.2,0.3,0.2C168.2,209.4,168.7,209.3,169.2,209.7z"/>
			<path class="st6" d="M196.3,241c-4.8-9.1-10.3-16.3-15.2-21.8c-3.9-4.4-8.5-8.1-13.5-11.2c0,0,0,0,0,0c-0.2-0.1-0.3-0.2-0.5-0.3
				c-3.4-2-6.9-3.7-10.6-5.1l-16.5-6.1l-2,21.7l-17.5,29.6l-0.5,0.8l-0.3,0.6l0.6,59.3v0.3l0,0.2c0,0,0.1,0,0.2,0c0.3,0,0.5,0,0.8,0
				v-59.3l18.3-30.9l1.8-20l14,5.2c5.2,1.9,10.1,4.5,14.6,7.7c3.9,2.8,7.5,6,10.7,9.6c6.8,7.7,14.6,18.8,19.9,33.3
				c0.2,0.5,0.4,1,0.5,1.5c5.6,16,8.1,36,3.3,60c0,0,0,0,0,0.1c-0.1,0.4-0.2,0.8-0.2,1.1c0,0.2-0.1,0.4-0.1,0.6
				c-0.1,0.6-0.3,1.2-0.4,1.8c-8.7-4.1-18-7.3-28-9.5c0.7-3.7,1.4-8.1,1.8-13c0.1-0.6,0.1-1.2,0.2-1.9c0.5-6,0.6-12.6,0.1-19.5
				c0-0.3,0-0.6-0.1-0.9c-0.9-10.8-3.6-22.2-9.1-32.9l-1.4-2.6l0,0l-0.1,3c0,0.9-3,35.7-4.8,56.6c-0.2,2.7-0.5,5.6-0.7,7.7
				c0.3-0.1,0.6-0.2,0.8-0.3c0.3-0.1,0.6-0.5,0.8-0.5c1.7-19.9,4.4-50.9,5.1-60.5c11.4,24.1,8.3,51.8,5.3,66.5
				c-0.1,0.4-0.2,0.8-0.2,1c-0.4,2.1-4.1,4.4-6.5,6c-0.8,0.5-1.5,0.9-2,1.3c-0.4,0.3-0.7,0.8-0.8,1.4c-0.3,2.3,2.7,6.1,3.8,7.5
				l-2.6,7.6c-0.5,1.4,0,3,1.3,4c0.7,0.4,14.6,8.4,23.6,8.4c1.3,0,2.4-0.2,3.4-0.5c1.8-0.6,3-1.8,3.7-3.5
				C216.6,297,207.4,261.9,196.3,241z M196.9,341.9c-0.1,0.3-0.3,0.7-0.4,1c0,0.1-0.1,0.1-0.1,0.2c0,0.1-0.1,0.2-0.1,0.3
				c-0.1,0.3-0.3,0.7-0.4,1c-0.5,1.3-1.4,2.1-2.7,2.6c-1.4,0.5-3.1,0.5-4.9,0.3c-0.2,0-0.4-0.1-0.6-0.1c-1.9-0.3-3.8-0.8-5.8-1.5
				c-0.4-0.1-0.8-0.3-1.2-0.4c-2.4-0.9-4.8-1.9-6.9-2.9c-0.4-0.2-0.7-0.4-1.1-0.5h0c-3-1.5-5-2.6-5.1-2.7c-0.7-0.5-0.9-1.3-0.7-2.1
				l2.6-7.4c0.3-0.9,2-4.1,3.5-6.3c-1.5,1.2-3.3,2.6-4.2,4c-1.5-1.9-3.2-4.4-3-5.7c0-0.2,0.1-0.3,0.1-0.3c0.4-0.3,1.1-0.8,1.9-1.2
				c2.9-1.8,6.8-4.2,7.3-7c0-0.2,0.1-0.5,0.2-0.9c0-0.1,0.1-0.3,0.1-0.4c2.5,0.5,5,1.1,7.4,1.7c0,0,0,0,0,0c0,0,0,0,0,0s0,0,0,0
				c0,0,0,0,0,0s0,0,0,0c0,0,0,0,0.1,0c1.2,0.3,2.5,0.7,3.7,1.1h0c2.8,0.9,5.6,1.8,8.3,2.9c0,0,0,0,0,0c0,0,0,0,0,0c0,0,0.1,0,0.1,0
				c0,0,0,0,0,0c0.3,0.1,0.5,0.2,0.8,0.3h0c0,0,0,0,0,0h0c0,0,0,0,0,0h0c0,0,0,0,0,0l0,0c2.5,1,4.9,2.1,7.3,3.3
				c-0.2,0.8-0.4,1.6-0.6,2.5v0C201.2,329.5,199.3,335.6,196.9,341.9z"/>
			<path class="st59" d="M144.7,310.4c-5.5,1.1-11,1.8-16.5,2.2"/>
		</g>
		<g>
			<path class="st58" d="M120.5,249.3v59.5c-0.1,0-0.1,0-0.2,0c-0.2,0-0.4,0-0.6,0c-2.8,0.2-5.3,1.7-6.9,3.8
				c-6.4-0.5-12.6-1.4-18.1-2.5c0.1-0.4,0.1-0.9,0.2-1.3c-4.9-1.5-5.2-1.5-5.2-1.5s0,0,0,0c-0.1,0.1-0.6,0.6-1.1,1.5
				c-3.8-0.9-7-1.8-9.3-2.4c-0.3-0.1-0.6-0.2-0.8-0.2c-0.6-6.8-1.5-17.2-2.4-27.5c-1.5-17.8-3-35.8-3-36.2c-0.5,0.9-0.9,1.8-1.3,2.7
				c-2.9,6.1-4.9,12.5-6.1,18.7c0,0,0,0,0,0c-2.3,11.6-2.3,22.7-1.6,31.5v0c0.1,0.6,0.1,1.3,0.2,1.9v0c0.4,4.4,1,8.1,1.5,10.8
				c0.1,0.5,0.2,1,0.2,1.3c0,0.1,0,0.1,0,0.2c0,0,0,0.1,0,0.1c0,0.1,0,0.3,0.1,0.4c0,0.2,0.1,0.4,0.1,0.5c0,0,0,0.1,0,0.1
				c0,0,0,0.1,0,0.1c0,0,0,0,0,0c0.2,1.1,0.4,1.9,0.4,2.2c0,0.1,0,0.2,0.1,0.2c0,0.1,0,0.1,0.1,0.2c0,0.1,0.1,0.2,0.1,0.3
				c0,0.1,0.1,0.2,0.1,0.3c0,0.1,0.1,0.2,0.1,0.2c0.1,0.1,0.1,0.2,0.2,0.3c0,0,0,0,0,0c0.1,0.1,0.2,0.2,0.3,0.3l0,0l0,0
				c0.3,0.4,0.7,0.8,1.2,1.2c0.1,0.1,0.2,0.2,0.3,0.3c0.4,0.3,0.7,0.6,1.1,0.9c0.2,0.1,0.4,0.3,0.6,0.4c0.5,0.3,1,0.6,1.4,0.9
				c0.4,0.2,0.7,0.4,1,0.6c0.1,0.1,0.2,0.1,0.3,0.2c0.1,0.1,0.2,0.1,0.3,0.2c0.2,0.1,0.4,0.2,0.6,0.4c0.4,0.2,0.7,0.5,1,0.6
				c0.1,0,0.1,0.1,0.1,0.1c0.1,0.1,0.1,0.1,0.2,0.2c0,0.1,0.1,0.1,0.1,0.2c0,0.1,0,0.1,0.1,0.2c0,0,0,0.1,0,0.2c0,0.2,0,0.4,0,0.6
				c0,0.1,0,0.2-0.1,0.3c0,0.1,0,0.2-0.1,0.3c0,0.1-0.1,0.2-0.1,0.3c0,0.1-0.1,0.2-0.1,0.3c-0.2,0.6-0.6,1.3-1,1.9
				c-0.1,0.1-0.2,0.3-0.2,0.4c-0.2,0.3-0.3,0.5-0.5,0.8c-0.2,0.3-0.4,0.6-0.6,0.8c-0.1,0.2-0.2,0.3-0.3,0.4c0,0,0,0.1-0.1,0.1
				c-0.4,0.5-0.7,0.9-0.8,1l0,0.1l0.5,1.4l2.3,6.6c0.2,0.5,0.2,1,0.1,1.5c0,0.2-0.1,0.3-0.2,0.4v0c-0.1,0.3-0.3,0.6-0.6,0.8
				c-0.1,0.1-0.2,0.2-0.3,0.2c0,0,0,0-0.1,0.1c0,0-0.1,0-0.2,0.1c-0.2,0.1-0.5,0.3-0.9,0.5c-0.1,0.1-0.3,0.2-0.4,0.2
				c-0.3,0.2-0.7,0.4-1.1,0.6c-0.2,0.1-0.4,0.2-0.6,0.3c-0.5,0.3-1.1,0.6-1.7,0.9c-0.3,0.2-0.6,0.3-1,0.5l-0.1,0
				c-0.7,0.3-1.5,0.7-2.2,1c-0.9,0.4-1.8,0.8-2.7,1.2c-1.3,0.5-2.6,1-3.8,1.4c-0.3,0.1-0.6,0.2-1,0.3c0,0-0.1,0-0.1,0
				c-0.3,0.1-0.6,0.2-0.9,0.3c-0.3,0.1-0.6,0.2-0.9,0.2c-0.2,0.1-0.5,0.1-0.7,0.2c-0.2,0.1-0.5,0.1-0.7,0.2
				c-0.5,0.1-0.9,0.2-1.4,0.2c-0.2,0-0.5,0.1-0.7,0.1c-0.2,0-0.4,0-0.7,0.1c-0.2,0-0.4,0-0.6,0c-0.2,0-0.4,0-0.6,0
				c-0.2,0-0.4,0-0.6,0c-0.2,0-0.3,0-0.5,0c-0.1,0-0.2,0-0.3,0c-0.1,0-0.3,0-0.4-0.1c-0.2,0-0.3-0.1-0.5-0.1c0,0-0.1,0-0.1,0
				c-0.2,0-0.3-0.1-0.5-0.1c-0.2,0-0.3-0.1-0.5-0.2c-0.1,0-0.1-0.1-0.2-0.1c-0.2-0.1-0.5-0.2-0.7-0.4l0,0c0,0,0,0,0,0
				c-0.1-0.1-0.2-0.2-0.4-0.2c-0.4-0.3-0.8-0.7-1.1-1.2c-0.1-0.1-0.2-0.2-0.2-0.3c0,0,0,0,0-0.1c0-0.1-0.1-0.1-0.1-0.2
				c-0.1-0.2-0.1-0.3-0.2-0.5c-0.2-0.5-0.4-0.9-0.6-1.4c0,0,0,0,0,0l0,0c0,0,0,0,0,0h0c0-0.1-0.1-0.2-0.1-0.3
				c-0.2-0.5-0.4-0.9-0.5-1.4c-0.1-0.4-0.3-0.7-0.4-1.1l0-0.1l0-0.1c0-0.1-0.1-0.2-0.1-0.3c-0.3-0.7-0.5-1.4-0.8-2.1
				c-0.3-0.9-0.7-1.9-1-2.8c-0.3-0.8-0.5-1.6-0.8-2.4c0-0.1-0.1-0.2-0.1-0.3c-0.3-0.8-0.5-1.6-0.7-2.4c-0.2-0.5-0.3-1-0.4-1.5
				c-0.2-0.6-0.3-1.2-0.5-1.7c-0.2-0.6-0.3-1.1-0.5-1.7c-0.1-0.3-0.1-0.5-0.2-0.8l0,0c0,0,0-0.1,0-0.1c0,0,0-0.1,0-0.1l0-0.1
				c-0.1-0.4-0.2-0.8-0.3-1.1c-0.1-0.4-0.2-0.8-0.3-1.1c-0.1-0.3-0.1-0.6-0.2-0.9c-0.2-1.1-0.5-2.1-0.7-3.1
				c-1.9-9.3-2.8-18-2.8-26.1c0,0,0-0.1,0-0.1c0-2.6,0.1-5.1,0.3-7.5c0,0,0,0,0,0c0.7-10.1,2.8-19.3,5.6-27.3c0-0.1,0.1-0.3,0.1-0.4
				c11.5-32.5,35.5-48.4,35.6-48.4l9.5-3.8c0,0,0,0,0,0c0,0,0,0,0,0l0.1,0l15.8-6.3l1.9,20.8l17.8,30.1L120.5,249.3z"/>
			<path class="st5" d="M66.2,310.8c0.2,1.1,0.4,1.9,0.4,2.2c0.6,3.2,6.8,6.2,8.9,7.8c1.6,1.2-1.1,5.1-2.6,7
				c-0.5,0.7-0.7,1.6-0.4,2.4l2.3,6.7c0.4,1.1,0,2.3-1,3c0,0-25.6,14.9-29.6,4.8c-3.4-8.4-5.9-16.4-7.6-24
				C49.9,315.1,60.5,312.2,66.2,310.8z"/>
			<path class="st59" d="M73.8,239.4c0,0-21.1,20.1-15.4,70.2c-9.6,3.5-22.7,8.1-22.7,8.1l0.9,3l29.5-9.9c0,0-5.9-28.6-1.7-43.1
				C68.7,253.1,73.8,239.4,73.8,239.4z"/>
			<path class="st60" d="M84.4,203.9c0,0-55.6,26.1-43.6,111.3c-3.1,1.2-5.1,0.9-5.1,0.9s-3.6-22.1-2.2-32.5
				c1.4-10.4,2.5-24.5,12.8-43.7s27.4-32.2,27.4-32.2L84.4,203.9z"/>
			<path class="st6" d="M36.2,316.3c5.3-2.2,11.7-4,19.6-5.8c-7.2,2.8-14.6,5.3-19.6,7.7V316.3z"/>
			<path class="st60" d="M36.2,304c0,0,4.1-3.1,13.6-4.9c-12.5,0.3-14.7,2-14.7,2L36.2,304z"/>
			<path class="st60" d="M46,245.8c0,0,7.7-1,11.1-0.5c-4.7-3.2-11.1-2.6-11.1-2.6L46,245.8z"/>
			<path class="st59" d="M64.3,295.4c0,0-12-1.6-17,0.6c9.2-0.4,16.9,1.4,17,1.2C64.3,295.4,64.3,295.4,64.3,295.4z"/>
			<path class="st7" d="M65.4,334.7c0,0-12.8,3.5-20.3,4.3l-5.2-16l-2.5,1.1l5.9,18.9C43.5,343,52.4,342.7,65.4,334.7z"/>
			<path class="st13" d="M37.5,324c7-3.3,14.5-5.3,21.9-5.2c1.1,5.3,3.3,10.6,6.1,15.9c0,0-10.4,6.7-21.7,8.5
				c2.9,4.2,2.4,6.7,11.7,4.4s19.6-9,19.6-9l-1.7-6.3l-1.2-3.5l3.2-4.8l0.5-3l-3.9-2.3l-4.3-3.9l-1.4-4.2
				c-10.1,3.1-19.9,6.5-29.4,10.2L37.5,324z"/>
			<path class="st5" d="M71.3,321.9c-0.3-0.6-0.7-1-1.1-1.4c-0.4-0.4-0.9-0.7-1.3-1c-0.5-0.3-1-0.6-1.5-0.8
				c-0.5-0.2-1.1-0.4-1.7-0.5l0,0c0.3,0.5,0.7,0.9,1.1,1.3c0.4,0.4,0.9,0.7,1.3,1c0.5,0.3,0.9,0.6,1.4,0.8
				C70.2,321.6,70.7,321.8,71.3,321.9z"/>
			<path class="st6" d="M44.1,343.5c0,0,10.7-2,15.4-5.5c-8.7,3.1-16,4-16,4L44.1,343.5z"/>
			<polygon class="st6" points="69,342.6 65.8,338.9 67.5,343.1 			"/>
			<polygon class="st6" points="59.2,345.9 56,342.2 57.8,346.4 			"/>
			<path class="st59" d="M73.5,241.5l4.9,57.5c0.1,0,0.8,7.4,0.9,7.4c0.5,0.2,3.2,0.9,5.6,1.5c2,0.5,3.7,0.9,3.7,0.9
				s0.4-0.8,1.1-1.5l5.2,1.5c0,0.2-0.2,1.3-0.2,1.3c6.2,1.2,12.2,2.1,18.1,2.5h0c1.5-2,3.8-3.4,6.3-3.7c0.3,0,0.6-0.1,0.8-0.1
				c0.2,0,0.3,0,0.5,0l0-2.6c-0.3,0-0.9,0-1.2,0c-10.9-0.1-23.8-0.4-37.2-4.2l-0.2-4.8l8.1-0.4l-8.2-2.9l-7.9-54.5L73.5,241.5z"/>
			<polygon class="st6" points="52.2,347.7 50.3,345.6 51.3,348 			"/>
			<path class="st6" d="M120.9,248.5l-0.5-0.8L103,218.1l-2-21.7l-16.5,6.1c-3.6,1.4-7.1,3-10.4,5c0,0,0,0,0,0
				c-0.2,0.1-0.5,0.3-0.7,0.4c0,0,0,0,0,0c-5,3.1-9.5,6.8-13.5,11.2c-4.9,5.5-10.4,12.7-15.2,21.8c-11.1,20.9-20.3,56-1.1,104
				c0.7,1.7,1.9,2.9,3.7,3.5c1,0.3,2.2,0.5,3.4,0.5c9,0,22.9-8,23.6-8.4c1.3-0.9,1.8-2.5,1.3-4L73,329c1.1-1.4,4.1-5.2,3.8-7.5
				c-0.1-0.6-0.3-1.1-0.8-1.4c-0.5-0.4-1.2-0.8-2-1.3c-2.5-1.5-6.2-3.8-6.5-6c0-0.2-0.1-0.5-0.2-1c-3-14.7-6.2-42.4,5.3-66.5
				c0.8,9.6,3.4,40.6,5.1,60.5c0.2,0.1,0.4,0.6,0.8,0.7c0.2,0.1,0.6,0,0.9,0.1c-0.2-2-0.4-4.5-0.6-6.9c-1.8-21.1-4.8-56.3-4.8-57.2
				l-0.1-3l0,0l-1.4,2.6c-5.6,10.6-8.2,22-9.1,32.9c0,0.3,0,0.6-0.1,0.9c-0.5,6.9-0.4,13.5,0.1,19.5c0,0.6,0.1,1.2,0.2,1.9
				c0.5,4.9,1.1,9.3,1.8,13c-10,2.2-19.3,5.4-28,9.5c-0.1-0.6-0.3-1.2-0.4-1.8c0-0.2-0.1-0.4-0.1-0.6c-0.1-0.4-0.2-0.8-0.2-1.1
				c0,0,0,0,0-0.1c-9.4-47,9.3-78.5,23.7-94.9c5.8-6.6,12.9-11.8,20.8-15.5l0,0c0,0,0,0,0,0c1.5-0.7,3-1.3,4.5-1.9l14-5.2l1.8,20
				l18.3,30.9v59.6c0.2,0,0.5,0,0.7,0c0,0,0.1,0,0.1,0c0.3,0,0.5,0.1,0.8,0.1v-60.1L120.9,248.5z M58,313.5
				C58,313.5,58.1,313.5,58,313.5C58.1,313.5,58.1,313.5,58,313.5c0.1,0,0.1,0,0.1,0s0,0,0,0s0,0,0,0c0,0,0,0,0,0
				c2.4-0.6,4.9-1.2,7.4-1.7c0,0.1,0.1,0.3,0.1,0.4c0.1,0.4,0.1,0.7,0.2,0.9c0.5,2.8,4.4,5.3,7.3,7c0.8,0.5,1.5,0.9,1.9,1.2
				c0,0,0.1,0.1,0.1,0.3c0.2,1.3-1.5,3.9-3,5.8c-0.9-1.3-2.6-2.8-4.1-4c1.8,2.5,3.2,5.4,3.5,6.3l2.6,7.4c0.3,0.8,0,1.6-0.7,2.1
				c0,0-2.1,1.2-5.1,2.7h0c-0.4,0.2-0.7,0.3-1.1,0.5c-2.4,1.1-5.3,2.4-8.2,3.3c-0.5,0.2-0.9,0.3-1.4,0.4c-2.1,0.6-4.1,1.1-5.9,1.2h0
				c-0.3,0-0.5,0-0.7,0c-1.2,0-2.3-0.1-3.2-0.4c-1.3-0.5-2.2-1.3-2.7-2.6c-0.1-0.3-0.3-0.7-0.4-1c0-0.1-0.1-0.2-0.1-0.3
				c0-0.1,0-0.1-0.1-0.2c-0.1-0.3-0.3-0.7-0.4-1c-2.4-6.3-4.3-12.3-5.8-18.1v0c-0.2-0.8-0.4-1.7-0.6-2.5c2.4-1.2,4.8-2.3,7.3-3.3
				l0,0c0,0,0,0,0,0h0c0,0,0,0,0,0h0c0,0,0,0,0,0h0c0.3-0.1,0.5-0.2,0.8-0.3c0,0,0,0,0,0c0,0,0.1,0,0.1,0c0,0,0,0,0,0c0,0,0,0,0,0
				c2.7-1.1,5.5-2.1,8.3-2.9h0C55.5,314.2,56.8,313.8,58,313.5z"/>
		</g>
		<g>
			<path class="st59" d="M120,247.8l24.2-55.4c0,0,13.5,2.1,12.2,24.5l-10.1,2.5l3,10.4c0.9,2.8,0.5,2.8-1.3,3.7L120,247.8z"/>
			<path class="st60" d="M153.9,200.7c-0.1-0.2-0.1-0.3-0.2-0.5c-0.6,0.3-1.1,0.6-1.7,0.9c3.6,6.7,4,15.5,4,15.5l0.4,0.2
				c0,0,0.1-2.6,0.1-4.9C156.4,209.6,155.4,204.7,153.9,200.7z"/>
			<path class="st60" d="M144.4,214.5l3.8,17.2l-27.3,15.2l28.3-13.8c0,0,0.8-0.3,0.3-2.9c-0.5-2.5-4.1-12.8-4.1-12.8L144.4,214.5z"
				/>
			<path class="st6" d="M144.2,213.6l2.5,6l-0.4,2l-0.7-2.3l-1.7-5.7C144.1,213.6,144.1,213.6,144.2,213.6z"/>
			<path class="st6" d="M144.3,191.8l-0.5-0.1l-23.4,53.5v3.2l28.3-14.4c1.9-1,2.3-1.6,1.3-4.4l-2.8-9.7l9.9-2.4l0-0.5
				C158.5,194.2,144.4,191.8,144.3,191.8z M155.8,216.4l-10.3,2.5l3.2,11.1c0.7,2.1,0.7,2.1-0.6,2.7l-26.7,13.6l23.2-53.1
				C147,193.9,156.7,197.6,155.8,216.4z"/>
			<path class="st58" d="M120.9,247.8l-24.2-55.4c0,0-13.5,2.1-12.2,24.5l10.1,2.5l-3,10.4c-0.9,2.8-0.5,2.8,1.3,3.7L120.9,247.8z"
				/>
			<path class="st60" d="M84.9,216.6c0,0,0.8-19.3,11.8-22.4c0-1-0.2-2.2-2.4-0.9c-2.1,1.3-5.8,3.3-7.3,7.4c-1.5,4-2.5,9-2.6,11.2
				c-0.1,2.2,0.1,4.9,0.1,4.9L84.9,216.6z"/>
			<path class="st60" d="M96.5,214.5l-3.5,17l27,15.4l-28.3-13.8c0,0-0.8-0.3-0.3-2.9c0.5-2.5,4.1-12.8,4.1-12.8L96.5,214.5z"/>
			<path class="st6" d="M96.8,213.6l-2.5,6l0.4,2.2l2.3-7.9C96.9,213.8,96.8,213.6,96.8,213.6z"/>
			<path class="st6" d="M97.2,191.7l-0.5,0.1c-0.1,0-14.2,2.4-12.8,25.2l0,0.5l9.9,2.4l-2.8,9.7c-0.9,2.8-0.6,3.4,1.3,4.4l28.1,14.3
				l1.2-0.7l-1.2-2.8L97.2,191.7z M92.9,232.8c-1.3-0.7-1.3-0.7-0.6-2.7l3.2-11.1l-10.3-2.5c-0.9-18.8,8.8-22.5,11.2-23.1l23.2,53.1
				L92.9,232.8z"/>
			<polygon class="st60" points="132.4,224.7 121.4,246.3 131.2,223.9 			"/>
		</g>
		<path class="st73" d="M140.9,200.1c-13.7,3.7-27.3,3.8-40.8,0c-1.3-0.6-3.1-1.4-3.1-3.1v-8.6c0-1.7,1.4-3.1,3.1-3.1
			c0,3.1,40.8,3.1,40.8,0c1.7,0,3.1,1.4,3.1,3.1v4.3v4.3C144,198.7,143,199.2,140.9,200.1z"/>
		<path class="st74" d="M142.5,185.7l-0.2,0.1c-3.6,0.9-6.8,1.8-10.5,2.2c-3.7,0.4-7.5,0-11.2,0h-0.2h-0.2c-3.7,0-7.5,0.4-11.2,0
			c-3.7-0.4-6.9-1.3-10.5-2.2l-0.2-0.1c-0.1,0-0.7,0.4-0.7,0.5c0,0.1,0,0.2,0.1,0.2c1.7,1.4,4.7,2.3,8.5,2.9
			c3.8,0.6,10.1,0.9,13.9,1h0.2h0.2c3.8-0.1,10.2-0.3,13.9-1c3.8-0.6,6.8-1.5,8.5-2.9c0.1-0.1,0.2-0.1,0.1-0.2
			C143.2,186,142.6,185.6,142.5,185.7z"/>
		<path class="st72" d="M144.2,196.2c0-0.1-0.2-0.3-0.3-0.4c0.1-0.1,0.1-0.1,0.2-0.2c0.1-0.1,0.2-0.2,0.1-0.4c0-0.2-0.5-0.7-0.7-0.7
			c-0.1,0.1-0.1,0.1-0.2,0.2l0,0c0,0,0,0,0,0c-1.9,1.6-4.7,2.7-8.1,3.5c-3.9,0.9-10.5,1.3-14.5,1.4h-0.2h-0.2
			c-4-0.1-10.6-0.5-14.5-1.4c-3.4-0.8-6.3-1.9-8.1-3.5c0,0,0,0,0,0l0,0c-0.1-0.1-0.1-0.1-0.2-0.2c-0.2,0-0.7,0.6-0.7,0.7
			c0,0.2,0.1,0.3,0.1,0.4c0.1,0.1,0.1,0.1,0.2,0.2c-0.2,0.2-0.3,0.4-0.3,0.4c0,0.2,0.1,0.3,0.1,0.4c0.1,0.1,0.1,0.1,0.2,0.2
			c-0.2,0.2-0.3,0.4-0.3,0.4c0,0.2,0.1,0.3,0.1,0.4c1.8,2,5,3.3,8.9,4.2c3.9,0.9,10.5,1.3,14.5,1.4h0.2h0.2c4-0.1,10.6-0.5,14.5-1.4
			c3.9-0.9,7.1-2.2,8.9-4.2c0.1-0.1,0.2-0.2,0.1-0.4c0-0.1-0.2-0.3-0.3-0.4c0.1-0.1,0.1-0.1,0.2-0.2
			C144.1,196.4,144.2,196.3,144.2,196.2z"/>
		<path class="st6" d="M120.3,203.7c-6.9,0-13.7-1-20.4-2.9l-0.1,0c-1.4-0.6-3.6-1.5-3.6-3.8v-8.6c0-2.1,1.8-3.9,3.9-3.9h0.8v0.6
			c1,0.7,7.5,1.7,19.6,1.7c12.1,0,18.6-1,19.6-1.7v-0.6h0.8c2.2,0,3.9,1.7,3.9,3.9v8.6c0,2.3-1.7,3-3.6,3.8l-0.1,0
			C134.1,202.8,127.2,203.7,120.3,203.7z M100.3,199.3c13.1,3.7,26.6,3.7,40.3,0c2.2-0.9,2.6-1.2,2.6-2.3v-8.6c0-1.1-0.8-2-1.9-2.2
			c-0.7,0.7-2.5,1.3-6.8,1.7c-3.7,0.4-8.7,0.6-14.1,0.6c-5.4,0-10.4-0.2-14.1-0.6c-4.3-0.4-6.1-1-6.8-1.7c-1.1,0.2-1.9,1.1-1.9,2.2
			v8.6C97.7,198.1,99,198.7,100.3,199.3z"/>
		<path class="st61" d="M120.5,64.9c-55.4,0-60.3,23.3-60.3,23.3l7.5,32.7l52.8,11.9l52.8-11.9l7.5-32.7
			C180.8,88.2,175.8,64.9,120.5,64.9z"/>
		<path class="st71" d="M68.7,116.1l-4.2-28c0,0,12.6-23.8,87.4-19.8c-15.3-3.3-16.4-2.8-16.4-2.8S109.2,63,95.6,67
			C93.3,67.2,87,69,87,69l-10.5,3.6c0,0-7.9,4.9-8.1,4.9s-4.9,4.8-4.9,4.8l-2.8,5.2v3.8c0,0,2.8,12.9,3,13.1
			c0.2,0.3,2.4,8.7,2.4,8.7l0.3,2.3l2.4,1"/>
		<path class="st66" d="M72.4,91.5c0,0-4.3,4-3.8,7.1c1.8-2.3,4.1-3.1,4.1-3.1l0.7-0.3l0.2-1.3L72.4,91.5z"/>
		<path class="st66" d="M167.9,118.8c0,0,3.6-15.3-1.3-21c-4.9-5.7-10-6.8-11.1-6.7c-0.6,0.1,4.4-8.1,12-6.6
			c11.2,2.2-5.3-6.3-1.9-10.6c2.2-1.9,15.2,11,15.2,12.6c0,1.6-0.4,3.6-0.4,3.6l-5.6,24.3l-5.1,3.2l-2,2.3L167.9,118.8z"/>
		<path class="st6" d="M120.5,133.6L67,121.5l-7.6-33.3l0-0.2c0.2-1,5.7-23.9,61.1-23.9S181.3,87,181.5,88l0,0.2l0,0.2l-7.6,33.1
			L120.5,133.6z M68.3,120.2l52.2,11.8l52.2-11.8l7.3-32c-0.6-1.9-7.9-22.5-59.5-22.5c-51.8,0-59,20.5-59.5,22.5L68.3,120.2z"/>
		<g>
			<path class="st39" d="M167.3,140.6c-3.4-1.1-5.2-6.8-4.7-11.6c0.4-4.3,2.5-8.3,5.9-11c3.5-2.8,9-4.1,11.2-0.5
				c0.9,1.9,1.2,4,0.9,6.1c-0.3,3.3-1.5,6.5-3.4,9.3C175.4,135.8,171.4,141.9,167.3,140.6z"/>
			<g>
				<path class="st6" d="M176,122.1c-0.6-1.1-1.6-1.4-2.7-1.3c0.6,0.1,1.2,0.5,1.6,1.2c1,1.7,0.7,4.4,0,6.6
					c-0.8,2.6-2.7,4.6-5.1,5.7c0.1,0.1,0.1,0.3,0.2,0.4c2.8-0.9,5.1-3.1,6-6C176.7,126.5,177.1,123.8,176,122.1z"/>
				<path class="st6" d="M176.3,126.9c-0.1,0.4-2.3,4.1-2.1,3.7c0.9-2.3,0.8-7-2.3-6.8c-0.8,0-0.9-1.5-0.2-2.2
					c0.5-0.6,1.9-0.9,2.7-0.7c0.7,0.3,1.1,0.6,1.4,1.1c0.2,0.2-0.1,0.6,0,0.9C176.4,124,176.7,125.5,176.3,126.9z"/>
				<path class="st38" d="M170.9,126.6c1.2,0.5-0.2,1.8,0.7,2.8c0.2,0.2,0.7,0.3,1.4-0.8c0.6-1,0.9-2.1-0.2-2.9
					c-0.3-0.3-1.1-0.4-1.5-0.3C170.7,125.6,170.4,126.4,170.9,126.6z"/>
			</g>
			<path class="st38" d="M165.8,136.6C165.8,136.6,165.8,136.6,165.8,136.6C165.8,136.6,165.8,136.6,165.8,136.6c0.2,0,0.2,0,0.3,0
				c0.2,0,0.4,0,0.6,0c0.4,0,0.8-0.1,1.2-0.2c0.8-0.1,1.6-0.4,2.4-0.7c0.8-0.3,1.5-0.7,2.2-1.2c0.7-0.5,1.3-1.1,1.8-1.8
				c-0.4,0.8-0.9,1.5-1.6,2.1c-0.6,0.6-1.4,1.2-2.1,1.6c-0.8,0.5-1.6,0.8-2.5,1.1c-0.4,0.1-0.9,0.3-1.3,0.4c-0.2,0-0.5,0.1-0.7,0.1
				c-0.1,0-0.3,0-0.4,0c-0.1,0-0.1,0-0.2,0c-0.1,0-0.2,0-0.3-0.1L165.8,136.6z"/>
			<g>
				<g id="Path_349_16_">
					<path class="st39" d="M73.7,140.6c3.4-1.1,5.2-6.8,4.7-11.6c-0.4-4.3-2.5-8.3-5.9-11c-3.5-2.8-9-4.1-11.2-0.5
						c-0.9,1.9-1.2,4-0.9,6.1c0.3,3.3,1.5,6.5,3.4,9.3C65.6,135.8,69.6,141.9,73.7,140.6z"/>
					<path class="st6" d="M65.4,114.5c2.4,0,5.2,1.1,7.5,2.9c3.6,2.8,5.9,7,6.2,11.6c0.5,5-1.4,11.2-5.2,12.5l0,0
						c-4.7,1.4-8.9-5-10.9-8.1c-1.9-2.9-3.2-6.3-3.5-9.7c-0.3-2.2,0-4.5,1-6.5l0-0.1c0.8-1.3,2.1-2.2,3.7-2.5
						C64.6,114.5,65,114.5,65.4,114.5z M73.4,139.9c3-1,4.6-6.4,4.1-10.8c-0.4-4.1-2.4-7.9-5.6-10.4c-2.3-1.9-5.3-2.9-7.4-2.5
						c-1.1,0.2-2,0.8-2.6,1.7c-0.8,1.7-1.1,3.7-0.8,5.6c0.3,3.2,1.5,6.3,3.2,9C66.2,135.2,69.9,141,73.4,139.9z"/>
				</g>
				<g>
					<path class="st6" d="M71.6,134.6c-2.7-1-4.8-3.1-5.7-5.9c-0.7-2.3-1-4.9,0-6.6c0.4-0.7,1-1.1,1.6-1.2c-1-0.1-2,0.2-2.7,1.3
						c-1,1.7-0.7,4.4,0,6.6c1,3.2,3.7,5.6,6.9,6.3C71.7,134.9,71.7,134.7,71.6,134.6z"/>
					<path class="st6" d="M64.6,126.9c0.1,0.4,2.3,4.1,2.1,3.7c-0.9-2.3-0.8-7,2.3-6.8c0.8,0,0.9-1.5,0.2-2.2
						c-0.5-0.6-1.9-0.9-2.7-0.7c-0.7,0.3-1.1,0.6-1.4,1.1c-0.2,0.2,0.1,0.6,0,0.9C64.5,124,64.3,125.5,64.6,126.9z"/>
					<path class="st38" d="M69.9,126.6c-1.2,0.5,0.2,1.8-0.7,2.7c-0.2,0.2-0.7,0.3-1.4-0.8c-0.6-1-0.9-2,0.2-2.9
						c0.3-0.3,1.1-0.4,1.5-0.3C70,125.6,70.3,126.4,69.9,126.6z"/>
				</g>
				<path class="st38" d="M75.6,138.1c-0.1,0-0.2,0-0.3,0.1c-0.1,0-0.2,0-0.2,0c-0.1,0-0.3,0-0.4,0c-0.3,0-0.5-0.1-0.7-0.1
					c-0.5-0.1-0.9-0.2-1.3-0.4c-0.9-0.3-1.7-0.7-2.5-1.1c-0.8-0.5-1.5-1-2.1-1.6c-0.6-0.6-1.2-1.4-1.6-2.1c0.5,0.7,1.1,1.3,1.8,1.8
					c0.7,0.5,1.4,0.9,2.2,1.2c0.8,0.3,1.6,0.5,2.4,0.7c0.4,0.1,0.8,0.1,1.2,0.2c0.2,0,0.4,0,0.6,0c0.1,0,0.2,0,0.3,0
					c0,0,0.1,0,0.1,0c0,0,0,0,0,0L75.6,138.1z"/>
			</g>
			<path class="st6" d="M175.5,114.5c0.4,0,0.8,0,1.2,0.1c1.6,0.3,2.9,1.1,3.7,2.5l0,0.1c1,2,1.3,4.3,1,6.5
				c-0.4,3.4-1.6,6.8-3.5,9.7c-2,3.1-6.3,9.5-10.9,8.1l0,0c-3.9-1.3-5.7-7.5-5.2-12.5c0.4-4.5,2.7-8.7,6.3-11.6
				C170.3,115.5,173.1,114.5,175.5,114.5z M179,117.8c-0.6-0.9-1.4-1.5-2.6-1.7c-2.1-0.4-5.1,0.6-7.4,2.5c-3.2,2.5-5.3,6.3-5.7,10.4
				c-0.4,4.4,1.1,9.8,4.1,10.8c3.5,1.1,7.3-4.7,9.1-7.4c1.8-2.7,2.9-5.8,3.3-9C180.2,121.5,179.9,119.6,179,117.8z"/>
		</g>
		<path class="st39" d="M71,93.3l8.1,74.4c0,19.5,82.7,19.5,82.7,0l7.5-60.4c0.4-8.9-6.6-16.3-15.5-16.5l-5.9-0.1
			c-7-0.2-13.9-1.2-20.6-3.1c-2.6-0.7-5.4-1.5-8.3-2.3C102.7,81.1,85.2,84,71,93.3L71,93.3z"/>
		<polygon class="st40" points="78.9,158.1 77,124.6 80.3,122.3 76.6,121.3 71.8,93.7 72,103.6 75.5,132.7 76.9,145.1 77.4,145.8 		
			"/>
		<path class="st38" d="M72.8,102.9l1.4-7c0,0,22.1-12.9,41-5.4c5.2,2.1,12.4,7.8,37.9,7.5c20.4-0.2,4.6,75.6,4.6,75.6l3.3-2.4
			l6.7-51.2c0,0,3.2-15.8-0.1-20.4c-3.3-4.6-6.6-9.4-16.8-9c-10.2,0.4-24.5-3.2-29.1-4.6c-4.7-1.4-22.7-4.5-33.4-0.7
			C77.8,89,71,93.3,71,93.3l0.6,7.5L72.8,102.9z"/>
		<path class="st6" d="M72.4,93.1c0,0-4,2-3.7,5.4c0,0.1-0.2,0.2-0.3,0c-0.9-2.9-0.1-4.7,3.7-6.8C71.5,92.9,72.4,93.1,72.4,93.1z"/>
		<path class="st6" d="M126.9,87.1c0,0,11.3,0.2,19.6-2.4c0.3-0.1,0.5,0.3,0.2,0.5c-4.6,3.3-13.2,3.8-13.2,3.8L126.9,87.1z"/>
		<path class="st38" d="M77.6,146.7l4.2,23.1c0,0,9.2,10,34.1,10.3s44.3-13.4,44.3-13.4l-1.3,6.8c0,0-1.7,2.5-8.2,4.6
			c-6.5,2.1-20.1,4.5-28.6,4c-8.5-0.5-23.4-0.2-28.3-2.8s-14-3.5-14.9-10.1c-0.9-6.6-2-21.7-2-21.7L77.6,146.7z"/>
		<path class="st6" d="M120.5,183.2c-10.9,0-21.1-1.3-28.7-3.7c-8.8-2.8-13.5-6.8-13.5-11.7l-8.2-74.9l0.4-0.3
			c14.4-9.5,32.2-12.4,48.8-8c2.9,0.8,5.8,1.6,8.3,2.3c6.6,1.9,13.5,2.9,20.4,3l5.9,0.1c4.5,0.1,8.7,2,11.8,5.2
			c3.1,3.3,4.7,7.6,4.5,12.1l-7.5,60.5C162.6,178.4,140.7,183.2,120.5,183.2z M71.8,93.7l8.1,74c0,9.1,20.4,13.8,40.5,13.8
			s40.5-4.7,40.5-13.8l0-0.1l7.5-60.4c0.2-4-1.3-7.9-4.1-10.8c-2.8-3-6.6-4.7-10.6-4.7l-5.9-0.1c-7-0.2-14-1.2-20.8-3.1
			c-2.5-0.7-5.3-1.5-8.3-2.3C102.9,81.9,85.8,84.7,71.8,93.7z"/>
		<g>
			<polygon class="st38" points="116.8,123.5 118.7,131.8 114.2,140 116.7,149.4 117.8,146.1 117.7,139 120.6,135.5 123.3,131.7 
				120.2,127.1 			"/>
			<polygon class="st38" points="112.7,152.5 123,156.6 126.4,153.7 			"/>
			<path class="st40" d="M124.2,132.2l-3.8,6.6l4.3,2.3l-4.9,0.4l-0.3,9.3l6.8,2.9l-10.5-2l3.1-1.8c0,0-1.2-10-1.1-10.1
				c0.1-0.1,1.9-4.1,1.9-4.1L124.2,132.2z"/>
			<path class="st6" d="M116.8,123.5c3.9,4.9,5,8.5,5,8.5l-5.2,6.7l0.1,10.8l-4,3l13.7,1.2l-10.5-2l3.1-1.8l-0.8-10.7l6-7.1
				C123.1,129.4,119.9,125.8,116.8,123.5z"/>
			<g>
				<g>
					<path class="st38" d="M129.1,132.8c0.4,1.8,11.8,7.3,21.2-3.4C141.2,128.2,134.4,129.5,129.1,132.8z"/>
					<path class="st6" d="M142.8,129c0.3,2.5-1.3,4.9-3.9,5.5s-5-0.9-5.8-3.3L142.8,129z"/>
					
						<ellipse transform="matrix(0.9962 -8.703349e-02 8.703349e-02 0.9962 -10.9911 12.4027)" class="st7" cx="136.7" cy="132.2" rx="0.7" ry="0.7"/>
					<path class="st6" d="M129.1,132.8c0,0,5.4-8.1,21.2-3.4C143.5,129.9,133.4,130.5,129.1,132.8z"/>
				</g>
				<g>
					<path class="st38" d="M111.9,132.8c-0.4,1.8-11.8,7.3-21.2-3.4C99.7,128.2,106.6,129.5,111.9,132.8z"/>
					<path class="st6" d="M98.1,129c-0.3,2.5,1.3,4.9,3.9,5.5c2.5,0.6,5-0.9,5.8-3.3L98.1,129z"/>
					
						<ellipse transform="matrix(8.703349e-02 -0.9962 0.9962 8.703349e-02 -39.0678 221.3448)" class="st7" cx="101.2" cy="132" rx="0.7" ry="0.7"/>
					<path class="st6" d="M111.9,132.8c0,0-5.4-8.1-21.2-3.4C97.4,129.9,107.5,130.5,111.9,132.8z"/>
				</g>
			</g>
		</g>
		<g>
			<g>
				<path class="st61" d="M127.7,111.2l0.3,3.9l0.4,4.6c0.1,0.6,0.7,1,1.2,0.8l23.8-7.5c0.4-0.2,0.7-0.6,0.6-1.1l-1-5.1
					c-0.1-0.5-0.6-0.7-1-0.7l-23.5,4.1C128,110.3,127.6,110.7,127.7,111.2z"/>
				<polygon class="st71" points="128.9,117.3 130.3,112.4 148.1,106.9 128.1,110.3 127.7,113.1 				"/>
				<polygon class="st66" points="128.5,118.3 151.6,111.4 151.6,106.3 153.2,107.2 154.2,112.5 147.4,115.1 129.6,120.9 128.5,120 
									"/>
				<path class="st6" d="M129.3,121.4c-0.3,0-0.6-0.1-0.9-0.3c-0.5-0.3-0.7-0.8-0.8-1.3l-0.7-8.5c-0.1-0.9,0.5-1.7,1.4-1.8l23.5-4.1
					c0.9-0.2,1.7,0.4,1.9,1.2l1.1,5.2c0.2,0.8-0.2,1.7-1.1,2l-23.8,7.6C129.7,121.3,129.5,121.4,129.3,121.4z M152,106.9
					C152,106.9,152,106.9,152,106.9l-23.5,4.1c-0.1,0-0.1,0.1-0.1,0.1v0l0.7,8.5c0,0,0,0.1,0.1,0.1c0,0,0.1,0,0.1,0l23.8-7.6
					c0,0,0-0.1,0-0.1L152,106.9L152,106.9C152.1,106.9,152.1,106.9,152,106.9z"/>
				<polygon class="st6" points="150.9,105.6 148.8,111.8 151.9,106.4 150.9,105.5 				"/>
			</g>
			<g>
				<path class="st61" d="M113.3,111.2l-0.3,3.9l-0.4,4.6c-0.1,0.6-0.7,1-1.2,0.8L87.5,113c-0.4-0.2-0.7-0.6-0.6-1.1l1-5.1
					c0.1-0.5,0.6-0.7,1-0.7l23.5,4.1C113,110.3,113.3,110.7,113.3,111.2z"/>
				<polygon class="st71" points="87,112.4 90,108.4 108.6,110 88.8,105.6 87.4,108 				"/>
				<polygon class="st66" points="87.3,110.5 110.3,117.6 112.6,112.1 113.3,115.7 111.9,120 104.8,118.4 86.7,113.3 86.3,112 				
					"/>
				<path class="st6" d="M111.1,121.3l-23.8-7.6c-0.8-0.3-1.3-1.2-1.1-2l1.1-5.2c0.2-0.9,1.1-1.4,1.9-1.2l23.5,4.1
					c0.9,0.2,1.5,0.9,1.4,1.8l-0.7,8.5c0,0.5-0.3,1-0.8,1.3c-0.3,0.2-0.6,0.3-0.9,0.3C111.4,121.4,111.2,121.3,111.1,121.3z
					 M88.8,106.9L88.8,106.9l-1.1,5.2c0,0.1,0,0.1,0,0.1l23.8,7.6c0,0,0.1,0,0.1,0c0,0,0,0,0.1-0.1l0.7-8.5v0c0-0.1,0-0.1-0.1-0.1
					l-23.5-4.1C88.9,106.9,88.9,106.9,88.8,106.9C88.9,106.9,88.8,106.9,88.8,106.9z"/>
				<polygon class="st6" points="113.4,110.9 108.6,116.3 112.1,110.4 113.5,110.8 				"/>
			</g>
		</g>
		<path class="st71" d="M69.1,90.3c1.2-1.7,2.8-3,4.4-4.4l2.5-1.9l2.6-1.7c0.9-0.6,1.8-1,2.7-1.5l1.4-0.7c0.5-0.2,0.9-0.5,1.4-0.7
			l2.9-1.2l1.4-0.6l1.5-0.5c7.8-2.7,16-4.3,24.2-4.7l3.1-0.2c1-0.1,2.1,0,3.1-0.1l6.2-0.1c1,0,2.1,0.1,3.1,0.1l3.1,0.2
			c2,0.1,4.1,0.2,6.1,0.4l6.1,0.8l3,0.4c1,0.1,2,0.2,3,0.5c4,0.8,8,1.5,12,2.4l0,0c-4.1-0.4-8.1-1-12.2-1.4c-4.1-0.4-8.1-0.6-12.2-1
			c-2-0.1-4.1-0.1-6.1-0.2c-2,0-4.1-0.2-6.1-0.1l-6.1,0.2c-1,0-2,0-3,0.1l-3,0.3c-8.1,0.6-16.1,2-23.8,4.4l-1.5,0.4L87.5,80
			l-2.8,1.1c-0.5,0.2-0.9,0.4-1.4,0.6l-1.4,0.6C81,82.7,80,83,79.1,83.6L76.5,85l-2.6,1.6c-1.6,1.2-3.3,2.4-4.7,3.8L69.1,90.3z"/>
		<path class="st71" d="M125,84.7c1.7,0,3.4-0.1,5.1-0.2c1.7-0.1,3.4-0.2,5.1-0.3c1.7-0.1,3.4-0.2,5.1-0.4c1.7-0.2,3.4-0.3,5-0.7
			l0,0.1c-1.6,0.7-3.3,1.1-5,1.4c-1.7,0.3-3.4,0.5-5.1,0.6c-1.7,0.1-3.4,0.1-5.1,0C128.4,85.3,126.7,85.1,125,84.7L125,84.7z"/>
		<g>
			<path class="st38" d="M113,160.2c0,0,12.3-2.2,16.4-0.1c0.6-0.7,0.4-2.1,0.4-2.1c-4.1-1.6-8.7-1.1-13.6,0.4L113,160.2z"/>
			<path class="st38" d="M128.8,162c0,0-2.6-2.7-0.7-6c1,1.5,1.7,2.3,1.7,2.3l-0.5,2.5L128.8,162z"/>
			<path class="st6" d="M129.9,159.4c-1.5-0.8-3.1-1.2-4.8-1.4c-1.6-0.3-3.3-0.3-5-0.2c-1.7,0.1-3.3,0.4-4.9,0.9
				c-1.6,0.5-3.1,1.2-4.5,2.1c-0.2,0.1-0.3,0.4-0.2,0.7c0.1,0.2,0.3,0.3,0.5,0.2l0,0c1.6-0.4,3.1-0.8,4.6-1.1
				c1.5-0.3,3.1-0.5,4.6-0.6c1.5-0.2,3.1-0.2,4.6-0.1c1.6,0,3.1,0.1,4.7,0.3l0,0c0.2,0,0.4-0.1,0.4-0.3
				C130.1,159.6,130,159.4,129.9,159.4z"/>
			<path class="st6" d="M128.9,162.9c0.6-0.4,1-1,1.2-1.6c0.3-0.6,0.3-1.3,0.3-2c-0.1-0.7-0.3-1.3-0.6-1.9c-0.2-0.3-0.4-0.5-0.6-0.8
				c-0.2-0.2-0.5-0.5-0.7-0.7c-0.1-0.1-0.3-0.1-0.4,0.1c-0.1,0.1-0.1,0.2-0.1,0.2l0,0c0.1,0.3,0.2,0.6,0.2,0.9
				c0.1,0.3,0.2,0.5,0.2,0.8c0.1,0.5,0.2,1,0.3,1.5c0.1,0.5,0.1,1,0,1.5c0,0.5-0.2,1.1-0.3,1.6l0,0c0,0.1,0,0.3,0.2,0.3
				C128.8,163,128.9,163,128.9,162.9z"/>
		</g>
		<g>
			<g>
				
					<ellipse transform="matrix(0.9131 -0.4078 0.4078 0.9131 -50.1532 72.1266)" class="st38" cx="144.1" cy="153.7" rx="6.4" ry="2.9"/>
			</g>
			<g>
				
					<ellipse transform="matrix(0.4078 -0.9131 0.9131 0.4078 -82.9811 179.4422)" class="st38" cx="96.8" cy="153.7" rx="2.9" ry="6.4"/>
			</g>
		</g>
	</g>
	<g>
		<g>
			<path class="st23" d="M193.2,453.5H47.8c-4,0-7.3-3.3-7.3-7.3v0c0-4,3.3-7.3,7.3-7.3h145.4c4,0,7.3,3.3,7.3,7.3v0
				C200.5,450.3,197.2,453.5,193.2,453.5z"/>
			<g>
				<g>
					<path class="st24" d="M190.7,409.2H50.2c-4.1,0-7.5,3.4-7.5,7.5v27.6c0,4.1,3.4,7.5,7.5,7.5h140.5c4.1,0,7.5-3.4,7.5-7.5v-27.6
						C198.2,412.5,194.9,409.2,190.7,409.2z M196.2,444.2c0,3-2.4,5.5-5.5,5.5H50.2c-3,0-5.5-2.5-5.5-5.5v-27.6c0-3,2.5-5.5,5.5-5.5
						h140.5c3,0,5.5,2.5,5.5,5.5V444.2z"/>
					<path class="st25" d="M196.2,416.6v27.6c0,3-2.4,5.5-5.5,5.5H50.2c-3,0-5.5-2.5-5.5-5.5v-27.6c0-3,2.5-5.5,5.5-5.5h140.5
						C193.8,411.2,196.2,413.6,196.2,416.6z"/>
				</g>
			</g>
		</g>
		<g>
			<path class="st24" d="M113.1,427.3l0.1-2h-0.1l-0.8,2.1l-5.7,10h-1.1V422h1.6v10.2l-0.2,2h0.1l0.8-2.1l5.7-10.1h1.1v15.4h-1.6
				V427.3z"/>
			<path class="st24" d="M122.9,432.5H119v4.9h-1.6v-11h1.6v4.7h3.8v-4.7h1.6v11h-1.6V432.5z"/>
			<path class="st24" d="M132.5,431l0.1-1.7h-0.1l-0.8,1.8l-3.7,6.2h-1v-11h1.6v6.5l-0.1,1.6h0.1l0.7-1.8l3.8-6.3h1v11h-1.6V431z"/>
		</g>
	</g>
</g>
</svg>
