<?xml version="1.0" encoding="utf-8"?>
<!-- Generator: Adobe Illustrator 21.0.0, SVG Export Plug-In . SVG Version: 6.00 Build 0)  -->
<svg version="1.1" id="Layer_1" xmlns="http://www.w3.org/2000/svg" xmlns:xlink="http://www.w3.org/1999/xlink" x="0px" y="0px"
	 viewBox="0 0 240.9 453.5" style="enable-background:new 0 0 240.9 453.5;" xml:space="preserve">
<style type="text/css">
	.st0{fill:#794552;}
	.st1{fill:#C7B89E;}
	.st2{fill:#F9A960;}
	.st3{fill:#D17C32;}
	.st4{fill:#956070;}
	.st5{fill:#FDDCC0;}
	.st6{fill:#501338;}
	.st7{fill:#FFFFFF;}
	.st8{fill:#B38091;}
	.st9{fill:#D1D5DB;}
	.st10{fill:#989A9C;}
	.st11{fill:#937B70;}
	.st12{fill:#E6DEC9;}
	.st13{fill:#F0B39C;}
	.st14{fill:#8E183F;}
	.st15{fill:#F5F5F5;}
	.st16{fill:none;stroke:#462062;stroke-width:0.7554;stroke-linecap:round;stroke-miterlimit:10;}
	.st17{fill:#B5BAC0;}
	.st18{fill:#C71F41;}
	.st19{fill:#EF5784;}
	.st20{fill:#A91D41;}
	.st21{opacity:0.5;fill:#C1C1C1;}
	.st22{opacity:0.27;fill:#E78B6F;}
	.st23{fill:#CB8A43;}
	.st24{fill:#754D24;}
	.st25{fill:#FBBA6C;}
	.st26{fill:#837070;}
	.st27{fill:#866A58;}
	.st28{fill:#9A7E67;}
	.st29{fill:#B39885;}
	.st30{fill:#5B4580;}
	.st31{fill:#E1DFDF;}
	.st32{fill:#C0BEBD;}
	.st33{fill:#D53231;}
	.st34{fill:#E94647;}
	.st35{fill:#797083;}
	.st36{fill:#A9A4B4;}
	.st37{fill:#5B5567;}
	.st38{fill:#CE202B;}
	.st39{fill:#EE3734;}
	.st40{fill:#F49294;}
	.st41{fill:#B89AA6;}
	.st42{fill:#D4907B;}
	.st43{fill:#FAB276;}
	.st44{opacity:0.5;fill:#794552;}
	.st45{fill:#B57D90;}
	.st46{opacity:0.7;fill:#794552;}
	.st47{opacity:0.15;fill:#F2E8A5;}
	.st48{fill:#D67E3A;}
	.st49{fill:#735A99;}
	.st50{fill:#644C88;}
	.st51{fill:#9480B4;}
	.st52{fill:#E4D2A4;}
	.st53{fill:#FAEDD0;}
	.st54{fill:#C4B18B;}
	.st55{fill:#735A99;stroke:#501338;stroke-width:1.571;stroke-miterlimit:10;}
	.st56{fill:#C8BFBF;}
	.st57{fill:#B2ABAB;}
	.st58{fill:#FFE098;}
	.st59{fill:#ECC77E;}
	.st60{fill:#FFEBC7;}
	.st61{fill:#A1675E;}
	.st62{fill:#90564F;}
	.st63{fill:#C07F78;}
	.st64{fill:#68485A;}
	.st65{fill:#FFDD81;}
	.st66{fill:#814945;}
	.st67{fill:#945B58;}
	.st68{fill:#B17977;}
	.st69{fill:#884C4A;}
	.st70{fill-rule:evenodd;clip-rule:evenodd;fill:#989A9C;}
	.st71{fill:#D89E98;}
	.st72{fill:#64445C;}
	.st73{fill:#816474;}
	.st74{fill:#A48390;}
	.st75{fill:#DDAD41;}
	.st76{fill:#F48657;}
	.st77{fill:#D77151;}
	.st78{fill:#F8AB89;}
	.st79{fill:#E9C05B;}
	.st80{fill:#9A8691;}
	.st81{fill:#A28F99;}
	.st82{fill:#8780BC;}
	.st83{fill:#6966AD;}
	.st84{fill:#B2ADD5;}
	.st85{fill:#F48C8C;}
	.st86{fill:#E86363;}
	.st87{fill:#F4876E;}
	.st88{fill:#E56A51;}
	.st89{fill:#80655C;}
	.st90{fill:#C3AC6F;}
	.st91{fill:#9F874A;}
	.st92{fill:#DBC68E;}
	.st93{opacity:0.11;fill:#FFFFFF;}
	.st94{fill:#F7A799;}
	.st95{fill:#FCE5A5;}
	.st96{fill:#DEBB6C;}
	.st97{fill:#B67C76;}
	.st98{fill:none;stroke:#462062;stroke-width:0.843;stroke-linecap:round;stroke-miterlimit:10;}
	.st99{fill:#9D9B86;}
	.st100{fill:#8780BC;stroke:#501338;stroke-width:1.6795;stroke-miterlimit:10;}
	.st101{fill:#C5C4B4;}
	.st102{fill:#E9E9D9;}
	.st103{fill:#E9C15D;}
	.st104{opacity:0.3;}
	.st105{fill:#A27388;}
	.st106{opacity:0.5;fill:#FFFFFF;}
	.st107{fill:#91667A;}
	.st108{opacity:0.4;}
	.st109{opacity:0.5;}
	.st110{opacity:0.5;fill:#A7A7A6;}
	.st111{fill:#C16D34;}
	.st112{opacity:0.4;fill:#FFFFFF;}
	.st113{fill:none;stroke:#501338;stroke-width:1.5687;stroke-linecap:round;stroke-linejoin:round;stroke-miterlimit:10;}
	.st114{opacity:0.27;}
	.st115{fill:#E78B6F;}
	.st116{opacity:0.2;fill:#F48E8E;}
	.st117{fill:#99744B;}
	.st118{fill:#825D38;}
	.st119{fill:#C9CAA6;}
	.st120{fill:#BCBC96;}
	.st121{fill:none;stroke:#462062;stroke-width:0.7845;stroke-linecap:round;stroke-miterlimit:10;}
	.st122{fill:#66402A;}
	.st123{fill:#935C35;}
	.st124{opacity:0.6;fill:#7A4928;}
	.st125{opacity:0.4;fill:#F48E8E;}
	.st126{fill:#E1E1E1;}
	.st127{fill:#C1C1C1;}
	.st128{fill:#52363A;}
	.st129{fill:#C6C5C4;}
	.st130{opacity:0.6;}
	.st131{fill:#888888;}
	.st132{fill:#515252;}
	.st133{opacity:0.6;fill:#888888;}
	.st134{fill:#616160;}
	.st135{fill:#515150;}
	.st136{fill:#957B66;}
	.st137{fill:#B89984;}
	.st138{fill:#787878;}
	.st139{fill:#775F4F;}
	.st140{fill:#D7B9A8;}
	.st141{fill:#99999A;}
	.st142{opacity:0.4;fill:#E6DEC9;}
	.st143{fill:none;stroke:#462062;stroke-width:0.7586;stroke-linecap:round;stroke-miterlimit:10;}
	.st144{fill:#3F4242;}
	.st145{opacity:0.5;fill:#F0B39C;}
	.st146{opacity:0.57;fill:#B89AA6;}
	.st147{fill:#619F7F;}
	.st148{fill:#548E6E;}
	.st149{fill:#C16A2F;}
	.st150{fill:#CE413A;}
	.st151{fill:#B23330;}
	.st152{opacity:0.62;fill:#E48C7D;}
	.st153{fill:#5E3827;}
	.st154{fill:#F48E8E;}
	.st155{fill:#444445;}
	.st156{fill:#353435;}
	.st157{opacity:0.5;fill:#B89AA6;}
	.st158{fill:#4D4C4D;}
	.st159{fill:#444344;}
	.st160{opacity:0.6;fill:#A1A1A1;}
	.st161{fill:#282827;}
	.st162{fill:#636464;}
	.st163{fill:#575959;}
	.st164{fill:#3A3A3A;}
	.st165{opacity:0.5;fill:#787878;}
	.st166{fill:none;stroke:#462062;stroke-width:0.8198;stroke-linecap:round;stroke-miterlimit:10;}
	.st167{fill:#5B5B5C;}
	.st168{fill:#E4E4E4;}
	.st169{fill:#FFF1EA;}
	.st170{fill:#E1CDC5;}
	.st171{opacity:0.4;fill:#F0B39C;}
	.st172{opacity:0.5;fill:#ADADAD;}
	.st173{fill:#B58F5B;}
	.st174{fill:#606060;}
	.st175{fill:#4F5150;}
	.st176{opacity:0.6;fill:#989A9C;}
	.st177{fill:#5D7A6D;}
	.st178{fill:#4C685B;}
	.st179{fill:none;stroke:#462062;stroke-width:0.8057;stroke-linecap:round;stroke-miterlimit:10;}
	.st180{fill:#F7B975;}
	.st181{fill:#8D7449;}
	.st182{opacity:0.35;fill:#F7B975;}
	.st183{fill:#686868;}
	.st184{fill:#959595;}
	.st185{opacity:0.3;fill:#FFFFFF;}
	.st186{fill:#4C4B4C;}
	.st187{fill:#A27F67;}
	.st188{fill:#C6A691;}
	.st189{opacity:0.2;fill:#684D39;}
	.st190{fill:#926E56;}
	.st191{opacity:0.8;fill:#3A3A3A;}
	.st192{fill:#ED3E2B;}
	.st193{fill:#DB2C1F;}
	.st194{opacity:0.7;fill:#989A9C;}
	.st195{fill:#6B4845;}
	.st196{fill:#846363;}
	.st197{fill:#5E3E3C;}
	.st198{fill:none;stroke:#501338;stroke-width:1.6206;stroke-miterlimit:10;}
	.st199{opacity:0.5;fill:#E29780;}
	.st200{opacity:0.6;fill:#FFFFFF;}
	.st201{fill:#ECD8BB;}
	.st202{opacity:0.3;fill:#937B70;}
	.st203{fill:#FCF9F4;}
	.st204{opacity:0.6;fill:#F0B39C;}
	.st205{fill:none;stroke:#462062;stroke-width:0.7828;stroke-linecap:round;stroke-miterlimit:10;}
	.st206{fill:#CDCDCD;}
	.st207{opacity:0.5;fill:#A8A7A7;}
	.st208{fill:#868686;}
	.st209{opacity:0.3;fill:#F0B39C;}
	.st210{opacity:0.7;fill:#F0B39C;}
	.st211{fill:#735A99;stroke:#501338;stroke-width:1.5656;stroke-miterlimit:10;}
	.st212{opacity:0.5;fill:#FCF9F4;}
	.st213{opacity:0.5;fill:#FDDCC0;}
	.st214{fill:#6B3A37;}
	.st215{fill:#92A3D3;}
	.st216{fill:#B0C2E4;}
	.st217{fill:#7790BC;}
	.st218{fill:#7F95C6;}
	.st219{fill:#D0A7C2;}
	.st220{fill:#B7BE79;}
	.st221{fill:#725F82;}
	.st222{fill:#635175;}
	.st223{fill:none;stroke:#501338;stroke-width:1.5843;stroke-miterlimit:10;}
	.st224{fill:#C5B8DA;}
	.st225{fill:#A999C9;}
	.st226{fill:#8B6445;}
	.st227{fill:#7A5439;}
	.st228{fill:none;stroke:#501338;stroke-width:1.5751;stroke-linecap:round;stroke-linejoin:round;stroke-miterlimit:10;}
	.st229{fill:#D9CEB7;}
	.st230{fill:#CCBDA2;}
	.st231{opacity:0.2;fill:#FFFFFF;}
	.st232{fill:#B61F30;}
	.st233{fill:#595B5B;}
</style>
<g>
	<g>
		<g>
			<path class="st23" d="M193.2,453.5H47.8c-4,0-7.3-3.3-7.3-7.3v0c0-4,3.3-7.3,7.3-7.3h145.4c4,0,7.3,3.3,7.3,7.3v0
				C200.5,450.3,197.2,453.5,193.2,453.5z"/>
			<g>
				<g>
					<path class="st24" d="M190.7,409.2H50.2c-4.1,0-7.5,3.4-7.5,7.5v27.6c0,4.1,3.4,7.5,7.5,7.5h140.5c4.1,0,7.5-3.4,7.5-7.5v-27.6
						C198.2,412.5,194.9,409.2,190.7,409.2z M196.2,444.2c0,3-2.4,5.5-5.5,5.5H50.2c-3,0-5.5-2.5-5.5-5.5v-27.6c0-3,2.5-5.5,5.5-5.5
						h140.5c3,0,5.5,2.5,5.5,5.5V444.2z"/>
					<path class="st25" d="M196.2,416.6v27.6c0,3-2.4,5.5-5.5,5.5H50.2c-3,0-5.5-2.5-5.5-5.5v-27.6c0-3,2.5-5.5,5.5-5.5h140.5
						C193.8,411.2,196.2,413.6,196.2,416.6z"/>
				</g>
			</g>
		</g>
		<g>
			<path class="st24" d="M105.1,423.5h-3.8v13.9h-1.7v-13.9h-3.8V422h9.2V423.5z"/>
			<path class="st24" d="M104.6,427c0.4-0.3,0.9-0.5,1.6-0.6c0.6-0.1,1.3-0.2,1.9-0.2c0.6,0,1.1,0.1,1.5,0.3
				c0.4,0.2,0.7,0.4,0.9,0.7c0.2,0.3,0.4,0.7,0.4,1.1c0.1,0.4,0.1,0.8,0.1,1.3c0,0.9,0,1.7-0.1,2.6s-0.1,1.6-0.1,2.4
				c0,0.6,0,1.1,0.1,1.6c0,0.5,0.1,0.9,0.2,1.4h-1.2l-0.4-1.3h-0.1c-0.2,0.4-0.5,0.7-1,1c-0.4,0.3-1,0.4-1.7,0.4
				c-0.8,0-1.4-0.3-1.9-0.8c-0.5-0.6-0.8-1.3-0.8-2.3c0-0.6,0.1-1.2,0.3-1.6c0.2-0.4,0.5-0.8,0.9-1c0.4-0.3,0.8-0.5,1.4-0.6
				c0.5-0.1,1.1-0.2,1.8-0.2c0.1,0,0.3,0,0.4,0s0.3,0,0.5,0c0-0.5,0.1-0.9,0.1-1.2c0-0.8-0.1-1.4-0.4-1.8c-0.2-0.3-0.7-0.5-1.4-0.5
				c-0.4,0-0.9,0.1-1.3,0.2c-0.5,0.1-0.9,0.3-1.2,0.5L104.6,427z M109.4,432.3c-0.1,0-0.3,0-0.4,0c-0.1,0-0.3,0-0.4,0
				c-0.3,0-0.7,0-1,0.1c-0.3,0.1-0.6,0.2-0.9,0.3s-0.5,0.3-0.6,0.6c-0.2,0.3-0.2,0.6-0.2,0.9c0,0.6,0.1,1,0.4,1.4
				c0.3,0.3,0.6,0.5,1.1,0.5c0.6,0,1.1-0.1,1.4-0.4c0.3-0.3,0.6-0.6,0.7-1V432.3z"/>
			<path class="st24" d="M119,431l0.1-1.7h-0.1l-0.8,1.8l-3.7,6.2h-1v-11h1.6v6.5l-0.1,1.6h0.1l0.7-1.8l3.8-6.3h1v11H119V431z
				 M115.7,421.9c0.1,0.7,0.3,1.2,0.5,1.4s0.6,0.4,1,0.4c0.4,0,0.7-0.2,1-0.5c0.3-0.3,0.5-0.8,0.5-1.4l1.2,0.4c-0.1,0.9-0.4,1.6-1,2
				s-1.1,0.7-1.8,0.7c-0.3,0-0.7,0-1-0.1c-0.3-0.1-0.6-0.3-0.9-0.5c-0.3-0.2-0.5-0.5-0.6-0.8c-0.2-0.3-0.3-0.7-0.4-1.2L115.7,421.9z
				"/>
			<path class="st24" d="M125.6,432.4h-0.8v5h-1.6v-11h1.6v5l0.7-0.3l2.7-4.7h1.7l-2.6,4.4l-0.8,0.7l0.9,0.9l2.8,5h-1.9L125.6,432.4
				z"/>
			<path class="st24" d="M138.1,436.6c-0.4,0.3-0.8,0.6-1.3,0.7c-0.5,0.2-1.1,0.3-1.7,0.3c-0.7,0-1.3-0.1-1.8-0.4
				c-0.5-0.3-0.9-0.7-1.3-1.2c-0.3-0.5-0.6-1.1-0.7-1.8s-0.2-1.5-0.2-2.4c0-1.9,0.3-3.3,1-4.3s1.7-1.5,2.9-1.5
				c0.4,0,0.8,0.1,1.2,0.2s0.8,0.3,1.1,0.6c0.3,0.3,0.6,0.7,0.8,1.3s0.3,1.3,0.3,2.2c0,0.3,0,0.5,0,0.8c0,0.3,0,0.6-0.1,0.9h-5.6
				c0,0.6,0.1,1.2,0.2,1.7c0.1,0.5,0.3,1,0.5,1.3c0.2,0.4,0.5,0.6,0.8,0.8c0.3,0.2,0.8,0.3,1.3,0.3c0.4,0,0.8-0.1,1.2-0.2
				c0.4-0.1,0.7-0.3,0.9-0.5L138.1,436.6z M136.9,430.7c0-1.1-0.1-1.9-0.5-2.4c-0.3-0.5-0.8-0.8-1.4-0.8c-0.7,0-1.2,0.3-1.6,0.8
				c-0.4,0.5-0.6,1.3-0.7,2.4H136.9z"/>
		</g>
	</g>
	<g>
		<ellipse class="st0" cx="120.5" cy="369.2" rx="50.4" ry="17.5"/>
		<polygon class="st1" points="120.5,319.6 79.4,316.5 70.5,325.9 120.5,344.4 170.5,325.9 161.6,316.5 		"/>
		<g>
			<path class="st117" d="M42.9,328.1c0,0,6.7-28.4,52.5-5.9s64.6,32.2,64.6,32.2s43.1,1.6,39.1,9.1c-3.9,7.5-9.9,21.2-16.8,21.7
				s-84.1-19-84.1-19S36.1,351.7,42.9,328.1z"/>
			<path class="st3" d="M174.7,384c-2.1-0.4-12.8-2.7-21-4.5c8.7,2.5,13.9,4.4,20.9,4.9c1.3,0.1,2.4,0.2,3.4,0.2
				C176.8,384.4,175.6,384.1,174.7,384z"/>
			<path class="st3" d="M121.4,372c-6.4-1.5-12.6-3-16.4-3.9C109.9,369.4,115.2,370.7,121.4,372z"/>
			<path class="st118" d="M97.8,357c-4.1-1.3-8.1-2.6-11.7-3.8c0.4-1.5,1.2-4.4,2.8-8.8c-0.1,0-0.1,0-0.2-0.1
				c-1.1,1.8-3.2,6.1-4.3,8.3c-6.3-2.1-11.5-3.9-15-5.2c3.6-1.6,8.6-4.1,9.1-6c0.8-3-2.8-9.2-2.8-9.2s2.4-2.5,3.1-4
				c0.7-1.4-1.9-3.5-1.9-3.5l-7.5,3.9l-8.2,8.6l0.2,6.8c-15.4-7.2-16.7-11.5-15.1-22.7c-0.5,0.8-4.9,11.5-3.9,14.4
				c1.9,5,13.4,16.8,28.5,21.4c8.9,2.8,17.1,5.9,28.1,9.2c-2-0.8-3.7-1.8-3.7-1.8L97.8,357z"/>
			<path class="st0" d="M160,354.4c1.5,0,3,0.1,4.4,0.1c-1.7-0.1-2.9-0.2-3.1-0.2c-0.6,0-4.9-2-9.5-4.3
				C155,351.8,157.8,353.3,160,354.4z"/>
			<path class="st0" d="M127.3,373.2c-2-0.4-4-0.8-5.9-1.2c10.9,2.6,22.3,5.3,22.3,5.3s4.4,1,10,2.2
				C147.4,377.7,139.2,375.5,127.3,373.2z"/>
			<path class="st0" d="M105,368.1c-2.1-0.6-4.1-1.1-6-1.7c0.9,0.4,1.8,0.7,2.6,0.9C102,367.4,103.3,367.7,105,368.1z"/>
			<path class="st0" d="M171.8,382.1c7,0.6,15.6,0.1,15.6,0.1c-1.9,1.7-1,2.9-9.4,2.4c3.6,0.6,8.3,0.8,11.4-4
				c4.2-6.5,9.9-17,9.8-18.2c-0.1-1.2-0.8-0.5-0.8-0.4c-2.6-1-5.2-2.7-9.1-3.3c-8.4-1.4-19.8-1.1-29.1-0.5l-5.3,8.1l2.1-8.9
				c-15.9-8.5-34.3-18-50.9-25.5l-2.7,13L97.8,357C99.3,366.2,158,380.9,171.8,382.1z"/>
			<path class="st4" d="M157,357.4l-3.6,11.5l7.2-10.1c13.7-0.9,37.6,4,34.6,10.5c0-0.1,5.5-6.7,2.8-8.7c-1.8-1.4-7.9-3-13.4-3.8
				c-6.5-0.8-15.2-1.9-20.2-2.3h0c-1.4,0-2.9-0.1-4.4-0.1c-2.2-1.1-5-2.6-8.2-4.3c-0.1,0-0.1-0.1-0.2-0.1
				c-5.6-2.7-11.5-5.8-11.5-5.8l-29.8-14.7l-3.1-0.7l-1,3.1C122.7,339.4,141.1,348.9,157,357.4z"/>
			<path class="st117" d="M53.4,315.9c12.2-0.4,31.6,6.5,52.7,16l1-3.1l3.1,0.7l29.8,14.7c0,0,6.9,4.3,12.5,7
				C126.1,336.9,68.8,304.3,53.4,315.9z"/>
			<path class="st6" d="M95.3,364.6c0,0,1.8,1,3.7,1.8c0,0,0,0,0,0c1.9,0.6,3.9,1.1,6,1.7c3.7,0.9,10,2.4,16.4,3.9
				c1.9,0.4,3.8,0.8,5.9,1.2c12,2.3,20.1,4.5,26.4,6.3c8.2,1.8,18.9,4.1,21,4.5c0.9,0.1,3.8,1,5.1,1.2c8.4,0.4,12.1-7.7,13.8-11.7
				c0,0-3.9,4.9-12.7,6c-6.3,0.7-17.4-3.3-28.7-8.4c0,0-42.8-3-53.2-14.1L95.3,364.6z"/>
			<path class="st6" d="M97.3,353.8c0.1,0.1,0.1,0.1,0.2,0.1c-2.8,7.5-3.7,11-3.7,11l-1.9-0.8C92,364.2,95.5,356.8,97.3,353.8z"/>
			<path class="st6" d="M102.1,338.5c-0.1,0-0.2-0.1-0.2-0.1c1.5-7.8,1.8-11.4,1.8-11.4l2,0.5C105.7,327.4,103.4,335.3,102.1,338.5z
				"/>
			<polygon class="st6" points="153.4,368.9 158.2,353.6 159.8,355.1 			"/>
			
				<ellipse transform="matrix(0.3854 -0.9228 0.9228 0.3854 -220.5701 398.0777)" class="st4" cx="188.5" cy="364.6" rx="0.4" ry="4.4"/>
			
				<ellipse transform="matrix(0.4045 -0.9145 0.9145 0.4045 -239.4782 337.5119)" class="st7" cx="139.4" cy="352.7" rx="0.6" ry="13"/>
			<path class="st8" d="M194.9,369.8c0.8-2.5,2.5-5.8,2.5-7L196,363l1.2-0.8c-0.3-1.5-8.1-4.3-12.8-4.9c0,0,10.2,1.1,12.5,2.9
				s2.9,1.4,2.1,3.5C198.2,365.7,194.9,369.8,194.9,369.8z"/>
			<path class="st8" d="M105.7,341l2.3-11.7l17.5,8.7c-5-1.7-16.6-6.8-16.6-6.8L105.7,341z"/>
			<path class="st6" d="M181.1,355.3c-0.1,0.4-0.3,0.9-0.6,1.3c-4.7,7.6-28.3,14.5-28.3,14.5L144,372l-27.7-6.7l10.9-5.9l29.1-6.1
				l2.5-0.5c0.8,0.4,1.3,0.6,1.5,0.8C162.5,353.6,172,354.1,181.1,355.3z"/>
			<path class="st6" d="M199.8,361.2c-1.7-2.8-10.1-4.7-18.7-5.9c-9.1-1.2-18.5-1.7-20.9-1.7c-0.2-0.1-0.7-0.4-1.5-0.8
				c-5.5-2.8-25.1-12.7-62.9-31.4c-18.2-8.9-32.5-11.1-42.5-6.3c-8.9,4.2-11,12.2-11.1,12.7c-1.1,3.8-0.5,7.6,1.6,11.3
				c10.1,17.3,52.5,27.3,54.3,27.7c3.1,0.8,75.1,19.1,84,19.1c0.1,0,0.3,0,0.4,0c6.5-0.6,11.6-10.7,15.8-19.1
				c0.6-1.1,1.1-2.1,1.6-3.1C200.3,362.9,200.2,362,199.8,361.2z M45.1,338.4c-1.9-3.3-2.4-6.7-1.4-10.1l0,0c0-0.1,2-7.8,10.3-11.7
				c3.3-1.5,7-2.3,11.3-2.3c8.2,0,18.2,2.9,29.9,8.6c4,2,7.8,3.9,11.4,5.6c-1.5,13.2-5,21.5-12.5,35.7
				C82.7,361.1,53,351.9,45.1,338.4z M198.4,363.1c-0.5,0.9-1,2-1.6,3.1c-3.9,7.6-9,17.8-14.6,18.3c-5.4,0.5-57.2-12.2-83.9-19
				c-0.1,0-1.1-0.3-2.8-0.7c7.3-13.7,10.9-22.5,12.5-35.4c26.5,13.1,41.9,20.9,48.2,24.1c2.3,1.1,3.3,1.7,3.4,1.7l0.2,0.1h0.2
				c6.2,0,13.7,0.6,20.5,1.5c9,1.2,16.6,3.1,17.9,5.4C198.6,362.3,198.6,362.7,198.4,363.1z"/>
		</g>
		<g>
			<path class="st117" d="M198.8,328.1c0,0-6.7-28.4-52.5-5.9s-64.6,32.2-64.6,32.2s-43.1,1.6-39.1,9.1s9.9,21.2,16.8,21.7
				s84.1-19,84.1-19S205.7,351.7,198.8,328.1z"/>
			<g class="st109">
				<path class="st118" d="M195.5,321.4c1.6,10.9,0.3,15.3-14.2,22.2l0.2-5.9l-8.2-8.6l-7.5-3.9c0,0-2.6,2-1.9,3.5
					c0.7,1.4,3.1,4,3.1,4s-3.5,6.2-2.8,9.2c0.4,1.7,4.7,4,8.2,5.6c-3.5,1.3-8.8,3.1-15.1,5.2c-1-2.2-3.1-6.5-4.3-8.3
					c-0.1,0-0.1,0-0.2,0.1c1.5,4.4,2.4,7.3,2.8,8.8c-3.6,1.2-7.6,2.5-11.7,3.8l2.5,7.5c0,0-1.8,1-3.7,1.8c11-3.2,19.2-6.4,28.1-9.2
					c15.1-4.7,26.6-16.4,28.5-21.4C200.4,332.9,196,322.2,195.5,321.4z"/>
			</g>
			<path class="st3" d="M67,384c2.1-0.4,12.8-2.7,21-4.5c-8.7,2.5-13.9,4.4-20.9,4.9c-1.3,0.1-2.4,0.2-3.4,0.2
				C65,384.4,66.1,384.1,67,384z"/>
			<path class="st3" d="M120.3,372c6.4-1.5,12.6-3,16.4-3.9C131.9,369.4,126.5,370.7,120.3,372z"/>
			<path class="st0" d="M81.7,354.4c-1.5,0-3,0.1-4.4,0.1c1.7-0.1,2.9-0.2,3.1-0.2c0.6,0,4.9-2,9.5-4.3
				C86.7,351.8,83.9,353.3,81.7,354.4z"/>
			<path class="st0" d="M114.5,373.2c2-0.4,4-0.8,5.9-1.2c-10.9,2.6-22.3,5.3-22.3,5.3s-4.4,1-10,2.2
				C94.4,377.7,102.5,375.5,114.5,373.2z"/>
			<path class="st0" d="M136.7,368.1c2.1-0.6,4.1-1.1,6-1.7c-0.9,0.4-1.8,0.7-2.6,0.9C139.7,367.4,138.5,367.7,136.7,368.1z"/>
			<path class="st0" d="M69.9,382.1c-7,0.6-15.6,0.1-15.6,0.1c1.9,1.7,1,2.9,9.4,2.4c-3.6,0.6-8.3,0.8-11.4-4
				c-4.2-6.5-9.9-17-9.8-18.2c0.1-1.2,0.8-0.5,0.8-0.4c2.6-1,5.2-2.7,9.1-3.3c8.4-1.4,19.8-1.1,29.1-0.5l5.3,8.1l-2.1-8.9
				c15.9-8.5,34.3-18,50.9-25.5l2.7,13L144,357C142.4,366.2,83.7,380.9,69.9,382.1z"/>
			<path class="st4" d="M84.7,357.4l3.6,11.5l-7.2-10.1c-13.7-0.9-37.6,4-34.6,10.5c0-0.1-5.5-6.7-2.8-8.7c1.8-1.4,7.9-3,13.4-3.8
				c6.5-0.8,15.2-1.9,20.2-2.3h0c1.4,0,2.9-0.1,4.4-0.1c2.2-1.1,5-2.6,8.2-4.3c0.1,0,0.1-0.1,0.2-0.1c5.6-2.7,11.5-5.8,11.5-5.8
				l29.8-14.7l3.1-0.7l1,3.1C119,339.4,100.6,348.9,84.7,357.4z"/>
			<path class="st117" d="M188.3,315.9c-12.2-0.4-31.6,6.5-52.7,16l-1-3.1l-3.1,0.7l-29.8,14.7c0,0-6.9,4.3-12.5,7
				C115.6,336.9,172.9,304.3,188.3,315.9z"/>
			<path class="st6" d="M146.5,364.6c0,0-1.8,1-3.7,1.8c0,0,0,0,0,0c-1.9,0.6-3.9,1.1-6,1.7c-3.7,0.9-10,2.4-16.4,3.9
				c-1.9,0.4-3.8,0.8-5.9,1.2c-12,2.3-20.1,4.5-26.4,6.3c-8.2,1.8-18.9,4.1-21,4.5c-0.9,0.1-3.8,1-5.1,1.2
				c-8.4,0.4-12.1-7.7-13.8-11.7c0,0,5.1,6.5,13.8,7.6c6.3,0.7,16.6-2.7,28-7.8c0,0,42.4-5.2,52.8-16.2L146.5,364.6z"/>
			<path class="st6" d="M144.4,353.8c-0.1,0.1-0.1,0.1-0.2,0.1c2.8,7.5,3.7,11,3.7,11l1.9-0.8C149.7,364.2,146.2,356.8,144.4,353.8z
				"/>
			<path class="st6" d="M139.6,338.5c0.1,0,0.2-0.1,0.2-0.1c-1.5-7.8-1.8-11.4-1.8-11.4l-2,0.5C136,327.4,138.3,335.3,139.6,338.5z"
				/>
			<polygon class="st6" points="88.3,368.9 83.5,353.6 81.9,355.1 			"/>
			
				<ellipse transform="matrix(0.9228 -0.3854 0.3854 0.9228 -136.4141 48.6601)" class="st7" cx="53.2" cy="364.6" rx="4.4" ry="0.4"/>
			
				<ellipse transform="matrix(0.9145 -0.4045 0.4045 0.9145 -133.9185 71.5221)" class="st7" cx="102.3" cy="352.7" rx="13" ry="0.6"/>
			<path class="st7" d="M46.8,369.8c-0.8-2.5-2.5-5.8-2.5-7l1.4,0.1l-1.2-0.8c0.3-1.5,8.1-4.3,12.8-4.9c0,0-10.2,1.1-12.5,2.9
				c-2.3,1.8-2.9,1.4-2.1,3.5C43.5,365.7,46.8,369.8,46.8,369.8z"/>
			<path class="st7" d="M136,341l-2.3-11.7l-17.5,8.7c5-1.7,16.6-6.8,16.6-6.8L136,341z"/>
			<path class="st6" d="M199.6,327.9c-0.1-0.6-2.2-8.6-11.1-12.7c-10-4.7-24.4-2.6-42.5,6.3c-43.1,21.2-62.4,31.1-64.4,32.1
				c-4.6,0-36.1,1.8-39.6,7.6c-0.5,0.8-0.5,1.7,0,2.6c0.5,0.9,1,2,1.6,3.1c4.3,8.4,9.3,18.5,15.8,19.1c0.1,0,0.2,0,0.4,0
				c8.9,0,80.9-18.3,84-19.1c1.8-0.4,44.2-10.5,54.3-27.7C200.1,335.5,200.7,331.7,199.6,327.9z M143.3,365.4
				c-26.7,6.8-78.5,19.5-83.9,19c-5.6-0.5-10.7-10.6-14.6-18.3c-0.6-1.1-1.1-2.1-1.6-3.1c-0.2-0.4-0.2-0.7,0-1
				c2.4-3.9,24-6.8,38.4-6.9l0.2,0l0.2-0.1c0.2-0.1,15.6-8,51.6-25.8c1.6,13,5.2,21.7,12.5,35.4
				C144.4,365.1,143.4,365.4,143.3,365.4z M196.6,338.4c-7.9,13.5-37.6,22.8-48.9,25.9c-7.5-14.2-11-22.5-12.5-35.7
				c3.6-1.8,7.4-3.7,11.4-5.6c11.7-5.7,21.7-8.6,29.9-8.6c4.2,0,8,0.8,11.3,2.3c8.3,3.9,10.2,11.6,10.3,11.7l0,0
				C199.1,331.7,198.6,335.1,196.6,338.4z"/>
		</g>
		<g>
			<g>
				<polygon class="st9" points="132.6,241.7 130.4,236.8 124.8,232.7 124.4,233.1 122.8,234.4 122.4,234.8 120.5,240.3 
					118.5,234.8 118.1,234.4 116.5,233.1 116.1,232.7 110.5,236.8 108.3,241.7 105.9,248.1 108.3,255 120.5,269.5 132.6,255 
					135,248.1 				"/>
				<path class="st6" d="M120.5,270.6l-12.8-15.3l-2.5-7.2l2.5-6.6l2.3-5.2l6.2-4.4l3,2.5l1.3,3.9l1.3-3.9l3-2.5l6.2,4.4l2.3,5.2
					l2.5,6.6l-2.5,7.2L120.5,270.6z M108.9,254.6l11.6,13.8l11.6-13.8l2.3-6.5L132,242l-2.1-4.8l-5-3.6l0,0l-1.9,1.6l-2.5,7.3
					l-2.5-7.3l-1.9-1.6l-5,3.6l-2.1,4.8l-2.3,6.1L108.9,254.6z"/>
			</g>
			<path class="st10" d="M123,235c0,0,5.7,5,7.6,12.1c0.3,1,0.5,2.1,0.5,3.1c1.2-2.7,2.2-5,2.9-7c-0.4-0.5-0.8-1-1.2-1.4
				c-2.5-2.7-5.7-5.2-9.8-7.3L123,235z"/>
			<path class="st10" d="M118,235c0,0-5.7,5-7.6,12.1c-0.3,1-0.5,2.1-0.5,3.1c-1.2-2.7-2.2-5-2.9-7c0.4-0.5,0.8-1,1.2-1.4
				c2.5-2.7,5.7-5.2,9.8-7.3L118,235z"/>
			<g>
				<circle class="st6" cx="120.5" cy="243.4" r="1.7"/>
				<path class="st9" d="M120.7,243c0.1,0,0.2,0,0.3,0.1c-0.1-0.2-0.4-0.4-0.7-0.4c-0.4,0-0.7,0.3-0.7,0.7c0,0.1,0,0.3,0.1,0.4
					C119.9,243.3,120.3,243,120.7,243z"/>
			</g>
		</g>
		<g>
			<path class="st119" d="M195,345.6c-3.9,9.8-28.9-4.7-28.9-4.7c-0.9-0.7-1.3-1.9-0.9-2.9l2.7-7.8c0,0-5.4-6.4-3.4-7.9
				c2.1-1.5,8.1-4.4,8.7-7.6c0.5-3,9.3-39.2-6.3-69c0,0.4-1.5,17.9-3,35.4c-1.3,15-2.6,29.8-2.9,33.8c-0.1,0.7-0.4,0.5-0.4,0.5
				l-40,12.6v-75.6l17.9-30.2l1.9-20.4l9.1,3.6l8.2,3.3l2.7,1.1l4.8,1.9c0,0,1.4,0.9,3.6,2.7c3.2,2.6,8.2,7.1,13.5,13.5
				C198.8,247.9,218.5,286.8,195,345.6z"/>
			<path class="st5" d="M173.5,312.4c-0.2,1.1-0.4,1.8-0.4,2.2c-0.5,3.1-6.6,6.1-8.7,7.6c-1.5,1.1,1.1,5,2.5,6.9
				c0.5,0.7,0.7,1.6,0.4,2.4l-2.3,6.5c-0.4,1.1,0,2.3,0.9,2.9c0,0,25,14.5,28.9,4.7c3.3-8.2,5.7-16,7.5-23.4
				C189.5,316.7,179.2,313.8,173.5,312.4z"/>
			<path class="st120" d="M166.1,242.6c0,0,20.6,19.6,15,68.6c9.4,3.4,22.2,7.9,22.2,7.9l-0.9,3l-28.9-9.7c0,0,5.8-27.9,1.6-42.2
				S166.1,242.6,166.1,242.6z"/>
			<path class="st12" d="M165.4,211.9c0,0,46.6,42.1,33,104.9c3.1,1.2,5,0.9,5,0.9s3.5-21.6,2.2-31.8s-2.5-23.9-12.6-42.8
				s-26.8-31.5-26.8-31.5L165.4,211.9z"/>
			<path class="st6" d="M202.9,317.9c-5.2-2.2-11.4-4-19.2-5.7c7.1,2.7,14.3,5.2,19.2,7.5V317.9z"/>
			<path class="st12" d="M203,304.3c0,0-4.1-1.5-13.4-3.2c12.2,0.3,14.3,2,14.3,2L203,304.3z"/>
			<path class="st6" d="M175.4,297.4c0,0,11.8-1.6,16.7,0.6c-9-0.4-16.6,1.3-16.6,1.2C175.4,297.4,175.4,297.4,175.4,297.4z"/>
			<path class="st6" d="M199.7,257.3c0,0-7.5,0.9-9.9,3.6c5.4-2,10.4-2,10.4-2.1C199.7,257.3,199.7,257.3,199.7,257.3z"/>
			<path class="st7" d="M174.3,335.9c0,0,12.5,3.4,19.8,4.2l5.1-15.7l2.4,1.1l-5.8,18.5C195.8,343.9,187,343.7,174.3,335.9z"/>
			<path class="st13" d="M201.6,325.4c-6.8-3.3-14.2-5.2-21.4-5.1c-1.1,5.2-3.2,10.4-5.9,15.6c0,0,10.1,6.6,21.2,8.3
				c-2.9,4.1-2.4,6.6-11.4,4.3c-9.1-2.3-19.2-8.8-19.2-8.8l1.7-6.1l1.2-3.5l-3.1-4.7l-0.5-2.9l3.8-2.2l4.2-3.8l1.4-4.1
				c9.8,3,19.4,6.3,28.8,10L201.6,325.4z"/>
			<path class="st5" d="M168.6,323.3c0.3-0.5,0.6-1,1-1.4c0.4-0.4,0.8-0.7,1.3-1c0.5-0.3,0.9-0.6,1.4-0.8c0.5-0.2,1-0.4,1.6-0.5l0,0
				c-0.3,0.5-0.7,0.9-1.1,1.3c-0.4,0.4-0.8,0.7-1.3,1c-0.4,0.3-0.9,0.6-1.4,0.8C169.7,323,169.1,323.2,168.6,323.3z"/>
			<path class="st6" d="M195.2,344.4c0,0-10.5-1.9-15.1-5.4c8.5,3,15.7,3.9,15.7,3.9L195.2,344.4z"/>
			<polygon class="st6" points="170.8,343.6 174,339.9 172.2,344 			"/>
			<polygon class="st6" points="178.7,346.8 181.8,343.2 180.1,347.3 			"/>
			<polygon class="st6" points="185.6,348.6 187.4,346.5 186.4,348.9 			"/>
			<path class="st11" d="M166.4,244.6l-4.8,70.5c-4.8,1.5-10,3.6-15.6,6.3c-9.7,4.7-18.1,8.9-25.5,12.6v-6.1l36.9-14.9l0.4-4.9
				l-19.8,4.6l20.2-9.5l8-60.6L166.4,244.6z"/>
			<path class="st6" d="M194.6,244.2c-4.7-8.9-10.1-16-14.9-21.3c-6.6-7.3-14.9-12.8-24.1-16.3l-16.1-6l-1.9,21.2l-17.9,30.3
				l0.8,73.3l0.8-1.8v-71.1l17.9-30.2l1.8-19.5l13.7,5.1c9.5,3.5,18,9.3,24.8,17c14.4,16.4,33.3,48.3,22.5,96.2
				c-8.5-4-17.6-7.1-27.4-9.3c2.9-15.5,5.4-43.1-7-66.6l-1.4-2.6l-0.1,2.9c0,1.2-5.3,63.4-5.9,70.1l1.5,0.8l0.1-0.9
				c1.5-17.9,4.8-56.2,5.7-67c11.2,23.5,8.1,50.7,5.2,65c-0.1,0.4-0.1,0.8-0.2,0.9c-0.4,2.1-4,4.3-6.4,5.8c-0.8,0.5-1.5,0.9-2,1.3
				c-0.4,0.3-0.7,0.8-0.8,1.4c-0.3,2.2,2.6,6,3.7,7.3l-2.6,7.4c-0.5,1.4,0,3,1.3,3.9c0.7,0.4,14.3,8.2,23.1,8.2
				c1.2,0,2.4-0.1,3.3-0.5c1.7-0.6,3-1.7,3.6-3.4C214.5,298.9,205.5,264.7,194.6,244.2z M194.2,345.3c-0.5,1.2-1.4,2-2.7,2.5
				c-7.5,2.6-25-7.5-25.1-7.6c-0.7-0.4-0.9-1.3-0.7-2l2.5-7.2c0.3-0.8,1.9-4,3.4-6.1c-1.5,1.1-3.2,2.6-4.1,3.9
				c-1.5-1.8-3.1-4.3-2.9-5.6c0-0.2,0.1-0.3,0.1-0.3c0.4-0.3,1.1-0.7,1.9-1.2c2.8-1.7,6.6-4.1,7.1-6.9c0-0.2,0.1-0.5,0.2-0.9
				c0-0.1,0.1-0.3,0.1-0.4c9.6,1.9,18.7,5,27.3,9.3C199.8,329.8,197.4,337.4,194.2,345.3z"/>
		</g>
		<g>
			<path class="st119" d="M120.5,252.3v76.5l-40.4-14.3c0,0-0.1-0.2-0.3-2.6c-0.5-6.1-1.6-18.5-2.6-31c-1.5-17.4-3-35-3-35.4
				c-15.7,29.8-6.8,66-6.3,69c0.5,3.1,6.6,6.1,8.7,7.6c2.1,1.5-3.4,7.9-3.4,7.9l2.7,7.8c0.4,1.1,0,2.3-0.9,2.9c0,0-25,14.5-28.9,4.7
				c-36.1-90.3,29.8-133.9,29.9-134l9.4-3.8l15.4-6.1l1.9,20.4L120.5,252.3z"/>
			<path class="st5" d="M67.4,312.4c0.2,1.1,0.4,1.8,0.4,2.2c0.5,3.1,6.6,6.1,8.7,7.6c1.5,1.1-1.1,5-2.5,6.9
				c-0.5,0.7-0.7,1.6-0.4,2.4l2.3,6.5c0.4,1.1,0,2.3-0.9,2.9c0,0-25,14.5-28.9,4.7c-3.3-8.2-5.7-16-7.5-23.4
				C51.5,316.7,61.8,313.8,67.4,312.4z"/>
			<path class="st120" d="M74.8,242.6c0,0-20.6,19.6-15,68.6c-9.4,3.4-22.2,7.9-22.2,7.9l0.9,3l28.9-9.7c0,0-5.8-27.9-1.6-42.2
				S74.8,242.6,74.8,242.6z"/>
			<path class="st12" d="M85.2,207.9c0,0-54.4,25.6-42.7,108.9c-3.1,1.2-5,0.9-5,0.9s-3.5-21.6-2.2-31.8
				c1.4-10.2,2.5-23.9,12.6-42.8s26.8-31.5,26.8-31.5L85.2,207.9z"/>
			<path class="st6" d="M38,317.9c5.2-2.2,11.4-4,19.2-5.7c-7.1,2.7-14.3,5.2-19.2,7.5V317.9z"/>
			<path class="st12" d="M38,305.8c0,0,4-3,13.3-4.8c-12.2,0.3-14.3,2-14.3,2L38,305.8z"/>
			<path class="st12" d="M47.6,248.9c0,0,7.5-1,10.9-0.5c-4.6-3.1-10.8-2.5-10.8-2.5L47.6,248.9z"/>
			<path class="st6" d="M65.6,297.4c0,0-11.8-1.6-16.7,0.6c9-0.4,16.6,1.3,16.6,1.2C65.6,297.4,65.6,297.4,65.6,297.4z"/>
			<path class="st7" d="M66.6,335.9c0,0-12.5,3.4-19.8,4.2l-5.1-15.7l-2.4,1.1l5.8,18.5C45.2,343.9,53.9,343.7,66.6,335.9z"/>
			<path class="st13" d="M39.3,325.4c6.8-3.3,14.2-5.2,21.4-5.1c1.1,5.2,3.2,10.4,5.9,15.6c0,0-10.1,6.6-21.2,8.3
				c2.9,4.1,2.4,6.6,11.4,4.3c9.1-2.3,19.2-8.8,19.2-8.8l-1.7-6.1l-1.2-3.5l3.1-4.7l0.5-2.9l-3.8-2.2l-4.2-3.8l-1.4-4.1
				c-9.8,3-19.4,6.3-28.8,10L39.3,325.4z"/>
			<path class="st5" d="M72.4,323.3c-0.3-0.5-0.6-1-1-1.4c-0.4-0.4-0.8-0.7-1.3-1c-0.5-0.3-0.9-0.6-1.4-0.8c-0.5-0.2-1-0.4-1.6-0.5
				l0,0c0.3,0.5,0.7,0.9,1.1,1.3c0.4,0.4,0.8,0.7,1.3,1c0.4,0.3,0.9,0.6,1.4,0.8C71.3,323,71.8,323.2,72.4,323.3z"/>
			<path class="st6" d="M45.8,344.4c0,0,10.5-1.9,15.1-5.4c-8.5,3-15.7,3.9-15.7,3.9L45.8,344.4z"/>
			<polygon class="st6" points="70.1,343.6 67,339.9 68.7,344 			"/>
			<polygon class="st6" points="60.6,346.8 57.4,343.2 59.2,347.3 			"/>
			<polygon class="st6" points="53.7,348.6 51.9,346.5 52.8,348.9 			"/>
			<path class="st11" d="M74.5,244.7l4.8,70.5c4.8,1.5,10,3.6,15.6,6.3c9.7,4.7,18.1,8.9,25.5,12.6V328l-36.9-14.9l-0.8-11.7
				l8.3,1.4l-8.7-6.3l-7.6-53.8L74.5,244.7z"/>
			<path class="st6" d="M103.3,221.8l-1.9-21.2l-16.1,6c-9.2,3.4-17.5,9-24.1,16.3c-4.8,5.3-10.2,12.4-14.9,21.3
				c-10.9,20.5-19.8,54.8-1.1,101.7c0.7,1.6,1.9,2.8,3.6,3.4c1,0.3,2.1,0.5,3.3,0.5c8.8,0,22.4-7.8,23.1-8.2
				c1.3-0.9,1.8-2.5,1.3-3.9l-2.6-7.4c1.1-1.3,4-5.1,3.7-7.3c-0.1-0.6-0.3-1.1-0.8-1.4c-0.5-0.4-1.2-0.8-2-1.3
				c-2.4-1.5-6-3.7-6.4-5.8c0-0.2-0.1-0.5-0.2-0.9c-2.9-14.4-6-41.5,5.2-65c0.9,10.8,4.2,49.2,5.7,67l0.1,0.9l1.6-0.2
				c-0.6-6.6-6-69.4-6-70.7l-0.1-2.9l-1.4,2.6c-12.4,23.5-9.9,51.1-7,66.6c-9.7,2.2-18.9,5.2-27.4,9.3c-10.8-47.9,8-79.9,22.5-96.2
				c6.7-7.6,15.2-13.4,24.8-17l13.7-5.1l1.8,19.5l17.9,30.2V334l1.1,1.5l0.5-0.4v-83.1L103.3,221.8z M66.8,313.4
				c0,0.1,0.1,0.3,0.1,0.4c0.1,0.4,0.1,0.7,0.2,0.9c0.5,2.8,4.3,5.2,7.1,6.9c0.8,0.5,1.4,0.9,1.9,1.2c0,0,0.1,0.1,0.1,0.3
				c0.1,1.3-1.5,3.8-3,5.7c-0.9-1.3-2.5-2.8-4-3.9c1.7,2.5,3.1,5.3,3.4,6.1l2.5,7.2c0.3,0.7,0,1.6-0.7,2
				c-0.1,0.1-17.6,10.1-25.1,7.6c-1.3-0.4-2.2-1.3-2.7-2.5c-3.2-7.9-5.5-15.4-7.2-22.6C48.1,318.4,57.2,315.3,66.8,313.4z"/>
		</g>
		<g>
			<path class="st11" d="M120.5,334.8c35.8-19.4,49.1-20.7,49.1-20.7s-2-32.4-0.7-52.9c-6.4-22.4,0.9-37.6,4.8-43.5
				c1.1-1.7,0.7-3.9-0.9-5.1c-8.9-6.7-18.1-10.8-26.1-13.3l-29.4,86.4L120.5,334.8z"/>
			<path class="st6" d="M119.8,336.1l-3.2-50.4l0-0.1l29.6-87.2l0.7,0.2c9.6,2.9,18.4,7.5,26.3,13.4c1.9,1.4,2.4,4.2,1.1,6.2
				c-3.5,5.5-11,20.6-4.7,42.9l0,0.1l0,0.1c-1.3,20.2,0.7,52.5,0.7,52.8l0,0.8l-0.8,0.1c-0.1,0-13.7,1.5-48.8,20.6L119.8,336.1z
				 M118.2,285.9l3.1,47.7c30.5-16.5,44.3-19.5,47.6-20.1c-0.3-4.9-1.8-33.5-0.7-52.1c-6.5-22.8,1.3-38.4,4.9-44
				c0.9-1.3,0.6-3.1-0.7-4.1c-7.5-5.7-16-10-25.1-12.9L118.2,285.9z"/>
		</g>
		<g>
			<path class="st11" d="M124.3,277.5l-3.8-2l-25.2-75.9c-7.8,2.5-16.5,6.5-25.1,13c-1.6,1.2-2,3.5-0.9,5.1
				c3.8,6,11.2,21.1,4.8,43.5c1.3,20.5-1.2,52.8-1.2,52.8s17.7,3.1,47.7,20.7l5.9-3l-0.3-50.9C126.1,279.5,125.4,278.3,124.3,277.5z
				"/>
			<path class="st6" d="M120.5,335.7l-0.4-0.2c-29.5-17.3-47.3-20.6-47.5-20.6l-0.7-0.1L72,314c0-0.3,2.5-32.5,1.2-52.7l0-0.1l0-0.1
				c6.4-22.3-1.2-37.4-4.7-42.9c-1.3-2-0.8-4.8,1.1-6.2c7.6-5.7,16.1-10.1,25.3-13.1l0.7-0.2l25.4,76.4l3.6,1.9
				c1.3,0.9,2.1,2.4,2.2,4l0.3,51.4L120.5,335.7z M73.6,313.4c3.6,0.8,20.6,5.1,46.9,20.5l5.1-2.6l-0.3-50.4c0-1.1-0.5-2.1-1.4-2.7
				l-4.1-2.1l-25.1-75.5c-8.7,2.9-16.9,7.1-24.1,12.6c-1.3,1-1.6,2.7-0.7,4.1c3.6,5.6,11.4,21.2,4.9,44C76,280,74,308.6,73.6,313.4z
				"/>
		</g>
		<g>
			<g>
				<g>
					<path class="st122" d="M71.9,123.6c-0.4,0-0.8-0.3-1-0.6c-0.2-0.4-0.1-0.9,0.1-1.2C85.3,103.2,103.3,82,114.7,82
						c2.1,0,4,0.7,5.5,2.1c0.4,0.4,1.2,0.6,2,0.6c0.8,0,1.5-0.2,1.9-0.5c2.1-1.6,4.3-2.4,6.6-2.4c8.9,0,19,12.2,37.4,34.3
						c1.5,1.8,3.1,3.7,4.7,5.6c0.3,0.3,0.3,0.8,0.2,1.2c-0.2,0.4-0.6,0.7-1,0.7H71.9z"/>
					<path class="st6" d="M171.9,124.7h-100c-0.9,0-1.7-0.5-2.1-1.3c-0.4-0.8-0.3-1.7,0.2-2.4c15.4-19.9,32.8-40.2,44.6-40.2
						c2.4,0,4.6,0.8,6.3,2.5c0.1,0.1,0.5,0.3,1.2,0.3c0,0,0,0,0,0c0.6,0,1.1-0.2,1.2-0.3c2.3-1.8,4.7-2.7,7.3-2.7
						c9.5,0,19.7,12.3,38.3,34.7l0.1,0.1c1.5,1.8,3,3.6,4.6,5.5c0.6,0.7,0.7,1.6,0.3,2.5C173.6,124.2,172.8,124.7,171.9,124.7z
						 M70.7,122.9h102.3c-1.6-2-3.2-3.8-4.7-5.7l-0.1-0.1c-18.6-22.3-28.8-34.6-37.4-34.6c-2.1,0-4,0.7-6,2.2
						c-0.6,0.5-1.6,0.8-2.7,0.8c0,0,0,0,0,0c-1.2,0-2.2-0.3-2.9-0.9c-1.3-1.2-3-1.9-4.8-1.9C103.2,82.7,84.1,105.6,70.7,122.9
						L70.7,122.9z"/>
				</g>
			</g>
			<g>
				<path class="st123" d="M202.6,151.6c0,8.7-3.5,16.9-9.6,24.1c-13.8,16-40.8,27-72,27c-31.5,0-58.8-11.2-72.4-27.5
					c-5.9-7.1-9.2-15.1-9.2-23.6c0-28.2,36.5-51.1,81.6-51.1S202.6,123.4,202.6,151.6z"/>
				<path class="st6" d="M120.9,203.7c-30.9,0-58.9-10.7-73.3-27.9c-6.2-7.4-9.5-15.8-9.5-24.3c0-28.8,37.1-52.2,82.7-52.2
					c45.6,0,82.7,23.4,82.7,52.2c0,8.7-3.4,17.3-9.9,24.8C179.3,193.3,151.4,203.7,120.9,203.7z M120.9,101.6
					c-44.4,0-80.9,22.4-80.9,50c0,8.1,3.4,15.8,9.3,22.9c13.9,16.7,41.4,27.1,71.6,27.1c29.8,0,57.1-10.2,71.2-26.6
					c6.1-7.2,9.8-15.2,9.8-23.4C201.9,124,165.3,101.6,120.9,101.6z"/>
			</g>
			<path class="st124" d="M54.8,176.4c-4.8-4.3-5.3-11.8-1-16.6c9.5-10.8,30.3-27.9,67.1-27.9c37.3,0,57.7,18,66.8,29.1
				c4,4.9,3.5,12-1.1,16.3c-9.7,8.8-30.2,22-67,21.8C85.5,198.9,64.8,185.4,54.8,176.4z"/>
			<g>
				<path class="st5" d="M174.8,165.6c3.3,1.1,5.1,6.6,4.6,11.4c-0.4,4.2-2.5,8.1-5.8,10.8c-3.4,2.8-8.8,4.1-11,0.5
					c-0.9-1.9-1.2-3.9-0.9-6c0.3-3.3,1.5-6.4,3.3-9.1C166.9,170.4,170.8,164.4,174.8,165.6z"/>
				<g>
					<path class="st6" d="M174.8,172.2c-0.6-1-1.6-1.3-2.6-1.3c0.6,0.1,1.2,0.5,1.6,1.2c1,1.7,0.7,4.3,0,6.5c-0.8,2.5-2.7,4.5-5,5.5
						c0.1,0.1,0.1,0.3,0.2,0.4c2.7-0.9,4.9-3,5.8-5.9C175.5,176.5,175.8,173.9,174.8,172.2z"/>
					<path class="st6" d="M175.1,176.8c-0.1,0.4-2.3,4.1-2.1,3.7c0.9-2.3,0.8-6.9-2.3-6.7c-0.8,0-0.9-1.5-0.2-2.2
						c0.5-0.6,1.9-0.9,2.6-0.6c0.7,0.3,1.1,0.6,1.4,1c0.2,0.2-0.1,0.6,0,0.9C175.2,174,175.4,175.5,175.1,176.8z"/>
					<path class="st13" d="M169.8,176.5c1.2,0.5-0.2,1.7,0.7,2.7c0.2,0.2,0.7,0.3,1.4-0.8c0.6-1,0.9-2-0.2-2.8
						c-0.3-0.3-1.1-0.4-1.5-0.3C169.6,175.6,169.3,176.4,169.8,176.5z"/>
				</g>
				<g>
					<path class="st13" d="M166.2,187.2C166.2,187.2,166.2,187.2,166.2,187.2c0.1,0,0.2,0,0.3,0c0.2,0,0.4,0,0.6,0
						c0.4,0,0.8-0.1,1.2-0.1c0.8-0.1,1.6-0.4,2.4-0.7c0.8-0.3,1.5-0.7,2.2-1.2c0.7-0.5,1.3-1.1,1.8-1.8c-0.4,0.8-0.9,1.5-1.5,2.1
						c-0.6,0.6-1.3,1.1-2.1,1.6c-0.8,0.5-1.6,0.8-2.4,1.1c-0.4,0.1-0.9,0.3-1.3,0.4c-0.2,0-0.5,0.1-0.7,0.1c-0.1,0-0.2,0-0.4,0
						c-0.1,0-0.3,0-0.6-0.1L166.2,187.2z"/>
				</g>
				<g>
					<g id="Path_349_14_">
						<path class="st5" d="M66.1,165.6c-3.3,1.1-5.1,6.6-4.6,11.4c0.4,4.2,2.5,8.1,5.8,10.8c3.4,2.8,8.8,4.1,11,0.5
							c0.9-1.9,1.2-3.9,0.9-6c-0.3-3.3-1.5-6.4-3.3-9.1C74.1,170.4,70.1,164.4,66.1,165.6z"/>
						<path class="st6" d="M74.2,191.2c-2.3,0-5.1-1-7.3-2.8c-3.5-2.7-5.7-6.9-6.1-11.3c-0.5-4.9,1.4-11,5.1-12.2l0,0
							c4.6-1.4,8.7,4.9,10.7,7.9c1.9,2.9,3.1,6.1,3.4,9.5c0.3,2.2,0,4.4-1,6.4l0,0.1c-0.8,1.3-2,2.1-3.6,2.4
							C75,191.2,74.6,191.2,74.2,191.2z M66.4,166.4c-2.9,1-4.5,6.2-4.1,10.6c0.3,4,2.4,7.7,5.5,10.2c2.3,1.8,5.2,2.8,7.3,2.4
							c1.1-0.2,2-0.7,2.5-1.6c0.8-1.7,1.1-3.6,0.8-5.5c-0.3-3.2-1.4-6.2-3.2-8.8C73.5,170.9,69.8,165.3,66.4,166.4z"/>
					</g>
					<g>
						<path class="st6" d="M72.7,184.4c-2.6-0.9-4.7-3-5.6-5.8c-0.6-2.2-1-4.8,0-6.5c0.4-0.7,1-1,1.6-1.2c-1-0.1-2,0.2-2.6,1.3
							c-1,1.7-0.7,4.3,0,6.5c1,3.1,3.6,5.5,6.8,6.1C72.8,184.7,72.7,184.5,72.7,184.4z"/>
						<path class="st6" d="M65.8,176.8c0.1,0.4,2.3,4.1,2.1,3.7c-0.9-2.3-0.8-6.9,2.3-6.7c0.8,0,0.9-1.5,0.2-2.2
							c-0.5-0.6-1.9-0.9-2.6-0.6c-0.7,0.3-1.1,0.6-1.4,1c-0.2,0.2,0.1,0.6,0,0.9C65.7,174,65.5,175.5,65.8,176.8z"/>
						<path class="st13" d="M71,176.5c-1.2,0.4,0.2,1.7-0.7,2.7c-0.2,0.2-0.7,0.3-1.4-0.8c-0.6-1-0.8-2,0.2-2.8
							c0.3-0.3,1.1-0.4,1.5-0.3C71.1,175.6,71.4,176.4,71,176.5z"/>
					</g>
					<path class="st13" d="M75.3,188.7c-0.1,0-0.2,0-0.3,0.1c-0.1,0-0.2,0-0.2,0c-0.1,0-0.3,0-0.4,0c-0.2,0-0.5-0.1-0.7-0.1
						c-0.4-0.1-0.9-0.2-1.3-0.4c-0.8-0.3-1.7-0.7-2.4-1.1c-0.8-0.5-1.5-1-2.1-1.6c-0.6-0.6-1.1-1.3-1.5-2.1c0.5,0.7,1.1,1.3,1.8,1.8
						c0.7,0.5,1.4,0.9,2.2,1.2c0.8,0.3,1.6,0.5,2.4,0.7c0.4,0.1,0.8,0.1,1.2,0.1c0.2,0,0.4,0,0.6,0c0.1,0,0.2,0,0.2,0
						c0,0,0.1,0,0.1,0c0,0,0,0,0,0L75.3,188.7z"/>
				</g>
				<path class="st6" d="M166.7,191.2c-0.4,0-0.8,0-1.2-0.1c-1.6-0.3-2.8-1.1-3.6-2.4l0-0.1c-1-2-1.3-4.2-1-6.4
					c0.3-3.3,1.5-6.6,3.4-9.5c2-3,6.1-9.3,10.7-7.9l0,0c3.8,1.2,5.6,7.3,5.1,12.2c-0.4,4.4-2.6,8.6-6.1,11.3
					C171.8,190.2,169.1,191.2,166.7,191.2z M163.3,188c0.6,0.9,1.4,1.5,2.5,1.6c2.1,0.4,5-0.6,7.3-2.4c3.2-2.5,5.2-6.2,5.5-10.2
					c0.4-4.3-1.1-9.6-4-10.6c-3.4-1.1-7.1,4.5-8.9,7.2c-1.8,2.7-2.9,5.7-3.2,8.8C162.2,184.4,162.5,186.2,163.3,188z"/>
			</g>
			<path class="st5" d="M167.8,156.9l-1.7,25.3l-0.8,11.4l-12.9,19.4L138,234.7l-17.6,2.7l-17.6-2.7l-27.3-41.1l-2.4-36.5
				c0,0,13.9-10.3,29.9-12.9c10.8-1.7,24.4-2.5,35,0.5C153.4,149.2,167.8,156.9,167.8,156.9z"/>
			<path class="st125" d="M166.1,182.3l-0.8,11.4l-12.9,19.4c-4.3-3.1-7.1-8.2-7.1-13.9c0-9.5,7.7-17.3,17.3-17.3
				C163.8,181.9,165,182,166.1,182.3z"/>
			<path class="st125" d="M75,182.3l0.8,11.4l12.9,19.4c4.3-3.1,7.1-8.2,7.1-13.9c0-9.5-7.7-17.3-17.3-17.3
				C77.3,181.9,76.2,182,75,182.3z"/>
			<polyline class="st7" points="75.9,187.1 75.7,164.5 81.3,161.8 75.5,162.5 74.4,156 73,157.1 74.2,176.9 75,187.6 75.8,187.3 
							"/>
			<polygon class="st13" points="164.8,154.7 164.3,193 166.3,187 167.8,156.7 			"/>
			<path class="st6" d="M120.5,238.2l-18-2.8l-27.6-41.5l0-0.2l-2.4-36.2c0,0,12.8-8.5,20.7-10.6c18.2-4.8,32.2-4.5,43.2-2.4
				c16.7,3.2,31.5,12.3,31.5,12.3l-1.7,37.1l-0.1,0.2l-27.5,41.4L120.5,238.2z M103.4,234l17.1,2.6l17.1-2.6l27-40.6l2.4-36.5
				c0,0-14.5-8.2-32.3-11.3c-10.8-1.9-24.6-2.3-38.4,1.2c-11.6,2.9-22.5,10.8-22.5,10.8l2.5,35.8L103.4,234z"/>
			<g>
				<path class="st13" d="M99.8,149c3.2-0.5,28.4-1.9,40.8-0.1c0,0-11.1-3.4-20.5-2.9c-9.3,0.5-19.7,2.8-19.7,2.8L99.8,149z"/>
				<polygon class="st13" points="131.1,147.5 137.3,154.3 133.6,147.5 				"/>
				<path class="st112" d="M99.6,148.7c0.8-0.3,3.1-1.3,3.9-1.6l2.3-0.6l2.4-0.5l2.4-0.4c3.2-0.5,6.5-0.8,9.7-0.8
					c3.3,0,6.5,0.4,9.7,0.9l2.4,0.4c0.8,0.2,1.6,0.3,2.4,0.5l2.3,0.6c0.8,0.2,3.1,1.3,3.9,1.5l-1.7-0.4l-2.3-0.5l-2.4-0.5l-2.4-0.4
					l-2.4-0.3c-3.2-0.4-6.4-0.6-9.6-0.6c-3.2,0-6.4,0.1-9.6,0.5l-2.4,0.3l-2.4,0.4l-2.3,0.5l-2.3,0.6L99.6,148.7z"/>
				<path class="st6" d="M99.6,148.7c0.8-0.3,1.7-0.5,2.5-0.7l2.5-0.6l2.6-0.5l2.6-0.4c3.5-0.5,7-0.7,10.5-0.7c3.5,0,7,0.3,10.5,0.8
					l2.6,0.4c0.9,0.2,1.7,0.3,2.6,0.5l2.5,0.6c0.8,0.2,1.7,0.4,2.5,0.7l-0.2,0.4l-2.5-0.5l-2.5-0.5l-2.6-0.4l-2.6-0.3
					c-3.4-0.4-6.9-0.6-10.4-0.6c-3.5,0-6.9,0.1-10.4,0.5l-2.6,0.3l-2.6,0.4l-2.5,0.5l-2.5,0.6L99.6,148.7z"/>
			</g>
			<g>
				<g>
					<path class="st126" d="M110.2,163.2c-0.1,0-0.3,0-0.4-0.1c-2.6-0.9-6.4-1.3-10.8-1.3c-6.3,0-12,0.9-12.6,1.2
						c-0.1,0-0.2,0.1-0.3,0.1c-0.2,0-0.5-0.1-0.6-0.3c-0.2-0.3-0.2-0.7,0.1-1l0.4-0.4c0.1-0.1,0.1-0.1,0.2-0.1
						c0.3-0.2,6.5-3.8,12.4-5c0.8-0.2,1.6-0.2,2.5-0.2c5.5,0,11.4,3.1,11.6,3.3c0.4,0.2,0.5,0.6,0.3,1
						C112.3,161.6,111.3,163.2,110.2,163.2z"/>
					<path class="st6" d="M101,156.8c5.4,0,11.2,3.2,11.2,3.2s-1.1,2.5-2,2.5c0,0-0.1,0-0.1,0c-3.1-1-7.1-1.4-11-1.4
						c-6.3,0-12.1,0.9-12.9,1.3l0.4-0.4c0,0,6.3-3.7,12.1-4.9C99.4,156.8,100.2,156.8,101,156.8 M101,155.2c-0.9,0-1.8,0.1-2.7,0.3
						c-6.1,1.3-12.4,5-12.6,5.1c-0.1,0.1-0.2,0.2-0.3,0.3l-0.4,0.4c-0.5,0.5-0.6,1.4-0.1,2c0.3,0.4,0.8,0.7,1.3,0.7
						c0.2,0,0.4,0,0.6-0.1c0.8-0.3,6.2-1.1,12.3-1.1c4.4,0,8,0.5,10.5,1.3c0.2,0.1,0.4,0.1,0.6,0.1c1.2,0,2.4-1.2,3.4-3.5
						c0.3-0.7,0-1.6-0.7-2C112.7,158.4,106.7,155.2,101,155.2L101,155.2z"/>
				</g>
			</g>
			<g>
				<g>
					<path class="st126" d="M127.9,163c-1.1,0-2.1-1.6-2.7-3c-0.2-0.4,0-0.8,0.3-1c0.2-0.1,6.1-3.3,11.6-3.3c0.9,0,1.7,0.1,2.5,0.2
						c5.9,1.2,12.1,4.9,12.4,5c0.1,0,0.1,0.1,0.2,0.1l0.4,0.4c0.3,0.3,0.3,0.7,0.1,1c-0.2,0.2-0.4,0.3-0.6,0.3c-0.1,0-0.2,0-0.3-0.1
						c-0.6-0.3-6.3-1.2-12.5-1.2c-4.5,0-8.2,0.5-10.8,1.4C128.1,163,128,163,127.9,163z"/>
					<path class="st6" d="M137.1,156.5c0.8,0,1.6,0.1,2.3,0.2c5.9,1.2,12.2,4.9,12.2,4.9l0.4,0.4c-0.8-0.4-6.6-1.3-12.9-1.3
						c-3.9,0-8,0.3-11.1,1.4c0,0-0.1,0-0.1,0c-0.9,0-2-2.5-2-2.5S131.7,156.5,137.1,156.5 M137.1,155L137.1,155
						c-5.7,0-11.7,3.2-12,3.4c-0.7,0.4-1,1.3-0.7,2c1,2.3,2.2,3.5,3.4,3.5c0.2,0,0.4,0,0.6-0.1c2.6-0.9,6.2-1.3,10.6-1.3
						c6,0,11.5,0.8,12.3,1.1c0.2,0.1,0.4,0.1,0.6,0.1c0.5,0,1-0.2,1.3-0.7c0.4-0.6,0.4-1.4-0.2-2l-0.4-0.4c-0.1-0.1-0.2-0.2-0.3-0.3
						c-0.3-0.2-6.6-3.9-12.6-5.1C138.9,155,138.1,155,137.1,155L137.1,155z"/>
				</g>
			</g>
			<path class="st47" d="M65,120.1c26.5-18.7,77.9-23.3,111.8-0.1c0.9,0.6,0.2,2.1-0.9,1.6c-41.8-16.8-80-11.8-110,0.1
				C64.8,122.2,64.1,120.7,65,120.1z"/>
			<path class="st93" d="M114.3,84.7c0,0,2.1-0.4,4.6,1.9c2.5,2.3,5,1.5,6.7,0c1.3-1.1,4-2.6,6.1-2.1c3.9,0.9,8.1,5,8.1,5
				s-9.4-1.2-18.1,1.5c-10.3,3.2-18.2,0-18.2,0S108.9,85.1,114.3,84.7z"/>
			<path class="st6" d="M68.6,161c-0.3,0.2-0.6-0.2-0.4-0.4c2.9-3.1,6.3-5.6,9.8-7.9c4.3-2.7,8.9-4.9,13.6-6.6l3.6-1.2
				c1.2-0.4,2.4-0.6,3.6-1c2.4-0.7,4.9-1,7.3-1.5c0.6-0.1,1.2-0.2,1.8-0.3l1.8-0.2c1.2-0.1,2.5-0.3,3.7-0.4l3.7-0.1l1.9-0.1
				c0.6,0,1.2,0,1.9,0c9.9,0.1,19.8,1.7,29.2,5.2c4.7,1.8,9.2,4,13.5,6.8c3.5,2.3,7,4.9,10,8c0.2,0.2-0.1,0.6-0.3,0.4
				c-3.8-2.8-7.1-4.6-10.8-6.6c-4.4-2.3-8.5-4.2-13.1-5.7c-1.2-0.4-2.2-1-3.4-1.3l-1.8-0.5l-1.8-0.4l-3.5-0.8l-3.6-0.6
				c-2.4-0.4-4.8-0.6-7.2-0.8c-1.2-0.2-2.4-0.2-3.6-0.2l-3.6-0.1c-2.4,0-4.8,0.1-7.2,0.2c-1.2,0.1-2.4,0.2-3.6,0.3
				c-1.2,0.1-2.4,0.2-3.6,0.4c-2.4,0.4-4.8,0.6-7.1,1.2c-1.2,0.3-2.4,0.5-3.5,0.8l-3.5,1c-4.6,1.4-8.9,3.7-13.3,6.1
				C75.4,156.6,72.3,158.4,68.6,161z"/>
			<g>
				<g>
					<path class="st15" d="M98.2,227.6l-18.3-29.1l27,19.9c1.3-2.3,5.5-8.5,12.7-8.6l0.2,0c7.1,0,10.8,5.6,11.9,7.8l27.7-16.4
						l-16.6,26.4c-3.1,4.6-7.5,8.2-12.7,10.3l-9.6,3.8l-9.6-3.8C105.7,235.8,101.3,232.2,98.2,227.6z"/>
					<path class="st6" d="M83.1,202l24,17.6c0,0,4.1-8.9,12.5-9c0,0,0.1,0,0.1,0c8.2,0,11.6,8.1,11.6,8.1l25.4-14.9l-14.4,23.1
						c-3.1,4.6-7.4,8.2-12.5,10.3l-9.3,3.8l-9.3-3.8c-5.1-2.1-9.5-5.6-12.5-10.2L83.1,202 M156.7,203.8L156.7,203.8 M76.6,195
						l5.3,7.9L98.5,229c1.8,3,4.5,5.5,7.7,7l14,6.5l0.2,0l0.2,0l12-5.1c4-1.7,7.3-4.6,9.6-8.3l15.7-24.5l4-6.1l-6.2,3.9l-23.9,14
						c-1.6-2.6-5.4-7.5-12.2-7.5l-0.2,0c-6.9,0.1-11.2,5.4-12.9,8.2l-22.6-16.5L76.6,195L76.6,195z M156.7,202.3L156.7,202.3
						L156.7,202.3L156.7,202.3z"/>
				</g>
				<path class="st21" d="M149.7,213.9l-0.8,1.5l-6.7,11.6c-3.1,4.6-7.4,8.2-12.6,10.3l-9.2,3.8l-9.3-3.8
					c-5.1-2.1-9.5-5.6-12.5-10.2l-7.6-13c2.1,2.5,12.1,13.6,19.3,18.1l-2.9-5.4l7.1,5.6l-0.2-5.6l5.8,7.6l5.4-8.2l0.8,6.3l6.1-6.6
					l0.3,5.6L149.7,213.9z"/>
			</g>
			<g>
				<g>
					<path class="st15" d="M141.3,197.6l-17.7-5.1c-1-0.3-2.1-0.6-3.2-0.7c-1.1,0.2-2.1,0.4-3.2,0.7l-17.7,5.1
						c-0.2,5.7-1.5,11.4-4.2,17.4c0,0,0,0.1,0.1,0.1c4.5-3,8.1-5.4,10.8-9.8l14.2-2.3l14.2,2.3c2.7,4.4,6.3,6.9,10.8,9.8
						c0,0,0.1,0,0.1-0.1C142.8,209.1,141.5,203.3,141.3,197.6z"/>
					<path class="st127" d="M116.7,193.2l-2.9,2.1l4.8-0.8l-1.3,1.5l4.9-1.1l-0.9,1l18.5,3.6c0,0-1.2,8.1,4.2,14.3
						c-0.7-4.8-1.5-8.7-1.5-8.7l-1.2-6.7l-1.9-1.2l-15.1-4.1l-3.7-0.8l-2.8,0.2L116.7,193.2z"/>
					<path class="st7" d="M97.9,209.4c0,0,3.1-3.6,3.7-10l10.3-4.6l-12.3,3.4l-1.6,9.3L97.9,209.4z"/>
					<path class="st127" d="M96.9,213.8c0,0,6.5-5.4,7.7-9.5l15.8-1.5l-13.4,2.9c0,0-5.5,5.2-5.7,5.4c-0.1,0.2-4.2,3.3-4.2,3.3
						L96.9,213.8z"/>
					<path class="st6" d="M95.5,216.4l-0.4-0.3c-0.3-0.2-0.4-0.6-0.2-0.9c2.5-5.7,3.9-11.4,4.1-17.2l0-0.5l18.2-5.3
						c1.1-0.3,2.2-0.6,3.2-0.8l0.1,0l0.1,0c1,0.2,2.1,0.4,3.2,0.8l18.2,5.3l0,0.5c0.2,5.7,1.6,11.5,4.1,17.1l0.2,0.5l-0.5,0.4
						c-0.3,0.2-0.6,0.2-0.9,0c-4.1-2.7-8-5.3-10.8-9.8l-13.8-2.2l-13.8,2.2c-2.8,4.5-6.7,7.1-10.8,9.8L95.5,216.4z M95.2,215
						C95.1,215,95.1,215,95.2,215C95.1,215,95.1,215,95.2,215z M100.3,198.6c-0.2,5.1-1.4,10.2-3.4,15.2c3.5-2.4,6.5-4.7,8.8-8.4
						l0.2-0.3l14.6-2.3l0.1,0l14.5,2.3l0.2,0.3c2.3,3.8,5.3,6.1,8.8,8.4c-2-5-3.1-10.1-3.4-15.2l-17.2-5c-1-0.3-2-0.5-3-0.7
						c-1,0.2-1.9,0.4-3,0.7L100.3,198.6z"/>
					<polygon class="st127" points="120.5,202.8 135.8,203 126.2,203.7 					"/>
				</g>
				<g>
					<g>
						<g>
							<path class="st5" d="M111.5,182.5c0,0-4.9,3.2-3.5,6.9c1.4,3.7,5.5,5.3,12.4,5.2c7.3-0.1,10.9-3.5,10.6-6.8S127,182,127,182"
								/>
						</g>
						<path class="st22" d="M108.4,187.9c0,0,2.8,3.4,10.4,3.6s11.4-3.3,11.4-3.3s0.6,6.3-11.5,5.9S108.4,187.9,108.4,187.9z"/>
					</g>
					<path class="st6" d="M111.5,182.6c-1.3,1.2-2.5,2.6-3,4.2c-0.2,0.8-0.2,1.5,0.1,2.2c0.3,0.7,0.7,1.4,1.3,2
						c1.1,1.1,2.7,1.7,4.4,2c1.7,0.3,3.4,0.5,5.2,0.4c1.8,0,3.5-0.1,5.1-0.5c1.6-0.4,3.2-1.1,4.3-2.3c1.1-1.1,1.5-2.7,0.9-4.3
						c-0.5-1.6-1.7-3-3-4.2l0,0c-0.1-0.1-0.1-0.2,0-0.2c0.1-0.1,0.1-0.1,0.2,0c0.8,0.5,1.6,1,2.3,1.7c0.7,0.7,1.3,1.4,1.7,2.3
						c0.4,0.9,0.7,1.9,0.6,3c-0.1,1.1-0.6,2.1-1.3,2.9c-1.3,1.6-3.2,2.5-5.1,3.1c-1.9,0.5-3.8,0.7-5.7,0.7c-1.9,0-3.8-0.1-5.7-0.6
						c-1.9-0.5-3.8-1.3-5.2-2.8c-0.7-0.8-1.2-1.7-1.5-2.7c-0.3-1.1-0.2-2.2,0.2-3.1c0.4-0.9,1-1.7,1.7-2.4c0.7-0.7,1.5-1.2,2.3-1.7
						c0.1,0,0.2,0,0.2,0.1C111.6,182.5,111.6,182.6,111.5,182.6L111.5,182.6z"/>
				</g>
			</g>
			<g>
				<g>
					<path class="st13" d="M93.6,175.7c2,3,9.8,6.7,13.5,1.2C102.2,178.3,99.5,178.8,93.6,175.7z"/>
					<g>
						<path class="st6" d="M106.5,173.2c-0.6-1.3-1.4-2.3-2.5-2.9c-1.1-0.6-2.5-0.8-3.9-0.6c-1.4,0.2-2.8,0.7-4.1,1.4
							c-1.3,0.7-2.5,1.6-3.7,2.6l0,0c-0.1,0.1-0.3,0.1-0.4,0c-0.1-0.1-0.1-0.3,0-0.4c1-1.2,2.1-2.3,3.5-3.2c1.3-0.9,2.8-1.6,4.5-2
							c1.6-0.4,3.5-0.2,5.1,0.6l0.3,0.1c0.1,0.1,0.2,0.1,0.3,0.2l0.5,0.4c0.4,0.3,0.6,0.6,1,0.9c0.3,0.4,0.5,0.7,0.7,1.1
							c0.2,0.4,0.4,0.8,0.5,1.2c0.2,0.5,0,1-0.5,1.2C107.3,173.9,106.8,173.7,106.5,173.2L106.5,173.2z"/>
					</g>
				</g>
				<ellipse class="st6" cx="101.5" cy="171.7" rx="3.5" ry="3.1"/>
				
					<ellipse transform="matrix(0.1996 -0.9799 0.9799 0.1996 -87.5746 235.254)" class="st7" cx="100.2" cy="171.2" rx="0.7" ry="0.7"/>
			</g>
			<g>
				<g>
					<path class="st13" d="M143.7,175.7c-2,3-9.8,6.7-13.5,1.2C135.1,178.3,137.7,178.8,143.7,175.7z"/>
					<g>
						<path class="st6" d="M130.7,173.2c0.6-1.3,1.4-2.3,2.5-2.9c1.1-0.6,2.5-0.8,3.9-0.6c1.4,0.2,2.8,0.7,4.1,1.4
							c1.3,0.7,2.5,1.6,3.7,2.6l0,0c0.1,0.1,0.3,0.1,0.4,0c0.1-0.1,0.1-0.3,0-0.4c-1-1.2-2.1-2.3-3.5-3.2c-1.3-0.9-2.8-1.6-4.5-2
							c-1.6-0.4-3.5-0.2-5.1,0.6l-0.3,0.1c-0.1,0.1-0.2,0.1-0.3,0.2l-0.5,0.4c-0.4,0.3-0.6,0.6-1,0.9c-0.3,0.4-0.5,0.7-0.7,1.1
							c-0.2,0.4-0.4,0.8-0.5,1.2c-0.2,0.5,0,1,0.5,1.2C129.9,173.9,130.5,173.7,130.7,173.2L130.7,173.2z"/>
					</g>
				</g>
				<ellipse class="st6" cx="135.8" cy="171.7" rx="3.5" ry="3.1"/>
				
					<ellipse transform="matrix(0.9799 -0.1996 0.1996 0.9799 -31.4757 30.2451)" class="st7" cx="134.3" cy="171.2" rx="0.7" ry="0.7"/>
			</g>
			<g>
				<path class="st15" d="M80.1,152.8c0,0,1.4,13-5.9,18c-0.5-6.8-1.1-13.6-1.1-13.6S76,155,80.1,152.8z"/>
				<path class="st6" d="M73.6,172.2l-0.1-1.4c-0.5-6.7-1.1-13.5-1.1-13.6l0-0.4l0.3-0.3c0.1-0.1,3-2.2,7.1-4.4l1-0.5l0.1,1.1
					c0.1,0.5,1.4,13.5-6.2,18.7L73.6,172.2z M74,157.5c0.1,1.5,0.6,6.5,1,11.7c4.5-4.2,4.6-12.1,4.5-15.2
					C76.8,155.5,74.7,157,74,157.5z"/>
			</g>
			<g>
				<path class="st15" d="M159.7,152.9c0,0-0.9,13,6.6,17.7c0.2-6.8,0.5-13.6,0.5-13.6S163.8,154.9,159.7,152.9z"/>
				<path class="st6" d="M165.9,171.3c-7.9-4.9-7-17.9-7-18.4l0.1-1.2l1,0.5c4.2,2,7.1,4,7.3,4.1l0.4,0.2l0,0.4
					c0,0.1-0.3,6.9-0.5,13.6l0,1.4L165.9,171.3z M160.4,154.2c0,3,0.5,11,5.1,15c0.2-5.2,0.4-10.2,0.5-11.7
					C165.2,156.9,163.1,155.6,160.4,154.2z"/>
			</g>
		</g>
		<g>
			<path class="st11" d="M91.8,298.9l-18.1,0.4l-0.5,10.5C73.2,309.7,92.7,315.4,91.8,298.9z"/>
			<path class="st6" d="M79.9,311.7c-4.1,0-6.8-0.7-7-0.8l-0.6-0.2l0.7-12l20.3-0.6l0,0.8c0.3,4.5-1,7.9-3.7,10.1
				C86.9,311.1,83.2,311.7,79.9,311.7z M73.9,309.6c2.4,0.5,10.1,1.9,14.7-1.8c2.1-1.7,3.2-4.4,3.1-8l-17.3,0.5L73.9,309.6z"/>
		</g>
		<g>
			<path class="st11" d="M149.3,298.6l19.6,0.3l0.5,10.7C169.3,309.7,148.3,315.5,149.3,298.6z"/>
			<path class="st6" d="M161.7,311.5c-3.3,0-6.9-0.6-9.6-2.8c-2.7-2.2-3.9-5.6-3.7-10.1l0-0.8l21.1,0.4l0.5,12.1l-0.6,0.2
				C169.3,310.5,165.8,311.5,161.7,311.5z M150,299.4c-0.1,3.6,1,6.3,3.1,8c4.6,3.7,13.1,2.1,15.4,1.6l-0.4-9.3L150,299.4z"/>
		</g>
		<g>
			<g>
				<ellipse class="st128" cx="119.7" cy="283.1" rx="2.4" ry="2.3"/>
				<path class="st6" d="M119.7,285.8c-1.5,0-2.8-1.2-2.8-2.7c0-1.5,1.3-2.7,2.8-2.7s2.8,1.2,2.8,2.7
					C122.5,284.6,121.3,285.8,119.7,285.8z M119.7,281.2c-1.1,0-2,0.9-2,1.9c0,1.1,0.9,1.9,2,1.9s2-0.9,2-1.9
					C121.7,282.1,120.8,281.2,119.7,281.2z"/>
			</g>
			<ellipse class="st129" cx="118.6" cy="282.4" rx="0.4" ry="0.4"/>
		</g>
		<g>
			<g>
				<ellipse class="st128" cx="119.7" cy="304.1" rx="2.4" ry="2.3"/>
				<path class="st6" d="M119.7,306.8c-1.5,0-2.8-1.2-2.8-2.7c0-1.5,1.3-2.7,2.8-2.7s2.8,1.2,2.8,2.7
					C122.5,305.6,121.3,306.8,119.7,306.8z M119.7,302.2c-1.1,0-2,0.9-2,1.9s0.9,1.9,2,1.9s2-0.9,2-1.9S120.8,302.2,119.7,302.2z"/>
			</g>
			<ellipse class="st129" cx="118.6" cy="303.4" rx="0.4" ry="0.4"/>
		</g>
		<g>
			<g>
				<ellipse class="st128" cx="119.7" cy="322.9" rx="2.4" ry="2.3"/>
				<path class="st6" d="M119.7,325.6c-1.5,0-2.8-1.2-2.8-2.7c0-1.5,1.3-2.7,2.8-2.7s2.8,1.2,2.8,2.7
					C122.5,324.4,121.3,325.6,119.7,325.6z M119.7,321c-1.1,0-2,0.9-2,1.9c0,1.1,0.9,1.9,2,1.9s2-0.9,2-1.9
					C121.7,321.9,120.8,321,119.7,321z"/>
			</g>
			<ellipse class="st129" cx="118.6" cy="322.2" rx="0.4" ry="0.4"/>
		</g>
		<g class="st109">
			<g>
				<g>
					<path class="st41" d="M77,221.7c-0.3,0-0.6-0.2-0.7-0.5c-1-2.7-1.7-4.3-1.7-4.3c-0.2-0.4,0-0.9,0.4-1c0.4-0.2,0.9,0,1,0.4
						c0,0.1,0.8,1.6,1.8,4.5c0.1,0.4-0.1,0.9-0.5,1C77.2,221.7,77.1,221.7,77,221.7z"/>
				</g>
				<g>
					<path class="st41" d="M82.5,280.1c-0.4,0-0.8-0.3-0.8-0.8c0-3-0.1-6.4-0.2-9.8c0-0.4,0.3-0.8,0.8-0.8c0.4,0,0.8,0.3,0.8,0.8
						c0.1,3.5,0.1,6.8,0.2,9.8C83.3,279.7,82.9,280.1,82.5,280.1C82.5,280.1,82.5,280.1,82.5,280.1z M82.1,260.4
						c-0.4,0-0.8-0.3-0.8-0.8c-0.1-3.3-0.1-6.6-0.2-9.8c0-0.4,0.3-0.8,0.8-0.8c0,0,0,0,0,0c0.4,0,0.8,0.3,0.8,0.8
						c0.1,3.2,0.1,6.5,0.2,9.8C82.9,260.1,82.6,260.4,82.1,260.4C82.1,260.4,82.1,260.4,82.1,260.4z M81.3,240.8
						c-0.4,0-0.7-0.3-0.8-0.7c-0.4-3.2-0.9-6.5-1.6-9.6c-0.1-0.4,0.2-0.8,0.6-0.9c0.4-0.1,0.8,0.2,0.9,0.6c0.7,3.2,1.3,6.5,1.6,9.8
						C82.1,240.4,81.8,240.8,81.3,240.8C81.4,240.8,81.3,240.8,81.3,240.8z"/>
				</g>
				<g>
					<path class="st41" d="M82.7,294.6c-0.4,0-0.8-0.3-0.8-0.8l-0.1-4.7c0-0.4,0.3-0.8,0.8-0.8c0.5,0,0.8,0.3,0.8,0.8l0.1,4.7
						C83.5,294.3,83.2,294.6,82.7,294.6C82.7,294.6,82.7,294.6,82.7,294.6z"/>
				</g>
			</g>
			<g>
				<g>
					<path class="st41" d="M84.6,217.5c-0.3,0-0.6-0.2-0.7-0.5c-1.2-2.7-2-4.2-2-4.2c-0.2-0.4-0.1-0.9,0.3-1.1
						c0.4-0.2,0.9-0.1,1.1,0.3c0,0.1,0.8,1.5,2,4.3c0.2,0.4,0,0.9-0.4,1C84.8,217.4,84.7,217.5,84.6,217.5z"/>
				</g>
				<g>
					<path class="st41" d="M96,303.9C96,303.9,96,303.9,96,303.9c-0.4,0-0.8-0.3-0.8-0.8c0-2.2-0.1-4.7-0.2-7.3l0-1.5l1.6-0.1
						l-0.8,0l0.8,0l0,1.5c0.1,2.6,0.1,5,0.2,7.3C96.7,303.6,96.4,303.9,96,303.9z M94.9,286.3c-0.4,0-0.8-0.3-0.8-0.8
						c0-2.9-0.1-5.9-0.2-8.7c0-0.4,0.3-0.8,0.8-0.8c0.4,0,0.8,0.3,0.8,0.8c0.1,2.9,0.1,5.8,0.2,8.8
						C95.7,285.9,95.3,286.3,94.9,286.3C94.9,286.3,94.9,286.3,94.9,286.3z M94.4,268.8c-0.4,0-0.8-0.3-0.8-0.8
						c-0.1-3-0.3-6-0.4-8.7c0-0.4,0.3-0.8,0.7-0.8c0.4,0,0.8,0.3,0.8,0.7c0.2,2.8,0.3,5.7,0.4,8.8C95.2,268.4,94.9,268.8,94.4,268.8
						C94.4,268.8,94.4,268.8,94.4,268.8z M93.3,251.3c-0.4,0-0.7-0.3-0.8-0.7c-0.3-2.9-0.7-5.8-1.3-8.6c-0.1-0.4,0.2-0.8,0.6-0.9
						c0.4-0.1,0.8,0.2,0.9,0.6c0.5,2.9,0.9,5.8,1.3,8.7C94.1,250.9,93.8,251.2,93.3,251.3C93.3,251.3,93.3,251.3,93.3,251.3z
						 M90.2,234.1c-0.4,0-0.7-0.2-0.8-0.6c-0.7-2.8-1.5-5.6-2.4-8.4c-0.1-0.4,0.1-0.9,0.5-1c0.4-0.1,0.9,0.1,1,0.5
						c0.9,2.7,1.7,5.6,2.5,8.5c0.1,0.4-0.1,0.8-0.6,1C90.3,234.1,90.2,234.1,90.2,234.1z"/>
				</g>
				<g>
					<path class="st41" d="M96,317.7C96,317.7,95.9,317.7,96,317.7c-0.5,0-0.8-0.4-0.8-0.8c0,0,0-1.7,0.1-4.7c0-0.4,0.4-0.8,0.8-0.8
						c0,0,0,0,0,0c0.4,0,0.8,0.4,0.8,0.8c-0.1,3-0.1,4.7-0.1,4.7C96.7,317.3,96.4,317.7,96,317.7z"/>
				</g>
			</g>
			<g>
				<g>
					<path class="st41" d="M101.4,242.9c-0.3,0-0.6-0.2-0.8-0.6c-0.9-2.8-1.4-4.4-1.5-4.4c-0.2-0.4,0-0.9,0.5-1c0.4-0.2,0.9,0,1,0.5
						c0,0.1,0.6,1.6,1.5,4.5c0.1,0.4-0.1,0.9-0.5,1C101.6,242.9,101.5,242.9,101.4,242.9z"/>
				</g>
				<g>
					<path class="st41" d="M108.9,310.7c-0.4,0-0.8-0.3-0.8-0.8c0-2.4-0.1-5.3-0.2-8.5c0-0.4,0.3-0.8,0.8-0.8c0.5,0,0.8,0.3,0.8,0.8
						c0.1,3.3,0.1,6.1,0.2,8.6C109.7,310.3,109.4,310.7,108.9,310.7C108.9,310.7,108.9,310.7,108.9,310.7z M108.5,293.6
						c-0.4,0-0.8-0.3-0.8-0.8c-0.1-2-0.1-4-0.2-6.2c0-0.8-0.1-1.6-0.1-2.3c0-0.4,0.3-0.8,0.7-0.8c0.4,0,0.8,0.3,0.8,0.7
						c0,0.8,0.1,1.6,0.1,2.3c0.1,2.2,0.1,4.3,0.2,6.2C109.3,293.2,109,293.6,108.5,293.6C108.5,293.6,108.5,293.6,108.5,293.6z
						 M107.7,276.5c-0.4,0-0.7-0.3-0.8-0.7c-0.3-2.8-0.6-5.7-0.9-8.5c-0.1-0.4,0.2-0.8,0.7-0.9c0.4-0.1,0.8,0.2,0.9,0.7
						c0.4,2.8,0.7,5.7,0.9,8.5C108.5,276.1,108.2,276.4,107.7,276.5C107.7,276.5,107.7,276.5,107.7,276.5z M105.4,259.5
						c-0.4,0-0.7-0.3-0.8-0.6c-0.5-2.8-1.1-5.6-1.7-8.3c-0.1-0.4,0.2-0.8,0.6-0.9c0.4-0.1,0.8,0.2,0.9,0.6c0.6,2.7,1.2,5.6,1.7,8.4
						c0.1,0.4-0.2,0.8-0.6,0.9C105.5,259.5,105.4,259.5,105.4,259.5z"/>
				</g>
				<g>
					<path class="st41" d="M109,323.9C109,323.9,109,323.9,109,323.9c-0.5,0-0.8-0.4-0.8-0.8c0,0,0-1.4,0-4.7c0-0.4,0.3-0.8,0.8-0.8
						c0,0,0,0,0,0c0.4,0,0.8,0.3,0.8,0.8c0,3.3,0,4.7,0,4.7C109.8,323.6,109.4,323.9,109,323.9z"/>
				</g>
			</g>
		</g>
		<g class="st109">
			<g>
				<g>
					<path class="st41" d="M164.2,221.7c-0.1,0-0.2,0-0.3,0c-0.4-0.1-0.6-0.6-0.5-1c1-2.8,1.7-4.4,1.8-4.5c0.2-0.4,0.7-0.6,1-0.4
						c0.4,0.2,0.6,0.7,0.4,1c0,0-0.7,1.5-1.7,4.3C164.8,221.5,164.5,221.7,164.2,221.7z"/>
				</g>
				<g>
					<path class="st41" d="M158.7,280.1C158.7,280.1,158.7,280.1,158.7,280.1c-0.4,0-0.8-0.4-0.8-0.8c0.1-3,0.1-6.4,0.2-9.8
						c0-0.4,0.3-0.8,0.8-0.8c0.4,0,0.8,0.4,0.8,0.8c-0.1,3.5-0.1,6.8-0.2,9.8C159.5,279.8,159.1,280.1,158.7,280.1z M159,260.4
						C159,260.4,159,260.4,159,260.4c-0.4,0-0.8-0.4-0.8-0.8c0.1-3.3,0.1-6.6,0.2-9.8c0-0.4,0.4-0.8,0.8-0.8c0,0,0,0,0,0
						c0.4,0,0.8,0.4,0.8,0.8c-0.1,3.2-0.1,6.5-0.2,9.8C159.8,260.1,159.5,260.4,159,260.4z M159.9,240.8
						C159.8,240.8,159.8,240.8,159.9,240.8c-0.5-0.1-0.8-0.4-0.8-0.9c0.4-3.3,0.9-6.6,1.6-9.8c0.1-0.4,0.5-0.7,0.9-0.6
						c0.4,0.1,0.7,0.5,0.6,0.9c-0.7,3.1-1.2,6.4-1.6,9.6C160.6,240.5,160.2,240.8,159.9,240.8z"/>
				</g>
				<g>
					<path class="st41" d="M158.5,294.6C158.4,294.6,158.4,294.6,158.5,294.6c-0.4,0-0.8-0.4-0.8-0.8l0.1-4.7c0-0.4,0.4-0.8,0.8-0.8
						c0,0,0,0,0,0c0.4,0,0.8,0.4,0.8,0.8l-0.1,4.7C159.2,294.3,158.9,294.6,158.5,294.6z"/>
				</g>
			</g>
			<g>
				<g>
					<path class="st41" d="M156.5,217.5c-0.1,0-0.2,0-0.3-0.1c-0.4-0.2-0.6-0.6-0.4-1c1.2-2.8,2-4.3,2-4.3c0.2-0.4,0.7-0.5,1.1-0.3
						c0.4,0.2,0.5,0.7,0.3,1.1c0,0-0.8,1.5-2,4.2C157.1,217.3,156.8,217.5,156.5,217.5z"/>
				</g>
				<g>
					<path class="st41" d="M146.3,303.8c-0.4,0-0.8-0.3-0.8-0.8c0-2.2,0-4.7,0-7.3l0-1.5c0-0.4,0.4-0.8,0.8-0.8c0,0,0,0,0,0
						c0.4,0,0.8,0.3,0.8,0.8l0,1.5c0,2.6,0,5,0,7.3C147.1,303.4,146.7,303.8,146.3,303.8C146.3,303.8,146.3,303.8,146.3,303.8z
						 M146.3,286.3C146.3,286.3,146.3,286.3,146.3,286.3c-0.4,0-0.8-0.4-0.8-0.8c0-3,0.1-5.9,0.2-8.8c0-0.4,0.4-0.8,0.8-0.8
						c0.4,0,0.8,0.4,0.8,0.8c-0.1,2.9-0.1,5.8-0.2,8.7C147.1,285.9,146.7,286.3,146.3,286.3z M146.8,268.8
						C146.7,268.8,146.7,268.8,146.8,268.8c-0.5,0-0.8-0.4-0.8-0.8c0.1-3.1,0.3-6,0.4-8.8c0-0.4,0.4-0.8,0.8-0.7
						c0.4,0,0.8,0.4,0.7,0.8c-0.2,2.7-0.3,5.7-0.4,8.7C147.5,268.4,147.2,268.8,146.8,268.8z M147.9,251.3
						C147.9,251.3,147.9,251.3,147.9,251.3c-0.5-0.1-0.8-0.4-0.8-0.9c0.3-2.9,0.8-5.8,1.3-8.7c0.1-0.4,0.5-0.7,0.9-0.6
						c0.4,0.1,0.7,0.5,0.6,0.9c-0.5,2.8-0.9,5.7-1.3,8.6C148.6,251,148.3,251.3,147.9,251.3z M151,234.1c-0.1,0-0.1,0-0.2,0
						c-0.4-0.1-0.7-0.5-0.6-1c0.7-2.9,1.6-5.7,2.5-8.5c0.1-0.4,0.6-0.6,1-0.5c0.4,0.1,0.6,0.6,0.5,1c-0.9,2.7-1.7,5.5-2.4,8.4
						C151.7,233.8,151.4,234.1,151,234.1z"/>
				</g>
				<g>
					<path class="st41" d="M146.5,317.3c-0.4,0-0.8-0.3-0.8-0.8c0,0,0-1.7-0.1-4.7c0-0.4,0.3-0.8,0.8-0.8c0.4,0,0.8,0.3,0.8,0.8
						c0.1,3,0.1,4.7,0.1,4.7C147.3,316.9,146.9,317.3,146.5,317.3C146.5,317.3,146.5,317.3,146.5,317.3z"/>
				</g>
			</g>
			<g>
				<g>
					<path class="st41" d="M139.7,242.9c-0.1,0-0.2,0-0.2,0c-0.4-0.1-0.6-0.6-0.5-1c0.9-2.9,1.5-4.5,1.5-4.5c0.2-0.4,0.6-0.6,1-0.5
						c0.4,0.2,0.6,0.6,0.5,1c0,0-0.6,1.6-1.5,4.4C140.4,242.7,140.1,242.9,139.7,242.9z"/>
				</g>
				<g>
					<path class="st41" d="M132.2,310.7C132.2,310.7,132.2,310.7,132.2,310.7c-0.4,0-0.8-0.4-0.8-0.8c0-2.5,0.1-5.3,0.2-8.6
						c0-0.4,0.4-0.8,0.8-0.8c0.4,0,0.8,0.4,0.8,0.8c-0.1,3.3-0.1,6.1-0.2,8.5C133,310.3,132.7,310.7,132.2,310.7z M132.7,293.6
						C132.7,293.6,132.6,293.6,132.7,293.6c-0.5,0-0.8-0.4-0.8-0.8c0.1-2,0.1-4,0.2-6.2c0-0.8,0.1-1.6,0.1-2.3
						c0-0.4,0.4-0.8,0.8-0.7c0.4,0,0.8,0.4,0.7,0.8c0,0.8-0.1,1.5-0.1,2.3c-0.1,2.2-0.1,4.3-0.2,6.2
						C133.4,293.2,133.1,293.6,132.7,293.6z M133.5,276.5C133.5,276.5,133.5,276.5,133.5,276.5c-0.5,0-0.8-0.4-0.8-0.9
						c0.3-2.9,0.6-5.7,0.9-8.5c0.1-0.4,0.5-0.7,0.9-0.7c0.4,0.1,0.7,0.5,0.7,0.9c-0.4,2.8-0.7,5.6-0.9,8.5
						C134.3,276.2,133.9,276.5,133.5,276.5z M135.8,259.5c0,0-0.1,0-0.1,0c-0.4-0.1-0.7-0.5-0.6-0.9c0.5-2.9,1.1-5.7,1.7-8.4
						c0.1-0.4,0.5-0.7,0.9-0.6c0.4,0.1,0.7,0.5,0.6,0.9c-0.6,2.7-1.2,5.5-1.7,8.3C136.5,259.3,136.2,259.5,135.8,259.5z"/>
				</g>
				<g>
					<path class="st41" d="M132.2,323.9c-0.4,0-0.8-0.3-0.8-0.8c0-0.1,0-1.4,0-4.7c0-0.4,0.4-0.8,0.8-0.8c0,0,0,0,0,0
						c0.4,0,0.8,0.4,0.8,0.8c0,3.3,0,4.7,0,4.7C133,323.6,132.6,323.9,132.2,323.9C132.2,323.9,132.2,323.9,132.2,323.9z"/>
				</g>
			</g>
		</g>
	</g>
</g>
</svg>
